fecha_día,Audio,Caballeros,Celulares,Celulares (Samsung),Computo ,Computo pasillo,Cosméticos,Damas,Decoración,Dermatología ,Discos,Dulcería,Farmacia,Fotografía,Juguetes,Lentes,Libros,Novedades,Otros de farmacia,Pantallas,Parafarmacia,Pasillo juguetes,Pastelería,Perfumería,Regalos,Relojería_Joyería,Restaurante,Tabacos,Tarjetas,Videojuegos,Zona de exclusión
29-4-2020-Jueves,0,3,0,0,0,1,0,0,0,0,3,0,0,1,0,0,0,0,0,0,0,0,0,0,0,29,41,13,0,0,0
30-4-2020-Viernes,6,192,31,15,16,38,0,0,0,72,802,109,46,216,111,197,232,191,145,55,52,13,76,1,0,1851,2632,353,3,42,67
1-5-2020-Sábado,8,254,30,10,13,44,2,0,0,94,871,139,84,276,152,316,278,241,246,48,98,11,111,1,2,2114,2814,506,20,47,100
2-5-2020-Domingo,4,193,20,3,1,32,3,0,0,78,735,106,102,217,83,312,269,205,229,35,107,13,91,1,1,2318,2581,372,19,32,90
3-5-2020-Lunes,3,60,2,1,3,6,1,0,1,91,512,153,84,87,107,303,195,123,202,6,84,18,164,0,2,2233,2686,171,11,2,105
4-5-2020-Martes,1,52,11,0,1,0,4,5,10,69,451,102,83,111,76,215,130,89,190,2,38,16,128,0,1,2048,2554,137,9,5,85
5-5-2020-Miércoles,1,44,4,0,2,0,0,0,2,84,350,136,85,94,63,253,113,125,196,2,52,19,123,1,0,2347,2481,123,5,1,76
6-5-2020-Jueves,2,45,4,0,3,1,2,1,2,63,271,93,82,87,53,197,87,101,182,6,55,9,97,3,2,1729,2580,94,4,2,69
7-5-2020-Viernes,3,30,1,0,0,1,3,1,1,59,337,83,77,70,44,210,79,85,172,2,40,11,103,1,1,2056,2490,87,5,0,80
8-5-2020-Sábado,1,39,3,0,1,0,1,0,1,49,306,75,71,71,52,162,59,79,153,1,32,7,91,3,1,1990,2176,107,2,0,104
9-5-2020-Domingo,3,31,1,0,0,0,0,0,1,43,265,55,46,65,35,120,50,76,139,2,19,7,59,1,0,2094,2260,104,2,2,91
10-5-2020-Lunes,1,39,0,0,0,0,0,0,0,66,344,81,65,63,40,176,103,61,153,0,61,19,98,0,0,2111,2743,90,5,0,109
11-5-2020-Martes,2,49,8,2,1,0,0,0,2,76,334,98,79,74,68,234,104,55,183,5,63,8,140,1,2,2278,2536,87,7,4,128
12-5-2020-Miércoles,1,49,3,0,2,1,1,3,0,62,315,103,65,71,51,172,82,80,165,0,38,15,113,3,0,1821,2653,77,6,2,90
13-5-2020-Jueves,1,29,2,0,1,0,1,0,0,32,364,91,65,59,56,149,85,58,146,1,29,13,113,0,1,2015,2767,57,1,1,74
14-5-2020-Viernes,0,5,0,0,0,0,0,0,0,5,20,0,3,7,3,14,30,0,7,0,4,0,1,0,0,424,714,4,0,0,5
15-5-2020-Sábado,0,0,0,0,0,0,0,0,0,0,0,0,0,0,0,0,0,0,0,0,0,0,0,0,0,0,0,0,0,0,0
16-5-2020-Domingo,0,0,0,0,0,0,0,0,0,0,0,0,0,0,0,0,0,0,0,0,0,0,0,0,0,0,0,0,0,0,0
17-5-2020-Lunes,0,0,0,0,0,0,0,0,0,0,0,0,0,0,0,0,0,0,0,0,0,0,0,0,0,0,0,0,0,0,0
18-5-2020-Martes,0,0,0,0,0,0,0,0,0,0,0,0,0,0,0,0,0,0,0,0,0,0,0,0,0,0,0,0,0,0,0
19-5-2020-Miércoles,0,0,0,0,0,0,0,0,0,0,0,0,0,0,0,0,0,0,0,0,0,0,0,0,0,0,0,0,0,0,0
20-5-2020-Jueves,4,43,9,0,7,0,1,0,1,80,347,109,82,80,57,238,166,71,181,11,80,16,144,6,2,2650,2408,78,9,2,127
21-5-2020-Viernes,0,9,0,0,1,0,0,0,0,11,67,15,12,25,6,73,44,8,46,2,31,2,16,0,0,814,849,16,0,0,23
22-5-2020-Sábado,0,1,0,0,0,0,0,0,0,0,3,1,1,0,0,10,9,0,2,0,3,0,4,0,0,145,59,1,0,0,0
23-5-2020-Domingo,0,5,6,0,0,0,0,0,0,10,61,8,17,14,4,27,23,5,36,3,9,2,9,0,0,1048,486,16,2,2,7
24-5-2020-Lunes,2,77,16,0,2,2,0,1,0,114,445,124,113,104,89,305,172,103,250,10,113,19,152,1,1,3086,2977,121,18,9,105
25-5-2020-Martes,2,83,5,1,4,1,4,2,0,132,478,183,140,136,101,354,160,149,319,5,119,24,207,1,2,3174,2826,127,3,1,175
26-5-2020-Miércoles,5,147,26,2,3,5,7,2,0,118,531,218,87,132,137,311,201,203,223,9,133,29,235,3,2,2634,2489,315,18,5,188
27-5-2020-Jueves,2,47,9,0,0,1,0,0,1,69,501,120,77,99,62,315,131,76,211,6,107,18,137,0,0,2523,2530,96,4,3,100
28-5-2020-Viernes,1,32,1,0,1,0,2,0,1,76,511,141,90,89,98,240,111,62,217,2,80,16,147,0,0,1276,2792,81,5,0,90
29-5-2020-Sábado,1,35,2,0,0,1,1,0,0,54,382,80,82,89,59,256,90,52,190,3,83,8,98,0,0,1246,2566,66,2,3,55
30-5-2020-Domingo,0,39,1,1,1,1,0,0,0,69,348,72,72,76,38,239,91,46,184,1,96,13,103,1,0,1493,2579,73,1,1,41
31-5-2020-Lunes,2,67,3,1,2,1,0,0,0,127,641,147,121,104,82,484,238,86,306,2,199,26,165,1,0,3881,4041,96,12,1,177
1-6-2020-Martes,0,67,6,0,2,1,3,1,5,124,612,172,100,97,102,375,206,119,265,2,194,24,203,2,1,4086,4517,127,10,4,136
2-6-2020-Miércoles,8,65,3,0,4,0,2,0,2,137,511,112,117,101,75,398,206,77,293,7,138,22,160,1,7,4123,4273,87,8,3,134
3-6-2020-Jueves,7,59,8,2,4,2,1,0,1,118,589,133,108,112,92,393,209,93,262,11,133,25,197,1,1,4298,4380,107,16,6,141
4-6-2020-Viernes,3,75,7,3,3,2,1,0,2,135,453,138,81,95,78,374,226,109,244,7,147,27,201,1,1,2983,4326,125,18,1,153
5-6-2020-Sábado,0,54,2,0,2,0,1,0,1,93,449,112,76,85,50,320,201,71,222,1,104,17,139,0,1,1841,3844,68,21,1,127
6-6-2020-Domingo,4,37,6,4,4,2,0,0,4,80,391,83,73,65,45,337,179,42,191,2,112,12,109,2,3,1911,3626,54,3,0,67
7-6-2020-Lunes,2,61,7,2,3,6,1,0,0,102,636,208,122,103,131,349,192,117,281,7,104,24,200,0,1,2164,4442,141,8,7,120
8-6-2020-Martes,3,72,5,0,0,1,0,0,0,104,525,195,114,100,158,391,203,140,226,2,105,15,200,0,0,2218,4409,176,3,2,134
9-6-2020-Miércoles,1,82,4,0,4,0,0,0,1,101,577,140,112,118,68,350,209,88,253,2,135,16,141,1,0,2263,4331,136,16,1,167
10-6-2020-Jueves,3,52,2,1,3,1,1,1,2,87,606,151,93,92,106,447,259,68,235,2,147,18,177,3,2,1919,4457,99,18,0,183
11-6-2020-Viernes,9,94,9,4,10,4,0,1,2,100,587,135,123,152,115,420,301,110,275,1,156,10,150,0,7,1776,4381,160,12,1,218
12-6-2020-Sábado,0,66,3,2,0,0,1,0,0,86,442,111,101,122,74,443,271,81,254,4,138,14,125,0,0,1916,4102,111,15,2,154
13-6-2020-Domingo,2,50,3,0,2,1,4,2,0,77,333,69,76,97,40,339,234,58,179,1,134,13,96,3,0,1974,4628,90,2,2,130
14-6-2020-Lunes,4,91,3,2,5,2,0,0,0,106,500,127,103,141,85,404,228,87,238,3,134,22,156,1,1,2222,4579,117,8,6,115
15-6-2020-Martes,2,43,3,3,2,2,2,0,1,61,560,112,98,124,70,349,199,71,242,8,113,15,160,2,2,2423,4746,104,3,0,123
16-6-2020-Miércoles,1,62,5,2,3,1,2,0,1,81,505,128,83,120,77,341,172,63,202,7,100,13,172,1,0,2213,4569,78,1,2,162
17-6-2020-Jueves,0,72,2,1,1,1,1,1,0,75,362,68,67,98,48,220,110,65,190,0,50,5,92,1,0,1467,3125,102,8,1,121
18-6-2020-Viernes,4,123,2,0,1,2,0,0,1,131,620,116,118,153,77,313,130,81,271,1,80,13,121,1,1,2258,4565,141,2,0,150
19-6-2020-Sábado,1,103,2,0,5,2,2,0,1,97,537,82,101,162,71,328,137,66,283,2,87,7,94,0,1,2450,4093,159,6,1,105
20-6-2020-Domingo,0,83,2,1,3,1,0,0,0,107,479,91,90,125,52,338,153,65,269,3,83,16,88,0,1,2279,4062,126,0,2,77
21-6-2020-Lunes,1,134,25,1,2,1,2,0,1,108,583,145,136,176,105,352,192,139,325,16,103,15,150,0,0,2156,4465,237,4,14,142
22-6-2020-Martes,11,105,13,2,9,4,0,1,0,119,488,169,113,147,97,327,227,129,280,9,104,36,194,3,2,1855,3733,158,11,12,185
23-6-2020-Miércoles,5,119,3,1,6,6,1,0,0,90,503,135,148,154,105,368,167,115,276,3,102,31,167,3,1,1668,3804,159,3,4,142
24-6-2020-Jueves,6,97,7,0,2,4,0,0,0,95,608,132,156,160,104,343,158,96,291,5,92,19,161,0,1,1623,3920,134,5,2,125
25-6-2020-Viernes,0,57,8,0,1,0,0,0,1,76,584,105,123,127,90,318,151,68,241,3,87,11,142,0,0,1831,3888,135,7,1,153
26-6-2020-Sábado,3,51,4,0,4,2,1,1,0,83,474,129,102,116,95,325,186,78,231,6,97,18,129,3,2,1572,3287,106,6,2,145
27-6-2020-Domingo,0,37,1,0,0,0,0,0,1,55,485,53,80,107,43,293,167,48,169,4,79,6,77,0,0,1382,3206,120,6,1,97
28-6-2020-Lunes,4,47,8,0,3,0,1,1,0,87,747,164,125,113,103,381,180,92,270,2,110,21,179,1,3,2392,4114,135,3,0,156
