,client_mac,first_name,last_name,gender,date_of_birth,location,email,mobile,source,facebook_id,twitter_id,instagram_id,linkedin_id,oneclick_id,client_mac10,Relojería / Joyería,Restaurante,Lentes,Discos,Zona de exclusión,Libros,Otros de farmacia,Pastelería,Dulcería,Tabacos,Dermatología ,Parafarmacia,Novedades,Fotografía,Caballeros,Juguetes,Farmacia,Tarjetas,Celulares,Pantallas,Pasillo juguetes,Computo ,age
164,1CB7963CAA86,Karen,Quiroz,F,1993-05-21,Ciudad de México,lucesita_2105@hotmail.com,None,Facebook,1.022111261495578e+16,0.0,0.0,0.0,0.0,B7963CAA86,10691.350110531655,175.82500950093734,125.86880358551707,432.18051405213583,437.1767218640066,1.3897719934716488,120.70544084282898,90.59010450625273,24.625007609756217,62.416069879865205,47.34306518903307,90.86043068282378,61.862596084739685,65.75293594669269,57.57586565857714,44.159879006194316,25.04241776509684,0.47825555694197636,0.9181974632865567,1.5087711231583982,1.4373762675709472,0.9326548894623045,28
172,20326CCD069A,None,None,F,2006-01-25,None,elizabethfragosomagdaleno@mail.com,None,Form,0.0,0.0,0.0,0.0,0.0,326CCD069A,14660.967009383443,4110.634191823656,196.84524416210942,1055.617925176917,445.0365817284738,166.86830792621836,163.88816689592178,242.37239547446487,104.06342151564684,23.051946851075215,152.16739438191823,38.86938450119495,47.06722743350694,129.6959736890849,105.85862769517011,76.37572030363677,31.574427031890757,1.6833418363630865,2.6294314170262583,1.7320251758176766,1.8866127646250956,0.11464283183626818,15
205,24DA339C1527,Cesar,Eduardo,M,1997-03-22,"Akishima-shi, Tokyo, Japan",camacho00@live.com,5542844555,Facebook,2397824243604638.0,0.0,0.0,0.0,0.0,DA339C1527,3272.9546402069973,2062.792514475801,54.96488198442941,61.73682845074649,175.4103634813592,152.4345538580679,22.11871972374738,122.8790794908,41.2619307041332,47.794601860476504,19.64835459180923,20.05928339663368,28.60617721602881,26.513643460603358,31.06706121480949,26.05556881193702,0.8575062327277183,0.5343110739029365,0.20890526895019113,0.07910118750357896,0.8387457582954362,0.18322755024105683,24
207,24DF6A139788,None,None,M,1989-11-28,None,tetotaty211016@gmail.com,None,Form,0.0,0.0,0.0,0.0,0.0,DF6A139788,17109.059999967132,9670.206119460941,481.5215076943642,172.79298431385678,561.9796903341523,443.5866317122177,399.6042957170939,46.82440141501904,59.111260080988096,289.55441909189256,15.390816326998229,171.2593694464234,123.43480607446295,79.31878149408375,30.59196555433327,101.45725690457202,28.6816205583966,1.6360787852587841,2.1993848126716435,0.058024878352370954,1.5213815895081098,2.2092037872802126,31
237,30074D3CFB10,None,None,M,1988-10-21,None,enriqueolguin.27@gmail.com,None,Form,0.0,0.0,0.0,0.0,0.0,074D3CFB10,8106.331085472963,5284.087305975065,645.7238725796137,458.29584809888473,118.12116383614611,92.51509951138519,9.216049522658865,112.61223737429114,27.465994877613454,71.28678561249903,23.750915679899347,41.51023093101933,17.72136023894222,40.708762265573455,57.57491055927213,4.854955981458888,23.806194178759498,3.5052253357502288,1.4990852638843053,3.060794125191081,0.32376065150114225,0.028361927630554375,32
269,30A2C28E15D4,Jose Luis,Flores Gonzales,M,1975-02-05,Ciudad de México,jluis35@ovi.com,None,Facebook,3001890793261096.0,0.0,0.0,0.0,0.0,A2C28E15D4,513.8085642174757,639.8129883948183,50.03564801724424,129.35878671091845,62.953913668797085,21.679003049386022,33.61017622071685,26.436324448237524,19.15245751084921,25.516285173670248,8.438238206537616,23.175700291678428,15.241302550381402,13.186070466076538,6.873404581334154,9.416945198783528,1.0904276401172206,0.3625256207750665,0.26638361612989647,0.04241761862448175,0.2605820430352787,0.281854754412269,46
314,3C20F6A99E21,Jose Mael,Soria,M,1995-04-11,Nueva York,k.jose-mael95@outlook.com,5564643592,Facebook,139516570661794.0,0.0,0.0,0.0,0.0,20F6A99E21,1399.6396592899664,85.35028377110207,11.344070843284294,110.29718169566817,4.558841915029923,14.452868704387058,26.48942949257845,6.118098289471199,27.381824597398076,6.440522029533623,0.9581671774464549,25.394104955707174,15.656380952347964,1.3860533567302236,4.098232017204805,10.210470907632304,1.0179334185586026,0.24857754244284344,0.2599265867055605,0.28210086686928854,0.14583896739635435,0.2694326225385942,26
326,3CCD5D3530A4,Chaowen,Jiang,F,1986-12-23,"Mexico City, Mexico",elysia.jcw@gmail.com,None,Facebook,1.021815423974412e+16,0.0,0.0,0.0,0.0,CD5D3530A4,551.2275452845898,492.3750743222348,52.248001519088525,12.465533656079062,53.26909006364098,32.29097287695786,3.6273625789889543,7.987978108771344,3.1004461263752714,3.7849655020496327,4.754312731207732,9.357946629984653,6.90035832659814,10.073522138469174,1.99693141396681,2.76968520375391,0.2695330663243025,0.24227510826769239,0.33283007385629143,0.42332297212728903,0.2250345302526116,0.27727776641502455,34
331,403F8C25E817,None,None,M,1995-07-03,None,luisgerardo.hdz@hotmail.com,None,Form,0.0,0.0,0.0,0.0,0.0,3F8C25E817,16788.794835634457,9835.190731366174,1195.070306873554,391.964350408131,412.14928533149777,400.9307155903407,224.54844186509834,392.26929989666115,434.2915394375574,106.74194885891794,175.69209560266026,114.31291548689654,98.25887080488194,23.105190085291547,98.10474028574916,110.41974144852583,33.83284531324982,6.7677836159588125,4.083459421160403,2.515521583996445,0.06838114023041594,1.886999949003935,25
332,403F8C27B0AB,Rafael,Ponce,M,1983-12-09,None,rafaelpptrabajo@gmail.com,None,Facebook,1171326566649908.0,0.0,0.0,0.0,0.0,3F8C27B0AB,388.3709550323231,129.4335449577691,52.797846869527376,8.204618585790001,47.90297086757781,2.5247459195620365,8.612217444419588,3.4132706994885176,13.155694273319876,3.631142656830506,4.376220457208847,2.5766268264264487,3.802262065379466,2.262758899185241,3.9769955457921164,4.869404000049464,1.4941780114996317,0.15351364850794547,0.23745101806096086,0.07221048375510028,0.11552510752236367,0.01584663000443324,37
334,403F8C3C3B21,Alejandro,Risso Yañez,M,1979-12-23,Ciudad de México,alexjandro25@hotmail.com,None,Facebook,1.0158074971617652e+16,0.0,0.0,0.0,0.0,3F8C3C3B21,898.1239776627527,1693.9164630195787,227.3979405496979,195.97476699806992,124.26914570236121,99.0376430271451,33.760935698639194,22.375603023525322,42.539823914502406,54.72363718416991,22.034630719549895,0.3533044294749884,28.516695581746276,22.61052546946432,20.540301051151136,15.962981368018756,1.5852454852628044,0.1315172876592407,0.8724667622071529,0.11764745983135717,0.7051724615895341,0.44957514360219586,41
350,444ADB371196,None,None,M,2002-01-12,None,martinezob@asf.edu.mx,None,Form,0.0,0.0,0.0,0.0,0.0,4ADB371196,2804.150382537319,1137.9407451588597,140.31158117919273,207.01929920973262,239.60264471769108,62.134894462568475,103.21173085443426,112.62783087102089,80.22097267536431,62.50550589469454,64.4881336931464,10.900381931325462,41.70157096993283,12.038466244811598,18.50604234804761,18.929649691307525,1.1295150071348719,1.0622721036260157,0.996271983946949,0.4262994024174823,0.3847721117565941,0.7110369516691937,19
352,446EE5D63E56,None,None,M,1986-03-07,None,gonzalezmario924@gmail.com,None,Form,0.0,0.0,0.0,0.0,0.0,6EE5D63E56,692.1775202197958,828.4281906007704,52.43033528058514,62.97032271086906,62.43475753114307,48.78477968860937,6.66414309554327,17.28466225236037,16.813135413053487,15.39417681214781,12.523176589349418,10.54994597642655,0.024295721262694213,4.7428130730800975,12.268185100774337,4.6264389960592425,0.014840580444999396,0.7008666455867817,0.4638571768237907,0.13817912059475645,0.20069740217777857,0.36468001254192994,35
373,4888CA2CCF4F,Miguel,Nava,M,1965-09-16,None,mikinava1234@mail.com,None,Facebook,457885718476096.0,0.0,0.0,0.0,0.0,88CA2CCF4F,491.89117824650515,10664.950799883936,52.40439366992222,126.63933629065518,205.46364258668433,79.1506625192226,196.16269143873683,21.91641486613157,96.63426030492253,85.66439410852793,5.982052130941014,122.14755027972274,18.945432210953147,75.76119193182406,0.6277615741031373,43.60058111741177,12.100373907496524,2.19060351894792,2.6802242185755114,1.0882820086836795,2.2700912936117086,1.7280818924855064,55
380,48C7965AB60F,None,None,F,2006-02-08,None,xuany83fogoneras@gmail.com,None,Form,0.0,0.0,0.0,0.0,0.0,C7965AB60F,8992.975951426019,8622.218692811883,849.4348808399552,833.1546060179114,206.06887769084125,41.18644362969203,359.6601784459994,319.1237721067975,98.6197709005277,203.9133724124476,199.404585085313,21.431610832527557,143.89547971972732,125.68292785922547,3.7042763623634927,58.88485800821087,30.769914154948342,4.232348648855549,4.793074584734993,1.1628981842087764,0.5677734359562213,1.1137068418541944,15
428,5427585581C4,None,None,M,1980-12-31,None,aybplazacarso@sanborns.net,None,Form,0.0,0.0,0.0,0.0,0.0,27585581C4,17603.28657095004,4509.80917830529,1223.3244290750497,463.12051286914226,240.50877948670833,499.52882668267904,71.41536100971165,399.78122053467166,214.4163171049732,45.30489099344116,183.42589132038586,66.66835425325169,45.91465437328517,1.6232003864015632,38.480038053492805,99.1752985956634,26.23130251960443,0.5817533676421033,0.35892094433547,2.3709673543129823,2.381454000461195,2.2920778194473206,40
432,549963F35917,None,None,M,1980-12-31,None,rodri041082@outlook.com,None,Form,0.0,0.0,0.0,0.0,0.0,9963F35917,898.7083292146225,689.559117088178,119.42442500583154,110.19238935920679,83.20925719790536,20.473245530252115,9.183692961662064,5.124031796941452,23.78836031579061,34.11917384878797,30.0864779402049,11.339144379632303,0.31997357254135034,10.380507124566057,0.7552198850921169,0.09036522459774347,4.883106162482833,0.30385511833116424,0.5053570775703994,0.5609822531170419,0.582864762452167,0.41012418023315766,40
443,587F57F2418B,Sheila,Ram,M,2001-11-02,Bogotá,montoyaariel@gmail.com,5547834492,Facebook,936562233349723.0,0.0,0.0,0.0,0.0,7F57F2418B,297.2213958804782,26604.917211140993,853.249608587922,1348.0048769147259,713.599189485448,420.1399567623263,335.23275877070745,20.92832711025179,276.3171410460492,219.54864724379138,101.57264642348618,184.51773442266403,195.7805687300643,185.1450216247845,20.910507832202303,28.440093648072427,9.46340455155713,8.665712658536275,1.3986346964988692,1.6065475979496355,5.563523603440863,0.7764912680560486,19
449,58D9C364ED52,None,None,M,1992-05-08,None,10392oscar@gmail.com,None,Form,0.0,0.0,0.0,0.0,0.0,D9C364ED52,1800.6326748516913,1912.9616145663126,32.05119907457668,178.36912002726606,10.158431137563099,66.93985289539924,37.9540046964876,88.19867613513455,7.472013577389674,13.03168854302643,20.494400962168164,14.682717951288907,11.330130869552788,3.1627190504784806,2.9747544102183356,19.356394547602566,8.800181780096231,0.9387466833965055,1.3282179107605525,0.6628079831543814,0.4543114322257737,0.045340914209059946,29
451,58D9C3B995AE,Xöch,Rodriguez,F,1996-04-05,Guadalajara (México),love_thara@hotmail.com,None,Facebook,1418330088335807.0,0.0,0.0,0.0,0.0,D9C3B995AE,2173.7175644534514,19746.203524110897,1225.6458971671782,326.6904942050788,774.219084081443,146.7846877243805,371.3859725649102,34.76203449901191,297.3721660524946,31.64012943358572,208.89135080408465,54.97501886295337,131.50217447417347,19.29463636546459,39.60562050565003,52.227027915486275,39.05982239946487,4.077252573591032,4.233270162780814,1.5352700057627464,0.05648414060571083,3.120517497557051,25
475,601466893202,None,None,M,1987-09-01,None,dj_leon097@hotmail.com,None,Form,0.0,0.0,0.0,0.0,0.0,1466893202,2024.3365007385373,2489.9533205744947,67.40861277939153,25.09500955062624,242.38344023687873,122.24232006828996,118.10840671093437,106.679633147541,74.62507608703051,1.0772288485370196,56.3315141818457,32.1549840011012,10.486456256239004,19.612136386065398,25.800273161966086,8.778147751034666,9.64073459891745,0.706899636309897,1.2435775891603642,0.06404576603905561,1.1549145872221522,0.11676734183506922,33
479,601466C6EB55,Jose,Jr,None,2000-03-04,"Mexico City, Mexico",cirilo-alvarez.34@outlook.es,None,Facebook,2163068353965680.0,0.0,0.0,0.0,0.0,1466C6EB55,3159.102585910142,11223.20419117955,1041.4530397542012,469.43804775523296,544.5517687109042,182.56278070453658,267.4498759875957,11.53084421453257,76.85518226341476,45.50116369689867,57.16197508239459,68.87922347177823,117.50821461240692,44.93102540001621,25.98906964034209,76.47509316179945,32.95970848752788,3.908113709242434,0.9444454098652331,3.7962387681627856,1.1557551884506865,2.6416568910034752,21
481,6014B3BB15B1,None,None,None,1994-07-26,None,dj_leon@hotmail.com,5560630791,Form,0.0,0.0,0.0,0.0,0.0,14B3BB15B1,2652.9800963604607,2806.971124135137,346.69623189365103,37.46296273770656,336.34539817303664,42.54530005699619,118.46905966266712,29.505675590684938,52.288664130938145,17.345389635329706,82.87678178702073,47.60078749392722,59.11611326451428,15.555852158058523,38.113644918629035,11.026902607396352,3.3048794127439094,0.6485116661599116,0.02353283561921705,1.122283866965503,1.6926123599508607,0.3081952524081737,26
484,601D917769B2,None,None,M,1975-05-29,None,eortizecor@gmail.com,None,Form,0.0,0.0,0.0,0.0,0.0,1D917769B2,294.4566279842569,754.6310114786343,116.76244976162938,16.502558351402563,18.043149923690176,1.0056757356073394,10.466406202715026,15.949239152513142,14.092398018011897,1.3570346874183374,12.574528234712023,13.495058694045877,13.559154750086337,8.407393842403984,3.8729666632868662,7.712807957693352,1.6250493356341764,0.44964813890760286,0.23932349316831264,0.2264485762270637,0.4124888594669865,0.15858015848845866,46
485,601D91776D6F,None,None,M,1965-05-25,None,zamoram@sanborns.com.mx,None,Form,0.0,0.0,0.0,0.0,0.0,1D91776D6F,162.28560716541352,1607.912472049094,12.83209848701053,109.17423610718036,7.167756414254652,27.482853488032024,19.04628308490044,6.762913099271398,15.343877264197797,29.319192951306267,22.311009746235076,13.071768301339832,6.731841115987296,17.553910847980102,8.024718567539718,3.6094843075951912,2.9118990644390594,0.19899190614155002,0.2741894543848497,0.4519721455317316,0.3854411400859792,0.14748329207734343,56
488,88B4A64F5994,None,None,M,1997-12-04,None,os526488@gmail.com,None,Form,0.0,0.0,0.0,0.0,0.0,B4A64F5994,5193.232005559979,1812.2165814033706,32.25891829217835,33.087249184555006,76.6165012497018,6.050913722120079,89.61964234920045,141.53344995546937,34.1588793150654,79.82591041078103,97.50059664864908,55.67644830149346,7.950639030201974,21.043165156770193,4.404958019425073,37.179255382666845,1.6006615249279699,0.695392963034866,0.01486148493075618,1.318688911433941,0.6425019902300717,0.37277914381539784,23
500,8C4500B1634B,None,None,F,2006-01-10,None,eli-elimgg@hotmail.com,None,Form,0.0,0.0,0.0,0.0,0.0,4500B1634B,156.95875858828956,2144.848556876766,167.89388932746792,196.62761180728154,72.51950179633988,18.457872775463084,61.47911358389958,47.242832735482,66.51867724857354,7.259136259575348,15.475914815727943,28.72351803331595,26.647526157002293,17.738335169512933,7.002056168463175,0.3941033517105356,4.28066992456709,0.5309339649309618,0.5590420573461911,0.8082463729238059,0.4256661418209807,0.608036843539548,15
510,8C99E65ABB9B,None,None,M,2002-01-07,None,leomtzgtz.123@gmail.com,None,Form,0.0,0.0,0.0,0.0,0.0,99E65ABB9B,5276.094162463885,12467.527937376746,19.509321349745417,677.545701514437,807.5186888954557,231.5669025749447,134.6763781923534,100.40276715229972,26.880136250510528,2.343299960358169,53.55874438188955,163.7624774570048,62.89250879013609,2.630673495921259,50.27372338623952,49.214539112742706,25.85882825007189,1.1967476674506763,2.613513486536509,4.488055201111909,3.6431308843461863,1.8017621558119234,19
519,8CF11200AA14,Javier,Perez,M,1995-07-19,None,javierpcruz62@gmail.com,None,Facebook,126610222389211.0,0.0,0.0,0.0,0.0,F11200AA14,1513.363377495089,11533.78451348632,41.05220099341915,557.6554766331615,41.676872316564726,8.816483613914803,274.00643166214104,86.32067480285448,194.1955334059403,149.08664214900196,106.82501981321036,21.71396194383139,103.64201725814065,16.712116102146116,66.82403072976766,40.37901674523493,26.88626149463055,2.494137349162809,3.264854495937348,1.954782327797266,1.6098135573189574,0.7357816244168871,25
520,8CF11256F6D8,Rafel,Ponce,M,1978-12-11,None,rafa_sanborns@hotmail.com,None,Facebook,1716195768531936.0,0.0,0.0,0.0,0.0,F11256F6D8,9501.947371585102,15358.629012640564,1071.8171163715563,1086.933545712592,413.6112080352738,226.23774016989555,367.46730322111006,9.833547653994728,134.47430118381456,4.723649126631679,54.84905530724553,175.26057547175122,4.384757558083781,42.11281413923965,32.26586374033175,15.696552054264172,4.174851475760152,4.87939732484682,4.450289214180503,2.2499502966954394,2.967263676407134,4.033834040664685,42
533,90633B7D2B9B,Chioma,Ikpide,F,1998-10-21,Ciudad de México,churu_joviet@hotmail.com,None,Facebook,2790314347713430.0,0.0,0.0,0.0,0.0,633B7D2B9B,4029.156451025299,10229.356332724446,831.3526519042865,473.91707652733203,187.0484615856828,142.04138319169815,216.4181539404542,242.99080558861408,242.64107667104105,2.069255526462774,63.85776934045212,153.6541389112185,85.82753967391702,1.990349219318971,36.242181847693644,69.59061818786755,37.09714332176598,4.308381069992428,0.1538132553378453,0.16612930425438474,3.3328011007484446,2.787486082109977,22
548,909497EECDDF,J,PG,None,1987-09-14,Ciudad de México,giakomo_tj187@hotmail.com,None,Facebook,2552619638129250.0,0.0,0.0,0.0,0.0,9497EECDDF,4779.953293488943,3560.043027042341,340.00400697643124,215.35213329319762,399.17239087231246,10.329549334327442,187.43368010165517,202.41755276418783,75.69388738803745,64.99394546689236,54.890482901182864,28.338329175885498,28.145019383951812,18.399000324425757,55.43670761785372,35.9287847418002,10.394554232089963,1.488810582604739,2.6521221910296955,0.6811016515306418,0.2536614097599049,0.9979590595588437,33
567,94DBC9B0B1FE,None,None,M,1997-12-31,None,juancarlosmendezramirez_@hotmail.com,None,Form,0.0,0.0,0.0,0.0,0.0,DBC9B0B1FE,10735.226136715042,925.9996262099727,168.6866639327535,159.82021705399455,135.1548987872127,161.02249350731051,150.12567472005586,211.56357241606545,137.05144868688086,114.40173662448942,54.14505669473629,91.06012112008601,73.52561229070965,85.27818640015722,24.970620076514084,54.40349280335677,1.2958502857734278,1.6332587168042658,0.4583956502639473,2.127273599969186,1.498108174686889,0.5515555331656492,23
587,9C5CF9EA7856,Yair,Yépez,M,1979-05-28,"Atlanta, Georgia",yair.yepez@yahoo.com,None,Facebook,2512940768734401.0,0.0,0.0,0.0,0.0,5CF9EA7856,130.10557070430767,743.3876330834073,97.39102890797967,14.275386865731583,62.150562963834155,38.8130950733932,2.6575041110625697,18.868759285810548,26.13380609992688,0.9459004177427193,17.060908411006594,4.994578226843022,1.4586168193618703,9.128083641126004,0.8756991142479785,4.393907695853468,0.6440513201751519,0.36980114025588057,0.44486934562594904,0.41826393472230394,0.18299334979290363,0.29897948779262506,42
588,9CAD97B2923F,None,None,M,2006-01-25,None,vallealfonso77@gmail.com,None,Form,0.0,0.0,0.0,0.0,0.0,AD97B2923F,11706.227464465512,10969.557908001016,879.4921224877004,710.7812956909241,447.5794738493535,190.12305660383606,6.846112638086582,253.77055446237188,151.38227248472066,233.99196441377467,168.1150962123894,207.8713796657807,103.1242947270059,11.573621345134583,17.18641922774768,24.47100584683557,22.615908504805645,5.128623413104433,4.059148372138521,3.5735210626083336,1.900270578051886,1.6284859470978748,15
592,A041477C8D21,Alberto,Ojeda,M,1977-09-09,None,alberto770909@hotmail.com,None,Facebook,1.0217640772305374e+16,0.0,0.0,0.0,0.0,41477C8D21,242.58524485735953,164.3850052090721,62.20455962176951,60.18897215977896,12.14872307952487,20.81467460746588,0.006017449541583409,2.4781366096392685,16.596047130133744,10.43800177911977,12.712566886369078,2.1235611911194847,6.591997506541019,1.2867882486259152,0.5085353620440358,1.5111373913083785,2.6374432507101457,0.09017960679336726,0.17579362542884108,0.20824364352604247,0.18311690457586877,0.12525387955268646,43
605,A46CF1F5F3C4,Ofertas,Merida,M,1987-12-18,Mérida,davidtuyub@hotmail.es,None,Facebook,1268509376643291.0,0.0,0.0,0.0,0.0,6CF1F5F3C4,2067.6927798323027,515.6648349272598,237.5907228222449,111.41547380757243,119.85194238441288,84.61881088607552,34.936571706669504,45.060236768698736,4.549587994833367,30.90516570927299,12.26392437101299,14.907061420637433,23.207282190770666,20.639520866909834,13.513438016480512,17.61387815592089,0.3008623385848393,0.6939390046915905,0.29651417962351034,0.9031718842502323,0.22697267994829134,0.1473080518264747,33
614,A49B4FDBA554,None,None,F,1993-12-29,None,fabiolacrusool@gmail.com,None,Form,0.0,0.0,0.0,0.0,0.0,9B4FDBA554,801.5221673308178,263.6090073568907,98.43432920333763,27.000102214380277,13.861905038887071,15.761800448058848,37.54984341800977,29.237084694754905,31.865985818316684,8.60238051520527,22.34290697720589,19.616745869820637,13.942681665128239,5.961108641204516,9.28594366391849,4.012029345368843,3.972000083068922,0.37817403417641526,0.5373232765587579,0.15364082246212563,0.19259586184108998,0.1602437205869239,27
619,A4D931BE77AA,None,None,F,1994-10-01,None,hellofridis@hotmail.com,None,Form,0.0,0.0,0.0,0.0,0.0,D931BE77AA,2039.3604241912305,1109.8552297791853,6.059600545925855,226.45469892588204,130.31919497454197,62.32790390178542,24.955620086517563,20.81202196680452,66.03643644889847,40.02731355059773,32.81214995753992,24.704407899148347,25.54783653748519,3.3633628143754635,19.216973608553722,1.0044082894334156,5.951750707238736,0.5450614383567814,0.7460186508443666,0.7322268726045693,0.9104565812706313,0.2569022717789628,26
627,A8346A95AD46,Evert,Arellano,F,1946-04-25,None,valcampa@hotmail.com,5532336514,Form,0.0,0.0,0.0,0.0,0.0,346A95AD46,455.31728847838167,44.10431398308017,61.348378554739746,26.646287471606552,0.31340111416353095,12.909760724812353,3.3905349362062687,19.579556564542784,0.030375019643257502,10.590194367663898,3.2597009358160016,4.541060477853795,2.592626831217432,1.6874382208765473,0.5613381237046623,4.240526642478997,0.7739302024517667,0.3731178175250665,0.27885542654466927,0.21537945444430154,0.06722372158396596,0.17871093066261157,75
634,A8515BA400D7,Luis,Hernandez Lsa,None,1989-01-12,None,onetsanchez@gmail.com,None,Facebook,2253542058295761.0,0.0,0.0,0.0,0.0,515BA400D7,1862.3278985919394,10520.88926606996,872.9262427682695,656.4633600313866,78.20559904811775,221.11614426449103,199.56967953727082,169.29305152693684,159.15177414306518,121.64490997292799,76.34586087128619,26.118884737391173,49.43875403635195,85.63887660642025,42.00061707644216,0.25201951000861716,21.377980289404412,2.545665843614656,0.7005866529061296,0.34516729018762843,1.4623856209330965,0.18527551069017434,32
635,A8515BA42BDB,None,None,M,1984-04-18,None,solecito_cyr@hotmail.com,None,Form,0.0,0.0,0.0,0.0,0.0,515BA42BDB,1587.8970400057633,796.690992852632,180.5463659424826,209.83897961222922,93.67306884385368,3.8245539424422614,31.34447575182415,21.827937887238054,15.863216507424495,0.3485844704633742,15.304687550845404,23.033778165082317,26.98971046181958,11.739372823071717,1.1037647556667547,11.528877551738704,2.0692508808073504,0.5256552928254082,0.17821118819582546,0.15269119648435237,0.8322632407757482,0.686521076334407,37
640,A86DAA08CE4C,None,None,F,1994-02-11,None,mapicasco@gmail.com,None,Form,0.0,0.0,0.0,0.0,0.0,6DAA08CE4C,2123.814776791916,12535.591740249301,949.8204430799285,11.75745841212286,320.64102217763497,349.5076001504753,174.93584325026217,38.92561299793583,9.363542762782394,128.88710597292763,156.2988832939652,92.5312158805394,88.23359990392065,104.7365264982968,37.11468143670422,53.47612890078401,40.32544036477968,4.92017124687529,4.336813871264898,1.8207600759767246,1.9518972952311129,1.0087353863756692,27
641,A87D1258AC5D,Ever,Espindola,None,1988-01-16,"Mexico City, Mexico",dharius-diablo@hotmail.com,5543311254,Facebook,1.0216807597156216e+16,0.0,0.0,0.0,0.0,7D1258AC5D,203.03706548269207,559.744531063202,27.18154662114382,52.59623834559679,56.46453641788543,7.084368197103411,2.35556273872329,30.539872127390915,8.957045889243114,10.452090902557051,7.705275268717295,13.839466743287275,1.8607711717843423,8.105458740754514,7.727761211569062,4.715177658339807,2.8832721495550366,0.08299734350617613,0.24653334245036107,0.15841356677380788,0.2467398499836323,0.015275167740854592,33
648,A896750953CB,None,None,M,2006-01-25,None,moises.chepi@gmail.com,None,Form,0.0,0.0,0.0,0.0,0.0,96750953CB,1067.74642003582,615.7682557540415,88.0667011254984,51.178777493630406,69.82534615624,61.29137935346176,49.869023570965645,34.12001304540304,37.23114053622312,18.897276413970264,0.7403843341610559,29.561508365412084,1.6515130145467252,1.899849874509123,12.532380101683929,8.023595172881292,2.3486359245963513,0.39492205040585304,0.44304081107037196,0.48338246705312843,0.5231052819618948,0.4033491164630523,15
649,A8967524C395,Guadalupe, BenÃ­tez,M,1888-11-12,None,elsa1211.ian@gmail.com,5569713363,Form,0.0,0.0,0.0,0.0,0.0,967524C395,2723.9640554630682,2885.9186681964557,116.9016702419304,148.62226043416428,101.95457437329497,112.56476956158005,117.00607498699594,60.08700561495831,11.944886920672142,44.808431461527604,58.79850653511137,49.40282927761653,17.124039360072217,0.5999360444583048,36.018868579220154,15.275854633580774,12.898413462213005,2.1922646308337765,0.8827881071435782,1.4607946297304077,1.2424677710043657,0.3308397143692882,32
663,A8B86E575383,Anita,Avendaño,F,1999-05-22,Ciudad de México,susigonzalez525@gmail.com,None,Facebook,240682024005509.0,0.0,0.0,0.0,0.0,B86E575383,7888.384223642807,15654.789042475593,539.3871113565937,514.975867216727,459.08399542384365,202.4340685593222,193.19225523710472,112.07755226958804,318.16815200240103,75.74817185748935,250.97482090770347,243.84935876406544,117.31920208951144,55.9399075154943,4.268719482416343,100.53993295344289,33.02156540016178,2.3383893109770475,3.6758830319570714,0.665032682778508,4.0425510455912885,2.1241967744254926,22
670,A8DB0367088A,Edgar,Sanchez,M,1991-07-05,None,dyedgarch10@gmail.com,5526849900,Form,0.0,0.0,0.0,0.0,0.0,DB0367088A,8499.983580901708,12087.0663588053,124.84446207649209,906.1657215022084,214.45111534831972,255.329126429703,132.0430267514719,244.43286531125116,141.6518930860654,103.96458643494981,83.94844895671477,60.389728128352886,103.64531983462503,26.468366428040007,108.23480130387505,11.677215123086905,32.13371147790261,1.9305482110385952,4.365058439512698,4.355097640450098,2.128570235043242,1.7903975738900273,29
677,AC3743028EB3,None,None,M,1985-10-30,None,willipereztorres2015@gmail.com,None,Form,0.0,0.0,0.0,0.0,0.0,3743028EB3,28322.72247209584,1837.429293132923,445.97475277361053,292.207259523333,1031.944172510997,22.23591195913162,90.12833642702542,110.2250227278741,113.47916788267527,126.55221927479762,164.02478545420854,232.31412746720662,12.341130061139337,21.0717777954486,121.51437894591176,92.01027696209981,26.251270087125686,8.868844008671784,1.6475067893068065,1.1383439930682413,4.699458512923814,0.21949161468351694,35
691,ACF6F7E5E30F,None,None,M,1987-04-23,None,ferfueriv@hotmail.com,None,Form,0.0,0.0,0.0,0.0,0.0,F6F7E5E30F,1786.1685349814097,5507.548385440942,333.0194394696579,525.9601704902857,133.3715617416601,8.955791748099946,105.68162771024363,94.33927327984465,0.05442891796050939,99.52665583049684,46.93503197821672,86.81337594831577,40.25676839557999,32.243052140067995,45.24817331061981,39.86340125722498,9.939280896576104,0.8945879190113445,0.2707636098986043,2.0860525711488167,0.740191776044817,1.0834505866945159,34
694,B019C6A9ED66,None,None,F,1987-11-30,None,mariana_santillan@hotmail.com,None,Form,0.0,0.0,0.0,0.0,0.0,19C6A9ED66,2140.264061831566,4445.964443328442,209.93792117723916,194.63251078448016,279.6050552732157,189.51660134185258,6.310325681884077,61.347893986291844,133.4997318912709,57.631381135514474,6.856079534416045,42.59385159656347,8.123332382058972,25.532681065210337,24.595788030580234,24.603103983482708,15.061448690217825,1.1438729950348439,1.3710673411104404,1.329017753795022,0.7630395992008968,0.31679059657118697,33
701,B055086CA66B,None,None,M,2006-01-25,None,perezfernandezjosefina12@gmail.com,None,Form,0.0,0.0,0.0,0.0,0.0,55086CA66B,13370.45905623174,92.57119577177487,404.0833254287096,347.90349269726227,298.9532797881119,263.85050526114156,273.4698657980816,127.89053638907826,34.551922395387294,42.778018960784955,76.20462684030694,68.18457465915628,15.539466841721485,12.921802848265573,4.103379335431751,48.97977446585512,14.78242829004396,0.08355887014543187,1.485655518943311,2.975501484362376,1.2750210469765821,1.9530110767138895,15
705,B0702D3225B1,None,None,F,1979-01-12,None,velazquez.lena@yahoo.com.mx,None,Form,0.0,0.0,0.0,0.0,0.0,702D3225B1,685.5379267288351,2803.89229223063,162.6745518216988,253.56407334801145,83.14449703865321,58.38395403275489,87.81798936357461,12.03016283930206,23.516628838467604,59.43431246627313,4.943256902859276,38.47645999469159,10.918082204387137,32.07229096586289,23.18280101733226,17.8726600621519,6.141100075966151,0.08559568630055531,0.34552515068602324,0.8043766991341641,0.30056622644780545,0.86089630597789,42
718,B0E5ED69E336,None,None,M,1983-02-18,None,charlienava.l18@gmail.com,None,Form,0.0,0.0,0.0,0.0,0.0,E5ED69E336,14397.619641437266,6967.245675161308,11.492388677491423,653.0245096657212,418.1971654766875,404.89308696061715,119.4502851841852,114.14697356289874,296.2961485575266,65.3393877216337,63.43140944720142,86.06812404911736,84.63259774301069,102.69303167901006,81.68402528692062,101.75548997956108,6.926280807197197,7.178204992231405,3.2653105796272084,4.869706380153401,4.432869880206786,1.3576867704246725,38
720,B0EB57BA9930,None,None,M,2000-11-29,None,degeneration@live.com,None,Form,0.0,0.0,0.0,0.0,0.0,EB57BA9930,368.813857260121,582.0290744923107,29.87524346823366,14.18219345862464,43.60210382558536,24.55251592429718,29.28404732640913,2.4464035668893582,14.719765957793877,10.853337583408305,19.667337908546276,0.8372084974665582,1.6064770137826205,9.504726413438382,7.1746933812716405,3.459926166693174,4.021948417679989,0.4189518118138443,0.2522320229893573,0.0891338804125486,0.30237379639280026,0.30644782583959146,20
733,B4BFF600144F,None,None,M,2006-02-17,None,babybestmexico@live.com.mx,None,Form,0.0,0.0,0.0,0.0,0.0,BFF600144F,1222.8999476744057,114.96480150392439,56.042007290566275,82.4859074212464,44.63216448019493,34.9934555851913,6.653082525740924,0.48620924809688404,16.90006781130795,14.820472288136468,11.958446844544316,4.225205073363506,15.18474389115855,8.471004061701498,8.625868829129908,10.274147699698258,2.349934948187104,0.2245878012092326,0.17654468619477567,0.017986332737914196,0.21161025214252271,0.4018037511207851,15
742,B85D0A745062,None,None,M,2005-07-23,None,aleckgz@gmail.com,None,Form,0.0,0.0,0.0,0.0,0.0,5D0A745062,1209.5115978805497,7347.817532105278,402.05481913733394,424.87009464881976,46.16692206996017,213.00156105991567,188.52836807555826,101.4986578174468,180.1614930936344,124.0507676259104,126.31260395881583,116.2205127103722,83.0365801293916,70.09197723549413,56.95483241338948,44.21868552728208,18.820645712284907,3.276225762258953,0.859015027631206,1.8818171826835224,0.645920514157139,1.0193703118338846,15
758,B8C3853B09BB,Jose,Espejo,M,1971-04-07,None,josenatividad451jneg@gmail.com,None,Facebook,502271673681529.0,0.0,0.0,0.0,0.0,C3853B09BB,4334.6618078627025,2341.5773907328266,101.36226976226558,247.2376566752069,223.37656258457343,148.8186643723467,142.72649815926192,137.36934180313474,79.04575054538701,0.5419267134693599,25.895775428190134,43.40471083119947,19.18921029511759,24.76806919163316,3.1299035395839416,29.42483883393628,2.919277538627611,1.268014587624236,1.7815909413410251,0.46551503413395123,0.16223201623332556,0.8729925512030439,50
767,BC765E4F5BBB,None,None,M,1970-06-05,None,nicocruznapo@gmail.com,None,Form,0.0,0.0,0.0,0.0,0.0,765E4F5BBB,1539.8568730960174,1204.6211656304126,32.252429342169016,77.41003232913633,61.034140321976544,42.93188569070914,46.03964416438214,64.1103454436769,0.3246254507015005,26.167268105245256,24.94330785597765,8.05916698831508,11.180828903086002,5.622878984025618,19.341239637585222,3.9992119513134026,5.054672247002648,0.011447578904128373,0.06634151944172287,0.9160270376966524,0.8250324525132385,0.2314352697120031,50
780,BCFFEB182587,Anirak,Galeana Gil,F,1991-11-03,Monterrey,anirak.galeana.gil@hotmail.com,None,Facebook,2713606265387877.0,0.0,0.0,0.0,0.0,FFEB182587,588.091331435666,1215.403736417603,138.3470650180155,107.45832112266697,133.13858204049416,32.722311254590075,21.241545142548812,11.597244957550117,44.47584869937514,18.85260410914121,31.7486941715566,25.808731587139757,0.599301673239815,15.20986849764777,17.44751496891944,11.915557303966668,2.876683390626397,0.4944963236638423,0.1010686423321172,0.05039443016779287,0.30895028747581493,0.11014852561234872,29
797,C08C7122DF4C,Axel,Belmont,M,1978-06-15,None,abelmont75@gmail.com,5545995596,Form,0.0,0.0,0.0,0.0,0.0,8C7122DF4C,480.2944761644823,395.4336504702124,2.889519246839094,14.594783397750396,70.95870071600213,27.30963778304737,10.396330114194228,10.4377283446083,20.59468957530651,8.699743789678578,1.9178569715650564,11.539806013899124,9.400987936968482,9.415292879350586,1.8609101237976442,7.215778337587929,0.2558375135994715,0.1297204042686014,0.44907599516831714,0.00867091593392557,0.09641336387961266,0.10038994186011445,42
806,C08C71D20423,Jaime,Ramirez Lopez,M,1977-04-29,None,jaime_ramirez24@hotmail.com,5542633081,Form,0.0,0.0,0.0,0.0,0.0,8C71D20423,674.1233761013505,264.39260367130623,9.559507565433401,93.04925700367477,33.843037489449266,24.715124198108864,13.506536436783842,4.459333126843222,23.34363436320414,2.8270620955753034,7.088843745697717,0.5725662074993103,3.1412056909895596,11.244775509827798,4.071317470901817,5.536162166111417,1.3899480148021939,0.13823977934810217,0.4118253515968477,0.4206080775714704,0.002671351666239886,0.1623645822582426,44
814,C0A600158A90,None,None,M,1985-02-08,None,carlos.g.martinez@gmail.com,None,Form,0.0,0.0,0.0,0.0,0.0,A600158A90,1197.9247454955887,2085.443620529059,215.31638993568782,169.32135325543433,103.21676183207443,9.566614083927377,27.766289565529366,65.30514384317961,61.25684446013668,58.82581739638581,3.041261501896021,29.339653714536624,7.57612813276132,27.696603495867677,3.4204500259541866,12.643809363769511,0.15669096879472533,0.6756156244086818,1.1785774292714895,1.0129824393102649,0.789737467756122,0.5249094386716776,36
817,C0B65843AE18,None,None,F,1994-11-28,None,lola2573@gmail.com,None,Form,0.0,0.0,0.0,0.0,0.0,B65843AE18,7686.207469348227,2543.454534530495,44.46372800950059,309.4260530010747,296.73103083510546,226.3710985416093,71.10125705612008,57.41590209750952,109.74759135589102,59.244669733761896,97.83264389829043,115.51593735267448,69.57666565264587,22.440170435518866,45.60638376382804,5.646274067512072,12.005822547318932,3.778131647360155,1.8225339137590335,2.1794174987924926,1.7042195468849908,0.7284651661230187,26
821,C0D3C0169A49,None,None,M,1974-09-17,None,arq_mendoza@yahoo.com.mx,None,Form,0.0,0.0,0.0,0.0,0.0,D3C0169A49,211.8125416393256,3344.0615299934525,40.046755422590266,41.05283288300799,99.29997468874335,66.0733221676057,72.01282070353837,58.118935948855885,53.80591166990779,50.607935667814836,32.60072967352756,44.0218530768149,16.018051938250128,29.705553769629393,9.07987995749068,0.8882610074075548,6.182712901226354,1.3855613766226011,0.790546236214643,0.3613003720617769,0.7307559854187855,0.34223292049211407,46
829,C49A0295A2AB,None,None,M,2006-01-25,None,vegalourdes14@yahoo.com.mx,None,Form,0.0,0.0,0.0,0.0,0.0,9A0295A2AB,9999.232407202315,16942.823747656406,949.5321394989709,63.940170112777075,390.9050668206178,104.16130361936149,92.43987277952145,427.41983035871493,321.3948692753778,227.690668496896,66.3229700135494,45.97073620874834,171.0926729540387,20.466372644011997,102.28620380494672,26.892852475980664,21.304772833907577,5.870892081219808,1.868893823057797,5.471628712584378,2.7576053623705548,2.15432326462143,15
854,CC61E51C20F4,None,None,M,1979-02-08,None,pepe.villalva1@gmail.com,None,Form,0.0,0.0,0.0,0.0,0.0,61E51C20F4,784.1610438373793,866.5129998800284,23.892516822982635,120.53472381896516,32.682180091438745,21.957121711709533,24.784366845508057,12.066720622096339,22.324396507837843,12.788788987303764,14.943760214599303,19.46187586685491,2.4207374305131024,0.42815810279715005,8.694220364917124,6.511860625573151,4.027030749496905,0.4724434102961263,0.3225085272958452,0.33194306862764134,0.5044099892986308,0.17619252448080336,42
870,D0040168BEA6,None,None,F,1980-08-21,None,kestivali08@gmail.com,None,Form,0.0,0.0,0.0,0.0,0.0,040168BEA6,3985.865499436884,1313.6561470186875,324.92116075316704,366.15153099394155,44.37517105908959,80.46884363026243,96.09777766548885,35.66370330343596,72.70967535552748,11.215656193551919,21.377361333422527,22.609844905371325,38.438935199898545,33.646212313885194,10.683482480813618,31.7590579516566,2.5510645869119064,0.09016131024257924,1.584790549355523,1.5786636060326105,1.5226579046045319,0.03260244776818499,40
880,D02B20CCC024,None,None,M,1991-06-15,None,contato@galbajunior.com,None,Form,0.0,0.0,0.0,0.0,0.0,2B20CCC024,1223.6404015616117,5249.343876562815,220.75835223762158,182.5442658854284,281.45373846214915,20.662414939667382,102.74151246765753,67.63161511109192,49.86465491341437,79.58047536709603,50.82611544030927,37.38263352797953,9.171712100578736,7.396944146655535,17.18666949477513,11.738525386258674,19.706938076750706,1.6121022266031508,1.5053982910063435,1.3965581215383462,1.3577643547125962,0.4973313242775782,29
899,D0817AB9F0C2,None,None,F,1982-10-11,None,pamelaalfarom@hotmail.com,None,Form,0.0,0.0,0.0,0.0,0.0,817AB9F0C2,1931.3504469400596,538.4090044369166,149.49323616272395,21.156824886279836,52.375799356883526,29.643919719121875,43.15910737011363,31.471407463890312,44.07717924207182,31.99387462930938,31.17898758462133,1.5347610201192619,25.20208998295281,24.136768030288184,3.5235763755528073,0.5988637972038076,2.4380670169565395,0.058455329157558425,0.5430596487767338,0.3157400455716072,0.2701018781077214,0.06872908332111692,38
916,D461DABCBF4A,None,None,F,1979-01-12,None,evelazquez35@yahoo.es,None,Form,0.0,0.0,0.0,0.0,0.0,61DABCBF4A,6935.471547533364,5060.705098321199,567.9128161526851,447.54366662898605,197.7827336509461,116.27062550126324,134.39138230037702,87.28970834645781,155.86152409534938,133.54361154138257,118.6966744178647,41.4671570284009,62.5214801107975,47.039628476357855,41.623451633230545,27.989355915790895,12.86411851269667,0.9562199259703339,0.04134982121932655,2.0195621182016645,2.844058846867373,2.164229120593808,42
920,D463C6412109,None,None,M,1997-03-23,None,lilianaescudero246@gmail.com,None,Form,0.0,0.0,0.0,0.0,0.0,63C6412109,17521.803078033103,5137.554369723323,223.45823870181297,1160.3827598623725,468.1517251451028,73.31904272574005,229.8861492271675,89.33916154465756,203.1353823276267,272.8639371124946,87.46087553720209,156.34603907768135,14.516473310375194,14.862911640357817,65.39660923266975,88.99584305926582,4.119498160256469,3.685360257103498,0.8456851661242443,5.676628556146787,4.629037316594756,1.5711942828218084,24
946,D81C7979D129,None,None,M,1959-01-05,None,rhamj@outlook.com,None,Form,0.0,0.0,0.0,0.0,0.0,1C7979D129,230.2996002173659,955.8705685381118,132.832200265195,124.88911030519536,49.92721187795243,10.741969606794465,13.458012627709495,35.07371793136189,6.3812644262155604,22.449606103039606,2.705419228912606,12.564911931349693,17.61054405295869,1.5953026305254148,0.05868264382650199,10.91794970724815,0.7804744411739937,0.2729823943624162,0.5434306276015097,0.3894273282090547,0.43068897723744465,0.2069241376530364,62
949,D8557517FAC7,None,None,M,1968-07-30,None,ofelia.czgz@gmail.com,None,Form,0.0,0.0,0.0,0.0,0.0,557517FAC7,16990.050025894983,2326.979394827296,1263.8575340740406,363.64696354276197,80.63790751483396,171.09088291171946,69.03350985887265,157.8642396010303,268.98730745568514,91.15409983881875,144.97591278258338,120.13642111635863,94.537300860282,89.54784585137074,18.549101575303997,64.68382221312636,27.995555388880426,1.0966505072382249,2.7808771037510516,1.1343472868660123,2.266238311289104,2.9940614829071865,52
969,DC74A8F91FC0,None,None,M,1981-09-28,None,brauoz.rodriguez@gmail.com,None,Form,0.0,0.0,0.0,0.0,0.0,74A8F91FC0,520.002807361934,20067.269412849142,217.4138912282641,24.091756679847908,672.328013131879,36.60423615674377,260.8240259937082,209.29193964248378,100.7463377957085,231.51247445497796,98.5131235921973,214.25873347151074,62.67868865516352,102.37006691538598,42.912423688308365,23.479550503542768,12.07252491259007,0.45328532490343737,3.521340768010934,1.9372333259957466,1.7695616134716807,1.9485719342318213,39
985,E048D3590CDD,Ernesto,Lopez,M,1966-06-30,None,0,None,Facebook,114989033564057.0,0.0,0.0,0.0,0.0,48D3590CDD,12020.3162832785,7599.888419326174,202.33979499485142,734.4481172837218,252.33193977577713,272.0226019207954,0.4052908830206822,193.77395931124846,315.2891668777316,56.89256778605869,9.209498131158458,56.32279431042407,138.8767591737568,21.679724357705208,16.564407793946668,69.91750317601517,40.51623712613269,2.7876296841477552,3.153549142995555,4.260746109858297,1.236090226795743,0.7669193291807563,54
988,E062675C6DF6,None,None,M,1979-05-16,None,gearrolo@gmail.com,None,Form,0.0,0.0,0.0,0.0,0.0,62675C6DF6,20903.732440464206,5369.229916076372,1532.746447236783,1017.584281955952,335.2026833368697,133.57028270280938,198.32173710414222,389.70220697088826,323.5890952568556,282.14108382075904,167.35966759246836,110.44707362700817,203.8358805428013,156.51516947292527,98.64086748259079,38.92191896262435,26.444675147593657,8.053344393717955,1.225780394673731,5.781023928590956,4.949907472489322,2.0045160568774234,42
1019,647033653292,Raul,Gonzalez,M,1982-04-29,"Mexico City, Mexico",raulramses1330@yahoo.com.mx,None,Facebook,2640117786003185.0,0.0,0.0,0.0,0.0,7033653292,576.3592868517734,264.8082492377211,116.16968821361884,46.13643500589614,62.72780969994107,38.99949780694162,26.99262239880138,18.19238030801996,12.310674452604426,22.342497467054244,7.4302031471941135,16.600833162269463,2.3993284809918376,3.444084249985609,5.377709001347326,8.364047565609223,1.427324210150591,0.01788836188889157,0.16279026272273245,0.28173498624035254,0.4060500227623675,0.048865106465263514,39
1023,64C2DE7FBCE3,Lilian,Mayrin,F,2000-08-19,Ciudad de México,mayrinnnn@hotmail.com,None,Facebook,2522012241449985.0,0.0,0.0,0.0,0.0,C2DE7FBCE3,13665.297522636576,4593.288559694219,1125.0846980817028,111.37401092645823,811.3498720344082,238.75500837028594,346.4201846166903,239.75052846961486,286.421691815321,11.04052684131456,130.61525544860282,76.73916383158364,57.57889526106605,104.11676817283916,0.5991226731516464,80.81128352567403,21.463328947352668,2.6936009483366266,5.03683968370467,1.8030004907361727,0.2856973199882635,0.4744402103749852,20
1031,68C44D087A66,None,None,M,1978-12-19,None,majuldr@yahoo.com,None,Form,0.0,0.0,0.0,0.0,0.0,C44D087A66,133.63514383312017,318.7195457535209,39.582694106768244,57.00426335272514,9.50707844064294,4.307631200090776,3.4040081310259014,7.001557083353015,0.8547667584233052,13.328281415707945,6.527598062928444,4.566336688759254,0.33744093399328273,0.8011183111047673,2.0901811062759754,1.2365503680448062,1.2021108370354834,0.32742215045797546,0.08587497374285674,0.2282009907764044,0.15830143848146594,0.09389406302094563,42
1034,68E7C26E3ED1,None,None,None,1997-05-05,None,7@gmail.com,None,Form,0.0,0.0,0.0,0.0,0.0,E7C26E3ED1,118.1587288153622,480.47108127885633,27.694270156258558,27.61173138121423,16.47768256700524,24.728778612764675,17.072772296836927,0.4424090822126665,2.4293840528695423,13.893979052240553,0.044595066722977285,7.214959024741976,6.523055161179897,7.851787170077089,7.131984194383802,1.8876044936458283,1.73057404148374,0.12249518119517339,0.16979360529726023,0.0065006677142924515,0.21725916037030416,0.11857493756678852,24
1042,6C71D92FC290,None,None,F,2006-01-25,None,plazacarsot@sanborns.com,None,Form,0.0,0.0,0.0,0.0,0.0,71D92FC290,256.07154475912336,301.12003137465854,43.50141360728992,4.149591650921068,8.652748039630243,24.66478833689094,8.21027054213357,5.7641734951984835,2.355459696720017,1.5066826217911722,11.666986288720603,9.06927821600644,6.980311588433318,8.281336311330474,2.250207434082712,3.0114304557352174,0.9908659669410962,0.18535121053864878,0.2693317120882922,0.20805280151361438,0.0721192649340169,0.018024625318350602,15
1045,6CC7EC6AC619,None,None,F,1975-03-01,None,elymunguia@hotmail.com,None,Form,0.0,0.0,0.0,0.0,0.0,C7EC6AC619,615.2259998352433,1023.9270228011336,141.59594069840466,138.08595985909164,90.67585708883695,3.997179942660798,46.79612001518275,21.89860766216087,42.97313015922576,15.037479896365562,28.100559218021406,19.097804621776945,18.6301475607698,13.762560264851217,3.507448986889287,5.64433226664102,3.3979344484455516,0.7933054286598721,0.345669043025263,0.6839348441356141,0.3338312645822159,0.48917409389625743,46
1050,6CE85CC90123,Mar,Rom,F,1990-07-05,None,marlenwelton@hotmail.com,5529717933,Form,0.0,0.0,0.0,0.0,0.0,E85CC90123,281.5137987280492,1299.952810848557,41.542767268825365,115.00470663809345,27.581263390643713,3.8964191681530256,31.297863059614116,21.252805665258858,23.876236003863074,33.87610648453604,21.184625583027078,3.685971267924815,8.839160798676145,12.757768851175722,7.042894758307529,11.384394695534688,0.31848754168269816,0.14031965702698704,0.49308947792887653,0.5306462953312099,0.35720388319131163,0.4706599345986826,30
1054,703A512EE834,None,None,M,1980-08-04,None,tsupsd80@gmail.com,None,Form,0.0,0.0,0.0,0.0,0.0,3A512EE834,745.1765062094768,547.1395159000606,40.16990664680968,67.19734988582773,11.861027084054546,37.79556326008038,2.5783355031057846,11.699422075416853,38.37542899121046,7.0122402989588855,11.102818390202092,10.377317712314763,13.495102783367674,5.14518457250814,8.734067979157299,7.4718868674043675,5.005154926545095,0.7174676396625049,0.05907479191396046,0.24824786934923487,0.38187336573826886,0.256507246834812,40
1055,703A518D9148,None,None,M,1979-05-16,None,gerodri@yahoo.com.mx,None,Form,0.0,0.0,0.0,0.0,0.0,3A518D9148,12850.904359432994,3942.678777436574,238.56216169434725,315.02560559690744,728.0483374853695,278.079808963181,144.2800913254017,47.31344741743039,32.627736342749714,151.4798988489793,161.28877623519415,178.4194331639623,59.599525947188326,3.9071170511432864,22.871624888141486,34.16859339895174,29.01855222037762,3.756318544329545,3.629199721974333,1.526185096284255,2.065292493428123,1.7491566950860544,42
1072,74C14F41E867,Oliver,Isunza,M,1981-03-07,Iztapalapa,dies_irae00@hotmail.com,None,Facebook,2783777484972631.0,0.0,0.0,0.0,0.0,C14F41E867,566.7371147188835,3098.3536354500206,129.01322687574623,16.90586127476768,204.68479778334208,71.86396679960691,24.4023223675738,83.50759931138863,30.143160820192136,8.524167461980221,46.710278432232045,27.526289481940445,37.74017760883339,28.661261281431447,11.343627944629107,23.398331067476803,3.9173343189387633,0.33193463503504494,0.6080162395214348,0.1365138419294324,0.14991108480439677,0.3404711997252542,40
1073,74C14F420B6F,RAMIRO,None,M,1982-03-27,None,amezquita3112@gmail.com,None,Form,0.0,0.0,0.0,0.0,0.0,C14F420B6F,403.2132985909893,469.51456727208097,0.4447058307951382,66.72158985241555,31.54679369977848,0.6274085321761559,27.674048453269165,6.897554241076183,0.33471743980432844,15.680365688428372,14.216321531572667,0.9196769526285419,6.192999308487104,0.6679150524938857,8.287077763993093,6.879316115212849,4.095147273448035,0.5281130542312186,0.25973518820624986,0.01720084800526019,0.05451761014765036,0.2269297007596449,39
1085,7C38AD32D019,Ernesto,Ocampos,M,1994-05-10,None,rantty1999@gmail.com,5581489338,Form,0.0,0.0,0.0,0.0,0.0,38AD32D019,3843.2484369133776,2899.6839855411604,88.57355576715672,87.71897899779815,145.02165803862536,13.587888089911306,120.87489399834588,24.219556844114777,130.7055702280261,58.00165992044609,56.73398372030384,33.42106359158604,1.9043402189065892,8.754294393654051,22.091893534807383,14.108638380608582,18.58472959531017,1.4059363989323124,0.8202846284098908,1.870220910493467,1.4148881464332517,1.2535421415899017,27
1086,7C4685576BCD,Gustavo,Sánchez,M,1992-04-26,Ciudad de México,amazing_espinito@hotmail.com,None,Facebook,2760033380759371.0,0.0,0.0,0.0,0.0,4685576BCD,154.03901077483047,407.32197888217416,77.62587768345409,12.685480383844695,30.26694948980858,22.47135077536329,19.569539690687726,0.10687078466529736,13.846752026832862,2.662960055307185,11.031633944548279,1.7813095690392686,4.7123518426429705,6.508205515327286,6.332859519246259,2.77431826446334,2.3740397949567775,0.24837296057931232,0.1210446547014093,0.25045616779334756,0.22640127800440454,0.04223594172903997,29
1101,804E7046D3EA,None,None,M,1983-08-30,None,blackhoga@gmail.com,None,Form,0.0,0.0,0.0,0.0,0.0,4E7046D3EA,22826.4914280471,4191.809651174646,176.7138016247334,596.6167774236261,1099.8732008356162,512.685825517749,473.8351129691293,441.5855775144608,440.257808477036,121.61283115887584,133.77246253248865,53.679606097663246,31.371076567587806,75.83109646382617,41.90775864197011,26.22107209477367,11.602139620658313,0.36990617952734983,4.818489200454892,0.5140845637413742,0.39644896246362293,0.03384433187435291,37
1116,84C7EA93722D,R,López Mejía,M,1984-09-17,Ciudad de México,r.carloslopezmejia@gmail.com,None,Facebook,1106981316154481.0,0.0,0.0,0.0,0.0,C7EA93722D,511.3616751272022,946.6522829532012,1.1592973604856192,27.006481813927493,85.53532464946692,15.028698136928941,22.15088172208852,10.964462133045323,25.003942723507244,22.538353702487875,21.58503106312952,3.562910173358455,16.068547713302877,15.190825966265223,6.576913534809529,6.559542470882231,2.2267271194413323,0.5837172821533992,0.3828692058321992,0.3633737581984212,0.4495768091987086,0.048564581087469645,36
1125,88797E4771D6,None,None,M,2000-01-01,None,eduardoguerrazavala@gmail.com,None,Form,0.0,0.0,0.0,0.0,0.0,797E4771D6,2308.2258598899416,19776.110382572744,853.5101409739273,860.9864477902416,541.017514487386,225.97586114148967,186.50994539782062,274.6522447536338,66.28133708006315,108.34608134316832,52.11664208659822,228.27492012586603,56.296926928460145,92.86580031148023,12.072835705555352,54.334368152377294,8.764152066129062,1.314503900033266,1.0152916293852696,2.4555113465151965,3.4060044380835532,0.4672278791016283,21
1128,889E333D8A7F,Miguel Angel,Gutierrez,M,1970-05-04,Querétaro,gubrmi04@yahoo.com.mx,None,Facebook,2279605442168604.0,0.0,0.0,0.0,0.0,9E333D8A7F,660.3538257900078,4947.7465775336705,489.43682874602183,253.1532852337064,126.82401768748973,129.99798318924587,70.21613628715244,120.82213096025357,87.93839832778316,37.09695840440566,86.26056477327396,56.61073303154624,49.68794035395772,20.264036810510703,21.715959736982853,20.31345471510813,14.292040911703143,1.346194617904093,1.7559932479925005,0.46819167586614296,1.318665717255213,0.380082248162585,51
1154,FC183C22AB68,None,None,M,1982-02-01,None,benguia82@outlook.com,None,Form,0.0,0.0,0.0,0.0,0.0,183C22AB68,1774.9349640449802,13499.26406260026,58.737957926030894,941.5596456007759,377.56474596032075,365.24230803979873,124.76575398493318,287.1825855942628,151.2984898012256,136.06515521436566,2.593057696315885,181.94206484240857,118.20665545268662,74.0486571130123,14.658246885567136,36.59836363954861,17.72527635606149,0.02448120208497951,2.679825908241698,2.953216469825384,2.6779111427402786,1.276574524551392,39
1161,FC8743CC9CE6,Fabian,Ruiz Flores,M,1984-01-20,Naucalpan de Juárez,fchavez.fc790@gmail.com,None,Facebook,2526663440934353.0,0.0,0.0,0.0,0.0,8743CC9CE6,13323.769497336445,6998.25772503022,1246.470034433363,317.639043374833,570.9405166231095,186.16580857697704,233.88135655283588,291.6576569759803,254.73502148276236,119.46662369447576,156.93528126461422,162.08806824974505,100.09283100121732,37.46334951148935,5.250455917509368,57.66177576278573,29.171008591003186,1.4698122347719809,4.587997717668757,4.3170652226655815,1.951413622013383,0.027656823512536986,37
1163,FC94357D2C96,None,None,M,1979-01-25,None,plazacarso@sanborns.net,None,Form,0.0,0.0,0.0,0.0,0.0,94357D2C96,6867.732629560895,12195.65413927305,1009.1031496188981,290.2362837619235,579.5268701524508,383.86158316732127,16.357166216621042,311.38801044488105,163.78953565043616,52.71456657470269,38.56055537307423,141.41475859709664,118.21161339550996,122.91444177475081,68.97752806824926,48.60738787316246,15.607606127913344,4.5359806643099345,3.779950754336465,0.8007308764423112,2.174495781289112,1.0510162926844262,42
1171,FCA6216298C8,Luis,Garcia Garcia,M,1998-03-17,None,deivid619@hotmail.es,None,Facebook,2209693715786065.0,0.0,0.0,0.0,0.0,A6216298C8,1265.1875857379525,802.5644355375052,149.29540630650493,176.84280266266933,52.32512866828897,52.01545458771958,19.179443547165203,47.00673142390315,36.30390940170224,15.624445872610941,36.388619980653935,34.97974472216069,19.12938446728387,12.704922348796234,15.774148413652142,2.09904405925596,7.550596825508714,0.9782643717483158,0.8639651417428558,0.5168858057101446,0.5116607605157156,0.15741935694923526,23
1176,FCA62182BF43,None,None,F,2006-05-30,None,ferni15_pink@hotmail.com,None,Form,0.0,0.0,0.0,0.0,0.0,A62182BF43,286.9700470553387,506.8912130886168,107.7480926777803,77.10586223796972,39.976995679224466,10.08570995617716,3.967698259957154,21.453505686733376,6.456725035068324,6.847028740241009,18.23677727429431,2.294283677178538,7.987534064140626,8.711715186321852,5.483117918199526,5.752788259620501,3.6503953743739257,0.500800547430463,0.3398729495217385,0.34560201531057183,0.039563102932217965,0.15467121356865,14
1191,E419C141BE99,Estefanía,Ramírez,F,2000-11-25,Ciudad de México,251100pedagogia@gmail.com,None,Facebook,835704596854306.0,0.0,0.0,0.0,0.0,19C141BE99,9620.039522958854,18580.892678441265,1576.8638135992778,69.49412146028605,883.5816927500875,227.32959270973205,224.6786653584315,152.045717060188,349.33113494239154,166.65804904796644,296.7755026033084,173.12743556727503,53.58117196255196,69.2127109474326,135.12411986197782,79.73821683338554,60.806791740654646,8.4066355607464,5.692865733353529,3.61651872257545,4.4991607045304525,3.503881433734278,20
1225,F08A76083F1E,Jezz,Jime,F,1987-07-28,"Tlaxco, Tlaxcala, Mexico",ale_bebita07@hotmail.com,None,Facebook,1428099247327796.0,0.0,0.0,0.0,0.0,8A76083F1E,11456.342462005998,7113.675261570736,69.75407011003274,595.6393966785839,216.09264689361376,307.02638228332006,27.84532897426296,244.0902432104936,86.79681922807883,206.94365473714143,192.90390499861573,168.50314247980094,80.8964830085515,66.22318835457475,15.699429194753648,16.06586652510591,32.9614531529371,5.448829334216409,1.9526580014903114,2.5587492492845647,0.42914014074122697,3.150889867673625,33
1229,F0C3713C3932,None,None,F,1984-01-26,None,dianasd@gmail.com,None,Form,0.0,0.0,0.0,0.0,0.0,C3713C3932,1300.5508930720362,292.5582902687292,134.30015292219278,36.30045842085455,79.34006487173433,6.803913770399287,22.17230043937214,5.60601741773009,6.735223703638532,24.22721412925144,20.861039334942138,0.6753080709683706,1.234204288745576,4.310176076673116,5.9376504086061255,4.917169049005058,3.7238719028580793,0.3227747481721853,0.5898845158610302,0.19553308560509022,0.22244894474525534,0.4154105578800458,37
1243,F47DEFCA98F3,None,None,M,1997-12-31,None,omarbravo82_@hotmail.com,None,Form,0.0,0.0,0.0,0.0,0.0,7DEFCA98F3,531.0307401060074,622.4171284900323,19.825415630696323,43.488728811694926,76.32762750488281,18.85130028079864,5.963751811016149,1.3533327625879217,33.06888048745187,10.351644250044277,23.161192433186734,12.198442787374436,10.816981595233278,0.5309195308476662,11.898659388664615,0.913770263370633,2.2803285273831286,0.6604761093317382,0.35664739369252424,0.19783734964888364,0.05880720577995471,0.24738728027358642,23
1246,F4BF80BFC206,None,None,None,1983-03-08,None,frey2206@hotmail.com,None,Form,0.0,0.0,0.0,0.0,0.0,BF80BFC206,7277.3888704307765,9901.760742806766,567.5632093221622,988.346530033768,83.2520561029772,138.0046877394643,86.32263366065071,344.51539214236266,46.09392825175592,195.81089958562015,33.2878372509992,39.4028850542049,134.2583523611613,75.43457599290252,74.5946687034674,53.8440884307834,36.07090675160711,0.4343535182549144,1.991399407364036,2.9129790546790484,0.5654748287252417,2.1435285695516897,38
1255,F4F5247C6202,None,None,F,2006-01-23,None,almasampo23@gmail.com,None,Form,0.0,0.0,0.0,0.0,0.0,F5247C6202,255.7551820078379,231.38092393589238,24.36944829821841,22.581610040793418,11.289977782756461,4.689574439812417,11.581153121083002,5.175241802638965,2.58188010644938,5.3929079406293905,9.182998987592905,7.309717688833244,1.6672608032834306,1.0286274425851991,4.364826421846007,1.1907923839291756,1.7257227788977847,0.06959312239859536,0.10250957867203699,0.1752728809529433,0.2331442368789151,0.15163419801797481,15
