,client_mac,first_name,last_name,gender,date_of_birth,location,email,mobile,source,facebook_id,twitter_id,instagram_id,linkedin_id,oneclick_id,client_mac10,Relojería / Joyería,Restaurante,Discos,Lentes,Otros de farmacia,Tabacos,Zona de exclusión,Parafarmacia,Libros,Dermatología ,Pastelería,Dulcería,Farmacia,Novedades,Videojuegos,Fotografía,age
55,283926939AC5,None,None,M,2001-04-14,None,avictor.bedollag@gmail.com,None,Form,0.0,0.0,0.0,0.0,0.0,3926939AC5,676.3044323220673,1169.6170544547529,489.3082713088543,160.49033213853323,73.92201147209899,18.38896460374598,0.03474266742746783,3.291672563915943,30.891461261145917,8.268257870404062,3.128437781781408,1.2490389864609723,2.175442429442193,2.4548627968375896,2.353225218464374,2.1217921240678472,20
80,409C282A6F84,Marichu,Rmos,F,1995-10-21,"Mexico City, Mexico",marichurabo@hotmail.com,None,Facebook,1270208696331370.0,0.0,0.0,0.0,0.0,9C282A6F84,983.7582604541507,2605.6076902946133,534.159167841998,38.719272086892815,183.9435102976777,67.70061615321876,28.13765388910854,8.498980350317249,52.02718606696433,34.26078490674954,13.367226524552368,4.281640124010107,5.1586897578665685,5.414628083763193,0.9197890818789253,0.04490408623721346,25
87,48C7969BAC63,None,None,M,1985-04-05,None,guerreroaguila11@gmail.com,None,Form,0.0,0.0,0.0,0.0,0.0,C7969BAC63,358.93746076383593,146.57457737268223,117.56681893859096,42.140194734649604,35.059989561268324,6.925461840409519,1.3387731949248183,0.5419687960756753,5.421160634162441,6.3734347923633665,3.084706411243477,0.27943019691394383,0.9502382718046876,1.0366794058471587,0.3990414359462851,0.37006364928163316,36
94,54BAD693A102,None,None,M,2006-01-25,None,sanbornscafecarso@rappi.com,None,Form,0.0,0.0,0.0,0.0,0.0,BAD693A102,3156.9409344831456,1480.8571625848917,1113.4446377838615,322.4208936446523,180.2298888551385,143.74209403996556,66.18893318516375,15.687739182793385,72.64352283151037,36.009012139165606,14.2059077642373,1.9718638144993137,1.8321550241035096,4.519178341845867,4.82504142096831,4.481034904059332,15
99,58D9C3B995AE,Xöch,Rodriguez,F,1996-04-05,Guadalajara (México),love_thara@hotmail.com,None,Facebook,1418330088335807.0,0.0,0.0,0.0,0.0,D9C3B995AE,2795.7910743064203,543.1999587813334,1559.3122933050963,152.26378469682393,58.98465677626508,83.76253455588713,81.93297028525325,16.547535023832626,38.649924224140825,54.16182851150848,7.366873609014193,1.0250943962643526,4.903926693881234,2.917267383479132,2.3693813972968427,2.810896053502733,25
116,703A518D9148,None,None,M,1979-05-16,None,gerodri@yahoo.com.mx,None,Form,0.0,0.0,0.0,0.0,0.0,3A518D9148,2812.3614264434104,398.1826216489383,1006.0124353387073,190.91007872477974,67.002199913382,116.07600012700014,81.76526881844185,13.741192683960174,7.352174119714947,21.213013663316286,12.10393594084049,7.165542313723394,7.461396561916358,2.8884545538379576,1.7667941989911586,0.9974649490386619,42
126,804E7046D3EA,None,None,M,1983-08-30,None,blackhoga@gmail.com,None,Form,0.0,0.0,0.0,0.0,0.0,4E7046D3EA,7137.232532504948,1053.526512120179,240.0834340666705,313.8378125634575,91.83751086209361,189.3028018810133,58.41897298446323,60.3708907496441,99.6844030942169,94.73901684582606,18.004337146858386,1.246149223534239,8.847452847383675,5.014069676619076,7.195113812657772,0.6589896204397179,37
127,80B03DE7F34A,Rosa Maria,Gonzalez Maravilla,F,1957-12-20,None,maravillarosamaria@gmail.com,None,Facebook,2707896852661182.0,0.0,0.0,0.0,0.0,B03DE7F34A,338.0131127784672,205.0956655684601,27.01222911901404,60.72866682168579,19.792325468816063,24.334537932148137,7.209488355453526,13.56878950378354,0.6974616245535438,1.2969365505728034,1.8186870022039403,2.201869272729211,0.10000477990989254,0.014021004723419621,0.8780110056136423,0.2381932118652084,63
131,881196717513,None,None,M,1997-12-31,None,micatrejolopez@gmail.com,None,Form,0.0,0.0,0.0,0.0,0.0,1196717513,2654.7523249504825,210.57683304845537,1696.0890109741003,157.35354066374927,168.1200504837864,69.9084971250399,60.411932221961685,50.585313073395774,29.42590941914831,17.31553163267591,11.40644843146904,9.001739703196478,9.017783901633699,6.0493533383554965,3.7591283355632594,2.2266026969874293,23
141,8C7967A21DA7,None,None,F,1979-06-27,None,alerdz2004l@gmail.com,None,Form,0.0,0.0,0.0,0.0,0.0,7967A21DA7,4832.804303003129,3285.5093415546653,673.110236454733,108.30846426332245,46.00569269409294,174.30604786580437,118.65554229473315,37.16172141354793,14.287354738908503,73.08413773639747,15.779212046449578,11.38307391449619,2.2358491643259266,0.28404760051444805,5.404134496115544,8.680840758762198,41
149,90324B1DFF97,None,None,F,2006-01-25,None,aguirrevalks@gmail.com,None,Form,0.0,0.0,0.0,0.0,0.0,324B1DFF97,1362.4402092174905,4749.102073799904,1941.1744600431728,231.62063486628006,101.34902840999798,122.14457011121883,40.737663724876974,96.91112792445047,19.310727022467024,65.41706515752573,0.6141308106362556,5.060293655663527,11.056419598697723,6.008352765722629,3.5249256621078104,5.528317229787265,15
150,90633BE80FB9,None,None,F,2006-01-25,None,brayan.mb61@gmail.com,None,Form,0.0,0.0,0.0,0.0,0.0,633BE80FB9,3890.77598682313,2362.2101451943367,2110.4825943030773,381.48909558717645,297.1220834309708,46.92312158471709,126.23472327662815,18.129254373172724,33.013885974646364,33.30624335649307,20.429104278881326,16.49872134980354,6.331791350727548,3.5724297784172463,1.0979845020222752,8.38283483579716,15
183,B055086CA66B,None,None,M,2006-01-25,None,perezfernandezjosefina12@gmail.com,None,Form,0.0,0.0,0.0,0.0,0.0,55086CA66B,2876.767272778075,2979.4423000196484,2731.849640362325,77.27700121802441,269.7920201129056,172.5635103437131,122.39719154970592,27.211286387527387,88.99157365777349,1.6670039670041679,25.967825805872582,2.122022249904768,11.336232744532742,4.657618476373118,2.701525836342464,2.255974490272669,15
193,B8B2F87928F7,Cassandra,Coronel,F,1995-09-04,"Tlalpan, Distrito Federal, Mexico",vampi_barby@hotmail.com,None,Facebook,898901863630037.0,0.0,0.0,0.0,0.0,B2F87928F7,541.3783975714406,883.3587776937653,897.9281290297379,80.11113318487018,4.137389037996843,24.876853302692066,42.533518646548856,36.21856397967693,11.525973821810592,30.526056060093975,7.585032817393998,1.45732912014192,4.687374954866942,4.09570048053366,0.8315273730325621,0.7482429253969745,25
203,C08C71B4DA43,Aaron,Granados,M,1997-03-13,Ciudad de México,5583146624@gmail.com,None,Facebook,498937507717399.0,0.0,0.0,0.0,0.0,8C71B4DA43,178.2108023638397,6754.571106118728,1395.2315465217746,298.93760850435996,148.32845370979317,244.55296102895437,68.31986186846919,89.80388313807582,3.204023550905778,7.259988206606301,21.55255123746708,6.697933434113375,12.763560558132497,2.321144384886453,0.9093159483126996,4.3352594255830255,24
204,C49A0295A2AB,None,None,M,2006-01-25,None,vegalourdes14@yahoo.com.mx,None,Form,0.0,0.0,0.0,0.0,0.0,9A0295A2AB,512.7922101264775,494.8069113141422,122.6388209644149,69.07561356940657,62.12522167125158,24.395309786088944,33.07373513285121,23.502404579099597,3.522352649928458,6.477580902525234,3.263047576816823,0.8127226062971284,3.0302971201544726,0.8219653858540057,1.291018174283673,0.37078844040769726,15
239,E048D3590CDD,Ernesto,Lopez,M,1966-06-30,None,0,None,Facebook,114989033564057.0,0.0,0.0,0.0,0.0,48D3590CDD,2024.9280922556736,2429.895012903421,1621.7561628511305,189.88217157128406,74.23439128601699,80.67352852260035,77.35372439347321,32.74451809442437,70.46217340162335,21.736650449208167,7.611538504893204,4.904947565356168,5.506550162833437,4.786345317091682,3.1223696448691878,1.4018230760993176,54
240,E062675C6DF6,None,None,M,1979-05-16,None,gearrolo@gmail.com,None,Form,0.0,0.0,0.0,0.0,0.0,62675C6DF6,5830.115932621662,1513.666289393404,1639.2274243669094,328.89453809758277,47.008922880084484,101.81012641996746,147.19476264405517,55.67104599561186,8.295873905111996,1.240796791513497,14.576985693315214,0.25971660192162604,6.981790182803621,4.378236362546299,2.5888008398254723,2.0887572036850597,42
246,F07960D3D7EA,Danzing,Tatz,F,1988-01-27,"Mexico City, Mexico",danceandtransform@gmail.com,None,Facebook,839302292897691.0,0.0,0.0,0.0,0.0,7960D3D7EA,1499.4152205951782,396.24314730256947,696.7349124518478,121.03458319789492,115.92234561956968,22.97098148112282,66.3654932914212,3.2480356108512636,26.946702909940946,17.757357136219607,7.096119006852854,5.567810232314814,3.3632884369399987,3.9265509613638625,1.1674499744258262,2.2400017914873223,33
259,FC183C22AB68,None,None,M,1982-02-01,None,benguia82@outlook.com,None,Form,0.0,0.0,0.0,0.0,0.0,183C22AB68,5105.934789052027,857.1476770110387,1990.0589418528168,472.6616619226966,116.4269217928147,148.45117390649807,19.58264600272732,19.1975431416712,25.219397395936756,48.4938276375588,8.705384203283,10.400823252743214,1.7159160516508998,10.214357261168125,1.9948746163494437,0.7940648990185188,39
260,FC2D5EB96E07,Orlando,Aparicio,M,1983-12-10,Ciudad de México,itachirasingan@hotmail.com,None,Facebook,1519794668181132.0,0.0,0.0,0.0,0.0,2D5EB96E07,778.590839730013,129.6728414368258,234.88911720298668,70.44615346623475,32.19984127989408,11.155167705962507,29.354249826845553,22.21676521075023,13.935739912440123,7.107758003766402,2.0014176965072483,0.23186214713317163,1.663097657694004,1.832192335878559,0.9563450672086099,1.7466113198593467,37
261,FC94357D2C96,None,None,M,1979-01-25,None,plazacarso@sanborns.net,None,Form,0.0,0.0,0.0,0.0,0.0,94357D2C96,1202.7631228862488,2006.8531277855568,1384.5613483032178,228.81239400856126,134.61444674927057,19.396213530933476,45.94245869292233,60.77509507888499,30.90476849031843,21.618496873881035,0.15123212702824831,5.719345562578841,1.7833458551389372,7.476977309632406,6.175938611364696,2.4516881344614205,42
