,client_mac,first_name,last_name,gender,date_of_birth,location,email,mobile,source,facebook_id,twitter_id,instagram_id,linkedin_id,oneclick_id,client_mac10,Relojería / Joyería,Restaurante,Lentes,Discos,Tabacos,Otros de farmacia,Zona de exclusión,Libros,Pastelería,Dulcería,Parafarmacia,Novedades,Dermatología ,Fotografía,Juguetes,Caballeros,Farmacia,Pasillo juguetes,Pantallas,age
95,1496E5BE0B21,None,None,M,2006-01-09,None,nahumserry@gmail.com,None,Form,0.0,0.0,0.0,0.0,0.0,96E5BE0B21,1705.5266097977578,1313.3121273959653,149.56877042980432,11.519593271284705,9.628966114444832,25.235938646575136,73.11019634674841,70.82873278632795,20.529941257083852,36.28000198925281,1.5537537685493916,0.7607995563050695,1.7448532033455106,5.999362972533795,11.494488011149933,5.160775422655856,0.7657978777371891,0.603244867479332,0.3760462849993068,15
109,18EE6993903E,None,None,M,1983-09-10,None,ola.k.ase.fs63@gmail.com,None,Form,0.0,0.0,0.0,0.0,0.0,EE6993903E,24401.635593372594,23779.369269678173,1985.827861602868,423.8695529377954,909.6559851056124,1038.0549535454384,807.7844851426976,620.0129023741762,670.9890675985113,139.61632422359295,17.91228246686638,246.62566132528184,101.77674881047496,36.72635298150386,103.40864107690135,36.06936492643677,80.69379085768273,5.622332966355382,8.348829007032462,37
118,20326CCD069A,None,None,F,2006-01-25,None,elizabethfragosomagdaleno@mail.com,None,Form,0.0,0.0,0.0,0.0,0.0,326CCD069A,769.4912290727711,695.6871438763293,76.72910594361448,83.33616151314644,68.14662704319376,5.792799594000772,43.77996104334267,41.33159479888977,14.391191481526434,3.7737893545484176,6.592013005336794,6.411289262543308,3.3570284572257005,5.9478043566846015,6.318195787785133,3.8832414607730095,1.156376498770452,0.30428029356559533,0.5701671559520641,15
157,2839269F5CC1,None,None,M,1973-12-19,None,sup.julio@hotmail.com,None,Form,0.0,0.0,0.0,0.0,0.0,39269F5CC1,2144.7761530531825,1956.8922769262815,296.5724761534638,4.366903784539882,10.903323241309101,119.9646252940579,33.20698695282527,0.7644653211353897,10.416230691947778,40.39296648705065,5.1149651024571865,29.09062377303756,0.4786917820232222,9.715217619545053,8.227708913287172,2.7300499836021426,3.858885690223313,1.3325355315246685,1.194913698505352,47
171,30074D1549B6,Luisa,Maria Díaz,None,1983-04-10,Múnich,luisadiaz9@hotmail.fr,None,Facebook,2621399011426690.0,0.0,0.0,0.0,0.0,074D1549B6,853.0248549848161,215.57535086426014,107.83309825859303,71.72644289501123,39.99356281661354,52.743363570171,55.691356040921924,15.262604640178967,24.34947561070562,19.622400521208466,9.65367671432493,10.120261304868452,1.7700299346903858,0.5437619563463586,3.8798533201587637,0.07143008495962827,2.638545888953875,0.06383915801005187,0.43609143520775057,38
187,306A85591DD4,None,None,M,2006-08-12,None,nncuas@gmail.com,None,Form,0.0,0.0,0.0,0.0,0.0,6A85591DD4,203.6285078665398,420.98927043468154,64.66603238717572,46.148927314813314,33.99563267631171,6.8154238666749825,19.600713994654683,7.512760304653552,0.3967840027042881,16.947120605749223,0.1743075628118128,6.215317410578084,3.988575809127787,0.8633576013442305,4.383377440467052,3.5201980665743826,2.671312838523506,0.40550169877321063,0.07687811784123652,14
188,306A857D1B4C,None,None,M,2006-01-25,None,paoladenhag@gmail.com,None,Form,0.0,0.0,0.0,0.0,0.0,6A857D1B4C,1600.255447204604,572.0413783617581,96.97243112943664,36.83831656733908,55.81339948190807,10.006707787793832,71.12232445065581,32.96496199734871,50.363300340762486,45.12703427473327,12.35952904902768,12.143275236532494,7.371310893083054,10.36153724945915,5.748430223740083,1.5348533612607047,1.6869495018833967,1.021640823747643,0.26717206492600676,15
202,348A7B981C5C,None,None,M,1992-07-30,None,new_julio90@hotmail.com,None,Form,0.0,0.0,0.0,0.0,0.0,8A7B981C5C,1583.2115818607451,1386.078029296951,5.933410142921296,68.50480374260889,26.693135364468652,16.091093276598937,9.527981796959448,57.58040223575162,51.1065925948761,2.6909078299322315,24.044923952209576,29.463044722126888,14.587264167186124,12.190495890636052,0.10316587187496414,4.710863048416151,4.506769508621878,0.8547708876075532,0.12076380950800102,28
229,403F8C1E1947,Barbara,Islas,F,1984-05-27,None,barbikiu27@gmail.com,None,Form,0.0,0.0,0.0,0.0,0.0,3F8C1E1947,2918.0957234037264,708.7867769644172,225.1697563367951,159.727610275855,82.83896091378304,19.12398397212926,93.59981196276597,35.22340700922291,63.063934275160925,0.6560252346803183,29.920818832084045,10.661280514442234,8.964678927656868,20.28030491338361,16.33361209843581,8.081437898406282,7.7105537367307315,0.7505660321281458,0.010756698197358118,37
230,403F8C4B94AB,None,None,M,1984-07-26,None,nelssontllzmy@gmail.com,5575059660,Form,0.0,0.0,0.0,0.0,0.0,3F8C4B94AB,157.99669522722084,793.6757895554979,72.55492056521967,5.558546135895621,21.76997965374012,9.930139206010876,5.223545946223407,5.567065607951486,4.227594353909251,9.718939577990303,11.84950418765794,8.755523638031699,5.1081621904038945,5.744267428677234,3.5124341999116484,1.4764783502391512,1.9324894770277476,0.31231827113550764,0.08560642725558798,36
255,444ADB371196,None,None,M,2002-01-12,None,martinezob@asf.edu.mx,None,Form,0.0,0.0,0.0,0.0,0.0,4ADB371196,3833.730535133933,1907.0213271930104,325.23417369981394,49.872061614531745,121.38452023736244,19.590816718345845,140.9638624849829,42.46453530369852,6.048273022484251,59.28715429557932,2.6050685796650748,10.521841651964495,27.84410302209622,18.52718185570211,5.812548700496047,6.50155989844199,1.8133157564283136,0.49034976708486927,1.2867710643785328,19
270,4888CA2CCF4F,Miguel,Nava,M,1965-09-16,None,mikinava1234@mail.com,None,Facebook,457885718476096.0,0.0,0.0,0.0,0.0,88CA2CCF4F,10495.338735461226,608.8501170910649,135.38806012886414,383.4046274871068,206.4958558136923,272.1667567781598,38.06061962744065,221.2976636808901,204.21952997187088,118.60026638002229,11.589990462170215,75.93768936082152,39.40335499521656,37.97055320722384,0.24279444396845315,28.063826721252337,0.5518103773692091,0.6400297487636956,0.7777182628776903,55
277,48C796807165,None,None,None,1973-01-01,None,enriko9@yahoo.com.mx,None,Form,0.0,0.0,0.0,0.0,0.0,C796807165,374.163822360767,844.3783277358671,5.265534547970054,48.83014230606961,2.4837554369522836,51.578260709608834,50.79238902707722,32.32178153842059,6.968211618478764,18.136758389260898,2.3343909803183944,11.781258300229377,8.979021237125725,5.309029755021702,5.482979208180294,4.275737319805421,0.31895625451451964,0.27438179753735414,0.3252614767949062,48
281,48C796F7B704, Sung Soon,Lee,F,1973-07-26,None,sslee726@naver.com,5545572375,Form,0.0,0.0,0.0,0.0,0.0,C796F7B704,1452.4706646054556,3128.186779834819,146.4118328939812,19.932898081460934,156.65473227397857,107.62534934629672,5.142660764108631,89.1187358192485,33.836951632658526,35.62130899664921,22.622274680248296,47.89832311607439,18.94897636231974,0.9338564465365342,2.780529009803252,8.844843669252441,5.681880826199606,0.4712435285336708,0.8161581123758213,47
285,4C49E3F48E57,None,None,M,1970-09-30,None,jgarciap@ideal.com.mx,None,Form,0.0,0.0,0.0,0.0,0.0,49E3F48E57,293.9439220444243,1015.6029457347855,7.258428837449604,5.843057548214484,16.886604133369904,6.0701970205041675,10.971765392400936,21.684594003614766,25.441292100623098,12.528332955767993,2.2442138362383663,4.233449872797012,0.47212051364248137,8.360345604026742,3.356440710989384,0.3170633700955073,4.046517664675896,0.41248067063079985,0.3262279857489332,50
294,4C910C5785D4,None,None,M,2006-01-25,None,playlucerito3@gmail.com,None,Form,0.0,0.0,0.0,0.0,0.0,910C5785D4,996.8962186399046,469.1376624498171,93.21858202777454,107.06433296265034,34.35013390083853,43.12773414174807,62.637274174708,9.729758809020762,16.630802336076975,5.647002500371161,18.83471884917029,19.605313771713824,0.5140113032394468,1.2600838253140487,3.3389089156164147,3.1248019684648267,2.917984262929395,0.4656408007292513,0.49903435991253997,15
300,508A0FFBA4C6,None,None,F,1982-06-29,None,marceloaguilarhdz@gmail.com,None,Form,0.0,0.0,0.0,0.0,0.0,8A0FFBA4C6,6041.678730401279,11167.819809730434,633.5942689587281,318.16143267938173,91.67536031341433,370.73795135981163,464.7447433383624,146.83717413810123,54.21407884489206,206.13155342385775,50.412500368414314,48.040436747919856,55.1844010437801,71.029410836536,14.727700866999127,34.94073712493483,14.72105186002139,5.267851305425045,1.080806657703484,38
301,509EA7CA4844,None,None,M,1973-02-24,None,garellano369@gmail.com,None,Form,0.0,0.0,0.0,0.0,0.0,9EA7CA4844,10264.411976957697,18288.5959887403,1321.8444600235111,754.8771548357923,627.0128209283035,756.401402942138,664.8002605139937,516.6650049975644,480.76754776104656,18.76508718431985,142.31194938971274,44.0029028734936,48.21911559542944,48.792359390846094,44.7087753173128,7.097351805597892,1.3805099398641312,0.926519229144417,0.41881157393035184,48
306,5427585581C4,None,None,M,1980-12-31,None,aybplazacarso@sanborns.net,None,Form,0.0,0.0,0.0,0.0,0.0,27585581C4,38183.53142619891,9011.559491204089,2080.8331717667284,835.7203023326921,1220.3135811162635,785.1142079297693,1123.888904062673,826.2886933832347,587.447672270447,437.8368981677439,106.3927223204746,26.567039803371706,179.81000661261842,178.1523253403389,32.91903697798837,109.79001103710783,60.67390399998596,9.672155465941595,0.48845000962306073,40
308,5440AD42CF50,None,None,M,1990-06-29,None,joseluis29061990@gmail.com,None,Form,0.0,0.0,0.0,0.0,0.0,40AD42CF50,1320.5037694889982,1118.6657453113864,0.5820992227162439,76.99968393820522,13.275838436708643,18.086544712533062,74.14396328411298,29.81787798712982,56.789287744611904,38.039386008702635,13.597782335478922,9.625795287218148,13.47739717842702,8.52098329898574,7.230850803094266,5.692059930235433,6.19848723707107,0.8978059944486344,0.8546417999347671,30
314,5820596A8C35,None,None,M,1995-02-16,None,luis.rmz.ipn@gmail.com,None,Form,0.0,0.0,0.0,0.0,0.0,20596A8C35,7299.2707750737445,14026.603944711065,714.3890078002804,70.59818477064262,355.77932035307873,346.7159292174128,378.2524422782656,251.4250410671363,309.1424224811873,211.52780875898446,193.24089380606253,47.73424212056653,11.581325064710658,8.5911090729887,57.31379776958209,34.00559060595453,17.62842385329463,4.055063140757756,3.144678054281681,26
326,58D9C3B995AE,Xöch,Rodriguez,F,1996-04-05,Guadalajara (México),love_thara@hotmail.com,None,Facebook,1418330088335807.0,0.0,0.0,0.0,0.0,D9C3B995AE,18724.463370704776,3228.3908802336573,939.8928384880264,308.357061401112,6.464009013453214,296.86745575334027,133.20498372828706,325.24869154837955,372.51140882626123,211.5652938614973,87.35075890884494,142.01349121311063,64.62610033943739,53.678336418713585,10.816040857603115,11.65145317535606,6.481296625329018,5.280328434652053,3.1362004681669804,25
347,601466F3D78F,Omar,Valdiviezo Antonio,M,1987-01-01,None,valdi.rami@gmail.com,5562013391,Form,0.0,0.0,0.0,0.0,0.0,1466F3D78F,22121.767209730624,5363.446594334659,57.47523589295601,396.70139637827344,69.61676975172277,571.3245908978541,105.54410238669554,69.15404209813656,36.31013551579877,67.42863395699732,1.555539350596307,33.1308110904121,89.48577007097025,1.8816770673582817,24.91525855196483,40.03414459952788,30.072738200942332,2.4812292782429477,4.674120846264776,34
353,601D917769B2,None,None,M,1975-05-29,None,eortizecor@gmail.com,None,Form,0.0,0.0,0.0,0.0,0.0,1D917769B2,1301.7210783777862,1432.6256432693542,172.2261181248588,173.11514424445357,86.69432112613757,11.544103598193834,33.00188881991483,64.73877583571128,21.015204233351596,43.335085952290164,40.84635630999814,5.669099973331605,14.650835715443675,2.2146759303094474,0.3551166848587965,3.692221131413088,2.324336350858822,0.7829391457256109,0.4470551760085191,46
354,601D917776C3,None,None,M,1981-06-28,None,mendoza.ecm@gmail.com,5527024018,Form,0.0,0.0,0.0,0.0,0.0,1D917776C3,481.349383406562,1162.6343403134,138.82304474703272,9.93937473117934,33.12064259849844,6.33163871633738,66.90517248057384,2.7331518288661556,4.1979460426322355,2.5698659841428464,10.6560845241059,15.284099763597077,11.853780358265164,4.294972855973911,2.555674687987052,5.248050624122961,4.695282532808578,0.15276170617904752,0.654732097734774,39
360,608373092E32,Michelle,Vargas S,None,1975-03-16,"Mexico City, Mexico",michelle.salim@gmail.com,None,Facebook,2177958585596958.0,0.0,0.0,0.0,0.0,8373092E32,756.0959182574031,318.64936213270846,41.60289845958757,64.11105268473888,33.743221810672864,33.738924767829296,6.197597603016796,15.073110677149943,12.496463834197579,20.033998006083106,10.930686010313432,2.9441124164780805,7.626132839530658,4.598773750101554,3.264649592555202,1.7048105817063668,1.2716387260859836,0.5160623337415449,0.40058551609967774,46
367,60E3ACED419A,Claudia Elizabeth,Simon Medina,F,1979-11-29,Ciudad de México,elizabethe.sm@hotmail.com,None,Facebook,709736113121861.0,0.0,0.0,0.0,0.0,E3ACED419A,549.1162969250561,2.6694865377999233,36.353321955524976,47.38734004225992,24.30088289153441,17.971016201480445,0.5279277122449427,15.074799710358723,18.298226866950994,6.300978610037065,8.912844022834198,1.7819201273988174,4.766657459088172,0.9091215894724275,1.7992906006124232,1.1998076465691911,1.1524380608126608,0.22061147477043888,0.2570315651942227,41
370,647033A0E28E,None,None,F,1986-12-26,None,estefania8686@gmail.com,None,Form,0.0,0.0,0.0,0.0,0.0,7033A0E28E,424.8450457814513,173.76865650028302,33.103597225162,31.897642424277656,4.28262265135843,31.177073672058835,24.786475846479195,3.2944362422965536,13.045036365574745,1.9860074073983742,11.696467465536891,0.3743590276392367,0.9932839734905401,4.111597961146389,3.7687238158581384,0.10986263533730196,0.1843778937896267,0.33548440609436697,0.23924870476754498,34
383,6C72E7965F7D,Alejandro,Alcalá,M,1987-04-15,Ciudad de México,alejandro_alcala05@hotmail.com,None,Facebook,1.0157867574427416e+16,0.0,0.0,0.0,0.0,72E7965F7D,2913.5877426504576,710.5067667438833,235.04997494095616,103.07598987135336,129.39068114487915,126.98115509506384,72.47631009025565,41.32914793312493,46.66636910294176,6.094205519550349,51.194477324668,40.271493366520275,3.7044389891390317,6.203991114997014,2.8033256878347106,6.954223146492324,9.157266678352338,0.16284407832579895,1.3895965212051888,34
388,703A512EA44B,None,None,M,1997-12-31,None,kevinbibrush77@gmail.com,None,Form,0.0,0.0,0.0,0.0,0.0,3A512EA44B,6864.9282641920545,1622.5526730504537,444.13601913304745,159.09927123444217,126.35727247687485,21.3064990406818,92.56736165816076,115.2126007264057,142.40533666763523,38.1569786299459,55.41412244815881,33.51431813194376,36.10062501245268,28.256437092230666,24.89840246754707,10.507107601556115,14.118042425508644,1.506496494140641,1.9621715167602012,23
390,703A518D9148,None,None,M,1979-05-16,None,gerodri@yahoo.com.mx,None,Form,0.0,0.0,0.0,0.0,0.0,3A518D9148,7032.0473649673495,6003.823288433856,64.81871247710365,466.64344429290406,227.23595970325175,169.09387992931948,180.54966941867426,173.1140730135352,62.23451111322881,84.07813396550452,13.544507602655987,16.74772326971229,10.497983126398791,53.14288698249975,33.51333913651403,22.566381050371188,10.587124529544596,2.235527649739078,0.5254893378323164,42
418,78886D9043FE,German,Gutierrez,M,1971-05-13,"Mexico City, Mexico",pinedagerman@hotmail.com,None,Facebook,1.0156965998148454e+16,0.0,0.0,0.0,0.0,886D9043FE,659.760601854492,574.2133074962392,45.69998001030397,87.84950395662996,10.878533537496672,22.284561781449174,55.45573293882481,38.746846670016865,21.01831996349061,30.468966142447854,6.934728189827109,10.710829764521618,1.1644154069099302,5.775989981210811,1.1323311718847713,0.04165868267990089,0.2656997415906691,0.08167936441272447,0.5163133455705462,50
424,7C9A1DDC3373,None,None,F,2006-01-25,None,gabyj2403@gmail.com,None,Form,0.0,0.0,0.0,0.0,0.0,9A1DDC3373,555.4149663406096,13.06558077910993,35.96558691101877,19.240143298853067,29.673986019210833,24.02595881504621,24.962740659218927,17.375622286706978,11.437319157163701,10.482181999786818,0.8793188935597706,2.7771244644234505,0.5695660074391502,3.74867276668275,0.7478628056959002,2.059182274427081,2.2677264073829564,0.07868168325932459,0.22777843040494092,15
425,7CA17716C5E3,None,None,M,2000-01-01,None,jmejia71@hotmail.com,None,Form,0.0,0.0,0.0,0.0,0.0,A17716C5E3,2786.45411589328,115.9580871891737,126.39508441894785,55.1931953601879,87.64295893073015,49.93444825724104,69.6160494283128,16.48828568926684,10.262751735798288,30.66777716211096,0.15809686445998283,22.987305803405647,9.21583994236421,11.281067454302848,1.8479761957762357,4.692376648021173,8.014352132080004,0.07171105002298579,0.11851984451676623,21
428,7CA1AE37BEE7,Erika,Alfaro de Anda,F,1974-07-27,None,businessgroupw@hotmail.com,None,Facebook,1534593350025649.0,0.0,0.0,0.0,0.0,A1AE37BEE7,2282.821615194313,1013.1450050952025,109.37504716826666,78.09637804868741,4.442637729086833,46.74625713197337,90.28104869078427,80.75655700806195,70.08066812743824,36.320498048371896,38.99880749474618,8.143034419167838,7.897685503696235,8.086304120151018,13.430922010231734,0.4411943702227228,1.5687524287115242,0.07771110230691639,0.28987630857876673,46
451,844167BC79AE,None,None,M,1999-01-25,None,darvader_200@hotmail.com,None,Form,0.0,0.0,0.0,0.0,0.0,4167BC79AE,6727.766979964477,44.72827627955496,288.2452345167852,143.26907487255482,139.35892277848637,163.98966773085857,186.28576518243187,7.11597199993824,118.11135772358145,97.59074456388804,25.131559030228964,31.042681100132814,31.8947136764642,27.616121634649193,6.814794676070309,0.28191095227383645,9.143070483263017,0.9146202136169704,1.6985326207459006,22
455,88299C3DAA0D,None,None,M,1992-02-12,None,valo_a@hotmail.com,None,Form,0.0,0.0,0.0,0.0,0.0,299C3DAA0D,10500.400667713839,10244.479491248005,576.1543386491725,79.0190731974799,146.09050972262574,150.257962891293,388.2445925828397,351.2355223021252,265.3302455056157,249.16073245758938,144.4862467904636,72.4049683268817,20.450240923231956,59.2083826574462,32.01234874272372,3.6694332490708246,18.812363705088206,0.14190087654490613,4.440978457961265,29
460,88403B7B15EF,Efren,Zamudio,M,1990-07-05,None,efren.zamudio.250790@gmail.com,5561158715,Form,0.0,0.0,0.0,0.0,0.0,403B7B15EF,1430.1365942669725,903.6711955237975,111.36185768928948,72.98094280393514,44.75295195817349,22.160506120967234,25.345543403814165,10.872616950137001,44.341996017724256,32.472545700328986,19.077643492959314,3.7056439358934745,3.1202437343852125,2.9404921728488267,0.18809114481860997,7.353562114755507,0.13368452644528248,0.3287866288724585,0.05510181388178532,30
466,886B6E6DD200,None,None,M,1984-07-10,None,olascoaga84@gmail.com,None,Form,0.0,0.0,0.0,0.0,0.0,6B6E6DD200,621.5108491674688,277.10810040586745,24.11688744486893,49.86208292291765,34.91665378760094,16.610765104227706,22.524294670826077,9.69861381418224,9.776952045903323,16.935761542429386,8.843775964846149,7.141402243519524,1.1940064700791768,6.007609057298646,4.439623275383203,2.608123839196194,0.05836575342020462,0.5304806098422441,0.11565188012162061,36
472,88B4A64EDE9A,None,None,M,1968-01-14,None,rene.a.rip@gmail.com,None,Form,0.0,0.0,0.0,0.0,0.0,B4A64EDE9A,2707.8022837775975,70.10579101888676,83.65097980167123,8.636161065718676,71.74499157491661,26.104499486886628,66.05678450787691,10.972718123788074,33.00851581384471,52.307135687737635,24.411917871228194,2.4184248151276155,8.400191344064527,1.3710432506875325,12.231296922348731,1.769859134775323,3.6651599361873908,0.5433143719208849,0.7989314947356918,53
480,8C4500BAB2CD,None,None,F,1976-06-28,None,lunaluna2806@gmail.com,None,Form,0.0,0.0,0.0,0.0,0.0,4500BAB2CD,1169.9325875287475,842.6705946247699,175.49341061280674,126.87416539393904,9.44690999374931,11.905211416246967,72.93256196245407,56.95877670720085,6.532536984934857,19.283549433753,26.89746528838033,19.86985268000406,11.069434777097964,4.764396735167466,8.79506287990208,6.970217743974009,0.9420139112674167,0.4764491907130889,0.18480213489130257,44
489,8C99E65ABB9B,None,None,M,2002-01-07,None,leomtzgtz.123@gmail.com,None,Form,0.0,0.0,0.0,0.0,0.0,99E65ABB9B,10596.906711704514,7894.3704494865615,107.60060646323574,332.594130379035,240.71777838438004,257.02658801731974,226.34068424162444,89.24760397510481,308.7687231430378,102.12411277511137,154.8318180789467,103.18183021796047,88.2187219619644,70.01380523712437,52.43497134604536,35.78816140062671,29.99855815480798,2.4418741897794205,2.3928708428188044,19
501,8CF11200AA14,Javier,Perez,M,1995-07-19,None,javierpcruz62@gmail.com,None,Facebook,126610222389211.0,0.0,0.0,0.0,0.0,F11200AA14,3589.94878582856,5275.047054754149,395.05220174053005,286.95563306157493,155.15396675926925,120.00385322014209,152.76941039219,22.5493278858405,132.266459092898,7.131357233019372,49.28923065199417,37.02048360111614,20.725951866542378,38.19049201677346,7.847088813895698,5.257689301267679,17.47864042885629,0.814970989422572,0.4974023619568957,25
514,8CF112F7FC6A,Ivan,Faynus,M,1996-04-20,"Tulimán, Guerrero, Mexico",marioivan96@hotmail.com,None,Facebook,639392206793253.0,0.0,0.0,0.0,0.0,F112F7FC6A,969.1374627013864,413.43833198816174,72.10594434287115,38.80238678599374,40.757936905395546,16.155387260870356,50.3665401888236,22.750575212197408,8.19288002223539,32.24050580275309,5.180577262223322,2.0505660752099137,8.310335147263425,7.598190777761798,4.089096412977743,2.1973549059489206,1.8973358858860052,0.1511713621267067,0.5774209599132044,25
517,90324B1DFF97,None,None,F,2006-01-25,None,aguirrevalks@gmail.com,None,Form,0.0,0.0,0.0,0.0,0.0,324B1DFF97,9281.796763950213,10425.670252434322,355.09191405639933,643.4705004425319,78.43496221104068,210.85963100759986,312.8956600968837,166.72948620228505,263.67949482732485,219.77827481542866,1.6199979861211584,13.44992910455476,41.6983466328385,49.65754356285864,1.2759438169706145,6.6403473947666765,12.397361379375665,3.6990542462088616,1.1545358322784527,15
523,90633BCB3087,None,None,M,2000-12-23,None,willi_jesus2312@hotmail.com,None,Form,0.0,0.0,0.0,0.0,0.0,633BCB3087,2147.479052768596,171.7755969627367,97.74297742388352,134.17559876358516,91.73065469672302,11.811065108712654,90.45680660940374,2.561663753546825,14.249391330713458,5.546214501063613,34.06823556435745,26.799815594237167,1.8897180549012906,5.269812749181683,8.031982002494006,4.280201422741977,0.36975471789577574,0.6533342906005395,0.10812368462557347,20
524,90633BE80FB9,None,None,F,2006-01-25,None,brayan.mb61@gmail.com,None,Form,0.0,0.0,0.0,0.0,0.0,633BE80FB9,12002.654807870145,8673.189700129771,307.4416802518825,381.3901933003212,74.35080333753407,535.874691059247,100.26048775479951,183.16503402376776,5.544751577648896,67.85748141735071,132.00969538787524,130.73909860261443,56.44726375119143,64.25294267228566,46.24717136671115,44.47764075746563,28.915943582205152,4.120310985280601,2.060302171902488,15
558,9C2A83D0F03E,Comando,Corona,M,1993-07-14,None,zeferinocano838377@gmail.com,None,Facebook,315915839327289.0,0.0,0.0,0.0,0.0,2A83D0F03E,1141.783495497854,409.38156590810246,121.30249838699315,11.213249981442276,63.17963945022468,26.952230297832692,29.94032771819452,6.910518297551338,21.511179841205383,25.204845908422445,4.736723381027781,17.454705145594225,8.854582089744268,8.341343486338918,3.1080104238987856,4.335330531962687,4.058954123986959,0.6276724106456353,0.1031271189781944,27
591,A4D931BE77AA,None,None,F,1994-10-01,None,hellofridis@hotmail.com,None,Form,0.0,0.0,0.0,0.0,0.0,D931BE77AA,6702.879008082616,403.46026010337783,104.58154299602995,49.5549257129775,233.76427383154243,116.2427661189922,116.89614100859286,113.85454657544976,75.31901393810975,31.32578736008962,7.148910015662494,20.996706259300073,8.421885970408669,10.980340564081168,4.961737659442521,18.315678953521797,15.017299129632327,1.2228866181848639,2.0562891019886584,26
593,A4FC770D5535,julio cesar,Morales Trinidad ,M,1977-07-05,None,juliomoralestrinidad@gmail.com,5523335661,Form,0.0,0.0,0.0,0.0,0.0,FC770D5535,7404.938235807908,3352.0080760109777,428.32158103440855,489.6559243686552,161.45503008215934,124.89591124667696,104.68713179475566,170.52478498454983,135.2103439425427,174.24390266077822,77.05885365763805,71.12664850906224,42.396904001681776,43.429360804193834,6.45494834982819,4.032994445953926,4.633095193700855,1.5352078184332132,3.39106528609642,43
602,A8515BA42BDB,None,None,M,1984-04-18,None,solecito_cyr@hotmail.com,None,Form,0.0,0.0,0.0,0.0,0.0,515BA42BDB,409.7069914931661,27.799438882703242,43.48790051797982,38.31125561301798,5.484922370969511,11.655484966426423,22.660546926082144,8.754922269134001,15.223309739958369,9.676253526870138,2.230549941397158,1.073582041000724,0.5977167406363469,0.3661689091879931,1.2728279115892336,2.1599153635274346,2.1815721971357336,0.3044577887743229,0.052182800443346194,37
615,A8B86E575383,Anita,Avendaño,F,1999-05-22,Ciudad de México,susigonzalez525@gmail.com,None,Facebook,240682024005509.0,0.0,0.0,0.0,0.0,B86E575383,3036.896652254877,12736.878917990132,336.9204871048475,550.5586272868566,445.25420006354454,223.83253214905355,13.719590746855973,313.1884056687698,125.96824588647466,77.22139266139128,85.99205107794872,65.26116897154209,73.47202952537745,1.4061408691235644,44.75142041241897,33.642579408302225,13.063084915022047,5.472596353798428,2.4998766536602814,22
624,AC1F748947A6,Kev,CR,M,1996-02-14,Ciudad de México,irvin_america15@hotmail.com,None,Facebook,1669398506551245.0,0.0,0.0,0.0,0.0,1F748947A6,40.453176634579236,551.6378980396029,1.487915845561878,11.791953347549542,20.578893683702816,25.27247159120587,0.8096877522852944,23.944461098778238,10.320394732497297,9.307787901692901,4.55924388750552,2.8613274669907156,2.783413469022355,4.804324320547255,3.01647591025808,1.4530280878438484,2.48135702969098,0.2489479288086166,0.18724127187687692,25
628,AC37430D2E0E,None,None,M,1980-03-29,None,magk-33@hotmail.com,None,Form,0.0,0.0,0.0,0.0,0.0,37430D2E0E,5179.206469081661,381.4662377637797,286.47225292651,24.53274651713658,83.19262954689383,122.55448500213761,122.12333357972682,65.55052192416221,10.665232722902967,31.023015490316975,5.940112247149043,10.362869047426589,31.013156310426535,10.762125940014379,21.305466428468872,10.42506951217489,4.240281036520601,1.7356821869168981,0.4283127356741462,41
632,ACEE9E6114A0,None,None,M,2006-01-25,None,jesusdotor692@gmail.com,None,Form,0.0,0.0,0.0,0.0,0.0,EE9E6114A0,22147.564657114708,1795.5314223441612,791.8748924222853,280.4930312243208,75.71705094520594,16.953937489109705,23.764900321179454,403.04138039141463,230.33959926424174,190.33638870670842,42.99575728781545,50.51370594002234,102.11222665011294,17.207697250732323,57.13069186267001,59.10571923361816,40.98745377687596,0.1636339330701171,6.165853841744989,15
635,ACF6F7E5E30F,None,None,M,1987-04-23,None,ferfueriv@hotmail.com,None,Form,0.0,0.0,0.0,0.0,0.0,F6F7E5E30F,1790.6838928535165,6551.12696751125,97.99169476372856,380.66239765895654,123.98557544118353,142.57095154100418,99.87989242099651,160.72988279940103,133.2877253255205,79.96518327751369,9.366988264818167,7.251632632701267,17.55250149995699,25.805528406015927,6.915895027769842,4.203900867373936,19.90479409731015,0.1441018947368965,1.9704937162463332,34
637,B019C6A9ED66,None,None,F,1987-11-30,None,mariana_santillan@hotmail.com,None,Form,0.0,0.0,0.0,0.0,0.0,19C6A9ED66,1625.7981582327445,568.1295949303395,103.32851269665419,48.832320976328276,47.508220627214016,32.812039602420384,11.136473593884144,40.405645403339825,3.9789217326417723,8.719775874707324,13.993273435278372,24.2383991709188,4.154297341155767,12.15471808025798,0.06721347953627466,3.3568729555344845,1.030450316734899,0.6585329090437552,0.6965786412656524,33
655,B49D0B98244D,None,None,M,1969-10-09,None,hernandez.torres.alvaro@gmail.com,None,Form,0.0,0.0,0.0,0.0,0.0,9D0B98244D,2125.6307812665204,2119.9925447451024,267.92346408512543,163.4838614269819,9.091606752269149,162.81052546997006,39.41003286123106,41.36377084560538,89.7386360628363,60.55815744002833,34.864104686524044,35.8322173099654,5.725682232586618,15.903173236858192,15.475502227977517,3.1088642169315626,9.91218423715041,1.0253169374404467,1.1495739588948592,51
657,B4BFF6BB786D,Lupita,Lopez,F,1998-02-17,Ciudad de México,guadalupe.penaloza20@iems.edu.mx,None,Facebook,2910558332332589.0,0.0,0.0,0.0,0.0,BFF6BB786D,4158.60008397966,5326.381798088328,610.5602066726037,291.387023601251,137.32016786806423,261.5487975990993,109.71221246923612,141.84077937236373,165.41943795579405,106.22788123951113,12.4999333260546,80.89433568548915,20.771052038189826,20.49947367515479,18.636258325574254,26.93812556018289,18.984716510866495,0.6879647140875013,0.08975131849037846,23
680,B8B2F87928F7,Cassandra,Coronel,F,1995-09-04,"Tlalpan, Distrito Federal, Mexico",vampi_barby@hotmail.com,None,Facebook,898901863630037.0,0.0,0.0,0.0,0.0,B2F87928F7,1507.0560288748375,63.26866132792081,39.811666820739745,97.99287390777793,17.70901561130056,39.14691686934083,31.57431683653918,35.01122478412089,12.897367725266777,16.893209903845698,16.622435893802123,0.14700089317090392,3.2120133708321825,2.374748360257045,1.0723567652230166,4.157739122741573,5.312364597135542,0.0812556052618251,0.6588027298865445,25
683,B8C3853B09BB,Jose,Espejo,M,1971-04-07,None,josenatividad451jneg@gmail.com,None,Facebook,502271673681529.0,0.0,0.0,0.0,0.0,C3853B09BB,3720.1069173677784,3219.110557264004,285.7615208599829,173.93721501592378,132.32844004754705,193.61693367256674,214.60855111215838,108.10939071344325,105.63743376771022,104.32570720654198,33.183769594769785,61.33612316713934,17.098314695228005,9.384114317454925,17.06892714539092,6.148292885783779,2.9674231813434466,1.506316401439542,1.7640515837965587,50
701,BCFFEB182587,Anirak,Galeana Gil,F,1991-11-03,Monterrey,anirak.galeana.gil@hotmail.com,None,Facebook,2713606265387877.0,0.0,0.0,0.0,0.0,FFEB182587,343.7907167308697,820.4424605675549,105.18045578254412,38.61280937978747,1.9314701081105519,28.796378850842224,48.833371592254295,16.548607913768958,20.61919135640813,29.828716409899464,5.419771239256157,9.575153245746426,6.848197255801249,0.17825366779698568,0.08136607290575945,3.440450466132612,0.0035169962666441144,0.6236861018585707,0.24542626219618757,29
744,CC464EB7F2DA,None,None,F,1996-07-07,None,hbx@gmail.com,None,Form,0.0,0.0,0.0,0.0,0.0,464EB7F2DA,10619.996445121034,7714.410870264129,903.0124030866191,158.35940402621077,502.53477241430795,29.186924946838044,234.2527457189706,123.71158315778145,141.87160333643413,51.10520189884083,123.9232718425418,120.69767990602989,71.48745387474791,26.22391586469694,44.07009833988229,43.195051057646836,30.32474223699162,2.4791741287655182,2.1566587775332744,24
762,D016B47B69D4,Guadalupe,Leyva,F,1978-12-11,None,anayeli.1011@gmail.com,None,Facebook,1128639260806401.0,0.0,0.0,0.0,0.0,16B47B69D4,19427.154801750672,218.62653663645236,223.43193841973041,635.3509660841414,515.4653082987413,329.70286791151347,323.18269834363616,266.4205096444456,274.7053857558807,281.0281678472671,145.8265168528508,5.284619760933938,71.60843233077651,38.01203479361795,62.65767297737074,37.60255950298775,30.690455305683525,1.899075436473827,2.349452346824945,42
769,D07714AE0F80,None,None,M,2006-01-25,None,antoniolira1@hotmail.com,None,Form,0.0,0.0,0.0,0.0,0.0,7714AE0F80,1017.7250102866786,430.72245341069384,6.364106090099095,5.980744695549547,1.8747589208200142,25.736919007267264,54.63581642049368,9.324006005896905,9.760586053555743,2.4729229874997656,5.240853534634347,15.85663308425901,4.917425100557325,4.29316501915535,4.014996685068829,2.7246168249802234,1.5164054194737442,0.3807521148090231,0.4578283385070882,15
793,D4C94B19308B,None,None,M,1998-08-14,None,ricardo345@gmail.com,None,Form,0.0,0.0,0.0,0.0,0.0,C94B19308B,2378.022200978835,1637.7226135906885,30.89627901169698,147.1752001083087,12.425275958365345,51.63221865032544,105.54463142047287,79.17176615017968,96.14530817448221,18.778097977458515,10.594864012111561,23.23457810370367,18.266630679946243,3.7332893493332717,3.787455237187966,7.121477500365199,8.956394586258217,1.0215912384731909,0.7701272718085264,22
815,DC667273EA19,None,None,F,1971-02-09,None,mluluherrejonv@gmail.com,None,Form,0.0,0.0,0.0,0.0,0.0,667273EA19,405.03840293552514,70.64159196683416,11.013288336858915,33.71539370548667,9.154930582248259,19.18929642522345,25.476889024629276,12.958501936258088,10.172429203883123,11.882316731657818,7.72086082693288,7.445084160468245,4.424517442438971,1.6261240155336008,3.3741315838205694,0.7284807550083652,1.1070488986617992,0.15115774107910873,0.17955372745154252,50
832,E048D3590CDD,Ernesto,Lopez,M,1966-06-30,None,0,None,Facebook,114989033564057.0,0.0,0.0,0.0,0.0,48D3590CDD,5236.0390759850425,17390.560111726896,163.64014713510036,275.0720482539416,382.69567622017814,610.2591486357339,293.6429066759423,258.3084929366581,154.85134166885743,9.456040237503037,180.8737769079576,70.18867625127025,93.55594394421952,48.01148465786655,24.98217030136394,3.3450588481287973,34.414617363872075,1.1915697066120083,5.911712542855977,54
833,E05F45B2F11E,Álvaro,González Martínez de Lecea,None,1979-08-28,None,aglecea@hotmail.com,659052727,Facebook,2727704290621051.0,0.0,0.0,0.0,0.0,5F45B2F11E,317.18906975588703,6906.413381330721,455.20809903491346,29.815146557766006,246.0525459336799,90.59584284247752,235.93541495917336,2.498048544706911,142.8450084553967,53.475314297420105,51.66628494395455,36.19952656320812,34.94646187425785,1.4206403048164187,9.787653232760531,7.8487087416099,16.468557264269247,0.5816068744686881,1.0526884885155998,41
834,E062675C39E6,None,None,M,1966-07-01,None,nalakiara2000@yahoo.com,None,Form,0.0,0.0,0.0,0.0,0.0,62675C39E6,342.6973320631916,240.7023282215085,32.8948965895499,33.87843870942932,19.360839157297875,9.459682001276363,27.972091215219695,2.9913244999554576,13.757369906035935,2.3274633929600013,0.5010431627323481,6.950493657247711,1.3629108886168315,0.18583315431610398,2.2913009205247676,1.9021826128602926,2.2341462169375403,0.2094153052118988,0.3209083251279695,54
835,E062675C6DF6,None,None,M,1979-05-16,None,gearrolo@gmail.com,None,Form,0.0,0.0,0.0,0.0,0.0,62675C6DF6,18231.245034011627,15308.546089262265,1274.921005116513,443.64992992791963,755.1283944986,409.6972437931206,163.93447355083052,166.84612161633197,93.83739118585467,44.199724658204765,50.64442518525262,93.18782380948193,57.926708511966595,10.017610808600573,104.49059599430525,71.57334350846135,51.92174371934981,5.282149233297909,3.950191608013733,42
838,E098618C3791,None,None,M,1986-10-13,None,miltonhulk2008@gmail.com,None,Form,0.0,0.0,0.0,0.0,0.0,98618C3791,9.838665407448534,684.7183583643388,47.56143446447832,27.358980056017778,20.04998016351405,18.342437529258273,38.978761421881885,3.4494785173120457,22.041462775779042,15.146459412975172,3.3746584710191527,8.154831903837314,5.6161157186614155,5.274113564723036,4.8863406076966225,3.693461015540577,3.2023329994405874,0.049754723753907396,0.2623728823234093,34
840,E0C0D118049C,None,None,M,2006-01-12,None,yhgyjvg@live.com,None,Form,0.0,0.0,0.0,0.0,0.0,C0D118049C,264.1050844008389,424.7486946939535,62.66695308065203,9.935097487149028,36.19228249838555,1.174327613976404,27.487102749638428,16.595429794760133,9.648999851424152,3.8532523510379204,4.052640766021187,5.6518276240183045,2.6170905999926766,0.9551095332814379,0.728588480459188,0.5360065693712887,2.4845355404949943,0.33000272412752585,0.2369736404172421,15
847,E419C141BE99,Estefanía,Ramírez,F,2000-11-25,Ciudad de México,251100pedagogia@gmail.com,None,Facebook,835704596854306.0,0.0,0.0,0.0,0.0,19C141BE99,2998.5078644710893,1412.4761488230697,260.0218135116028,64.69282353303919,1.1563817785518453,55.73200981089346,5.598713015744313,56.20695471444068,50.99187814628252,46.25611873680092,27.269198439891692,30.837939766223712,7.6079821627576925,4.9266841152437335,11.12581606059614,8.843543713596796,2.070436571451189,1.2643335077846463,1.4133591209401473,20
867,EC9BF3672F49,None,None,F,1970-02-05,None,chucks@hotmail.com,None,Form,0.0,0.0,0.0,0.0,0.0,9BF3672F49,251.36084269450268,271.1807261463069,5.317440822908583,44.444993015925014,6.495968344447617,0.5414070784292577,18.23090835073965,11.06030446219509,9.6964542686869,13.997495471056999,0.8577264836136335,8.7985696772548,0.9126052208874752,3.557178714922885,3.6790365990306864,0.6365706213382017,0.6879014156513632,0.34299364755179723,0.200876964550503,51
868,F018984F0477,None,None,None,1978-08-23,None,emiliocores@hotmail.com,None,Form,0.0,0.0,0.0,0.0,0.0,18984F0477,70.86207922766725,1143.1463635424093,76.30505600092688,1.6079282369914791,34.82509316651336,26.72718258586654,16.664105875763266,17.225848627618884,10.875747793423702,5.41271751804732,17.49712650044693,10.928863213259811,7.559594540267576,4.049405812224792,5.346442603213128,3.4675797583732786,3.0915008679789,0.10110474871638674,0.3062593802913293,42
883,F0D7AA3B18CA,Mika,Likon,F,1971-01-22,Ciudad de México,mikapriest@hotmail.com,None,Facebook,3136984629698538.0,0.0,0.0,0.0,0.0,D7AA3B18CA,435.4912961339376,159.54471205073636,31.650691164009576,48.37128416010416,5.875018482385877,33.988691615510945,9.736231088119549,8.793853404344647,0.9276056801225672,4.1535344394408265,0.17993896890457425,10.274076642769472,4.878538203874359,1.9237309207164093,2.7580686927964373,1.7886391389827028,1.1034718267466472,0.3638073840084154,0.19681000248903016,50
