,client_mac,first_name,last_name,gender,date_of_birth,location,email,mobile,source,facebook_id,twitter_id,instagram_id,linkedin_id,oneclick_id,client_mac10,Relojería / Joyería,Restaurante,Lentes,Discos,Parafarmacia,Zona de exclusión,Dulcería,Libros,Otros de farmacia,Pastelería,Tabacos,Dermatología ,Juguetes,Novedades,Caballeros,Farmacia,Fotografía,Pasillo juguetes,Celulares,age
114,10C7534B91D4,None,None,M,2006-01-01,None,saavedragerardo105@gmail.com,None,Form,0.0,0.0,0.0,0.0,0.0,C7534B91D4,899.4099237210689,169.006919674293,166.0008278780729,24.048564425100814,111.47633028931527,58.85677233666913,43.48652163618738,40.05577871059059,32.386572418255675,15.106115815368735,6.645686143750779,22.05016970195508,18.70281638596047,11.467789131145585,9.610118339572447,3.114794733578736,5.376670976576014,0.03768603750958543,0.1599416450288148,15
125,1496E5321742,None,None,M,1997-04-04,None,luiz.villegazz@gmail.com,None,Form,0.0,0.0,0.0,0.0,0.0,96E5321742,575.2328539747315,141.30472331751406,107.72259658217708,43.661597708148605,56.89813989735333,28.634826233342867,23.180899492329505,31.315736061230407,7.225905286885849,22.72357662826895,3.0366511505542793,6.0360055900150105,9.357805880801198,2.9486109782362706,4.098070370303312,4.31386505086885,4.147848091843693,0.9103119430767864,0.2499757623188179,24
137,186590606DE9,None,None,M,1964-04-05,None,rosasjl@sanborns.com.mx,None,Form,0.0,0.0,0.0,0.0,0.0,6590606DE9,377.2668883315678,307.58352931453334,6.716187056447197,25.77288303050982,70.86232628046744,5.857002185196449,34.2401167903096,16.95200504067278,16.468668705590257,26.60883321291482,1.6113684938848656,10.762995951231337,1.8837747731971213,6.75167801170956,5.190564664767314,1.935841896732071,4.298153295224117,0.9388577509451883,0.29832521409899904,57
152,202D072B40AE,None,None,M,1991-01-02,None,yoniantoniomartinez@gmail.com,None,Form,0.0,0.0,0.0,0.0,0.0,2D072B40AE,580.8131000287582,14316.946244311255,502.8345548244742,264.9590012229655,97.05127575864557,415.6842040827244,292.64947322918954,49.120066315230105,211.9205432888944,247.73111636608064,60.30966491540397,61.12719309804945,165.1561338959357,119.30595447619469,5.600390717696699,10.958559129463342,8.285808857982062,4.531697612812996,1.0150178682422635,30
156,20326C66A8B8,None,None,F,1994-05-12,None,sweet_sol_m@hotmail.com,None,Form,0.0,0.0,0.0,0.0,0.0,326C66A8B8,1114.636699221497,26568.285490824375,474.8786561786151,1097.4081577393308,855.5130671500428,577.1328452454924,27.249459993222874,286.35167096187587,21.098193921981412,416.3045029324762,193.75111618655492,273.69521810560343,26.944631356106257,85.47836127321044,86.57066793548003,81.17103566814401,49.564039752830126,4.316615680653042,4.6495698725045225,27
157,20326CCD069A,None,None,F,2006-01-25,None,elizabethfragosomagdaleno@mail.com,None,Form,0.0,0.0,0.0,0.0,0.0,326CCD069A,17540.420253069104,2606.3020722881643,469.35966494690535,685.4364759909163,57.60700627872221,44.52244681127616,102.91338022826736,190.6088754844509,382.17058284236305,382.1285248304217,121.04213207035984,94.99500986734164,48.17426484859815,24.945637220419172,79.24762297961999,16.700741751862328,11.46851191956072,11.252031070506478,3.704765501143733,15
192,24DF6A139788,None,None,M,1989-11-28,None,tetotaty211016@gmail.com,None,Form,0.0,0.0,0.0,0.0,0.0,DF6A139788,21986.60168994737,3662.6621808297905,868.4902947071824,538.4058203894097,123.40281177341389,538.4680889560863,507.6921862325567,27.470935849957453,537.0555796555552,269.31540858618996,49.4798044544769,179.5927418921155,17.90043562067312,96.7563247270819,63.62345235001459,76.89434510839888,80.29865669570697,14.36018183223473,4.529060391793756,31
209,2CAE2B5274AA,None,None,F,1967-07-21,None,mvaldezlopez@prodigy.net.mx,None,Form,0.0,0.0,0.0,0.0,0.0,AE2B5274AA,3342.701676817301,1192.7445517664366,53.58371625588153,50.61332774537055,169.62435750244072,47.203599202555345,31.311395437577595,71.59812094032903,97.37314953261476,14.244279088572963,4.618021730437027,54.04446055656282,16.827390477825446,42.75799867292717,9.273013811500986,20.546597968610186,3.7031208471710224,0.999596653995135,0.23162499188985858,53
213,30074D3CFB10,None,None,M,1988-10-21,None,enriqueolguin.27@gmail.com,None,Form,0.0,0.0,0.0,0.0,0.0,074D3CFB10,1663.3452806902083,1596.7161922418015,233.14663206638284,14.602560964558776,214.57977401837167,85.88207892459269,28.354343877134735,52.73474848408351,10.386811322985466,19.60270560398561,10.38397572167154,44.4388406224776,43.467474478935884,32.565969175461696,10.966908933108186,11.311284151149493,5.75474873088298,1.5240416856509362,0.23562830655649009,32
216,30074D55319E,None,None,F,2000-09-19,None,luzma_6419@hotmail.com,None,Form,0.0,0.0,0.0,0.0,0.0,074D55319E,1292.0633439706096,2933.785798011376,159.32034663039562,277.4921402778108,231.7982985695068,116.0581543098565,3.460682777815057,22.172996946314854,0.04477815932208026,8.942902497323375,5.5210605181818355,22.60098425723659,56.209218622085544,36.159360484928996,2.24826915657762,7.277003154429606,8.509308012743544,0.2975498846979984,0.03780375878733621,20
230,304B07256373,Raymundo,Zepeda,M,1970-03-15,"Mexico City, Mexico",defiscal36@yahoo.com.mx,None,Facebook,1.0212680358581108e+16,0.0,0.0,0.0,0.0,4B07256373,8095.869455388142,114.48986795128248,216.53290060764564,89.15673200201962,70.2355910996169,270.6206868404078,155.78341997468428,171.36619057080307,91.3213195002141,108.04242011626488,58.01479128684957,13.639536259228834,100.71252836608785,36.254343577804576,29.53710404137318,15.97579023070616,6.151261525164283,7.4405798632157145,0.8554807984868241,51
240,304B07B573F4,Leo,Hernandez,M,1990-09-15,None,chivasguapo90@gmail.com,None,Facebook,899643443822180.0,0.0,0.0,0.0,0.0,4B07B573F4,14868.855089004091,3028.9869003196145,1099.8598708121938,540.600700436833,917.2496415399708,577.5260193779591,154.70741051216194,8.058976422507003,112.26769968381112,42.864876918712504,20.797058586537094,122.23220363135752,147.85783126844552,74.23057608280973,21.0538889675374,37.488030552170784,16.445568843290694,2.952068771940498,1.9655882680566157,30
241,304B07B67AAA,Pilas,Cortes,M,1991-09-12,None,pepec2293@gmail.com,None,Facebook,412434189645509.0,0.0,0.0,0.0,0.0,4B07B67AAA,9977.543609917773,1739.677545127554,113.08666118693625,573.038657002116,444.9924174373937,111.4940211441559,149.64090904904154,83.15848906057337,176.907952585028,120.04728350899846,68.04410956983914,103.3296600965518,74.83387347744156,67.73965011812757,26.800778108166927,40.50413846150408,1.6137466856800093,6.026345969926933,1.5201514931867273,29
263,348A7BE97870,None,None,M,1965-05-14,None,halberto1449@gmail.com,None,Form,0.0,0.0,0.0,0.0,0.0,8A7BE97870,222.24584503819648,412.6193593773405,71.2118071463346,72.99274730879048,13.654832701463029,14.327601908732735,38.712194014066434,14.887446404888564,22.66638577531086,24.54950824550148,8.688360972317957,5.762295332940151,0.20860818091295424,11.86883331424301,6.208165209425354,2.862987969829957,0.6745550842443453,0.6342683475930794,0.2241976678681043,56
284,38D40BF15DDA,None,None,M,1965-10-20,None,casyror@sanborns.com.mx,None,Form,0.0,0.0,0.0,0.0,0.0,D40BF15DDA,1699.2382154900208,1086.1768323902595,189.68540615066865,61.522526339772874,2.356993621426568,78.47477673500698,6.951415073121572,45.65224639398394,14.21585341085027,3.404747784703595,26.477233309457986,21.5163165208605,36.55931681096741,27.40217200645398,2.6738083811576123,4.367823611686035,9.210262947777741,2.0926462960207823,0.02140672580281591,55
299,3CCD5DB06F85,Chio,Rosales,F,1978-01-12,Ciudad de México,rociorl.12@hotmail.com,None,Facebook,3039649199412418.0,0.0,0.0,0.0,0.0,CD5DB06F85,23269.630396214405,980.3272096025529,577.5139449469917,1202.4100254204086,1273.2028326719292,635.4236271731621,466.08636976208226,357.85329850017814,407.8381437793641,174.68187084029742,243.28813329012075,236.7985575459115,85.91094232603416,58.27313296879176,10.552717225031639,74.12273355243977,61.21841980540409,15.963106588503779,2.9045377863940693,43
302,403F8C1E1E55,Eharles,Rodas,M,1994-03-25,None,Linoespinoza@hotmail.com,None,Facebook,321551262085408.0,0.0,0.0,0.0,0.0,3F8C1E1E55,80.2794884574229,437.9596053752328,78.0678694422464,25.10092400596857,57.53686326648356,14.292767081162658,25.047082005077517,1.7212561113142173,27.22750518685845,13.91519057267677,13.866052394866886,1.5557710703609156,13.215838863290523,3.3448368140232145,4.366355660554911,4.587021772148847,0.771408810371829,1.0044651756860004,0.13969793425297014,27
303,403F8C25E817,None,None,M,1995-07-03,None,luisgerardo.hdz@hotmail.com,None,Form,0.0,0.0,0.0,0.0,0.0,3F8C25E817,19854.695631066086,6541.098573721471,1364.3886646638505,63.825494357135504,70.34688315805879,370.9885949852454,310.7743213771026,566.857055612961,423.2933571002359,384.337594578529,142.54504519742093,7.191505672056227,28.976736144825345,211.49910131076084,88.18161287687767,28.307921924435938,81.18673892478954,12.548845075411721,4.956322252749925,25
304,403F8C3C3B21,Alejandro,Risso Yañez,M,1979-12-23,Ciudad de México,alexjandro25@hotmail.com,None,Facebook,1.0158074971617652e+16,0.0,0.0,0.0,0.0,3F8C3C3B21,1554.0119035761074,366.3753397593304,284.77150837932174,19.526081013344267,35.85035787073233,3.6778709975303783,43.024938006489215,17.130719972115884,24.27503044589049,12.198961628891587,30.71751804200022,25.83158539755733,14.060014621927305,11.798371023706606,14.115224172079438,12.434130270828073,0.16246421763039492,1.8087140069165397,0.2292665976001291,41
307,403F8C4B7D8B,None,None,None,2006-01-01,None,krito_iwosa25@live.com.mx,None,Form,0.0,0.0,0.0,0.0,0.0,3F8C4B7D8B,2220.415892590669,819.1271445850842,324.7901599791141,9.866956770575976,123.28516841678803,0.3931074642724726,48.07020465787651,109.76484124116372,88.90756669163827,19.990229959681884,1.2320607976922076,23.19223524945402,47.0603218541923,14.296794732230719,6.267384176382115,18.510831574894127,9.031859905999521,3.045521348332828,0.7517180039588495,15
312,404E3639EB23,None,None,M,2006-01-06,None,pereza@sanborns.con.mx,None,Form,0.0,0.0,0.0,0.0,0.0,4E3639EB23,493.1763958402912,36.14241842162739,62.665576140810764,30.2635096135335,6.815430512128706,27.480887309462567,21.417831371571125,0.38822281281416887,1.6878026979953489,6.887719302869706,10.587387548138024,9.243922685351867,6.891588558387807,8.270118016575807,3.1431579225870463,2.7331338659867708,3.290653639237171,0.9095300852434562,0.0047136553874020295,15
320,40B89AF330A3,None,None,M,1997-12-31,None,garciaj@sanborns.com,None,Form,0.0,0.0,0.0,0.0,0.0,B89AF330A3,2620.1846808149326,2156.6322515840593,286.67972036034047,250.10874378304675,295.50496492888624,68.64994983888187,100.97997590395742,1.114877978461013,46.8998016015439,116.97630757629504,41.847750992253175,25.373725127865207,9.685078450079299,32.116152292486646,9.981165708259127,14.984055272228613,15.066941771053768,3.1169308331978076,0.096925182171103,23
332,444ADB371196,None,None,M,2002-01-12,None,martinezob@asf.edu.mx,None,Form,0.0,0.0,0.0,0.0,0.0,4ADB371196,1176.517238128378,5674.955332347182,424.2009847605489,450.1831545128086,112.67237844149952,17.118613439578898,104.89521889574414,42.169751172957554,99.07282748472792,120.51083646719789,72.41523634253035,94.59133259341372,74.07794476262349,39.606522448151026,8.37039996062258,4.09671488185396,15.917236797914002,4.745796902623865,1.8824796596449658,19
339,44D79170E4C1,Oscar,López,M,1995-02-08,"Cuauhtémoc, Distrito Federal, Mexico",oscarchivas_619@hotmail.com,None,Facebook,3615390245199391.0,0.0,0.0,0.0,0.0,D79170E4C1,610.3881541230677,566.5783123331148,114.61143622091835,49.41530744299321,51.892669921336456,7.029098031529458,4.695562111023258,11.825413206888966,28.95146236365807,7.888887836100005,18.543907567608628,21.447164832763075,18.960326681262114,16.400371751374358,4.730342996955436,2.7793192194303677,5.6519340013007735,0.8108225825571428,0.39950677611791285,26
349,4888CA2CCF4F,Miguel,Nava,M,1965-09-16,None,mikinava1234@mail.com,None,Facebook,457885718476096.0,0.0,0.0,0.0,0.0,88CA2CCF4F,2590.7753929101227,322.26144093763463,369.6082511734855,117.42548595679209,114.96721940681162,38.705767590809785,50.348004532557056,72.1613761285564,9.469553001850413,49.95399250849201,2.1742753897852527,37.09764138734601,3.9496185323626642,6.61506076033169,14.968612752615549,7.942804688510559,9.135719837362261,3.0032208865651717,0.436561618008957,55
355,48C7965AB60F,None,None,F,2006-02-08,None,xuany83fogoneras@gmail.com,None,Form,0.0,0.0,0.0,0.0,0.0,C7965AB60F,15134.684294288943,3748.592368570705,496.35320825774096,237.4190276283504,893.5404393184945,518.0630199326922,5.314065136219767,115.739802731817,338.3460008021566,241.46205585367855,84.44130040772443,109.87760132187204,52.565963651881724,34.30373656759091,64.05222953627735,5.3135554315330635,23.22451595291822,8.5119587871881,3.194855822212902,15
358,4C49E3F48E57,None,None,M,1970-09-30,None,jgarciap@ideal.com.mx,None,Form,0.0,0.0,0.0,0.0,0.0,49E3F48E57,124.38238261061996,917.7201897782904,70.27060943157306,18.73521561656548,3.592681460667804,6.441901580391389,8.073087881575255,37.377046697446445,5.3708982776585446,27.31496808108104,6.843914721946405,3.7648557099796705,11.033465268022201,15.103969795380253,5.755403522444692,3.5815682256086094,5.96334099533439,0.5681247830502406,0.1063755623644799,50
365,4C8D795729AA,Martin,Lledias,M,2000-03-25,"Madrid, Spain",m.a_lledias@hotmail.com,None,Facebook,1465420070260780.0,0.0,0.0,0.0,0.0,8D795729AA,1375.5917477474254,927.5098593865225,93.22316700883201,41.49497919496189,70.08559717666616,71.82110667152591,48.99970922228052,60.87750686995297,51.93380886708264,5.317744344105632,11.49829614282098,16.514466721494593,27.764095304973786,3.3633687403587733,11.633393504831856,10.459022414873928,8.452009830195557,2.1701659097505543,0.2899549413441518,21
391,508A0FFBA4C6,None,None,F,1982-06-29,None,marceloaguilarhdz@gmail.com,None,Form,0.0,0.0,0.0,0.0,0.0,8A0FFBA4C6,3931.5980538384492,6294.153477521442,398.17000025096263,472.2504911496952,123.35321138713391,356.67752911176984,307.92572833443893,88.51637796827525,253.25058206876423,62.60119875162583,29.550005837617803,91.46945127567899,5.077337735020646,57.275041958748,48.33413901059101,9.259604007713639,33.517561522036495,1.383376237426236,0.6368320326132705,38
394,509EA7CA4844,None,None,M,1973-02-24,None,garellano369@gmail.com,None,Form,0.0,0.0,0.0,0.0,0.0,9EA7CA4844,17687.90695283258,12379.549825141554,2619.8167933988816,740.0798381785763,351.9369358574835,694.0052422454715,777.4902989334945,309.05222359622144,314.9219685605335,596.3386962937337,127.56717240313517,215.98956473572852,237.95610803119217,73.16984852735263,137.77824010625002,61.505352460556885,55.56658052296867,10.236975814362529,1.1313823599223323,48
406,5820596A8C35,None,None,M,1995-02-16,None,luis.rmz.ipn@gmail.com,None,Form,0.0,0.0,0.0,0.0,0.0,20596A8C35,18657.785970257326,668.1508195040886,1543.8998875890259,197.06176874751293,167.62388900346465,178.5155853940285,403.71871200421685,386.8374940097564,175.25866497992763,80.76184164391181,6.882628318321304,201.0106333437097,202.43726740209013,124.99365495337781,55.305336088970364,66.00668650438637,54.480018845589754,13.150136293469892,4.1190051168270525,26
411,587F57F2418B,Sheila,Ram,M,2001-11-02,Bogotá,montoyaariel@gmail.com,5547834492,Facebook,936562233349723.0,0.0,0.0,0.0,0.0,7F57F2418B,5425.33627050825,1352.1427576435935,130.3920395813346,159.1573373545389,385.40068156780757,181.0732471444326,6.480058377432393,184.84142241324653,63.88758518083582,77.10636985676331,94.32122217933191,72.52160733073262,14.699658874664884,33.86216570312501,29.55394982914784,27.103062501418744,8.117592527603144,6.117949409073409,0.8850220166697517,19
414,58C5CBC9AE27,None,None,M,2006-09-24,None,lorena.bojorges@mail.telcel.com,None,Form,0.0,0.0,0.0,0.0,0.0,C5CBC9AE27,752.2422971324665,987.5805215685134,109.94591361698221,152.05419762278387,40.093930006679464,14.906898181778567,9.330430103388402,28.541721226456175,23.963753739816863,18.48828353478422,14.48322397214006,10.461687876881964,19.32695979563215,14.761634311046118,3.1347797767282,6.335063587741128,3.96331712811555,0.3512820312911185,0.03410478677392955,14
419,58D9C364ED52,None,None,M,1992-05-08,None,10392oscar@gmail.com,None,Form,0.0,0.0,0.0,0.0,0.0,D9C364ED52,2987.9490237374694,966.9619599979313,510.6096749919419,115.57565314770703,71.26872515949697,18.597882465500337,49.017191936066745,149.61679957293967,42.82817339086427,58.79480477510013,54.647934812736295,46.44264118977878,60.59763288844545,12.876875915863222,2.60944289842732,23.60384847503528,1.4625784750745399,4.7632483413987385,0.7759078282218427,29
421,58D9C39DC757,None,None,M,1995-12-05,None,jesuse-flores@outlook.com,None,Form,0.0,0.0,0.0,0.0,0.0,D9C39DC757,5062.383347013004,9598.831338646434,633.8359054560317,666.4034823194353,13.964892607815166,273.2136544558437,60.95534645507808,306.62611197813885,134.62974136064344,4.037436501137111,154.2012588484258,130.83234248413015,137.6358341838126,114.3033916533244,45.45976606911538,11.919297680581534,27.906346990263383,1.7695184541817492,3.0909868426046048,25
423,58D9C3B995AE,Xöch,Rodriguez,F,1996-04-05,Guadalajara (México),love_thara@hotmail.com,None,Facebook,1418330088335807.0,0.0,0.0,0.0,0.0,D9C3B995AE,16079.231860586982,5307.113845114098,1942.879881198111,98.08580581927094,846.5443467036085,293.79807279600425,289.2678900639755,526.723599269108,232.32122884428074,297.3916144635485,107.71539255874546,105.3570499567784,165.92233731872932,123.77346553978313,3.9867540287447305,90.78413720461556,5.466353733790745,14.26813439718328,0.368230402633744,25
431,5C1DD92762EC,None,None,F,2006-01-25,None,eunice_akashiya@hotmail.com,None,Form,0.0,0.0,0.0,0.0,0.0,1DD92762EC,1406.165930926543,82.33449292328224,19.30281678130753,70.08108945651745,100.21952196431879,18.39655925803189,39.31165124724573,29.928719926179966,8.255454392547042,27.209194343213568,24.584598818119915,25.410074871098345,20.002247161581597,11.754294795617565,1.0508436943997839,7.144671904367436,6.566129873166857,0.08752552363644457,0.19418213882422877,15
450,601466C6EB55,Jose,Jr,None,2000-03-04,"Mexico City, Mexico",cirilo-alvarez.34@outlook.es,None,Facebook,2163068353965680.0,0.0,0.0,0.0,0.0,1466C6EB55,848.3450717974603,673.8876288827454,103.23866290505545,77.05080203163402,45.810210008418174,46.133711020522824,18.431175897630823,49.98893522698383,56.71439237551397,29.937686057705942,2.583950323397589,26.21679168406648,5.741570395183859,3.810096272809895,12.368873662309621,10.982133442824527,4.123108154558503,2.140211470853619,0.49498839032508624,21
490,6C4008BE83D6,Jose,Hernandez,M,1971-02-13,Ciudad de México,chefjoseha@gmail.com,None,Facebook,2647918788820638.0,0.0,0.0,0.0,0.0,4008BE83D6,711.7689170708504,950.6730484456924,226.91560713347147,41.66731555082155,71.9287159931676,80.94792256688274,66.50049749791646,40.332294136566134,16.982575882884397,29.80261784283687,30.222858989865806,32.786106792505606,15.868837945994159,12.193772824742267,10.641035504785194,2.2300739966763796,3.9388178928771636,2.3206588734603946,0.27832505800244867,50
495,6C71D92FC290,None,None,F,2006-01-25,None,plazacarsot@sanborns.com,None,Form,0.0,0.0,0.0,0.0,0.0,71D92FC290,264.29216121118674,735.6069934633765,73.04792877599027,28.5110954322186,72.72399177143153,41.2929257057311,27.449985933900578,3.82752074338708,3.63180778361203,36.86956322347376,6.708225737920268,16.759599692698544,11.657353184465368,4.4213448382832965,8.00513264926015,5.421815540776475,0.0626557205422601,1.4060767585584488,0.3038218331870293,15
506,703A512EDC7B,None,None,M,1985-07-05,None,luisfdo2018@gmail.com,None,Form,0.0,0.0,0.0,0.0,0.0,3A512EDC7B,794.6089129882744,1484.1976776275014,69.11139772856568,99.11975974927303,49.64527493053202,15.074050431982647,36.54519632353474,26.393749604513648,1.6256168204008237,38.89085159015558,2.067849801447285,2.1689536700190764,26.78078463278437,12.434518018592398,9.943091131471776,7.164099862013514,2.8904046018788345,0.9679996747119245,0.3698108123471325,35
521,74428B79E97A,None,None,M,1975-07-08,None,gmarzaroli@icloud.com,None,Form,0.0,0.0,0.0,0.0,0.0,428B79E97A,596.845883818444,2414.493089779719,256.99823762787867,234.64418567292293,184.77980974655648,112.4613134653294,37.87534372870949,120.33561864524047,1.2283422237612642,91.3344121941093,30.65467721118767,2.9614884396849486,34.19252327374808,3.13721830543015,17.98316712598484,14.945693530765455,13.705268959772546,3.492684417337177,0.93104183341908,45
529,74C14F41E867,Oliver,Isunza,M,1981-03-07,Iztapalapa,dies_irae00@hotmail.com,None,Facebook,2783777484972631.0,0.0,0.0,0.0,0.0,C14F41E867,7310.514145317015,313.1267117317951,616.2262460155365,255.2914753988106,148.80866003521626,175.38526537238585,131.4753021656009,7.243072118278187,188.3397223989307,170.43859824045902,66.89258191629038,80.2658944554511,85.07791925006505,6.552226430045223,32.96518790893276,20.43463870541025,28.860545606892988,5.2981900614349735,0.8036168714474816,40
533,74DFBF3E97D5,None,None,M,1985-03-20,None,cristian.mendezl@hotmail.com,None,Form,0.0,0.0,0.0,0.0,0.0,DFBF3E97D5,610.8123255112142,1420.0988066293648,256.52016542420347,57.643802608599344,105.50710313517303,45.54661758830827,63.558154818461645,4.746932576415103,21.269778012917737,29.917809886422027,15.993654458510736,12.398887827196189,7.481350305862698,18.1968098009852,5.081033258751415,7.757452356706703,3.133142512173197,0.7597042282381159,0.5764690604953168,36
574,804E7046D3EA,None,None,M,1983-08-30,None,blackhoga@gmail.com,None,Form,0.0,0.0,0.0,0.0,0.0,4E7046D3EA,13614.666250219349,10981.77575969118,1799.8918383375974,1042.3550396728403,1027.0494572823875,685.048105169489,211.61563759869154,677.9782261643891,276.04743178101444,74.88375251272748,157.94127365819435,203.8984161168983,200.4606768752297,87.36198790187922,66.82069325724117,28.129072649926147,32.520075151198476,5.091011256775556,2.4652947029990515,37
591,84AD8DCBB001,None,None,M,1997-12-31,None,htyr@gmail.com,None,Form,0.0,0.0,0.0,0.0,0.0,AD8DCBB001,497.4107966496533,87.97980524934806,114.17025777931605,56.69149058775064,12.275583700004612,3.0568843030051456,8.355306991538406,20.01758737223269,4.6489192561663595,5.194407064148671,12.140192129714798,3.0983751999659104,9.702460595832196,6.325824681711914,3.1774942764741643,4.103460246891438,0.8871714930432301,0.7493527318677337,0.014629691334788973,23
594,84C7EA93CFD7,José Antonio,Valdés,M,1992-08-08,Ciudad de México,god_of_sacred_trance@hotmail.com,None,Facebook,3099342366755010.0,0.0,0.0,0.0,0.0,C7EA93CFD7,2002.0636468352088,1835.8506950934493,86.20318129742786,3.8145235062547598,179.97270158714508,118.28285329001766,41.56017605819286,90.61739639384547,101.38816906335234,76.33200974880214,12.71342743757734,52.482873867431145,10.412830131900824,43.76557936545358,0.8123836491073481,10.502498577375697,3.513089396533366,1.7829889304631095,0.9289757704610246,28
598,881196885EEB,None,None,M,2006-01-25,None,memoherrera962@gmail.com,None,Form,0.0,0.0,0.0,0.0,0.0,1196885EEB,1394.5207216010863,1346.3245978135756,84.78583210849108,7.356203740669913,15.627559898118568,70.09924147655549,72.09480142679408,21.691072503180205,66.33980072129312,39.794737908761775,8.012155260384166,22.490806970496916,18.980071185709672,0.10318515287678004,13.67612174765947,15.665456339882997,0.03836577994057273,2.350473290202649,0.04879507431918672,15
600,88299C3DAA0D,None,None,M,1992-02-12,None,valo_a@hotmail.com,None,Form,0.0,0.0,0.0,0.0,0.0,299C3DAA0D,6677.663768229521,17300.211259857155,59.74909811356792,72.87378848930271,572.2173969041769,15.013049362910625,436.3776375031359,109.52449208329777,104.03899126481288,197.28416956474516,127.97218408974388,71.5068526233863,72.72204002779242,82.65715704403743,21.42320351304252,29.600742937761858,16.419807186931646,1.5334612876365037,1.2108999170334327,29
609,88797E4771D6,None,None,M,2000-01-01,None,eduardoguerrazavala@gmail.com,None,Form,0.0,0.0,0.0,0.0,0.0,797E4771D6,1280.8329350902993,18305.659928721667,1170.7592801558699,298.08031570011246,371.51397649654206,541.8825386174925,66.67744696677993,288.92671922141994,22.65489116348984,388.2602056288674,95.07828138051948,69.86494710960466,95.35580983580434,47.95891571833389,56.728247123910656,76.74308432082245,17.833959448262,13.76870044806201,3.419816852145838,21
622,88B4A64F5994,None,None,M,1997-12-04,None,os526488@gmail.com,None,Form,0.0,0.0,0.0,0.0,0.0,B4A64F5994,3236.758324828089,6060.2524365611525,15.567518257806721,550.2027078253132,597.5043924164653,354.3437484246369,223.43857654846119,274.2738455899275,252.8083784199091,138.74439558992285,35.80886310653528,60.4462323463856,4.059522001524148,16.395629395092243,30.705646055456867,3.1980028612208966,8.734644320791869,4.027383884870611,1.7297515664420793,23
637,8C7967A21DA7,None,None,F,1979-06-27,None,alerdz2004l@gmail.com,None,Form,0.0,0.0,0.0,0.0,0.0,7967A21DA7,7816.708436451558,162.93429277602294,668.0372661496867,562.469118641094,451.8665199706542,192.5842635590472,141.58419494710913,122.05492615535893,154.50039220508106,65.36769527126404,42.53058004379895,70.18744161098321,69.43826886838899,88.01467433943496,1.7363950153095427,36.85839943489638,9.833598476979738,0.03766519631256235,0.255870887018086,41
644,8C861E4F3D86,None,None,M,1989-08-09,None,lalo_baez69@hotmail.com,None,Form,0.0,0.0,0.0,0.0,0.0,861E4F3D86,10405.630967763303,14661.383424336953,1179.3454694348643,304.3702294850523,1037.7329469696645,481.4454743482003,102.98680008781042,286.7652284644208,443.9830130511725,314.95977151418913,33.8264068170248,68.3773639807451,72.59983811478696,186.80011717387367,15.085585742144566,75.16691830138372,62.24826083225792,21.132710730836827,4.15947285131792,31
650,8C99E65ABB9B,None,None,M,2002-01-07,None,leomtzgtz.123@gmail.com,None,Form,0.0,0.0,0.0,0.0,0.0,99E65ABB9B,7856.180183062066,6402.361177651994,472.9165612941843,611.1568050722525,741.2127395939231,219.88113877689764,260.9203268599931,326.9748253733031,118.1105673703525,261.3102656639593,10.866922224573337,79.99581851651054,20.55351563867954,29.21692116679636,68.1198901736037,33.276522128628706,34.2908147075966,1.0436320402963677,0.6113726843944213,19
693,8CF112A8AC22,None,None,M,2006-01-23,None,sears@ravisa.com,None,Form,0.0,0.0,0.0,0.0,0.0,F112A8AC22,1085.215203401812,10.170400885334045,99.73610401244164,3.88540240574957,8.426160321035887,53.527890023147215,12.796716213255042,35.82415030095261,37.50196639148707,22.482624603670878,22.266030533872378,10.09986032827128,12.356127298627175,16.103762923608965,0.9005892995806034,5.18287140555465,0.7849587274185353,0.32951887861311346,0.40966204556787433,15
699,8CF112D800A6,Serch,Torres,M,1981-08-29,Ciudad de México,sgtorres_10@hotmail.com,None,Facebook,2344902345597498.0,0.0,0.0,0.0,0.0,F112D800A6,646.2168338043684,536.4236899229928,50.84620354601476,59.96565503228596,12.96697311576009,45.8478591782811,3.228375739817438,14.111567096689628,44.68673548143314,10.58222166885455,9.888409026063165,9.868509714617964,16.658917394164895,6.058399779375496,6.297840649996858,6.272699438803051,6.416994654838359,1.6173264013739612,0.04478835426764506,39
707,90324B1DFF97,None,None,F,2006-01-25,None,aguirrevalks@gmail.com,None,Form,0.0,0.0,0.0,0.0,0.0,324B1DFF97,12789.663265373758,11351.657281139003,350.15091928308544,368.9078552532284,225.84728830524182,139.40785359083043,187.18327893897006,186.53850197211432,232.18057488179852,153.39545881246866,39.71181050246806,118.89070059420796,30.714503313206166,143.6179444968589,69.76204342134675,30.06905831615242,58.55309140769626,4.743367588997643,3.005202808556946,15
714,90633BAFFF53,Vero,Velazquez,F,1991-01-15,Ciudad de México,verovelazquez184@gmail.com,None,Facebook,1484643725042820.0,0.0,0.0,0.0,0.0,633BAFFF53,981.5921888524681,5378.565781061995,406.84316162468735,65.07386621133138,183.9506925763215,63.762656383641705,197.14268923103012,68.60423039879124,138.38483833761296,96.95465784889309,75.38193087469993,6.956434041799623,9.74680478050049,35.36065850269881,15.245756907780985,30.075263863758604,21.097140877532716,6.155772677388839,0.10547494707045713,30
761,9C5CF9645987,Ivan,Quiroz,None,1985-09-20,None,egroj.qrz@gmail.com,None,Form,0.0,0.0,0.0,0.0,0.0,5CF9645987,521.5600938246411,395.9759705462831,139.38795130886237,21.076535596477118,82.39193327143116,15.145808561880152,5.850432007712635,31.052864044257205,28.55703858137326,23.715742010421664,20.851205095836477,10.301036399430506,5.724663368363876,0.9370093418437784,1.998503245379209,2.5211171112267534,3.3312066871531867,1.5138350782109928,0.10705391921501112,35
771,A04C5B7018B1,None,None,M,1976-11-18,None,eljefe.farma@gmail.com,None,Form,0.0,0.0,0.0,0.0,0.0,4C5B7018B1,1028.3284733697685,211.4246326393813,19.91687158278937,76.69379394791271,5.564259931803474,32.404362356498524,26.389932610935666,31.307779420439378,24.076790152370524,20.681138538362728,14.645810403138254,24.00219259502909,5.233186940766106,0.07333420699231137,8.138695980629908,5.596414017964848,3.56345009254649,1.7410558758514951,0.21782533681887215,44
783,A0CC2B8C7F37,None,None,F,1984-03-27,None,elizetedecampos@gmail.com,None,Form,0.0,0.0,0.0,0.0,0.0,CC2B8C7F37,727.1387466125899,1046.616320256629,223.15521918967374,76.36821863100155,153.9255476221309,21.91892258800087,24.629090951268886,46.93449067836225,68.86387863105541,55.70731109837981,28.647789728966913,20.691810469331024,17.41833630636742,8.155375535552182,10.043081208558709,13.498606515511295,9.21278450190876,1.7971392384630545,0.2773302362477449,37
786,A407B66516C2,None,None,M,1997-12-31,None,garciaj@sanborns.com,None,Form,0.0,0.0,0.0,0.0,0.0,07B66516C2,371.6967641929505,6013.82946976811,8.662279038395939,142.5480545694858,364.9057698838209,38.73065501564841,8.517929472533462,64.81469343697755,96.41008712903044,36.54581119761507,49.37189303809121,46.513170168939425,14.996126339826862,41.19464847216876,28.808225559614968,0.9305884833229613,2.5565510449078563,3.426991568614208,1.5402916199458154,23
789,A407B6E12354,Mirian,Palomino,F,1984-12-02,Azcapotzalco,yakam_382@hotmail.com,None,Facebook,1.0219014607507744e+16,0.0,0.0,0.0,0.0,07B6E12354,11675.660359999476,37.80530584973596,898.9657276876796,695.5786456117921,499.1202499427416,299.2598612400893,45.65739063198032,161.8723307733734,141.09905758379134,159.5713018628925,19.77277450006418,107.7831351757196,53.329698527191724,37.927771155056746,14.867801319675538,21.88371772795351,21.52414729233174,3.7893720502485455,0.5313510682099437,36
802,A4FC770D5535,julio cesar,Morales Trinidad ,M,1977-07-05,None,juliomoralestrinidad@gmail.com,5523335661,Form,0.0,0.0,0.0,0.0,0.0,FC770D5535,10096.048429599543,2590.294278555301,1161.4166094094141,100.85926972690875,760.841331194023,130.5587889793779,363.12394876539616,209.43099781187578,213.3478014302754,236.8889941523093,163.81044767811497,17.028853340381772,59.31315882032054,19.068724344283908,2.1831865370659322,45.80941970295577,37.51745747048011,10.446482769312034,1.0118197126573336,43
807,A81B5AA54F45,None,None,F,1974-12-02,None,ixtla02@hotmail.com,None,Form,0.0,0.0,0.0,0.0,0.0,1B5AA54F45,256.6016388769758,437.05334190028594,10.005153638667531,63.54658683851155,12.788774423926133,24.776724863802908,25.525580975565994,15.168468574564367,26.85669016005952,11.364239602703591,8.254134884419905,8.814044606021493,12.72679706349145,9.955912936065598,5.895037796657741,2.461438149350018,1.0859085439703864,0.8571328570619766,0.2623933078981639,46
814,A8515BA42BDB,None,None,M,1984-04-18,None,solecito_cyr@hotmail.com,None,Form,0.0,0.0,0.0,0.0,0.0,515BA42BDB,669.8839349032397,151.57109957183147,161.7733385417928,94.9937341618169,101.07774019406995,43.42305848539278,2.2424502256255066,45.06632152783615,31.711141673504113,11.728323268127205,4.642553009647991,20.17873528259705,5.374100517855802,6.8291462435153765,6.1542249398914946,6.617559071190807,4.5783154291089225,0.7389654612499361,0.41525749170652126,37
818,A896750953CB,None,None,M,2006-01-25,None,moises.chepi@gmail.com,None,Form,0.0,0.0,0.0,0.0,0.0,96750953CB,15524.819145885793,1868.4892023600396,1312.5280195491855,267.35370138317836,790.9570039845809,37.56933641536296,354.5735663446716,288.0622355264593,220.51123049286085,193.28689864309433,198.76137593794556,70.74090813073268,55.12773023175318,71.64194898665153,66.28144546004872,16.328402104419506,53.85934204768229,3.295894199513713,0.8126123160196562,15
825,A8967524C395,Guadalupe, BenÃ­tez,M,1888-11-12,None,elsa1211.ian@gmail.com,5569713363,Form,0.0,0.0,0.0,0.0,0.0,967524C395,5442.632548042952,8329.588459781324,228.8234515042517,486.5844450939283,646.9949119070582,243.0247171189003,155.48920361990787,276.88265537227227,7.41293951144446,221.8507382150584,50.47542027340228,28.356840767988064,24.59361031669088,39.84791986703526,10.202161929636752,58.24670159256652,42.09162568391832,3.774057446514991,3.127591955148784,32
864,A8B86E575383,Anita,Avendaño,F,1999-05-22,Ciudad de México,susigonzalez525@gmail.com,None,Facebook,240682024005509.0,0.0,0.0,0.0,0.0,B86E575383,169.55194335363137,23537.077622969136,541.3645745604832,818.4587644879582,925.9707416448642,263.0055106459162,236.47066237941127,255.1347453651848,466.9596509474061,217.22674925011918,255.80758393416372,149.10637182268508,114.84127679937373,60.209556917758185,1.325073377681586,35.505874541970826,34.406580897010464,14.409911929375523,1.1668041758720764,22
870,A8DB0367088A,Edgar,Sanchez,M,1991-07-05,None,dyedgarch10@gmail.com,5526849900,Form,0.0,0.0,0.0,0.0,0.0,DB0367088A,4162.009790266545,15443.836880000134,1834.1005404482262,221.59936081369918,786.1115161549577,280.0893956567461,398.7588417534947,266.26817605586706,312.9038301413623,118.6967350499469,224.06312413685595,60.416469774396894,10.157738960664908,101.01455145710786,32.13273106726706,28.543032648767962,8.019476224025905,7.016425028433586,1.2613843614953602,29
877,AC1F748947A6,Kev,CR,M,1996-02-14,Ciudad de México,irvin_america15@hotmail.com,None,Facebook,1669398506551245.0,0.0,0.0,0.0,0.0,1F748947A6,3066.352329961767,1498.1182705123645,365.4419653489561,232.3598462301606,342.9620667579504,40.301711070855966,91.10042584955184,81.99816565844367,122.08294575558769,49.20970501956348,29.46028632953094,47.126458371518325,49.49184952444937,30.424365849088066,26.140018028134957,19.780422676098667,20.82788714015418,1.1932089016362049,0.6280710141878861,25
885,AC88FD2FD15D,None,None,F,1997-12-31,None,sanperuoymilanesio@prodigy.net.mx,None,Form,0.0,0.0,0.0,0.0,0.0,88FD2FD15D,209.3378568509528,1862.0723295218347,217.9310479779833,18.176319592999256,148.97776772547584,49.74050193135559,5.539233193128524,34.693900293797796,14.115421237497838,26.900664439679126,26.442972898779132,19.876836415128523,18.80009681485573,12.987941776326032,7.0533039479739195,0.27351302760643664,1.5990256547601578,1.9981634202936909,0.48310327957150134,23
890,ACEE9E6114A0,None,None,M,2006-01-25,None,jesusdotor692@gmail.com,None,Form,0.0,0.0,0.0,0.0,0.0,EE9E6114A0,11040.872470226786,14717.2862552502,234.80229231262737,274.281964812153,180.88673234071098,193.9525457696132,125.18312854709752,372.34415594118224,479.69074181788915,476.1622443811245,11.952548996517445,7.236009484126236,116.28969279760162,51.9922612101677,75.31703905422668,7.429361372620211,12.522335255975625,1.7680404839397337,5.030179945440019,15
895,ACF6F7E5E30F,None,None,M,1987-04-23,None,ferfueriv@hotmail.com,None,Form,0.0,0.0,0.0,0.0,0.0,F6F7E5E30F,2315.5288374547913,777.2596175423262,313.76228081793397,149.01612003177718,253.88142845922633,139.1783015863819,118.25470776210126,100.39724923501763,58.442668578849165,10.337165739508336,19.195668205878746,16.3851143718941,43.662636760527825,13.442786774645043,3.2337846201534957,8.027958725016601,9.986820034651878,2.706176460859929,0.3006768384573646,34
902,B055086CA66B,None,None,M,2006-01-25,None,perezfernandezjosefina12@gmail.com,None,Form,0.0,0.0,0.0,0.0,0.0,55086CA66B,12638.37182423201,3338.710100004175,1104.6939038203773,802.8425631015779,583.6020067186247,128.85366140985508,260.2418114655362,328.15677744083723,212.82866454088597,74.58702890445616,55.25389623875219,177.6577573580306,120.90170157966574,94.10504520043446,24.703469103217795,30.785815059205053,26.743858949189615,11.036460783295528,1.9236540898718228,15
906,B06FE0A73DC6,None,None,M,2000-01-01,None,alexurbanom@gmail.com,None,Form,0.0,0.0,0.0,0.0,0.0,6FE0A73DC6,563.0389300415669,1458.2347187209848,171.5902461737748,4.954004896686974,21.451015207322378,17.377551254342997,64.2882009898602,18.960628286486685,13.57953391952304,10.345020630342233,14.657006833533567,29.837603966093784,29.91786453404095,24.441887380886726,0.25174284067123887,2.2865297546757355,8.997042503838074,2.268387467909213,0.5220845974594659,21
909,B0702D3225B1,None,None,F,1979-01-12,None,velazquez.lena@yahoo.com.mx,None,Form,0.0,0.0,0.0,0.0,0.0,702D3225B1,424.67197404192456,3939.0643067961014,330.69985886744706,95.90168947283979,236.93954730339405,19.69591467141824,42.50199990402856,59.08388075662175,4.859903788261079,91.86322754325126,17.785622115118862,13.778017798672936,44.87962485190509,35.113944940057166,24.38486416972251,7.695139867252416,12.224545812242873,0.698323167645764,1.1576141320963336,42
916,B0E5ED69E336,None,None,M,1983-02-18,None,charlienava.l18@gmail.com,None,Form,0.0,0.0,0.0,0.0,0.0,E5ED69E336,16661.90859097807,2278.1748923510927,155.75569743071637,289.9438789120368,358.1555929365216,84.90385231054192,92.69087169790733,273.2334911434152,41.51915252909778,125.2719982914115,156.94426408924443,173.40035106924597,21.204577667919832,126.17605313676388,24.685801613967648,27.911621616812095,40.36854760109776,2.038495636820664,3.7122689873179957,38
926,B4BFF62A2CC3,Maik,VazQuez,M,1988-09-06,Ciudad de México,miky_880906@hotmail.com,None,Facebook,2894140867310463.0,0.0,0.0,0.0,0.0,BFF62A2CC3,11339.077745729013,4063.2695690005157,1299.7339832327245,261.65303490861817,498.01141816138886,43.185611900149866,209.6518679797044,62.596097424832806,57.361358678969154,54.11121010238075,79.07407671575244,115.00123186624265,18.7029813422542,30.087813191656416,7.5837351257345516,43.490790006329924,17.06170641535132,1.2867648510952971,0.059003367291599385,32
930,B4BFF6BB786D,Lupita,Lopez,F,1998-02-17,Ciudad de México,guadalupe.penaloza20@iems.edu.mx,None,Facebook,2910558332332589.0,0.0,0.0,0.0,0.0,BFF6BB786D,8875.523028083557,3737.570872952221,280.53352370964035,26.63996794052142,496.949688397563,129.49181676595418,339.40664444635075,50.753662240973405,27.93092686834683,84.35548827721134,55.99189995118966,90.75559498704108,140.021161001162,82.40637929717539,46.3647720051037,45.61398624186683,32.716277293924726,6.6741276088202905,0.300181931379947,23
931,B4BFF6E96C37,None,None,F,1994-02-10,None,ayalayaritza67@gmail.com,None,Form,0.0,0.0,0.0,0.0,0.0,BFF6E96C37,77.00912282740926,888.0996043934397,26.42204338548616,39.237253763537076,61.300697936958024,42.24476082063805,29.925140444057167,41.21455784929616,25.22367761122053,15.89411097212403,7.401378254758412,9.112401721138932,19.213728232481238,3.567130441336618,2.156888409415884,5.150286417688888,6.480531675879749,1.049008780228211,0.2976760629056842,27
940,B85D0A745062,None,None,M,2005-07-23,None,aleckgz@gmail.com,None,Form,0.0,0.0,0.0,0.0,0.0,5D0A745062,1971.4906552903685,102.86649598189415,282.30115171968174,61.151316589558306,172.96623752941161,48.54597262145087,84.8919127828725,56.89296277780351,68.20171728766397,9.881520012443344,38.193279114804604,15.368377530826628,33.373109604259426,4.797703586294508,4.525691799652692,3.509663932679704,6.153276776896559,0.8390513215051213,0.04990373993251142,15
957,B8C3853B09BB,Jose,Espejo,M,1971-04-07,None,josenatividad451jneg@gmail.com,None,Facebook,502271673681529.0,0.0,0.0,0.0,0.0,C3853B09BB,1937.3574280488854,12901.920064686516,1079.7211978041046,99.7434980802,545.2967239415858,21.489650500162394,383.068225363761,365.36009962138314,155.33167070515944,48.6568094011075,74.39310963669297,141.36596226941657,75.75603939562993,32.86256678959376,47.201957528653985,69.83972269209693,43.363921112790536,9.932677344589996,0.3386750776670187,50
963,BC765E4F5BBB,None,None,M,1970-06-05,None,nicocruznapo@gmail.com,None,Form,0.0,0.0,0.0,0.0,0.0,765E4F5BBB,1468.7982842033832,2331.123120577164,247.81924901865582,232.09475483234326,155.79943007025255,162.5398641240942,80.56389312216976,104.89578513461198,58.60344496570464,108.95157347566509,45.42925836901354,22.702463321181536,0.6129162416100893,37.61809684109407,10.077505119482463,12.694861182650433,2.6064395390945765,3.5240597038960138,0.5450001579328935,50
1011,C08C71D5C02D,None,None,M,1981-09-09,None,isildur_e@yahoo.com.mx,None,Form,0.0,0.0,0.0,0.0,0.0,8C71D5C02D,223.98053087684792,159.41199094520925,65.88994678693683,39.474894827653905,35.12501907028755,1.3647727605575906,21.881762891409444,24.68653925128477,9.271405432171937,16.07458919103683,9.057294852093651,4.503998829297544,11.325936640188543,4.163594910737054,0.39643682849274886,2.1425821030322347,0.8709401098993077,0.3025331104310321,0.07523058243193792,39
1017,C0B65843AE18,None,None,F,1994-11-28,None,lola2573@gmail.com,None,Form,0.0,0.0,0.0,0.0,0.0,B65843AE18,185.05976263584904,1448.9073846693702,190.00770164598612,43.897661818513306,127.29558233956223,24.62319842396599,78.44287497121049,47.323547028726914,8.281359606107026,51.09349407475238,23.758191562021192,3.7785332862415886,21.303976946435018,25.017324395329215,2.7475070076913477,11.632755319600339,0.12777811731425454,1.0903917425365357,0.6109744087871016,26
1042,C8FF284FE391,None,None,M,2006-01-25,None,coronaf@sanborns.com.mx,None,Form,0.0,0.0,0.0,0.0,0.0,FF284FE391,10591.26578610842,253.54031116996993,503.304359398465,449.1808753685705,167.32942329971488,327.6888145163819,222.01136242267958,59.58722246432868,237.5011362058761,156.02408632526942,58.69581338563452,127.07060053329346,55.88415667323382,33.58242775887902,10.338811900718357,36.88459980957353,38.71394010559455,7.81821866323986,1.5780538901555974,15
1046,CC464EB7F2DA,None,None,F,1996-07-07,None,hbx@gmail.com,None,Form,0.0,0.0,0.0,0.0,0.0,464EB7F2DA,384.54663865605033,1544.854450425022,235.68020223065076,13.564766348386033,95.6650436897631,73.73795449686895,15.51686158930572,57.26687947808734,32.89915122751567,39.2407146566261,25.091500179642246,8.526897093088989,24.37139747684025,5.512930497817017,5.959695855521079,1.7606166141414998,5.118210599909745,1.6380045389924025,0.048084345770516075,24
1092,D00401F5F921,None,None,M,1997-12-31,None,pmmau16@yahoo.com.mx,None,Form,0.0,0.0,0.0,0.0,0.0,0401F5F921,461.1332509784848,1377.9212629126134,36.16236310397778,129.30249190788098,22.14008440320609,81.4729910892951,23.610538951056075,77.68914897789915,57.80240500361406,15.64141732630772,5.278123936197764,24.884783026523046,23.743777495922778,26.639653371688215,1.0059528868337115,2.805304788443311,2.8387902965388903,0.5466566615490528,0.3810028819691416,23
1100,D02B20BA3925,None,None,M,1967-10-17,None,phcuisinier@gmail.com,None,Form,0.0,0.0,0.0,0.0,0.0,2B20BA3925,696.4871600400285,1715.7118831857272,267.3997978322924,154.1836282876144,71.98534600521882,100.54967234882956,83.14110972940384,91.25092709786671,25.309966462068925,14.939307262403297,16.0979260435697,3.9680423982575297,14.751033037542724,24.76123438144529,8.705085900236737,9.562889228274793,6.6543327216437715,2.4913417298808,0.049316307695355784,53
1110,D07714485872,David,Reyes,M,1980-02-04,Ciudad de México,daviopr@gmail.com,None,Facebook,1230873527112775.0,0.0,0.0,0.0,0.0,7714485872,3018.4565039100644,392.92432389632927,127.39505420881187,25.936224323317614,201.2087117247806,40.78793254310442,63.66719852255916,99.5732318538839,72.09797552203466,21.15662204217479,5.173074842178847,23.14729143783235,38.246068463474856,28.865129245021016,0.5841515111046389,0.6090997749837344,5.0545442875223126,3.3783488268341584,0.7385130639873342,41
1112,D0771489A0F7,SANDRA,PARRA,F,1979-04-11,None,parraceron79@gmail.com,None,Form,0.0,0.0,0.0,0.0,0.0,771489A0F7,435.51663471207917,92.01115822949289,42.59154892482034,35.689230573051645,31.446710897677274,3.985790437354185,10.498820595713024,31.285100617558957,15.211873262455189,7.200303403060223,0.8315772825773238,12.872438019856371,3.3946503602029447,6.9674393469143565,0.4791744752463395,1.3965290056831838,4.202855126217997,0.3460490277154099,0.0721157023232446,42
1137,D461DABCBF4A,None,None,F,1979-01-12,None,evelazquez35@yahoo.es,None,Form,0.0,0.0,0.0,0.0,0.0,61DABCBF4A,7625.324777098396,10406.387548959055,1757.748512547886,522.7731228457411,1039.3840130593412,369.3759047090718,28.13323834219662,148.5483293793126,259.15843931981107,13.414981646885787,134.96475747106226,199.11873232769761,5.286030085040369,108.50956879763747,23.589229518862922,64.40101886379023,68.01508532949578,9.565111888563772,4.301597810156351,42
1139,D463C60F2656,None,None,M,2006-01-25,None,cabhecas@hotmail.com,None,Form,0.0,0.0,0.0,0.0,0.0,63C60F2656,466.3877126291409,108.49041424725934,77.89799858019757,26.09643667288712,38.61911183925533,23.35715166307548,34.392543781227225,36.88993159616911,1.6703585230502989,13.542685528652694,4.633767208524798,11.685286118595121,1.3628716070947184,0.24539760462143878,0.3080562850617785,6.146807137240661,1.0102097255632856,1.0758027877457599,0.18745646463728177,15
1148,D463C68DA2AA,None,None,M,1976-06-22,None,fvertigo06@yahoo.com.mx,None,Form,0.0,0.0,0.0,0.0,0.0,63C68DA2AA,481.6812037105924,1628.2492996262247,108.93364808352085,167.59966505798124,186.40907142743026,38.6346254281122,19.298730976208713,18.430529641587743,73.31549246130967,70.4534061509316,14.23012616540805,9.744987809785764,22.024323923380578,17.196186161342876,7.2931162995724685,14.869664064234192,0.961897791418095,2.3115856965818615,0.3624395243762196,44
1163,D4C94B10FADE,Gabriel ,González ,M,1961-02-14,None,gabriel_gonzalez_cfe@yahoo.com.mx,5541452288,Form,0.0,0.0,0.0,0.0,0.0,C94B10FADE,2116.4647483950853,95.5252009974438,99.24767022497095,158.80753945577328,138.7676159247511,57.22083432546042,8.574947680798932,5.865666631637691,3.216943407229542,36.8033248580524,6.456847077105459,10.708778227043812,35.44822747486215,23.21065761811549,8.066791477772039,10.833998991514829,5.194003177924783,0.8463022208299077,0.7399018336281633,60
1170,D4C94B3E0A70,None,None,M,1970-12-10,None,pedrorm@prodigy.net.mx,None,Form,0.0,0.0,0.0,0.0,0.0,C94B3E0A70,1364.0794866906929,321.87559816796625,241.6179024066099,19.295735945103374,29.50491148339047,11.609095272729588,32.684795020009894,16.3560819084807,6.04156711724167,43.41970605285508,27.578451022956283,1.6713891697762255,24.970173295320098,13.21768793158963,1.0735872156534974,1.4656926103912769,2.124029243356191,0.09099124729072396,0.32311819858630125,50
1177,D4C94BF60949,Jhony,Hernandez,M,1992-01-13,None,flakito_jeral@hotmail.com,None,Facebook,2359038677727391.0,0.0,0.0,0.0,0.0,C94BF60949,5799.092884476817,26747.03041678427,1309.8096958952265,1038.8380359835837,772.5474805531511,106.62111222143047,168.8888153310118,452.15043606159384,589.1252337086017,638.4805564844753,119.17585675117743,282.367238010506,98.39762292157572,102.79809896286488,28.913331232458063,36.36708545808285,1.2831949290075906,17.678286981892523,3.434617252284155,29
1181,D80B9A68CE62,Christian,Medrano Hernandez,M,1988-10-31,"Mexico City, Mexico",elcache1507@hotmail.com,5526636790,Facebook,2497179763841684.0,0.0,0.0,0.0,0.0,0B9A68CE62,588.271215857237,603.3004494325377,49.286257647434105,68.38759099655097,31.90182014946975,33.13879679153943,2.0269309169758283,4.727570913522268,10.494637272798366,13.717635733333285,23.374527043640466,6.1640159406057435,13.989369411318195,7.51775184494957,4.005230802146517,8.13209158309858,2.7021936988905875,0.5961663997920443,0.2657475641594405,32
1205,DC74A8F91FC0,None,None,M,1981-09-28,None,brauoz.rodriguez@gmail.com,None,Form,0.0,0.0,0.0,0.0,0.0,74A8F91FC0,456.9308406888066,20172.072503869178,1045.3020116347245,733.8994967085582,1048.650261214491,96.97967911531155,298.99707463364166,340.84828843296367,169.0739217017797,19.598635449988546,233.59935318032475,56.537647287216686,69.20395937152198,93.09788942086381,27.35334309270728,85.9446962383105,51.13823681984094,14.34991314852912,4.422247991239089,39
1211,DCBFE92D48D7,Gregorio,Alvarez Aguilar,M,1971-09-29,Ciudad de México,galvarez2909@hotmail.com,None,Facebook,3496900450382132.0,0.0,0.0,0.0,0.0,BFE92D48D7,5879.390490893489,2098.269119119567,263.9411118693253,111.39318211617224,211.55468743142345,29.65862635019385,27.829262410031344,197.29964403347805,177.22853210830354,14.820346286519264,22.468011552875808,82.51477346433583,2.602325179355525,29.047124491230793,31.12982951822225,4.769900272742105,28.019174380187206,3.794127092740867,0.269731429804684,49
1222,E05F45B2F11E,Álvaro,González Martínez de Lecea,None,1979-08-28,None,aglecea@hotmail.com,659052727,Facebook,2727704290621051.0,0.0,0.0,0.0,0.0,5F45B2F11E,372.02263039673574,110.29767357593583,28.845000894834698,57.450817968339805,19.123268512358944,28.482476441259728,18.39655383874062,5.531508921925633,18.615318214789784,11.33940705354751,5.710014169976264,11.025798968893053,6.471295687098503,9.072629569116597,2.1384446133453756,2.8368395929472943,2.328118280737335,0.15893975544743932,0.15326354396990205,41
1223,E062675C2CF9,Felix,Hernandez,M,1989-10-10,None,t.h.e.spy@hotmail.com,None,Facebook,792750851076145.0,0.0,0.0,0.0,0.0,62675C2CF9,595.0879750658955,1026.5247111533615,36.67649701673423,12.292627465121925,91.70064889457234,37.65501044850666,31.033324202570025,44.2999146150544,26.461540045644824,49.60568053189613,15.734263343694458,16.293936753851447,25.06592900102058,2.7145874201298286,1.9276426192017988,7.74008494742095,4.565173594289151,2.1367100998119923,0.48374278122243214,31
1256,E8508BE37923,None,None,M,1972-02-01,None,breme537@gmail.com,None,Form,0.0,0.0,0.0,0.0,0.0,508BE37923,829.8025724029184,2538.883110814087,438.30116888336624,175.39554448844086,201.94657811236453,88.62581798672944,27.876675543049505,85.16449610315702,27.535418237320208,29.037623209381895,7.3702092232145215,52.240844531080825,5.940357934879673,6.605510726670614,8.394189937798133,20.96925794404579,15.362431985829717,0.16461796546806157,0.38357397019765055,49
1261,EC1F723D2B97,None,None,F,1986-06-06,None,alita1105@gmail.com,None,Form,0.0,0.0,0.0,0.0,0.0,1F723D2B97,1828.4635954246796,2530.661880401492,357.3187358772243,319.6481608009054,101.7454411359383,118.66725872045363,149.05899891922698,2.1085353239424047,79.96006328775854,96.62642340275953,58.909624821900614,57.188025293359004,30.77294781655039,34.218847706443846,3.1946154732331213,8.635816907668014,4.6515646364524805,2.0157613114198676,1.1537027385921093,34
1282,F08A76083F1E,Jezz,Jime,F,1987-07-28,"Tlaxco, Tlaxcala, Mexico",ale_bebita07@hotmail.com,None,Facebook,1428099247327796.0,0.0,0.0,0.0,0.0,8A76083F1E,3020.6132787422666,5549.6021049174515,859.8706338913174,43.331579433248585,285.4462023535299,279.94553030939096,157.30175099087668,258.96909413929046,17.935286443912204,173.37847379848813,67.7379172826356,105.61657101015628,34.15070735842382,1.022753178083724,35.59255675493218,23.65670852193728,12.647965063960918,0.9250811532910526,0.2558046568040834,33
1314,F8388084586E,Viridiana,Stahl,F,1987-10-22,Ciudad de México,aguirrevalks@gmail.com,None,Facebook,2994012340644690.0,0.0,0.0,0.0,0.0,388084586E,1250.678782209705,814.8883042614684,232.77311595794956,120.95520109598934,102.14607080384977,54.065265567165376,53.3167973660335,7.943537693956318,13.193702505993436,25.553220756542746,29.86554984417245,17.940875864030012,30.35922342457729,6.250591614286846,12.506114579871904,4.284528772311712,3.137263306574181,0.6374108068703087,0.504443568651447,33
1320,F887F17511A0,None,None,M,1988-08-26,None,nora.marayal@gmail.com,None,Form,0.0,0.0,0.0,0.0,0.0,87F17511A0,3919.898642064413,19658.136995847977,320.3217101153094,88.85497037161456,1020.4086438129327,477.86645494358976,389.00286946460415,50.70204266475919,165.8118274606367,245.6420416951362,108.67815484566525,239.03641656942855,53.28935884834548,88.15536592762992,54.84150679647272,94.7392420647759,27.722820351095244,5.04458242134727,0.8463537342716139,32
1336,FC183C22AB68,None,None,M,1982-02-01,None,benguia82@outlook.com,None,Form,0.0,0.0,0.0,0.0,0.0,183C22AB68,1289.8786850685874,5938.543016980231,265.899949953083,222.41890234841543,296.9122485643187,226.4192788699249,192.5783715860875,177.50067588304296,60.31900726599975,130.9304276029182,8.086141718102507,34.72467686788474,74.38049915350418,36.669116216524316,25.088799438796165,30.236052701646287,29.095708131043995,2.1498728057689647,0.16856884412068815,39
1337,FC183C9A116A,None,None,F,1990-03-24,None,cinthia240390@icloud.com,None,Form,0.0,0.0,0.0,0.0,0.0,183C9A116A,125.72443459344451,411.9459674391295,46.7135804934518,57.16727632140822,35.413217289036595,1.4030885234789992,8.029487723160857,23.696677724052563,4.431311541053737,12.214034841763612,13.173890191539614,2.738289862950737,4.716558002882727,6.2145259300400255,1.992949773605571,3.615745349749389,1.5669378773292038,0.12068284969470978,0.12134367222744592,31
1339,FC2D5E286E0F,None,None,M,1966-10-03,None,mepafco@hotmail.com,None,Form,0.0,0.0,0.0,0.0,0.0,2D5E286E0F,295.6037871805217,415.29328082417413,41.85611610008155,60.372978169652264,52.094072414388044,48.24736540658852,37.85555052670306,41.498108274457834,16.685510224747865,18.011337435526606,19.37592064352651,3.6866137150396967,5.366914026452088,8.558368327492877,3.395931333165954,2.9286141088807662,5.833037730134246,0.9966948387504826,0.33979871971579056,54
1341,FC2D5EB96E07,Orlando,Aparicio,M,1983-12-10,Ciudad de México,itachirasingan@hotmail.com,None,Facebook,1519794668181132.0,0.0,0.0,0.0,0.0,2D5EB96E07,2246.554325187422,22361.728210263467,816.2701129151056,603.8783267954246,600.8244537335092,130.03193152379689,285.3686416390952,114.74976742342244,193.6094749540641,339.0064320248767,110.5469260147863,149.1873775216354,31.12217123631239,179.6964772602738,25.09729040922564,66.26950046230617,69.66347440772829,7.656741511289527,4.738364716256231,37
1345,FC8743CC9CE6,Fabian,Ruiz Flores,M,1984-01-20,Naucalpan de Juárez,fchavez.fc790@gmail.com,None,Facebook,2526663440934353.0,0.0,0.0,0.0,0.0,8743CC9CE6,7437.96868847232,995.0291788893013,875.0149808375872,511.31553026125346,324.9785469562442,4.805278703203422,231.06521942214692,184.5177287622903,210.7008827591266,180.97891836253058,121.33559270287965,27.831240388498898,68.19611231441846,56.74109833615462,20.278957000948036,44.92949508758319,18.88604215021197,0.2176585329625567,1.208850060338447,37
1368,FCAB90BCCBFB,None,None,F,2006-08-01,None,stefany.alanis@hotmail.com,None,Form,0.0,0.0,0.0,0.0,0.0,AB90BCCBFB,162.0308576827547,362.7029320199778,108.51338825697906,17.898883562026008,47.90554309235264,17.420789114629603,4.812345214011526,31.797564945911386,20.930812039055073,27.10997317960865,7.713926429279739,9.377078954854577,8.82831690906522,5.634980088076989,1.867067482032262,5.271841405630102,2.032033512721555,0.03083746888245685,0.12082864215033026,14
