,client_mac,first_name,last_name,gender,date_of_birth,location,email,mobile,source,facebook_id,twitter_id,instagram_id,linkedin_id,oneclick_id,client_mac10,Relojería / Joyería,Restaurante,Lentes,Discos,Libros,Otros de farmacia,Tabacos,Pastelería,Zona de exclusión,Parafarmacia,Dulcería,Dermatología ,Novedades,Fotografía,Farmacia,Caballeros,Juguetes,age
103,1CB7963CAA86,Karen,Quiroz,F,1993-05-21,Ciudad de México,lucesita_2105@hotmail.com,None,Facebook,1.022111261495578e+16,0.0,0.0,0.0,0.0,B7963CAA86,3469.2129703823352,5517.459968579845,600.043161819742,110.19241371753375,110.72837129278382,137.632738499971,167.87527807994766,77.1746922947771,0.9307770739486653,14.293599832072196,34.196437999583516,35.63004827753193,30.0082313983011,34.47234801524475,35.911309816493294,15.800056484120054,11.43759643576788,28
113,20F47840F098,Juan Carlos,Mendoza Morales,M,1996-03-01,None,ianmendoza3105@gmail.com,None,Facebook,282681896464530.0,0.0,0.0,0.0,0.0,F47840F098,2489.102568427321,123.49684233588967,16.932855524960804,90.34667628851889,126.98407341105964,53.05286821648353,13.25676358928792,54.39149849222806,15.64349912219329,7.538150480957518,13.509404162578964,22.3207291341304,0.36939582157413037,10.038469074754197,10.211826743090205,7.3025329684374665,3.501846206533978,25
128,24DF6A139788,None,None,M,1989-11-28,None,tetotaty211016@gmail.com,None,Form,0.0,0.0,0.0,0.0,0.0,DF6A139788,480.6666071018293,126.7820787810161,1.6440161505087227,46.739193878497794,10.240900770381065,1.8564647433927663,17.859438558634583,2.4162926052986324,15.534805103165368,0.7438948014750176,4.82472070022813,4.536274038916385,1.81690879003183,6.229359376721456,0.015460141467727654,3.3672146231423215,0.7263698352927385,31
190,38539C86FF0F,None,None,M,1991-02-14,None,lizethtamayo0214@gmail.com,None,Form,0.0,0.0,0.0,0.0,0.0,539C86FF0F,993.7419579749522,7909.8394442270355,302.1782351374854,15.686575487658914,386.9350323864314,4.440095035071338,78.53361009168579,156.32970414374097,60.729352715322605,56.153893459383156,76.51315302794666,83.84574508932839,43.491557935722156,28.12974493091682,34.7441076891032,12.223617864827034,1.4841728033870805,30
215,403F8C4905E5,Booster,Pensador Pinturas,M,1997-07-25,Oaxaca de Juárez,g.erson@live.com.mx,None,Facebook,3107451712649345.0,0.0,0.0,0.0,0.0,3F8C4905E5,87.05829002869505,1083.3182732915238,13.777500766402909,87.02317167668414,9.780767950046357,10.558772012408223,3.8449707014836503,8.168787088222754,14.406437949505364,19.96658098301232,19.065372685337874,12.384880783763576,7.174353120776057,5.979157541869104,6.453239980161389,3.140955016248695,2.898488423858775,23
231,444ADB371196,None,None,M,2002-01-12,None,martinezob@asf.edu.mx,None,Form,0.0,0.0,0.0,0.0,0.0,4ADB371196,12737.410118061493,7472.596096808309,590.3028354550183,474.90103259489734,106.9340018797893,174.98303349725694,204.58946168171923,213.43962907515407,13.847734900938315,202.43899303110928,147.05066240868274,60.04539265609357,35.732885595116116,63.533040586192364,29.813104523086434,27.199776119818164,13.182201125330186,19
241,44D79170E4C1,Oscar,López,M,1995-02-08,"Cuauhtémoc, Distrito Federal, Mexico",oscarchivas_619@hotmail.com,None,Facebook,3615390245199391.0,0.0,0.0,0.0,0.0,D79170E4C1,760.5558300777249,604.0428679967689,60.716747303526084,46.65576375243978,76.21613837809109,21.6572301051348,44.97175171797734,30.16915968514503,32.09489576488108,21.926581604597033,22.567689987758396,19.79051344383472,10.513108611739773,3.7126983407868126,4.000218272988819,3.6503121265148915,2.7584928300906326,26
246,483FE9EB99CA,Miguel Angel,Silis,M,1986-06-27,None,miguelangelsilis03@gmail.com,None,Facebook,119076849641602.0,0.0,0.0,0.0,0.0,3FE9EB99CA,6755.4601353312355,2102.0109622515192,55.477795909410894,290.3389810031704,350.2430768854121,191.77967575659784,2.29085543355546,128.8645405020266,87.26372644035142,79.12413325526686,39.0696105757136,16.526323947505215,55.362658282084844,20.199228155103967,13.255960160633299,9.204285333226816,1.5280507771850917,34
269,508A0FFBA4C6,None,None,F,1982-06-29,None,marceloaguilarhdz@gmail.com,None,Form,0.0,0.0,0.0,0.0,0.0,8A0FFBA4C6,9899.269471523623,6918.337708279518,775.7218215338983,551.2889834269108,419.0499942925775,112.28724759092601,49.68332613436888,242.58748708095942,61.34030612268504,49.02410028463538,146.4693494464187,96.03753205943617,45.72266483170683,25.37920722279813,11.426504714839293,12.324386660777146,11.049908793926955,38
283,587F57F2418B,Sheila,Ram,M,2001-11-02,Bogotá,montoyaariel@gmail.com,5547834492,Facebook,936562233349723.0,0.0,0.0,0.0,0.0,7F57F2418B,6791.811271351738,4514.582496103725,136.32756435981125,496.0166430751567,408.9551564954661,25.46408738852272,4.965719600511316,189.9923163288787,119.38457331254598,28.181872287700017,149.3864924752835,105.71266552786177,43.06686078923856,1.3264252914968944,4.9011955506822575,26.952917884976447,11.971742176406366,19
291,58D9C3B995AE,Xöch,Rodriguez,F,1996-04-05,Guadalajara (México),love_thara@hotmail.com,None,Facebook,1418330088335807.0,0.0,0.0,0.0,0.0,D9C3B995AE,4467.5625139065505,18981.693226457533,381.74861830928677,81.1398699049569,726.2834825926361,362.80330939457275,82.38570579400107,46.08419012131008,65.23045716559695,212.73799248302592,216.97856724910207,6.259869964776929,59.52374364121235,75.21483624483963,38.62924779119535,36.656188732021185,29.068180247386966,25
307,601466F3D78F,Omar,Valdiviezo Antonio,M,1987-01-01,None,valdi.rami@gmail.com,5562013391,Form,0.0,0.0,0.0,0.0,0.0,1466F3D78F,3263.0223223233465,21559.860231443956,1318.8980408101165,863.6879796318246,955.2913297189942,450.5891705588952,214.8653571884632,34.900786865451515,297.9981606864575,239.41525015155278,245.15560219953707,108.41798107124582,34.83579321333729,144.8620808642397,66.74080051283899,12.699720008193006,17.759392751556486,34
344,6CB7490579A2,None,None,F,1973-07-29,None,azucenadelcastillo111@gmail.com,None,Form,0.0,0.0,0.0,0.0,0.0,B7490579A2,14760.913445998332,2639.414783185648,379.4473836327178,673.6897538489272,145.83524849504585,102.16409942071593,175.0934741704094,78.04364934754925,253.19025884893824,97.64261732101436,117.69084410693044,149.8446916883022,30.27694411163754,83.79567777245106,57.09558362196945,30.454089136886736,6.4074552925170325,47
349,703A512EA44B,None,None,M,1997-12-31,None,kevinbibrush77@gmail.com,None,Form,0.0,0.0,0.0,0.0,0.0,3A512EA44B,18830.319718742026,643.7122000977896,196.74471698177533,673.3322555871969,473.7031982933557,89.11476864236258,179.1926376247576,71.40901610524611,203.84558899466992,258.3619332810123,130.11635386653316,184.62745423734768,94.10451830421792,76.647688284854,15.61907457720591,36.64439054103752,3.504485838606854,23
351,703A518D9148,None,None,M,1979-05-16,None,gerodri@yahoo.com.mx,None,Form,0.0,0.0,0.0,0.0,0.0,3A518D9148,22807.836406554667,1617.2050235198087,553.8696986115804,317.0587160295682,25.070941922536626,190.7071494618447,334.7490726788256,84.91700541204418,22.407433031592504,36.49038133223549,71.48728566033033,145.4227650758351,75.93447091766313,78.93080606223154,57.68627041622015,52.513964430000584,30.712608883018476,42
361,74428B2A99E6,None,None,M,1986-03-17,None,wilsps@hotmail.com,None,Form,0.0,0.0,0.0,0.0,0.0,428B2A99E6,926.207044786643,1391.3953805166932,234.02301192860435,77.37400223809095,77.8481597442735,68.19925603797478,40.59782757674765,5.297830859842997,42.93276536827942,21.98665559635116,46.06769095097682,14.82864847566311,8.424984386878306,2.18034797472336,10.193171422839768,8.237549158339519,3.2056729770793058,35
379,7C9A1DD886BD,Jhonan,Hernandez,M,1997-04-11,Miami,jonan_557@hotmail.com,None,Facebook,3025014344210125.0,0.0,0.0,0.0,0.0,9A1DD886BD,636.3428044484747,3031.235813754115,86.84792391729168,134.88346119085773,68.62141782858085,77.87899866598353,29.463433059866578,28.52671335774561,25.155962450649813,48.452729651688365,50.07487990156305,31.317680698361066,8.717095882197293,12.66400977903379,13.870341916047897,10.557037506707204,4.389695990835135,24
380,7CA17716C5E3,None,None,M,2000-01-01,None,jmejia71@hotmail.com,None,Form,0.0,0.0,0.0,0.0,0.0,A17716C5E3,138.69250074188417,2547.3417317407784,24.042724198442563,28.042994553242476,53.21307437056945,60.391261150869894,35.04283351879938,33.923182018692266,0.3101026722701268,32.202466096696206,36.09076320644939,18.649636041103157,13.133331421098541,0.7938757778412057,1.1386199682037663,5.771699550088723,1.2192029729699707,21
394,804E7046D3EA,None,None,M,1983-08-30,None,blackhoga@gmail.com,None,Form,0.0,0.0,0.0,0.0,0.0,4E7046D3EA,3940.7428687133583,12462.52826448682,758.5400308471486,275.10186101314605,105.18448839670438,189.124779546394,197.27411187688327,81.636369142783,13.086349252204828,12.023472163414901,129.20152946725636,101.7754959141214,8.85494562526292,39.8391479181985,35.346663827137164,1.020650906088987,12.718970903077167,37
404,881196717513,None,None,M,1997-12-31,None,micatrejolopez@gmail.com,None,Form,0.0,0.0,0.0,0.0,0.0,1196717513,5111.284509115849,11130.8378322663,893.4086673909345,736.3281754419556,117.37753281387562,107.56974359068612,71.76281137220586,161.26260178027326,165.58255052917073,135.4885510411893,123.90336525008112,36.67751257619462,82.73046213473681,74.09514265791192,51.25570567853289,8.517593525110902,31.917242834989178,23
406,88299C3DAA0D,None,None,M,1992-02-12,None,valo_a@hotmail.com,None,Form,0.0,0.0,0.0,0.0,0.0,299C3DAA0D,20449.793678087255,2553.4313624444108,937.5121848666081,75.69244017758878,241.64687653211638,152.01597434290338,306.01447650427826,256.02014658184777,83.06165013436043,224.77857985462887,240.1201885526715,103.76757693828363,94.11011693491267,15.888863525178715,65.40031652479867,16.023147766426256,33.722420231724726,29
411,8864408A6D98,Emmanuel,Rodriguez,M,1986-03-28,"El Paso, Texas",solarphoenix@att.net,None,Facebook,889840858076093.0,0.0,0.0,0.0,0.0,64408A6D98,237.50290328868437,383.7551369462637,26.03806037364754,0.07621153898530943,45.98190718973462,9.127877068364482,23.498482068831915,4.762884671280883,1.2065687290088207,2.9788368562993472,11.666840329231288,3.0388719708212153,4.528414878492852,2.0589247875121157,0.6788338511602973,0.07674290452060664,1.0225025471606668,35
414,88797E4771D6,None,None,M,2000-01-01,None,eduardoguerrazavala@gmail.com,None,Form,0.0,0.0,0.0,0.0,0.0,797E4771D6,14570.352742854942,679.4149585163267,474.27652924301606,363.21748266937595,198.4008325383512,90.77229384880788,202.49885872770923,9.211987088487598,179.08654371740116,71.12007013462454,171.24318496529185,20.341273663340214,89.67079904202376,27.929063709178116,49.46541684379631,11.722718407891142,3.2752440294299023,21
422,8C7967A21DA7,None,None,F,1979-06-27,None,alerdz2004l@gmail.com,None,Form,0.0,0.0,0.0,0.0,0.0,7967A21DA7,12080.857649229645,5923.462823647396,1092.9288074829074,140.44865021375355,743.4900277425149,31.142060724872522,175.07640530128356,234.46394607451418,1.9738358613741522,36.96634012049886,228.3421040120067,130.04118069424945,45.79855028635779,81.9608653983848,35.35767545564096,9.653215688368684,28.035862066236067,41
433,8CF11200AA14,Javier,Perez,M,1995-07-19,None,javierpcruz62@gmail.com,None,Facebook,126610222389211.0,0.0,0.0,0.0,0.0,F11200AA14,6784.998794236621,10270.632679641894,266.22628568224627,351.99564947365593,245.9406384610396,293.4923775903174,266.1430728139123,101.24394491638333,10.246886893983913,54.187471695076525,7.492678117675483,87.60082693502011,75.81847954305023,71.72705435439666,4.545760134723268,6.010255835609139,8.697143674397461,25
443,90633BE80FB9,None,None,F,2006-01-25,None,brayan.mb61@gmail.com,None,Form,0.0,0.0,0.0,0.0,0.0,633BE80FB9,12566.638832747,5502.29292570152,761.068970738998,188.99786455794415,192.1675555083285,185.64015650686423,165.12736807186442,171.76683389711482,112.0875953829879,99.22379086734367,184.55323062034276,47.36028773197883,46.262507549868154,97.81363126824046,48.96204909218797,32.604061929452435,15.432337827962568,15
467,989C570828EC,None,None,None,2006-01-01,None,jscott15153@hotmail.com,None,Form,0.0,0.0,0.0,0.0,0.0,9C570828EC,153.4911866366431,695.7980838501418,46.147552732681426,43.57753404555699,33.799539344178946,21.15430305896432,11.029013089618806,9.247201540917604,22.14665098466972,4.055474819848497,6.356359250861702,4.596164600223898,5.587825833618832,4.550077764005165,0.71272940394552,2.328291542408389,1.4220115017154462,15
493,A4D931297DEE,None,None,M,1952-04-06,None,luisladesh@gmail.com,None,Form,0.0,0.0,0.0,0.0,0.0,D931297DEE,992.5349003917742,205.85756976358786,22.401322888050792,106.89015152745722,30.52203159392792,30.841647330768918,6.526413914326514,33.41465747037513,24.64291867259488,22.374573581265857,1.6037899985522341,16.473763863646035,4.803841036033261,11.811709162874418,6.409899813762818,6.009995440035188,3.880813550966702,69
499,A8515BA42BDB,None,None,M,1984-04-18,None,solecito_cyr@hotmail.com,None,Form,0.0,0.0,0.0,0.0,0.0,515BA42BDB,404.4109115985796,1098.5264748537415,40.00936592759938,17.923049827704116,42.41380367713736,10.029437882332266,8.488014114399043,2.6855787321361366,30.711515484697355,10.98663505948537,9.138397480902594,19.64376769328849,8.932080564563071,4.158587953886942,3.7047686374532103,5.2814630588729905,3.9561474532208423,37
504,A887B3EC7223,Gabriela,Morales,F,1991-02-20,None,gabymotales@gmail.com,5578512488,Facebook,2522005298120559.0,0.0,0.0,0.0,0.0,87B3EC7223,406.82661185451946,98.1154143564937,76.56005289304088,49.29314923481477,25.32568795493881,16.697821048856778,2.9329704963002676,0.006416875903979065,10.472935450404755,5.137581916438961,8.256981315446625,4.80435247496286,1.1749754903589242,3.248675155178321,3.0039851650515508,3.736674808287618,0.40571350900176145,30
515,A8DB0367088A,Edgar,Sanchez,M,1991-07-05,None,dyedgarch10@gmail.com,5526849900,Form,0.0,0.0,0.0,0.0,0.0,DB0367088A,1398.4119648775172,17300.227866707093,1047.8166624964508,711.5665501469196,487.46278452065457,20.020870321270607,89.95119610161561,231.02475556138614,68.75689853628442,160.10163233317897,123.63287955480075,112.40868950386073,110.29142344219485,75.76298944183687,20.245230987081538,49.388159634459385,13.92944583339858,29
522,AC1F748947A6,Kev,CR,M,1996-02-14,Ciudad de México,irvin_america15@hotmail.com,None,Facebook,1669398506551245.0,0.0,0.0,0.0,0.0,1F748947A6,2417.560612831949,2383.853935880441,335.85092627459704,12.250276313500464,187.49912137542884,107.97744999817937,91.59958123574218,33.38169862810631,60.82910322304834,5.681518312631269,23.381815529760985,41.58475688146015,12.633409380690676,28.046263963315845,15.463451294297965,7.554729883648303,8.851348993201734,25
538,B0702D3225B1,None,None,F,1979-01-12,None,velazquez.lena@yahoo.com.mx,None,Form,0.0,0.0,0.0,0.0,0.0,702D3225B1,13647.916022778849,3092.8817192480933,1050.9292752053077,345.4092725649069,534.9091354294923,281.65421200254343,143.87338735202226,61.585835795337445,203.47847581362257,4.900801780309291,74.81250827339979,116.71684455529298,102.83606429480787,97.06311281873184,35.84355123044023,34.422110444675745,17.767670412160406,42
547,B49D0B98244D,None,None,M,1969-10-09,None,hernandez.torres.alvaro@gmail.com,None,Form,0.0,0.0,0.0,0.0,0.0,9D0B98244D,478.92105472646426,522.232637338088,43.70429007389887,60.63848272452171,29.517555519236883,30.581843783723173,0.6587871920189673,15.443843804790529,14.233333416765616,20.73352717101662,11.876586951434026,17.277780996194718,5.590410487729419,4.155712381488293,2.190041434202467,1.8957341406514032,1.348377857774822,51
563,B8B2F87928F7,Cassandra,Coronel,F,1995-09-04,"Tlalpan, Distrito Federal, Mexico",vampi_barby@hotmail.com,None,Facebook,898901863630037.0,0.0,0.0,0.0,0.0,B2F87928F7,1794.0905794996922,1401.1386839335314,1.0057339799569747,180.28631884269993,101.75133062589838,62.87931750040572,48.0403116914079,43.695344851609704,54.18582403932498,48.78740084029094,30.3776926797399,25.51644769142052,6.862948573210744,18.73997961650935,9.228138324866052,2.0325927846114964,7.381354524824211,25
573,BC765E4F5BBB,None,None,M,1970-06-05,None,nicocruznapo@gmail.com,None,Form,0.0,0.0,0.0,0.0,0.0,765E4F5BBB,13805.332101294769,13800.422439327021,392.3715740248884,897.5291976972319,413.4944526373012,440.68826015008347,233.0933315730229,278.91340205190784,225.23582617343268,351.34754056370986,292.3332185058685,257.8492379457847,21.345819159422415,5.491670207674094,72.77427083608595,72.22570462363676,2.5519532281679003,50
578,BCFFEB182587,Anirak,Galeana Gil,F,1991-11-03,Monterrey,anirak.galeana.gil@hotmail.com,None,Facebook,2713606265387877.0,0.0,0.0,0.0,0.0,FFEB182587,1120.4886833785606,3898.3480180326774,440.69151082238136,368.6874104842918,15.971489728661737,45.703999509217915,101.90895626210944,2.5880464135045713,90.54872192720279,43.00354890070305,86.3196534492229,46.16279560241493,39.24542722022199,24.04616028317981,19.78801059581426,4.308868292804374,0.18869909703023338,29
593,C08C71B4DA43,Aaron,Granados,M,1997-03-13,Ciudad de México,5583146624@gmail.com,None,Facebook,498937507717399.0,0.0,0.0,0.0,0.0,8C71B4DA43,673.0122487623124,3123.7705413370854,4.278906021280285,245.64517246287454,174.01822049329311,29.179267879994008,11.170432623586183,21.35216612066008,20.354404601502768,22.11793130768516,44.04190746071972,14.258143100026404,16.680315250409855,18.613362520931314,12.963153030649453,0.991934015420303,4.551893011568697,24
599,C0B658075DA7,None,None,M,1957-12-28,None,eduardo.castillo@magnatempus.com,None,Form,0.0,0.0,0.0,0.0,0.0,B658075DA7,649.1349375213222,565.9236742685544,59.12905170413547,106.23425943316839,25.404393274955687,23.756539135735306,4.426354464400571,26.317128886341663,6.03239648028535,15.063322658784019,11.439866865118637,0.33876311779949597,1.3665236462833428,7.760994789200014,4.78561238330526,2.4653256477500007,0.4208557228602242,63
630,D016B46E5325,Jonathan,Navarrete,M,1995-07-13,Jiutepec,jonathan_nd@live.com.mx,None,Facebook,2102479173166907.0,0.0,0.0,0.0,0.0,16B46E5325,519.4454025558048,1322.8348212789238,36.036782774334874,162.06196769215003,102.4034872065702,39.64932378176837,40.71058027111099,35.07913096606002,12.502899753397873,23.27366764027819,6.759823363724496,22.27424361039824,3.8742716854070225,2.7419382487263095,5.824610628430303,1.1478454270817684,2.3792031158327993,25
632,D016B47B69D4,Guadalupe,Leyva,F,1978-12-11,None,anayeli.1011@gmail.com,None,Facebook,1128639260806401.0,0.0,0.0,0.0,0.0,16B47B69D4,21053.75137503267,221.57973710189052,1270.1583696721987,578.1647681312579,847.6343800020436,253.29297463120452,245.07032189077367,274.19727560470284,17.04416082956171,110.46897051962443,64.98348488270423,98.61752261498522,24.87252325077887,105.43534212406924,63.00317978531292,17.526830074154056,7.198783852074148,42
660,D4C94BF60949,Jhony,Hernandez,M,1992-01-13,None,flakito_jeral@hotmail.com,None,Facebook,2359038677727391.0,0.0,0.0,0.0,0.0,C94BF60949,2450.064124403256,2252.8816621908536,332.61864033048016,174.69247244482898,12.54407459060377,40.69459571588822,99.44305864876222,9.495866601884005,56.11109578354947,26.94568720498898,48.44161381454037,46.90183476102293,27.52991109575692,22.543331023271538,8.144019991099087,7.004999511226975,3.9430118879871143,29
682,E05F45B2F11E,Álvaro,González Martínez de Lecea,None,1979-08-28,None,aglecea@hotmail.com,659052727,Facebook,2727704290621051.0,0.0,0.0,0.0,0.0,5F45B2F11E,3659.3778052620196,2116.7171689475913,254.73016744571976,83.45038530517061,182.56991365814454,75.51915995565923,28.037978267217714,43.288416969582485,22.023722202267155,53.146394153298594,23.690709767816266,17.347587594347434,25.892563602639843,26.402399354418623,12.373123786867549,7.435783646951691,6.996720080288059,41
683,E062675C6DF6,None,None,M,1979-05-16,None,gearrolo@gmail.com,None,Form,0.0,0.0,0.0,0.0,0.0,62675C6DF6,5698.775008835227,18237.342909344858,529.2955735893856,140.24309297097489,711.145129277913,438.8042367985449,249.3332018813659,310.62867412693623,329.15957578482505,11.868379685410073,3.4713831333942387,60.183774651620794,125.52488049355095,91.29109748749003,2.8349194022863196,21.592147839640337,40.50601469658144,42
687,E0C0D118049C,None,None,M,2006-01-12,None,yhgyjvg@live.com,None,Form,0.0,0.0,0.0,0.0,0.0,C0D118049C,256.4206418597357,320.69306670888824,89.96851306080544,36.95603126745074,46.339556254413274,20.271741412270256,3.0746069204750115,18.538635398274398,6.998396307630961,9.585959740398174,16.687090047321593,8.727226944859304,1.0611523183894103,1.7903794388361651,2.159968314931597,2.1884935827998366,2.5385404225200126,15
699,E4E1305EFEE8,Daian,Vega,F,2000-05-01,None,diansarahi268@gmail.com,None,Facebook,1189188998136087.0,0.0,0.0,0.0,0.0,E1305EFEE8,5506.439792457695,20890.797835665177,925.5226461101569,163.5261204617677,96.78577268788523,200.983445104259,217.14073371662178,98.20667474787776,332.4196078162255,151.98611756330098,78.42022707985883,57.41192910596075,36.542048175087096,33.195454177181055,18.543238063841507,43.60601258543501,24.472344481671374,21
705,EC3CBB685554,Nebur,Zednanreh,None,1974-11-01,"El Marques, Queretaro De Arteaga, Mexico",rarroyoh74@gmail.com,5512134668,Facebook,1117964341904765.0,0.0,0.0,0.0,0.0,3CBB685554,39.90761380459188,600.2415304890551,84.80237511692809,19.2333779515908,1.25925812718257,19.756073787673035,26.749364389445038,10.749721520167126,19.355390925749532,13.023120390543651,10.53869851578088,1.5490674668077935,5.092423368249197,4.256499209092236,1.0171762522054368,1.1471682256024098,0.3211404593352578,46
721,F0D7AA3B18CA,Mika,Likon,F,1971-01-22,Ciudad de México,mikapriest@hotmail.com,None,Facebook,3136984629698538.0,0.0,0.0,0.0,0.0,D7AA3B18CA,2930.133066027554,2343.3083573770773,196.85433425452683,343.9241781448625,220.71529762022547,19.676013580659003,113.21668158082588,17.081631193430002,54.47851009686308,40.798224553744596,29.94436753063198,8.791784051365553,13.436644769377411,17.194753052473157,4.81065065707909,9.016689866399966,3.6188156429047855,50
741,F895C7D4C658,None,None,M,2001-04-15,None,josiasdanielmartinezcastro2@gmail.com,None,Form,0.0,0.0,0.0,0.0,0.0,95C7D4C658,20095.806730181142,221.22056863206936,1282.316477654694,843.0804533792065,127.23740102327008,201.16845854819098,313.0763864432424,195.79868255918058,170.8603866467376,124.90670062962876,87.48873868903303,152.9871671780504,7.929236378402196,114.22299139544567,10.172370583706078,40.591381224638944,18.13586885335858,20
749,F8FFC2E40A37,None,None,F,1988-10-07,None,karla-nasty@hotmail.com,None,Form,0.0,0.0,0.0,0.0,0.0,FFC2E40A37,122.66195226665117,404.8142728155342,50.79989984540353,54.48739924160501,26.80460011446183,12.32371824232698,9.17525204497541,11.289098088124645,8.497888600586524,5.049699001056988,5.882352939218286,7.766157954935907,6.954708443726615,0.07504982105510327,0.2900678839276695,2.7594640859181703,2.368418610492167,32
751,FC183C22AB68,None,None,M,1982-02-01,None,benguia82@outlook.com,None,Form,0.0,0.0,0.0,0.0,0.0,183C22AB68,11782.782543272302,29619.057955945613,1839.5331893904088,645.3983285291273,422.1100921046094,755.6498604353267,289.7953375351091,351.66011536252637,377.839526588938,42.919021729314835,384.710488023321,68.78189336910812,75.97709836969543,28.524058574885267,3.1944010907088214,78.17193142503162,23.894158253970794,39
