,client_mac,first_name,last_name,gender,date_of_birth,location,email,mobile,source,facebook_id,twitter_id,instagram_id,linkedin_id,oneclick_id,client_mac10,Restaurante,Relojería / Joyería,Lentes,Discos,Tabacos,Zona de exclusión,Libros,Otros de farmacia,Fotografía,Pastelería,Parafarmacia,Dulcería,Novedades,Caballeros,Farmacia,Dermatología ,Juguetes,Pasillo juguetes,Pantallas,age
3,BC765E4F5BBB,None,None,M,1970-06-05,None,nicocruznapo@gmail.com,None,Form,0.0,0.0,0.0,0.0,0.0,765E4F5BBB,1603.69450733429,126.41118221217148,95.12135173532225,74.45964498867335,26.121433562783196,49.35797045409185,21.671122576216263,47.52796963300252,29.800241584184498,1.7865595436458972,28.26153588788148,4.00423421757321,14.41161757987496,2.1545145828927037,12.21086360854581,1.3126365796771282,1.2404659273964072,0.23739988222859515,0.21474810954828627,50
15,B0E5ED69E336,None,None,M,1983-02-18,None,charlienava.l18@gmail.com,None,Form,0.0,0.0,0.0,0.0,0.0,E5ED69E336,16119.805925978731,4172.084740219041,1129.647142910775,340.49931574561185,844.2033577047968,177.82707778937177,574.3413432205447,45.56879039712768,58.33270514025336,210.7338436041702,210.05825353011468,141.53733007633562,54.1123115252924,117.54225251909496,96.34793289244391,21.003114997864763,69.77846090484537,11.488465428995562,2.0876354145810234,38
17,90633B7D2B9B,Chioma,Ikpide,F,1998-10-21,Ciudad de México,churu_joviet@hotmail.com,None,Facebook,2790314347713430.0,0.0,0.0,0.0,0.0,633B7D2B9B,14608.495741692308,15423.90261767262,900.5854542627591,1300.0516223220418,133.09661058358802,507.1412349053175,601.817945221007,349.2499240535291,127.47169267599831,12.671661705362318,114.33050674315297,145.38001012523804,197.03901376444318,76.21883754366795,4.439274391488293,118.91464702017082,58.082845058749776,2.1733730105747555,0.9369872479903593,22
20,5820596A8C35,None,None,M,1995-02-16,None,luis.rmz.ipn@gmail.com,None,Form,0.0,0.0,0.0,0.0,0.0,20596A8C35,7953.878115124272,11303.0560139156,324.41416035444394,18.945209037249224,806.1867444975829,160.8701696721482,568.5667204303159,469.81758649686316,172.58502345411532,47.5778162098305,3.5310806095137384,11.581476367359457,87.9878731988391,48.36231325249291,44.778290398205016,74.67544024268558,22.167315912889215,9.77269808115099,2.2459527444431266,26
23,54BAD693A102,None,None,M,2006-01-25,None,sanbornscafecarso@rappi.com,None,Form,0.0,0.0,0.0,0.0,0.0,BAD693A102,41835.32846589197,34271.60690374424,517.453054770566,2222.343778909422,629.7059368520358,2015.0142273213355,1504.4779691715744,1298.3484611215856,433.8099795505088,314.23095446733157,256.0061547094583,416.5567339816651,261.7368662977078,57.93031909637973,83.86972183471643,45.9247851483529,71.79587349760432,9.62410798197217,5.235705651573269,15
32,C08C71D4F5A1,بابلو انطونيو,ألفارادو هيرنانديز,M,1994-11-10,Ciudad de México,pablo.alvarado.94@hotmail.com,None,Facebook,1099261527111645.0,0.0,0.0,0.0,0.0,8C71D4F5A1,15631.286315036787,7995.687061382256,1073.8843238823638,855.6741019150649,177.29098007428584,145.98934065312287,588.5839087578755,430.74153933019244,235.10980254650616,45.28047761738337,221.1625821080811,144.17765036530037,164.67647679162005,148.29597954815824,47.20579155544192,49.72943580772978,84.479630475862,1.77448031289846,2.970121839066766,26
41,18EE6993903E,None,None,M,1983-09-10,None,ola.k.ase.fs63@gmail.com,None,Form,0.0,0.0,0.0,0.0,0.0,EE6993903E,42783.70362135247,33943.50730440982,1357.1210206641783,607.1296717114458,1917.4546564104464,1239.108087217054,901.1649814812866,164.40646577677495,485.7385548432712,629.8541210061009,507.64911448896095,244.04375767417275,473.96040248097427,338.47393153268706,316.5975181444285,167.10848514999594,115.97663729361483,29.844477154178286,4.157191208124047,37
47,D4C94BC6D99C,Luis,Antonio AH,M,1999-06-14,Ciudad de México,alonsoluis001@hotmail.com,None,Facebook,1664083010400975.0,0.0,0.0,0.0,0.0,C94BC6D99C,1456.3677567552406,728.3383724739632,156.80173955718706,161.1938569202836,82.08171414552307,8.683282156265472,54.94079392966325,20.819191122200785,25.280495679183325,33.514542610250125,38.57121436631466,35.21086705925717,20.75352400874158,16.99057883795439,14.711429749739342,2.3747168726890235,13.878480823194135,2.1425961063212777,0.34484682602777916,21
48,FC8743CC9CE6,Fabian,Ruiz Flores,M,1984-01-20,Naucalpan de Juárez,fchavez.fc790@gmail.com,None,Facebook,2526663440934353.0,0.0,0.0,0.0,0.0,8743CC9CE6,1473.310355445646,79.94299583152392,96.6284842855673,81.55779474344692,75.89852813805798,67.66184279222233,81.52763710966995,48.53968293252667,30.62816127722288,5.26653012445319,8.10680946407356,20.06586991527323,9.71491421329981,7.540379577983483,0.045951774111096,9.834753504704029,6.8696042455515345,1.632763851040083,0.2269407736258061,37
59,60720BD94FD5,Jesús Cuauhtémoc,Hernández Benavidez,M,1970-08-19,Ecatepec de Morelos,jesuscuauhtemochernandezbenavi@gmail.com,None,Facebook,140582414026195.0,0.0,0.0,0.0,0.0,720BD94FD5,13122.469699594856,15275.587376631129,656.9579674258655,665.1495302914743,730.0032642708117,647.4224268511296,904.9963938756973,514.1409135408586,194.56883596424487,121.63261866608052,24.731154968514286,98.92383093318014,93.13961102858585,77.9982248326196,132.39915707454225,57.11026830496242,104.39497746658283,14.495313630546715,2.8784346483128314,50
60,AC3743028EB3,None,None,M,1985-10-30,None,willipereztorres2015@gmail.com,None,Form,0.0,0.0,0.0,0.0,0.0,3743028EB3,14329.495581924544,12064.740862791054,1305.9289259118136,1182.7982505144817,165.2510518907474,858.1134055761518,616.2123146621202,211.66403280122685,69.23060950576802,255.9693428785746,98.60454635690196,63.34099010877736,118.36815555164968,115.40244601933321,129.7455326287608,25.787827399964577,82.63070218427183,18.160233321679563,0.5551879721797874,35
67,403F8C1E1947,Barbara,Islas,F,1984-05-27,None,barbikiu27@gmail.com,None,Form,0.0,0.0,0.0,0.0,0.0,3F8C1E1947,21177.94601820741,6549.533955631357,878.6272531047218,1083.9472038169652,659.2690761996619,409.2857464188681,696.8883977383089,457.5903024792656,166.01031817145247,105.26356289892134,211.03616113240483,168.70768680463087,6.54177139932174,54.16572719452771,56.35053568031654,47.62223015189779,67.62721558548114,6.6030233756180285,1.9838140088667324,37
86,38D40BB668C4,None,None,M,1984-11-11,None,jack_anje84@hotmail.com,None,Form,0.0,0.0,0.0,0.0,0.0,D40BB668C4,13953.890972713854,12522.553364333986,271.79471466723066,912.2927762572936,730.4395595989647,63.7194203837503,592.8136024620574,525.835328699079,272.1805147622291,211.3466414601909,85.65867723756205,220.45815736124652,152.69824197229678,109.42071345417126,34.32069216818691,57.618443208995174,88.57868855190026,13.169781754607135,0.20970895239345255,36
108,C0A600C8D953,None,None,M,1983-07-27,None,alejandrowuau2707@gmail.com,None,Form,0.0,0.0,0.0,0.0,0.0,A600C8D953,100.81743979785826,2128.556094194076,188.62787311916492,94.2197677291942,127.95722591146244,2.8443024156122165,50.046818746030624,70.67250589688338,14.312950602979223,31.957325897744276,0.872869270809803,7.6421782050930025,5.967222379210623,3.2378763478529717,17.206498681842806,11.485036930705805,3.9198984972991457,0.4838918183824497,0.17222355779664958,37
128,D4A33D11A399,None,None,F,2001-06-24,None,fernanda_2083@yahoo.es,None,Form,0.0,0.0,0.0,0.0,0.0,A33D11A399,45475.4567276022,30514.984078049532,697.1220902362945,2418.8202148900937,792.8389106146147,1582.1412585740877,1251.4181456571423,399.97750049582163,20.90128379206294,491.79627889630007,228.37568815656599,352.5466720814092,235.85563179932,20.99025763063599,59.48241004952293,230.90658677325231,198.40732957742986,25.089187901119818,6.88974722259682,19
129,B0702D3225B1,None,None,F,1979-01-12,None,velazquez.lena@yahoo.com.mx,None,Form,0.0,0.0,0.0,0.0,0.0,702D3225B1,20044.83755152385,9727.416493307115,1548.4621628673478,1069.0161597206463,532.1488851748459,678.0251532877315,905.3959042961252,500.30785246970237,13.545183962822502,90.98515700860634,264.74013893301026,199.75878868599182,69.50497140408687,162.8398678226657,52.2548053071371,20.460525334155065,98.20311287679745,20.738280997550774,2.3590050198086288,42
132,F82D7C043FEE,None,None,F,1997-01-25,None,elizaldafm@gmail.com,None,Form,0.0,0.0,0.0,0.0,0.0,2D7C043FEE,44222.60624472008,30109.007467220792,1132.5421317501555,2075.9143541657227,2499.131565505737,934.8430424091066,294.0339145621018,952.1186483788184,817.6058929586679,480.4164319654796,562.4078425308534,187.31255759634095,404.435033456141,133.9039312300009,314.29394910041486,191.20013538721005,138.55203668087893,36.520079332147766,2.1547410493353554,24
142,F4BF80BFC206,None,None,None,1983-03-08,None,frey2206@hotmail.com,None,Form,0.0,0.0,0.0,0.0,0.0,BF80BFC206,13443.899511140922,14851.804179550523,242.60863630198543,130.53156259124071,35.14286052914506,334.4763314440456,735.8174769713702,92.82001192291993,104.19859595386637,159.08291413721543,120.17461518057489,237.45098353940227,127.5866812613883,135.61772141026645,2.7034434249715584,108.32013825296762,91.24241892001645,11.215350575035352,1.306566892141451,38
223,D02B20DBAEF8,BeTo,Vazquez,M,1994-02-08,Phoenix,albert020894com@hotmail.com,None,Facebook,3061463280560047.0,0.0,0.0,0.0,0.0,2B20DBAEF8,753.6839785185279,134.79544961981497,72.0363646768083,2.312743468870502,55.2477983749185,44.74939104539052,16.392919536011092,8.678431576432155,24.766610363603643,12.098077128058668,8.54821876410337,13.813250909660232,12.242306916843825,3.797575202854682,8.653306742359925,0.879020868413066,4.874088243165928,0.39116008559599436,0.039307958566724685,27
237,703A512EDC7B,None,None,M,1985-07-05,None,luisfdo2018@gmail.com,None,Form,0.0,0.0,0.0,0.0,0.0,3A512EDC7B,1972.3259267887106,4118.238323539127,259.526199205785,151.87182159892674,149.90158871800205,221.07603981379123,278.204762292339,69.62496302754964,55.02883279037869,74.14569175228242,42.95793178866542,44.802758944537054,44.42357086084407,3.6899549749524776,25.024133285361255,3.529771619542504,0.7210130134404857,4.924834478419317,0.981881507344724,35
261,D4C94B1ABE2F,None,None,M,2006-01-25,None,jguel2705@gmail.com,None,Form,0.0,0.0,0.0,0.0,0.0,C94B1ABE2F,724.1272070845546,150.2163848135608,91.54130289459023,99.67085003568134,34.32799340360284,60.74889099608856,29.037452343355667,30.625450697888553,24.973100200865044,14.165504866311919,16.548533574262176,12.556166212211341,3.752073119989505,6.956712862393154,2.798870839873646,5.880299645174331,0.29259341163018815,0.652665389396482,0.1279476085691737,15
265,143CC3F999C6,None,None,F,1996-06-01,None,k0nejita.jenny.love@gmail.com,None,Form,0.0,0.0,0.0,0.0,0.0,3CC3F999C6,383.3320355344084,335.90910055590234,34.20116357483711,27.928390575477994,10.731174673817813,38.98209347878685,14.583482687408075,5.487566364478807,6.332701231519576,0.7218709119418268,6.2012697624494075,0.1273200084754674,7.600811823212007,3.940582738349285,0.2987886222226309,5.8862835809715195,2.0900206509687305,0.5789776728297039,0.06636555194228333,24
270,FC183C9A116A,None,None,F,1990-03-24,None,cinthia240390@icloud.com,None,Form,0.0,0.0,0.0,0.0,0.0,183C9A116A,721.7960392322251,691.1487598057084,28.19250608960029,101.39368531482253,96.85865070016908,40.33138241719841,20.875338610624897,27.7871946145261,22.252843183461874,25.065255984660762,10.086414575005568,12.608245412108554,8.617376370732483,8.496732038411976,5.74257576687941,4.796752932109923,7.847327798269018,0.9680431195210188,0.13487603396452857,31
273,74428B79E97A,None,None,M,1975-07-08,None,gmarzaroli@icloud.com,None,Form,0.0,0.0,0.0,0.0,0.0,428B79E97A,749.706209203709,1090.809087640285,156.2891330085886,86.69063045646112,74.27149044458218,114.87209706540668,4.855788372126913,55.01761334492424,30.830895618204814,24.326328397325526,12.930935894382435,21.077401401331173,22.329029220167353,13.490811840961491,5.665836705088061,11.411817737054694,12.204907010897028,0.8575792841352498,0.3624073543682852,45
292,A4D931BE77AA,None,None,F,1994-10-01,None,hellofridis@hotmail.com,None,Form,0.0,0.0,0.0,0.0,0.0,D931BE77AA,7361.781281230371,561.3102086890525,473.87537922992493,513.3248512910316,94.97975479916045,105.9985780737295,86.77242922630744,124.48903709586743,113.51212102980196,12.902570453129716,4.684129902146617,15.151455533879018,43.940881192351334,8.103176370069486,1.7915861753530202,39.71275323587762,17.085811785549737,2.3426809240896196,0.2413137623073602,26
322,30074DF5ACC4,Torres,Ic,M,1999-05-25,"Mexico City, Mexico",isaact415@gmail.com,None,Facebook,819078285138934.0,0.0,0.0,0.0,0.0,074DF5ACC4,568.9107365916781,155.14784473119224,83.69112538314525,87.29139018346802,19.678894052332534,56.25411221755297,36.81358488956135,32.42357687095147,21.513558761588992,11.130377766209087,13.715208128760235,16.571748158641498,10.951831506063058,6.291713698009914,5.746073449885948,2.090248290253841,6.391639732890317,1.1826000781469792,0.20373550966826198,21
341,5427585581C4,None,None,M,1980-12-31,None,aybplazacarso@sanborns.net,None,Form,0.0,0.0,0.0,0.0,0.0,27585581C4,45481.74084349639,27138.31409115134,1112.2047511072205,1643.766769671274,2208.781273634238,2014.841006153714,889.548469332517,106.54393159212931,243.02828200243894,556.7881000264517,401.84323190795766,249.13126768915706,127.36819775832436,310.7255277655642,159.14087155426634,40.92463074537626,139.69031100222557,22.550696288543026,7.067747120874776,40
343,8CF112D71BE8,Emmanuel,Carrera Ortega,M,1997-01-11,Ciudad de México,cuvo1085@hotmail.com,None,Facebook,2565149900259994.0,0.0,0.0,0.0,0.0,F112D71BE8,484.0494763894224,2284.542843243932,118.33894348996715,2.3662259141279622,92.33264279406909,125.98453302455871,99.67682453555568,79.591993000458,25.776750280286855,40.12779248042465,35.80881152844752,31.5107728563837,23.731556470018845,25.701975117830674,21.39267953901758,13.91744960180292,14.529702321828013,0.5603486898922132,0.058678721976658896,24
350,F099BF13EF93,None,None,M,1974-03-27,None,pvisual82@gmail.com,None,Form,0.0,0.0,0.0,0.0,0.0,99BF13EF93,2279.0806729939495,157.61776594746937,11.394208247632358,94.27493113817127,54.73939202786132,68.3428658748238,104.3449598698547,22.853954665183764,0.7985805925345814,5.017777673858434,17.1829856911708,10.387843037229182,16.126998643760558,11.531113053393353,2.3776758572623264,6.098764404957952,9.342540788310641,0.47096243391322107,0.016007058662973386,47
364,A4C3F05D9D5A,None,None,M,1987-02-05,None,diego_guerrero07@msn.com,None,Form,0.0,0.0,0.0,0.0,0.0,C3F05D9D5A,32980.93991477257,26924.963052530205,424.6655525954119,311.9218685441497,85.32498672027997,217.42562654350766,551.3311289469945,1093.7867296584748,99.16845664008193,444.97756969230164,138.64970092837785,398.39649071827085,140.79425755218637,129.5704425422963,161.8397365891198,10.036322484195184,22.323845233262524,12.581947895311124,5.302369413016069,34
369,A0CC2B8C7F37,None,None,F,1984-03-27,None,elizetedecampos@gmail.com,None,Form,0.0,0.0,0.0,0.0,0.0,CC2B8C7F37,2087.4911362090365,4718.394338014036,362.22351444227866,41.37487369729458,344.61243467059285,322.4221768047956,37.44172070602452,154.0027735589414,104.37827379975491,90.47135104192114,77.64181280505557,62.67550936027291,4.441870789121834,36.17356591992862,7.50253114556847,28.850923242112234,6.664007990265221,3.2930757862239246,0.9441100167749412,37
374,58D9C364ED52,None,None,M,1992-05-08,None,10392oscar@gmail.com,None,Form,0.0,0.0,0.0,0.0,0.0,D9C364ED52,10495.573029295629,4072.8034632873114,707.521001117251,663.9396621345353,571.2729801177386,119.70620777052068,257.5338115356753,293.4244062730636,104.76048297033876,136.95539674108184,18.099740965250792,118.37616861581908,70.90770342753402,29.160502812948888,60.91137291449302,54.62073488897583,43.867526472711845,9.38416993601511,1.1816387231052254,29
383,404E3639EB23,None,None,M,2006-01-06,None,pereza@sanborns.con.mx,None,Form,0.0,0.0,0.0,0.0,0.0,4E3639EB23,448.2939012270263,2605.0552583788617,232.4234459298161,55.88385540275463,157.10341880937617,152.4454257508177,144.98447574602167,92.4143832322136,59.79738354305274,19.456448109059323,8.094638000556776,6.146377709173968,7.1602216724778005,6.028163282128957,7.281105757976157,0.35949830462118393,15.944306889840895,2.894274565466099,0.23341768875827731,15
468,D463C6412109,None,None,M,1997-03-23,None,lilianaescudero246@gmail.com,None,Form,0.0,0.0,0.0,0.0,0.0,63C6412109,17160.185605533312,14639.800746942263,1389.8055256623836,784.5986144503815,399.2023171100577,616.3664189522195,237.46400009835918,551.8083230451473,331.355777494491,178.19343048609178,44.151139800764376,279.3376487701639,51.697357722594596,183.93883214004583,40.88667951773191,49.39555477470679,30.00088752489279,19.49839751000838,2.3127424643845074,24
475,D8C7717A9BFC,None,None,F,2000-01-08,None,melizita_19@hotmail.com,None,Form,0.0,0.0,0.0,0.0,0.0,C7717A9BFC,118.73050239485282,489.0460051367778,59.65655521270508,10.90023006913926,35.00128089844319,29.571596465020463,26.20737671140837,6.333539338321384,1.2295032542653583,9.326264307897059,9.367363028260918,2.9388044881701942,6.595300109441309,2.4728614503820223,1.4202924428414732,1.5220777867770856,1.0676873035976697,0.611964525502563,0.0007950761960066386,21
481,B49D0B98244D,None,None,M,1969-10-09,None,hernandez.torres.alvaro@gmail.com,None,Form,0.0,0.0,0.0,0.0,0.0,9D0B98244D,15.311748744631661,531.8050362563608,27.929673060997896,39.143996514323355,42.1432833630619,14.123615078672934,7.955663580292653,2.1152219669637424,13.02094067105765,2.5338808423589936,5.338254124173683,6.66536581945792,8.976512178450566,3.84170448260636,2.7917838940398876,4.6283394565046745,4.741581408005061,0.8191896046108148,0.11420895342933016,51
489,20326C3F504F,혜희,염,F,1978-02-04,None,heahee@naver.com,None,Facebook,2608261659239456.0,0.0,0.0,0.0,0.0,326C3F504F,2232.7608508903118,2016.7100913206698,216.73540360754578,159.77723923057408,67.94874229527693,103.31579253390629,37.98780339652213,41.48182194119669,48.03914838857576,8.88229688457511,26.871572886559477,54.99185891435816,37.4466720532015,29.06904477164487,28.959552939094916,3.838639184511369,20.274274025782624,2.5732279049685216,0.33596683072202527,43
490,444ADB371196,None,None,M,2002-01-12,None,martinezob@asf.edu.mx,None,Form,0.0,0.0,0.0,0.0,0.0,4ADB371196,350.03945711190465,1157.7514320994821,95.97580196961174,35.21248357932906,13.759509812322799,60.21015979348994,58.058052886999896,15.451096370529871,32.999066649873264,1.2338805640879371,19.231669373828375,2.1367667262589576,5.611929720560235,0.9412833475080575,1.1342449035847781,4.83740876308671,4.46505029532507,0.7476641297463626,0.20304190247000617,19
540,D461DABCBF4A,None,None,F,1979-01-12,None,evelazquez35@yahoo.es,None,Form,0.0,0.0,0.0,0.0,0.0,61DABCBF4A,29184.197834891278,22324.348994422024,1537.716696360925,998.6629214997439,351.93252704799625,264.3499764154517,1428.3155651466507,854.8681532242301,88.50088311360106,54.05979538878291,80.9066753679947,283.96218223724924,40.19615377573221,101.88722772381195,41.686994596258835,184.15151182723832,145.0770452351951,24.04962501306543,0.1292367127718469,42
564,8CF112D800A6,Serch,Torres,M,1981-08-29,Ciudad de México,sgtorres_10@hotmail.com,None,Facebook,2344902345597498.0,0.0,0.0,0.0,0.0,F112D800A6,374.180740380933,183.53083121205708,73.5391940441209,25.45715949276666,4.759328213433716,23.13892728904777,46.37383534472751,32.1597090367179,6.371779083181049,13.837840818397197,7.267005795023035,9.213732176034297,4.482750490709492,6.840216657082562,2.8016778199835985,5.040032494843753,2.876018878655464,0.0518304916952051,0.07739028058983437,39
624,7460FA7183D8,None,None,None,1990-06-10,None,jessicagarbar@gmail.com,None,Form,0.0,0.0,0.0,0.0,0.0,60FA7183D8,2971.0228076761905,3990.659214723154,269.1661533420305,324.5099474963477,62.928672943086376,159.58913242325332,135.96764239315252,57.42431079617163,52.092943335301065,89.71978298724169,31.047627873372807,27.09014409929582,38.356650861219585,51.65764136329935,4.54439411412165,3.7337881732925036,17.012547203323034,3.1289870061048988,0.3476111900427478,30
634,601466C6EB55,Jose,Jr,None,2000-03-04,"Mexico City, Mexico",cirilo-alvarez.34@outlook.es,None,Facebook,2163068353965680.0,0.0,0.0,0.0,0.0,1466C6EB55,1246.057045677455,1528.3072368472513,125.78762021010337,1.7498032382290574,3.855012909642328,134.2216072477841,76.58320876369805,27.652857174570734,29.64653484628668,16.17312959756107,37.6947374266647,9.125708889544551,27.278302548578637,19.54228026203714,2.016797290599749,4.86286468299843,13.911167807267644,0.42646878459119314,0.10761579513397017,21
650,403F8C27B0AB,Rafael,Ponce,M,1983-12-09,None,rafaelpptrabajo@gmail.com,None,Facebook,1171326566649908.0,0.0,0.0,0.0,0.0,3F8C27B0AB,1802.6363120238163,410.7792375397331,15.448863639796352,137.3234024686919,45.05186308434666,121.56783059086322,66.80339279329588,21.574822656977066,34.024679227024244,30.842902495281546,20.688768419855517,29.149412350989383,3.626933941214889,0.8652251903576571,17.475561342194197,0.3832248381503585,11.752387985985017,0.9835403476343411,0.021639063791757767,37
651,8CF11256F6D8,Rafel,Ponce,M,1978-12-11,None,rafa_sanborns@hotmail.com,None,Facebook,1716195768531936.0,0.0,0.0,0.0,0.0,F11256F6D8,12492.64132921543,12007.904649754819,280.15754472042437,740.386584886973,135.88875945814644,474.8203125519419,12.752687524156194,453.65527853123604,144.6546020222954,115.29350501182336,28.539954845260255,224.59384678291588,168.5910982690933,68.34256716500391,77.71391902877218,7.357729935079083,28.250151038802123,4.10258274409582,2.352896513734512,42
656,587F57F2418B,Sheila,Ram,M,2001-11-02,Bogotá,montoyaariel@gmail.com,5547834492,Facebook,936562233349723.0,0.0,0.0,0.0,0.0,7F57F2418B,18847.21502075926,6209.199550560109,671.3463396340302,1076.0509895476926,688.4879177967055,727.5900387486272,714.0898454810341,73.18018083677374,93.11370861825827,80.36943709926487,58.87407378792259,151.64106977952952,176.06611118846178,144.74251432224702,20.038065315394853,110.69835784946368,17.928000343107513,6.614531673121747,2.754246658991695,19
657,1CB7963CAA86,Karen,Quiroz,F,1993-05-21,Ciudad de México,lucesita_2105@hotmail.com,None,Facebook,1.022111261495578e+16,0.0,0.0,0.0,0.0,B7963CAA86,10284.299848057746,10661.267878503912,594.5295539625547,305.71972228178817,284.5317602203672,170.50842431184128,559.0562098231942,62.433504851971506,168.4077953875459,21.53207622112585,122.34414017989828,79.19689864376797,46.67807986816083,91.67417671790002,23.727075377084333,13.459090422413707,60.92399767741185,9.795804219660722,1.9139632716555601,28
667,8CF11200AA14,Javier,Perez,M,1995-07-19,None,javierpcruz62@gmail.com,None,Facebook,126610222389211.0,0.0,0.0,0.0,0.0,F11200AA14,17829.11530288188,19515.34821021297,1499.7925146160221,67.5120874219235,844.7309899345277,816.3085492261757,820.7054065200375,666.3401456654537,288.799233913743,137.15886566711558,338.2886672845266,256.0175452907426,16.49201344442584,5.46522573222651,101.83846550598389,132.43672106397338,47.20063286420078,13.435110037486949,0.014312716586565931,25
674,BCFFEB19EF91,Zenon,Castro Rosas,M,1968-04-12,Ciudad de México,conecarz@yahoo.com.mx,None,Facebook,2170939059672460.0,0.0,0.0,0.0,0.0,FFEB19EF91,1459.0753521313723,1429.4547552298764,25.824471050431782,148.2039308189173,81.44816889096946,53.94792265913873,80.98387596695764,14.441805304946982,28.66200156799613,36.790508437019035,10.813724498758914,26.432841343247578,1.4153593813351242,19.224255470673462,14.057218211807507,2.225685423662869,3.4507999667917972,2.3672422701824467,0.1800813759150108,53
679,A8967524C395,Guadalupe, BenÃ­tez,M,1888-11-12,None,elsa1211.ian@gmail.com,5569713363,Form,0.0,0.0,0.0,0.0,0.0,967524C395,10290.926804038629,3626.854836838337,665.0954394411126,442.7982006420251,72.11523090674126,395.0117781259882,243.21578142636807,275.9799400041394,65.44924043174555,113.53598809783372,29.855004490503653,123.85750473460186,75.88326233840242,32.58571853589426,26.52682256862336,12.51349712669595,39.24820087190582,3.4221906399365984,0.12455874051320874,32
681,403F8C25E817,None,None,M,1995-07-03,None,luisgerardo.hdz@hotmail.com,None,Form,0.0,0.0,0.0,0.0,0.0,3F8C25E817,7532.851528746765,13868.828349818961,1253.685384461648,848.0323022941237,667.9365816251233,547.7641959481182,338.6955160608964,366.8067789892767,102.0675470754991,250.6276253962879,158.0511709997628,133.40993925237038,134.31045004108861,74.5701897255504,110.94499725167093,31.75951939235952,90.72900944216317,2.336854378560901,0.5920590997699607,25
683,FC2D5EB96E07,Orlando,Aparicio,M,1983-12-10,Ciudad de México,itachirasingan@hotmail.com,None,Facebook,1519794668181132.0,0.0,0.0,0.0,0.0,2D5EB96E07,14558.696386910055,10983.239960390702,26.485335658506035,1034.4436285231877,1002.632201546152,373.222530029344,67.35340961766445,569.0144788172261,208.7689076548187,26.15156966220691,24.01173642608694,64.83882140217162,86.71612228047103,109.23948990196779,62.250860063488304,51.67568589683718,49.28243996304456,10.4175896408804,2.558845615188258,37
692,4888CA2CCF4F,Miguel,Nava,M,1965-09-16,None,mikinava1234@mail.com,None,Facebook,457885718476096.0,0.0,0.0,0.0,0.0,88CA2CCF4F,18259.554969898316,10888.684923631345,228.09895164091915,494.07943263112895,768.9854547607997,36.30865281038879,902.5679520876245,386.6701140098424,296.12999855156323,219.02386124991494,244.32596892770715,4.941430956738009,12.544429420151024,160.8664175100423,19.04415630190469,111.8566336234681,103.28855014155548,15.891623725645607,0.13647812094606598,55
699,90735A59BB48,None,None,M,1968-05-27,None,halbherthoz68@gmail.com,None,Form,0.0,0.0,0.0,0.0,0.0,735A59BB48,309.53776495766664,230.03603034020725,58.86538338719405,17.638858243556665,6.418764075948462,23.4197137200906,15.644718982132838,27.000210265130303,3.553513584660467,11.16908722557684,3.574871661206549,4.576620625093119,5.689444460394307,3.869357694954422,5.406835180189634,0.013688679149726565,4.041096074829977,0.5177247325513903,0.026316109466685514,53
701,8C99E65ABB9B,None,None,M,2002-01-07,None,leomtzgtz.123@gmail.com,None,Form,0.0,0.0,0.0,0.0,0.0,99E65ABB9B,9843.837684998434,5045.747837134893,712.2857357544336,522.0355186866026,610.1544218796099,470.21507222490703,28.679391066663968,307.15288206364147,197.17613837403556,0.9910104661258576,129.82729761998576,43.9479152244218,36.69111874074929,67.3364371413813,39.72184780418509,34.92451560388926,56.89384939642319,8.783276938660478,1.598048880956459,19
712,1496E5321742,None,None,M,1997-04-04,None,luiz.villegazz@gmail.com,None,Form,0.0,0.0,0.0,0.0,0.0,96E5321742,369.4818371328635,205.40801918296117,36.36676277491929,17.261947346573223,0.41728066534682123,9.612505986753643,27.98008622115523,10.636497600216881,6.5106215747241,6.362309938209522,2.904850533521438,0.9156173997778171,1.4682184663524447,5.405540104317347,1.8372811364034483,2.9842817453498727,1.784070300259134,0.6089795511860356,0.05329233910933184,24
714,409C28802AAA,None,None,None,1978-12-12,None,jcp_78@yahoo.com.mx,5535609052,Form,0.0,0.0,0.0,0.0,0.0,9C28802AAA,420.0958291315782,569.8629478673317,98.27509698050207,54.69259122471815,38.52920182462134,58.78993470917743,29.079677363408862,34.54546799778191,22.78155142294317,15.55902823730826,8.315098969346145,5.013461625568131,0.8224873529138496,5.546761216776571,4.152913078580213,4.65661665655754,0.5455408466220757,0.7310736480384661,0.004719846225997972,42
718,601D91776D6F,None,None,M,1965-05-25,None,zamoram@sanborns.com.mx,None,Form,0.0,0.0,0.0,0.0,0.0,1D91776D6F,2211.175187773214,1790.3233679005855,79.80388634972864,88.49151751845018,39.84217493055929,24.280377239190706,81.40366062179949,55.44461717472055,17.975533938315024,47.46782668432716,13.133428615846482,34.16455102886387,13.054057750417321,30.22242758608647,27.4608456985443,19.458450251290884,5.551470443141028,2.1211392912847815,0.6254792036326586,56
719,DC74A8F91FC0,None,None,M,1981-09-28,None,brauoz.rodriguez@gmail.com,None,Form,0.0,0.0,0.0,0.0,0.0,74A8F91FC0,12906.731486632247,8418.616482983392,798.0529038381567,1011.5359352966076,83.44794286672362,30.158468149498084,324.3839248071439,136.0590652296824,110.63211642232167,65.24186413767762,9.024528806698095,24.287030907979926,142.43958232960662,69.29570610202155,16.55696276368539,25.750371891328008,29.169349003547882,5.275011161404924,2.341266670277813,39
720,509EA7CA4844,None,None,M,1973-02-24,None,garellano369@gmail.com,None,Form,0.0,0.0,0.0,0.0,0.0,9EA7CA4844,17547.709821737666,12099.224632016696,406.21334666394387,1164.8694035292572,777.1983559329026,376.9745533181927,599.1504496484703,497.48688993927044,84.73146926714752,39.552411227417515,5.509850954037043,172.332653004523,92.92680240468682,176.97052274294114,25.33937459493645,106.53861625293214,8.863430639131732,1.9679547269187712,3.439461398924956,48
721,2CAE2B5274AA,None,None,F,1967-07-21,None,mvaldezlopez@prodigy.net.mx,None,Form,0.0,0.0,0.0,0.0,0.0,AE2B5274AA,74.65711618575939,330.0622978504757,64.65854907259089,56.15855951697964,49.39604916333657,16.063392030026517,35.47317284444651,13.321301272223693,0.7589556053391953,0.8196769774464525,11.104365368560265,4.135779340737149,3.88734682794689,0.6716944473955928,5.4008201436103835,0.7816656627893952,3.2666794067572247,0.27105628861305153,0.11152199496539043,53
730,703A512EA44B,None,None,M,1997-12-31,None,kevinbibrush77@gmail.com,None,Form,0.0,0.0,0.0,0.0,0.0,3A512EA44B,10757.137893480296,7665.611415985809,971.6855487587083,928.6955694533408,123.12331914252486,593.125755417081,357.1869471469955,250.1691887090235,42.07592885410975,55.8137709061272,112.7733955928451,2.8019778439523826,5.9204316854168315,12.370469643334019,32.82711509973271,72.6063293881051,3.3445643241332736,1.999041868005452,0.731336700455224,23
734,889E33E14A9A,None,None,M,1975-01-15,None,parrapilarparra@gmail.com,None,Form,0.0,0.0,0.0,0.0,0.0,9E33E14A9A,6531.0667008409755,6533.206895576825,500.8622460906774,170.2280168632643,77.04798856034537,357.14111225925956,303.3845442483354,302.0454127734922,160.5703745125854,135.88519343648656,126.01412025298279,30.08129938434416,45.3274048897791,54.5456790302547,41.73972680251067,6.447813079072206,42.954221050637955,8.43532072252197,1.0159296256555141,46
738,B8C3853B09BB,Jose,Espejo,M,1971-04-07,None,josenatividad451jneg@gmail.com,None,Facebook,502271673681529.0,0.0,0.0,0.0,0.0,C3853B09BB,7582.8002423629905,2508.3486640335514,431.9590954411859,143.79426227411653,456.80868069263363,356.35162171462883,154.75537144504688,85.57414725629057,122.4682981441872,18.128750067062484,51.81848553436099,86.58336140600571,2.71465378888502,20.58226543890944,42.44218958203264,19.002886304415977,3.4201751534474307,8.056108138924024,1.3907412213226344,50
742,601466F3D78F,Omar,Valdiviezo Antonio,M,1987-01-01,None,valdi.rami@gmail.com,5562013391,Form,0.0,0.0,0.0,0.0,0.0,1466F3D78F,12563.345015911495,1890.985840851192,922.7860446370325,889.8691186542654,108.04371461614497,214.85516626759014,236.24092410872237,202.8799320271385,84.17442747172214,113.95526626491798,110.10335674505721,0.5498642283997689,60.81214533999892,37.32918416792881,59.00824332646091,48.8583398172311,11.190758094318062,1.5679530033337108,0.44470446705128314,34
743,D868C38EAF85,Giovanni M,Tacubeño,M,1994-12-09,"San Cristóbal Ecatepec, Mexico, Mexico",sagittario_94@hotmail.com,None,Facebook,2685021091537088.0,0.0,0.0,0.0,0.0,68C38EAF85,2817.1136541156366,1368.4366345224128,106.40145539498513,310.4046300164809,131.93114132576667,157.22044261467607,183.91859735395144,68.8592632769304,13.162909434439527,56.64889234936897,56.90538369775,17.900590568604144,5.848162163674873,0.24978190251361976,17.35963685837492,15.679789339233078,5.9507184725385365,1.6833792148195548,0.32493737784239884,26
761,BCFFEB8AD1D2,None,None,M,1972-06-28,None,pooly1936@hotmail.com,None,Form,0.0,0.0,0.0,0.0,0.0,FFEB8AD1D2,392.6249535757045,550.2482364330206,8.996889292881052,26.974932063888705,37.87116560570273,12.856954510147828,19.00459950799261,40.26804370916188,20.236773740053312,1.0681701913344483,15.050973040126397,12.36758176630032,9.499915317963444,0.2718599177574272,0.5386473024037249,5.906838315147474,0.07723829196175015,0.9682263568684237,0.16800106158353897,48
762,D45383820DAE,None,None,F,2006-01-25,None,jarquinalmd@yahoo.com.mx,None,Form,0.0,0.0,0.0,0.0,0.0,5383820DAE,197.36875102760314,249.77871251177393,62.18928918734331,18.549553915439176,35.89252516441489,22.5031756678475,28.82335816625293,16.149356603819285,0.6990273302702441,9.849668031347125,5.468150178010577,2.7258655004100762,3.020862695319615,2.527024891420595,2.4464474264087994,2.3386563851687403,1.1150727049816958,0.48265099572502546,0.07185161644324899,15
766,508A0FFBA4C6,None,None,F,1982-06-29,None,marceloaguilarhdz@gmail.com,None,Form,0.0,0.0,0.0,0.0,0.0,8A0FFBA4C6,6041.82970475553,1550.5474227324528,425.0245390515494,9.6250685855389,296.4331740221135,105.76081707182202,38.89624134157316,164.30312520442118,49.710097123582564,14.713506545614312,19.361016901127797,73.73611443712534,6.7615999760234375,35.27915191289207,41.280324453049445,34.39043712272555,4.627695013669401,6.217532732613575,0.5024310165751675,38
773,D016B47B69D4,Guadalupe,Leyva,F,1978-12-11,None,anayeli.1011@gmail.com,None,Facebook,1128639260806401.0,0.0,0.0,0.0,0.0,16B47B69D4,11708.890472421417,2755.1035049106526,679.4915523267451,117.45177793259433,615.6507555770638,348.8218172379119,30.29168363094664,158.33586649721403,114.94609455146752,128.72348194335765,112.96639027301316,63.935002494987586,27.60749215042612,24.095248871270538,70.18738828416356,12.588194192762062,31.13726832446741,7.044107201568158,1.7319011779731173,42
783,30074D55319E,None,None,F,2000-09-19,None,luzma_6419@hotmail.com,None,Form,0.0,0.0,0.0,0.0,0.0,074D55319E,3027.5617281844848,4266.767671645116,492.1248958818292,189.21901315782154,304.90179651130865,228.3422845161443,24.483951721687202,78.36836312225024,85.53330031555853,71.84466405248459,28.138771237198803,21.620468062910394,60.811093418546356,17.224403401311328,48.09548344427585,4.967937868471827,24.53854169519344,3.4326986426142803,1.0229331207941361,20
791,A887B3E4EF0A,None,None,None,1987-09-03,None,amateco87@gmail.com,None,Form,0.0,0.0,0.0,0.0,0.0,87B3E4EF0A,107.90894370187861,466.07704578001307,39.547021514250865,70.30662410007349,50.2914247043795,8.262356007883431,16.42004792186298,22.42799735134134,11.442487807459878,12.48253672662814,0.7133834622786692,13.822982857681856,8.370732505542367,4.122549944765409,1.8054398705289088,5.286690947128741,5.161337252942869,0.4730189123040544,0.07737863105608103,33
800,48C7965AB60F,None,None,F,2006-02-08,None,xuany83fogoneras@gmail.com,None,Form,0.0,0.0,0.0,0.0,0.0,C7965AB60F,5522.612829469449,9250.64231143534,684.740128026885,701.0145698852107,564.6164833419184,30.94847417822057,255.59841385135167,194.5725529805832,146.5346992865241,130.69441721939054,18.715395046646385,113.46401410139858,39.58923494786588,8.238572268675975,11.133620251591813,26.890001551462447,38.015428187711585,5.247578567298607,1.7312754024754171,15
807,F0D7AA473B4A,None,None,M,1991-06-17,None,gianlinarezg@hotmail.com,None,Form,0.0,0.0,0.0,0.0,0.0,D7AA473B4A,1167.693837817618,1250.784730752222,72.57226877839062,30.274536952664167,107.71705217274916,18.68485097279256,121.35255046294971,61.305011837489744,20.43683882627181,28.61834721761151,20.887791014067123,35.831101836871,3.1099533666108528,18.79989623661878,13.809112835823216,13.739819850591376,10.961240732353366,1.094960613411454,0.32609772289321504,29
810,C08C71D20423,Jaime,Ramirez Lopez,M,1977-04-29,None,jaime_ramirez24@hotmail.com,5542633081,Form,0.0,0.0,0.0,0.0,0.0,8C71D20423,1358.9516872833594,503.76001221745616,153.82619163774936,153.1859621962272,22.348080378663386,68.66144039212666,29.71402371478708,1.0085109772940597,32.0171642767219,1.1939998919440022,26.994208921867646,27.738733091558945,5.488530620937789,1.6483700946719462,5.928266771039702,1.0466040149768976,0.7511704199789477,0.40527141333773053,0.33177168530136425,44
814,304596DC2D27,Danni,Rosas,None,1990-02-24,"Mexico City, Mexico",zann_soad_24@hotmail.com,None,Facebook,2436079133069411.0,0.0,0.0,0.0,0.0,4596DC2D27,984.5395053249548,1868.0351291952716,194.68011384414459,198.06591773184292,123.98476434614655,25.662923358402026,92.38667726936413,22.013683803463927,14.379803562690105,42.70910019054887,13.940209770959143,13.134001170864602,18.34964298087649,13.52443750156816,16.311178048405502,15.737573272487746,2.5445538455454746,2.7126653440468154,0.28811943841576626,31
817,B85D0A745062,None,None,M,2005-07-23,None,aleckgz@gmail.com,None,Form,0.0,0.0,0.0,0.0,0.0,5D0A745062,1471.5265523399003,4290.805150592539,263.4806032411273,65.37185219800888,234.95205211763596,57.233746678853066,124.37236308620044,158.73811216678436,44.446551804270534,34.27049163753862,47.7503223563488,64.23526398309751,13.152083689371507,4.417769357216973,25.67972710638021,30.669168687806387,8.757611985034156,0.33527840675829657,0.8052985651300802,15
819,D016B4503D24,David,Vaz,M,1983-04-28,"Mexico City, Mexico",pirritokds@hotmail.com,None,Facebook,2204979779522286.0,0.0,0.0,0.0,0.0,16B4503D24,3661.447807300727,1857.9177705951774,125.59784127184608,159.38003482120976,158.64478745165243,62.361936693628365,77.13211613726668,63.572321077530866,25.291265349781128,52.08577972985128,59.08155151625238,51.35228999304103,27.73585015453685,31.59150960178314,26.983119902146274,2.242612339381229,21.26412748799403,2.2734705447637458,0.04380803142950006,38
822,802BF905D7DD,None,None,F,1989-10-16,None,quimicoperativosup@sanborns.com.mx,None,Form,0.0,0.0,0.0,0.0,0.0,2BF905D7DD,15964.50891226268,9380.49644047334,227.28458542663824,51.39190055106389,387.37372320530847,775.2844417693175,98.35368611609307,77.59253938398227,291.0134426239214,52.00937920164145,109.74667613356219,97.55945563087298,119.04263712016514,93.75307979425793,90.24226977028337,99.82228897955049,68.04472812771387,5.192034273819707,1.287779155791492,31
832,449160C9FFD5,None,None,F,1992-12-17,None,perla.clarissa@hotmail.com,None,Form,0.0,0.0,0.0,0.0,0.0,9160C9FFD5,9806.832549469826,2688.4276812650714,284.9815813281384,153.72894103283363,425.47252481910095,142.53069498387998,117.7239375215618,30.139216418593882,127.3588394170437,67.33512430561963,64.86634258032477,118.09919180552156,76.67153299162909,22.939437956606383,19.012404146254497,54.47156663848514,22.42944194626819,2.7900920018628024,1.1888993713771838,28
842,A896750953CB,None,None,M,2006-01-25,None,moises.chepi@gmail.com,None,Form,0.0,0.0,0.0,0.0,0.0,96750953CB,3860.780768722289,1677.6162807232286,286.1075983339851,4.17557158849493,65.27803465336072,120.4712080791899,59.98442923066567,165.238768718759,52.27022575593439,13.806759742680105,12.711644195496133,47.93859969667847,12.339914754392172,17.413470677908876,15.198401870154399,9.672436582890816,22.43724812755476,3.9080096544624325,0.6506288918757973,15
845,88D7F62935B2,None,None,M,1973-08-07,None,josee.pr4@gmail.com,None,Form,0.0,0.0,0.0,0.0,0.0,D7F62935B2,1791.6335490695942,2504.8336909605387,306.5264216007547,226.7411820248928,34.729373942349476,186.42089730529003,99.25040354984374,73.70753903094452,1.436533287769734,50.30293207105381,53.18297676285816,14.300641784756566,0.12965893669760828,14.258433590010283,0.1593121590672289,6.363726408655587,13.709425015431918,1.034130426673438,0.2791720728192758,47
871,60AB6784A47E,Isidro,Hernandez Bautista,M,1979-05-15,None,iheba79@yahoo.com.mx,5522583672,Form,0.0,0.0,0.0,0.0,0.0,AB6784A47E,4036.5917325265955,3559.781713190396,370.11440741685476,299.5180175229921,63.639573033609445,239.3094617368285,65.66224096031273,45.430802300845095,74.58564100307578,14.059610814284255,2.419459524231324,64.46694966975163,63.84689535426035,21.705868993800145,2.728819518303429,0.9127358546758572,24.724358437591736,4.230363321811217,0.2713488197773453,42
877,2833347970F2,Cristian,Lucas,M,1994-05-05,None,rtr@hotmail.com,None,Form,0.0,0.0,0.0,0.0,0.0,33347970F2,1393.3979483770818,613.575852896638,17.417956595415966,131.05446626901997,29.396361080748772,24.39054584034037,90.39680958403675,27.27108564316712,20.871149738386666,2.546515282060466,8.943434157695062,20.888077388720955,12.850903347267835,12.896055897884512,3.9090274424126217,8.716618282622372,8.098895153286017,1.2330244091872524,0.1452726140278712,27
912,88B4A64F5994,None,None,M,1997-12-04,None,os526488@gmail.com,None,Form,0.0,0.0,0.0,0.0,0.0,B4A64F5994,7613.642524890169,4041.3914867819817,347.3736211428371,195.28553910523797,34.44575830395262,332.46055381640315,417.6320448614117,43.38498002653674,39.673543945731346,131.6358282772911,30.01080716655543,46.55135293612984,44.4423572698963,50.15935163127626,26.13573055266416,51.78712211325315,15.417806536297565,6.8431330845526075,0.7264575578232672,23
922,D00401289276,Maritza,Puertos,F,1991-11-08,"Villahermosa, Tabasco",uopss@hotmail.com,9931948967,Facebook,1.0217941124270382e+16,0.0,0.0,0.0,0.0,0401289276,204.52005710575094,947.2901524418497,28.367938380038712,3.777299176091724,83.63493811567434,38.32063346922424,9.689827544790056,31.67606735405666,2.861000777770965,3.5809506291337247,21.712089870854147,15.931608436818605,4.979052376869366,4.419824810012608,2.6486982935284527,3.504573820722798,6.3357237668156365,1.5068822546241132,0.2426813753733224,29
925,9CAD97B2923F,None,None,M,2006-01-25,None,vallealfonso77@gmail.com,None,Form,0.0,0.0,0.0,0.0,0.0,AD97B2923F,15239.785349106696,4237.55405258269,1046.2137275563632,328.41358688677826,303.82616088485526,568.8929936049417,68.86995040205466,239.46239439987707,5.6213459490042705,87.3309466284476,143.2362721268526,65.37444314728832,15.709679188997093,70.02211623700356,21.205568491600793,17.49927546297034,7.5201908988503465,1.278775828380252,2.183170616352519,15
926,8CF5A366A516,Erika Loreley,Villamar Rosete,None,1975-05-25,None,loreleyvillamar@yahoo.com.mx,None,Facebook,2523690230995616.0,0.0,0.0,0.0,0.0,F5A366A516,733.5429976299321,948.5952331680562,22.54679963615637,12.710922500163303,31.42180988095669,62.9364970897878,9.074139845053386,22.736406153725518,12.421422500713046,27.279549798480502,5.05766830228559,4.701206498682031,1.3303298366468075,11.375420579329475,11.75543184790228,3.0891747346889153,4.126287596021048,0.20785274871249992,0.09084965270528471,46
936,601466D83E4E,None,None,F,1982-09-26,None,negritoteamo260982@gmail.com,None,Form,0.0,0.0,0.0,0.0,0.0,1466D83E4E,810.379261312866,1378.1997580693844,96.84237826421482,64.82593063777236,115.35198916877037,95.51806431871418,34.48053534776022,17.456643192981076,21.780574764082356,34.79616435859946,15.175765418947575,7.808890150126054,8.151673045603177,9.95227059691311,1.7382372695094577,3.0872500500802396,9.00912291843812,2.083751017290563,0.361740097946198,38
947,E4E1305EFEE8,Daian,Vega,F,2000-05-01,None,diansarahi268@gmail.com,None,Facebook,1189188998136087.0,0.0,0.0,0.0,0.0,E1305EFEE8,5518.547157756977,1075.4622695413798,358.9672073339573,234.97262080422107,140.74747511463642,19.665077717817326,12.863926779910203,132.54331874888192,71.68976113277067,11.340588067021594,19.48669820034778,28.135445056192907,5.429822014711922,10.91203225016456,10.955005451484212,25.265383666175975,16.406493368951026,4.793319306472872,0.8163976879254105,21
948,745909BF46A7,Arlette,P,F,1997-07-02,"Mexico City, Mexico",tecktonik_n@hotmail.com,None,Facebook,2247554285312163.0,0.0,0.0,0.0,0.0,5909BF46A7,13667.570549460597,5574.634631909836,694.6642573229209,341.0122141907936,328.59530555645034,150.04334541598848,335.75650054560475,175.97557435438435,47.915070375534654,89.90391237887141,153.35361177355588,74.31971536449169,131.39995629715256,89.1233833338682,77.63075888091406,17.274497468988198,19.741216926354557,2.7506551424384256,1.3348433012569074,23
949,A8BBCFAEC6BF,None,None,M,1960-01-21,None,ernestogurza21@gmail.com,None,Form,0.0,0.0,0.0,0.0,0.0,BBCFAEC6BF,52.09195907821838,506.40500910296055,60.62396253662579,41.49490035924643,46.57076521539741,0.5865611621173467,6.566529263960251,26.958769326574732,1.74093832768962,11.652736334267207,12.18293001035343,5.477167379519399,3.727613041583519,1.4033461302549655,1.7656180580480825,5.269170011452268,1.3000902559237573,0.1671794269408136,0.01475497886571087,61
952,64C2DE7FBCE3,Lilian,Mayrin,F,2000-08-19,Ciudad de México,mayrinnnn@hotmail.com,None,Facebook,2522012241449985.0,0.0,0.0,0.0,0.0,C2DE7FBCE3,6572.6179629481685,3525.9488586906255,11.899857875196208,597.426416692441,241.4138486955117,382.2979696705382,141.2670039680571,72.0324380710678,11.752001154046273,94.14792745000472,9.376991325037812,75.83272637789817,2.7650684627957416,69.91516167113497,57.392608053772584,23.394399832474903,27.943461563205528,5.308045370454273,1.267252127571396,20
965,F895EA091CA2,Enrique,Pillot,M,1989-08-20,Ciudad de México,le_piero_30@hotmail.com,None,Facebook,3215033095190809.0,0.0,0.0,0.0,0.0,95EA091CA2,2855.7635481667576,2404.337472507594,224.9059815986425,34.07589251178182,246.8786262600063,182.0557508602863,6.050566681640071,80.98520915370314,69.27382632053742,47.76408558160506,41.95693767109381,12.825479921537966,9.146482968392652,35.61134560097103,18.072102351454806,22.993796323379488,20.646137451661975,2.13926668197208,0.517491386982573,31
971,749EAF80D121,Tavo,Alvarez,M,1961-05-26,"Mexico City, Mexico",tavoalva@yahoo.com,None,Facebook,1.0212749577326576e+16,0.0,0.0,0.0,0.0,9EAF80D121,1651.494682402818,2158.4244742904843,34.94146875422808,27.111514640838625,71.49759807109464,9.559264060635574,172.85110151146444,111.55275518473432,26.230670485728243,5.3106673718507516,28.860997094803807,33.60887424459036,2.9973742824539507,31.621234256480037,24.941843233402647,10.246170826544125,5.7520689000942715,3.4707290479971697,0.5265113397547031,60
979,58D9C351F8BE,None,None,M,1967-10-25,None,miguelneg@gmail.com,None,Form,0.0,0.0,0.0,0.0,0.0,D9C351F8BE,639.4449272505799,518.0333882730489,100.32380479768628,109.45940293132674,15.506705558509598,39.39986665037894,19.252645911841817,16.338054336494782,19.23245984503134,17.74760094524009,2.455190495985129,12.862365085717336,6.513470735352111,9.428511424769763,3.598451249139351,8.806288029325348,1.4422904867449495,1.0198708569875712,0.13470513584047783,53
982,C0D012936D84,None,None,M,1989-07-25,None,esquivel.irving@hotmail.com,None,Form,0.0,0.0,0.0,0.0,0.0,D012936D84,1454.8803433098208,2975.6221592818733,50.77941006204226,94.25087508839387,229.95228475936278,181.42608602934143,133.75378882961627,36.32386767161155,79.81022280766032,47.48846106023742,17.377078443590538,31.153987409559914,22.06380662117358,17.288647213580017,10.654207263855563,8.020935976371327,16.63134352589248,3.873050610345753,0.6494440356706289,31
991,647033C3C184,None,None,M,1988-01-25,None,redjose89@gmail.com,None,Form,0.0,0.0,0.0,0.0,0.0,7033C3C184,15730.892468530517,10887.824010403532,583.2767133731322,465.27010113871773,1020.1201309471234,730.2560358721684,316.1567878050892,637.3302439797208,61.11117371779789,222.0218277786786,13.778475250463115,215.61022298365097,153.00979828258014,143.1094550821944,120.59306838072757,49.14777072694148,43.22817965402015,12.061224103799681,3.2023119891401426,33
1007,94DBC9B0B1FE,None,None,M,1997-12-31,None,juancarlosmendezramirez_@hotmail.com,None,Form,0.0,0.0,0.0,0.0,0.0,DBC9B0B1FE,5770.313891543804,3541.2228729075246,471.3079891791951,572.3346450193222,167.48573708412601,189.5687914198198,127.66959319949855,70.88502877109084,139.82266652089172,34.523100340034,9.603100067349848,98.32614942696908,18.333263141015138,11.20686926790178,42.511963067595474,9.825524174883874,10.842621648474587,3.053163180846497,1.1630300396590936,23
1014,F47DEFCA98F3,None,None,M,1997-12-31,None,omarbravo82_@hotmail.com,None,Form,0.0,0.0,0.0,0.0,0.0,7DEFCA98F3,420.3400474677199,91.76752209601767,57.196661802747315,51.891803973393415,8.33010780677511,45.031706314039724,28.758134852131615,10.203595810994118,13.279102936697637,6.7662729806227695,5.808206675315444,6.72324841672606,4.415692934478242,1.197582420169643,1.3380230651981395,1.0624957113306284,0.8893368391753163,0.8589803713804117,0.1414775250869822,23
1018,304B07B573F4,Leo,Hernandez,M,1990-09-15,None,chivasguapo90@gmail.com,None,Facebook,899643443822180.0,0.0,0.0,0.0,0.0,4B07B573F4,12811.020959198166,10172.737310145456,593.9987894258827,671.1710852299378,146.33663206757979,448.332010187552,398.0375025419717,496.2192137530591,211.3683869329278,224.99157881090844,91.7408355542965,131.56526722294586,158.84445012431615,22.25027196674646,10.690695999940173,42.20170360370318,30.937701222186192,7.385050181439711,1.1705558309860562,30
1026,202D072B40AE,None,None,M,1991-01-02,None,yoniantoniomartinez@gmail.com,None,Form,0.0,0.0,0.0,0.0,0.0,2D072B40AE,4624.834367139943,4527.5813493749,158.65904855980762,170.21775533088552,114.88517279636478,387.03000192640167,245.12194591847265,34.050432099947265,0.6312310286134935,63.66491682627496,17.31496442900865,54.06936877221932,42.41896166100154,46.33079689570984,42.118597873231366,41.33242054256231,40.93382837666802,4.845184199168732,0.9596562488186084,30
1052,C0D3C0169A49,None,None,M,1974-09-17,None,arq_mendoza@yahoo.com.mx,None,Form,0.0,0.0,0.0,0.0,0.0,D3C0169A49,3701.1507198584586,445.10515705166364,251.06696988743204,146.04631426803988,114.29777012834867,29.079688100658725,182.2049225380293,41.09323520870662,22.468837754160994,55.00841440108829,30.15188250999885,34.06946872318035,0.6801131425787796,5.547408374288246,11.461490043838413,8.586378758127411,8.093401580818895,1.4549041199116566,0.4329235506717638,46
1061,BCFFEBE5E204,Amili,Negrete,F,2002-01-17,None,amili_negrete@hotmail.com,None,Facebook,135054264657570.0,0.0,0.0,0.0,0.0,FFEBE5E204,7161.780777464109,9355.190335205865,539.5999501011897,268.88404768528346,596.0813881084986,308.75321608876635,3.028107582850308,402.0997987481894,245.22283375671165,116.94311591480236,0.8658655173871421,176.48314941891869,33.98648865559603,30.436380712809953,86.11779949054849,8.913290653918349,12.435829139235478,11.171814918715938,1.0058108366017768,19
1067,AC075F6A48CB,None,None,M,1985-12-21,None,alejhandro90@gmail.com,None,Form,0.0,0.0,0.0,0.0,0.0,075F6A48CB,8967.317766595344,10202.365779765843,927.386660809263,1090.2147435248348,387.51651587798716,12.780343612649613,390.292386556528,295.4176865691476,257.1803741100355,185.55112327825995,12.092405238959097,70.59650266345794,146.13652434763264,122.8848616829278,61.33070163452185,6.337262749951023,61.98385647166702,8.109756317647786,0.5047481933372546,35
1070,804A14904E98,Chaps,Hernandez,None,1990-07-04,Ciudad de México,jafet_guapisimo@hotmail.com,None,Facebook,2613815202000411.0,0.0,0.0,0.0,0.0,4A14904E98,14058.64762808398,12326.693033556361,546.4211971198848,929.9889125643081,618.5163813947028,295.6532793169951,567.2746392040657,164.9146321148017,42.23323573223595,80.28099499949813,32.25934923270051,188.16272228141588,61.80810475613176,8.856249966263007,40.04845640939707,35.73071068337084,8.215589246743015,9.090482943839735,1.2044003933072585,30
1093,74C14F41E867,Oliver,Isunza,M,1981-03-07,Iztapalapa,dies_irae00@hotmail.com,None,Facebook,2783777484972631.0,0.0,0.0,0.0,0.0,C14F41E867,10462.057774748615,14845.754041257798,1067.3605787111655,809.9176596426869,61.64088835607182,326.90869486096597,233.49242916631147,610.1435967414137,86.21254813152326,40.20509754289458,141.42150343628393,254.86279317238814,160.14313222817333,56.88968088463488,14.355049578268988,90.2231557218182,31.580672190771583,15.843211981463194,1.9874916467550914,40
1099,FC2D5EB1460B,None,None,F,1985-12-20,None,pokkett@hotmail.com,None,Form,0.0,0.0,0.0,0.0,0.0,2D5EB1460B,198.76700990090882,486.40411480314,1.4713330852707587,52.82550615424929,59.459771737148486,12.026313118222593,10.749483325986112,28.175687995402374,12.612817930347225,8.97780315939461,2.550423877472786,10.212910636150466,1.9386372103617555,1.1634623911256432,1.4964583001783642,2.309397338741185,0.16622755591720514,0.5632446012418599,0.12939687874056197,35
1126,D02B20BA3925,None,None,M,1967-10-17,None,phcuisinier@gmail.com,None,Form,0.0,0.0,0.0,0.0,0.0,2B20BA3925,3412.7218299549654,803.6323330434835,244.38857922080484,270.949441525672,225.7607884510228,21.028328956977663,1.31291637707498,108.16106091249245,6.661142627926493,9.091875668958073,37.85695049681812,17.045413937245552,1.008911935587091,5.051465934970749,16.049814309028672,20.49390052494827,9.652152778143051,0.026415349056178598,0.10667799482443024,53
1137,3C2EFFD47518,Yongru,Wu,F,1982-01-15,None,wuyongru123@gmail.com,None,Facebook,596282890907293.0,0.0,0.0,0.0,0.0,2EFFD47518,2878.6241181267,299.7400751646446,198.41751732323712,12.05677780367328,27.66667689726262,142.42907385574208,26.74650951950946,109.40289511427156,62.282865224954094,31.918369041763878,42.00619264316609,31.94250092968904,33.30747459898906,10.953104359218665,21.21247137596796,8.735692879186644,4.780957973305253,1.4614550075399095,0.3152721611776414,39
1139,20F47840F098,Juan Carlos,Mendoza Morales,M,1996-03-01,None,ianmendoza3105@gmail.com,None,Facebook,282681896464530.0,0.0,0.0,0.0,0.0,F47840F098,12636.022378014988,6215.096783803412,246.15533480496245,148.6700073219827,746.555552010863,383.8657853921368,534.6688661671072,73.82718910641708,156.5984136776689,10.961990549007574,140.57938517912623,144.8211743750196,26.854896655746064,10.809295161522204,5.38767939399449,41.54191710948569,18.19509760157444,12.581365489497024,0.8068881854851819,25
1144,404E369833C4,None,None,M,1992-06-15,None,astromantico1@gmail.com,None,Form,0.0,0.0,0.0,0.0,0.0,4E369833C4,1293.7750187609565,785.0510525405333,103.9658342781636,63.72925049589457,90.71524041108778,67.49185867948776,102.62127852581408,41.51159512299622,11.051277999959792,24.958248034377146,21.60943695102754,22.055606792105316,12.099103941095246,2.603553544969036,10.905953909872235,5.702401654871359,1.4637183590927276,2.299309514804845,0.3902604828918914,28
1173,2446C81FD7BF,None,None,M,1958-08-22,None,joseantoniogomez@live.com.mx,7775644350,Form,0.0,0.0,0.0,0.0,0.0,46C81FD7BF,320.92659104088733,995.8693053779785,3.233161611391407,105.49614917334151,1.6095991744406197,18.19295040365811,45.25213397530684,47.223075824141425,6.696855497426986,13.8944315844855,12.715463196679599,23.059948633936344,3.687745671630841,11.64971020445651,9.864880392130338,8.181098197625131,3.0993546090756743,0.07313332941920651,0.2744121019882319,62
1176,D4C94B18D89E,Alejandro,Roque,M,1987-09-23,None,aroque309@gmail.com,5578437250,Form,0.0,0.0,0.0,0.0,0.0,C94B18D89E,1624.789320757769,3617.984574728387,147.32949637363038,37.05980236310421,125.52875731921107,78.16078362913144,126.14493426612714,130.6315818436083,66.0776370976754,21.202104424501883,27.34047886410722,33.69235084311304,36.77197235857831,8.78476924437897,30.63482057266439,23.79945369785098,5.836537403097213,2.8525346059920986,0.37808960707071687,33
1191,BC98DF048276,None,None,M,1982-05-20,None,barbypiolina69@gmail.com,None,Form,0.0,0.0,0.0,0.0,0.0,98DF048276,83.4985527281226,1205.5391371055957,85.53893600530499,76.89732414205531,16.532923135218287,38.00848300543366,64.07870835342062,20.425790282875063,11.953892765561546,15.477201092744354,9.15575635405687,10.394151413153306,16.194687551861875,11.07961276133754,8.683578660513959,2.925207016034743,1.22929964533551,1.246536451705868,0.1402215296684102,39
1194,C0E8620E6DA1,None,None,M,1997-12-31,None,andresmora@hotmail.com,None,Form,0.0,0.0,0.0,0.0,0.0,E8620E6DA1,134.5500563362183,485.01342022053393,70.88981645412409,9.239139528160635,0.789108481964494,33.659156479482775,45.704502499479396,14.107836689699848,2.6529120112808386,5.770800706798585,5.399787627346605,11.7851878801345,0.9119912986852011,4.593527308572191,0.46000503360569367,4.3770019805377345,3.9770720794450383,0.11559314872159919,0.0030842352084169637,23
1200,90324B1DFF97,None,None,F,2006-01-25,None,aguirrevalks@gmail.com,None,Form,0.0,0.0,0.0,0.0,0.0,324B1DFF97,4286.331133016051,4330.833840333945,74.77674868891945,104.69782126598524,351.07528623139444,230.80347143951136,13.050568906379622,166.46802187827055,73.86112763073217,39.14847971504844,21.35409652273054,1.4687615614952279,33.41345888356062,12.130157368954608,28.543899371638236,24.957471155752824,14.365496915295646,5.44494577771933,0.27521333661561836,15
1201,C49A0295A2AB,None,None,M,2006-01-25,None,vegalourdes14@yahoo.com.mx,None,Form,0.0,0.0,0.0,0.0,0.0,9A0295A2AB,13663.87763745253,8055.0053620312665,369.64983836264594,1059.5888530368404,77.14834192147357,724.7372514514955,372.67204733046026,121.04905176805266,243.47306547713242,193.8201720278824,222.07824319144163,141.83908138326873,100.24389650969542,7.876119612708323,7.121127032859353,48.70155366316584,34.45775652021377,0.42396154146577275,1.2366396853947994,15
1209,F0D7AA3B18CA,Mika,Likon,F,1971-01-22,Ciudad de México,mikapriest@hotmail.com,None,Facebook,3136984629698538.0,0.0,0.0,0.0,0.0,D7AA3B18CA,12065.360368785237,9847.509645461063,167.36227404172382,12.254228092428255,499.3043176557182,312.74748758084206,384.4842251596172,334.40816273153337,156.6117531690065,187.69984574712424,144.3368326901032,83.8991433895302,98.53009203755929,75.92927837586218,1.6475357093218073,25.463010389901783,15.067360369844423,5.835914952350582,1.5485236612312998,50
1232,48C7968283D5,None,None,M,1985-12-24,None,theshocco@hotmail.com,None,Form,0.0,0.0,0.0,0.0,0.0,C7968283D5,6612.518276216943,987.0249756354305,155.68751610672942,300.49008843323315,49.69019329843488,31.6051060125234,71.60720017812211,120.73034957320009,41.56959131146397,20.82511673614249,14.035979662073212,49.79579700469279,53.792663052376156,53.402373917702036,22.964088400976078,8.615186557959994,19.645615260895422,2.5376723331928543,0.4622103079066959,35
1238,7460FA0D6664,None,None,M,1992-05-09,None,riou28@hotmail.com,None,Form,0.0,0.0,0.0,0.0,0.0,60FA0D6664,367.9588754314428,38.24140427120943,26.993792582526208,56.379640816764734,20.210906815744686,23.87061524632289,8.477128332093882,15.624600282123028,10.013534091261649,5.943318566351984,4.147499817461274,9.554060891334409,6.229336131009548,1.798474316846137,3.5662097271239217,4.428769702912679,2.185961824358132,0.2920697389297069,0.08380141418294773,29
1251,F0C371AB0C5C,Janeth,Figueroa,F,2003-09-23,None,jane17103@gmail.com,None,Facebook,558629357864655.0,0.0,0.0,0.0,0.0,C371AB0C5C,2788.1386872145667,2104.4360678592384,228.01334857551947,240.18558122756124,273.6332449690881,181.8835190162205,169.75674438190413,40.592431334313765,0.1890046315572123,4.316916152878176,62.679379508715385,48.03283905719499,7.50146007753505,4.521844965838107,28.054329156352285,15.594382941940529,0.26324909387074874,4.710164547929681,0.4968052877751961,17
1273,C08C71E4ACFD,None,None,M,2001-07-12,None,juanram6@hotmail.com,None,Form,0.0,0.0,0.0,0.0,0.0,8C71E4ACFD,521.1580966217883,71.00787778930574,27.284795660041592,38.37889057894706,54.366345748029545,5.081135642858244,34.81338624782927,29.168631959099947,11.892272031934484,11.920705668947555,4.714290685258512,8.965067572518294,0.8775854303704694,8.384756522111717,5.111911085551481,0.18449402714531957,0.4436441481155635,0.10910846821723055,0.1370041119297155,19
1277,58D9C39DC757,None,None,M,1995-12-05,None,jesuse-flores@outlook.com,None,Form,0.0,0.0,0.0,0.0,0.0,D9C39DC757,10277.132397947842,3106.6499344158733,564.9713536290907,399.81489695098475,292.6656584304186,10.435224189130782,416.6437059177002,323.7450757447297,124.3182915000356,27.876952256333087,5.797639716195765,19.001473048956278,63.83907482158796,39.242126125955416,64.10097086226341,30.516803692923354,9.735693423802074,5.636664832964762,0.8760624932167335,25
1280,1C7B238AC62A,None,None,M,1983-05-12,None,ghummy00@hotmail.com,None,Form,0.0,0.0,0.0,0.0,0.0,7B238AC62A,1217.5398632436218,170.5649173908506,101.94875173950263,65.97582745676777,34.090190964996744,45.689022315667636,8.504946306109515,32.41590254765303,3.189622381631022,24.034542134011105,12.950848906207295,19.624306676424048,1.133126467014191,12.675205297044322,11.239872476128642,3.2857799686658735,2.9462923874737488,1.056640217713887,0.13434112251632813,38
1286,D85DE2BA160D,None,None,M,1977-03-15,None,gtzronald@gmail.com,None,Form,0.0,0.0,0.0,0.0,0.0,5DE2BA160D,6457.7255976440065,4914.256099939379,291.166062708513,86.48811715455572,30.104404007009478,173.8970122850514,373.8069849244491,212.67484661044548,27.280149130436726,103.53539025902226,49.749184153274825,101.00797833138544,64.97023352339592,54.04491721919724,13.003781578037806,0.8227622717297237,37.95287804444697,2.1205438121694193,0.39305640349797866,44
1291,E419C141BE99,Estefanía,Ramírez,F,2000-11-25,Ciudad de México,251100pedagogia@gmail.com,None,Facebook,835704596854306.0,0.0,0.0,0.0,0.0,19C141BE99,1833.24627085333,133.04736473395502,78.61274234304864,131.91639071365935,24.40692245422098,24.34046921113854,50.86092516292362,61.90626776198989,9.953486112428342,22.602108991322005,7.574180249971771,18.37516111561971,1.2782988253840228,14.073312374088736,9.199176625274387,5.1049932708236145,2.3796601386709972,0.9976165980345368,0.12465246411588905,20
1306,F82D7C9F6375,None,None,M,1983-09-19,None,b10roman@hotmail.com,None,Form,0.0,0.0,0.0,0.0,0.0,2D7C9F6375,2091.1058132709286,34.413041400836086,69.09061824582756,128.11698419638253,83.0013705800654,35.86033785920538,68.02863922692835,30.884060399886682,7.151574859017042,21.62482251776345,10.311318864929932,17.18622419705187,10.769051344920383,10.148725668627161,1.817851029943544,8.121931556077978,0.8439950416689773,1.4238020664376798,0.09983767350180946,37
1310,70C94EF611B5,None,None,F,1994-07-01,None,plazacarso@sanborns.com,None,Form,0.0,0.0,0.0,0.0,0.0,C94EF611B5,3393.4828596381144,6180.795632394907,218.97401048304673,396.35205784885693,342.09376636424065,247.10550119591827,326.3497131344049,47.92512836301811,148.62989453708747,85.85865867422186,51.5125091479951,109.01488072475577,81.9103841983232,70.25384667501338,7.2799179523451025,23.620866691637875,21.580832274149138,8.250435457011166,0.009104244950928793,26
1338,7CA17716C5E3,None,None,M,2000-01-01,None,jmejia71@hotmail.com,None,Form,0.0,0.0,0.0,0.0,0.0,A17716C5E3,9409.051603639227,2327.387389995793,609.9490364999608,651.6297087526092,122.79255753933289,181.38519199227952,34.13020736829121,288.07247644800697,73.02187688027014,135.36869302696974,111.3245701929458,24.950890398735595,10.569463545245371,51.782817591477034,15.730835606139946,51.2069867033445,30.969144088652314,3.4817973671763935,0.19475236354221476,21
1340,FCA621DE6637,None,None,None,1997-03-22,None,55alondra22@gmail.com,None,Form,0.0,0.0,0.0,0.0,0.0,A621DE6637,1068.28304263014,1868.4027168876037,51.30041823117784,56.09504114147077,68.44276995498637,23.689629314220532,68.39476479486329,43.385237195101865,54.23590198428376,29.189239522974123,9.595417089796676,25.673496646399343,5.834236013035242,22.81105618619532,18.93774436742014,13.48074969600254,14.847323982483198,1.2882022651513687,0.11301209669362437,24
1362,8CF5A317A8A8,Alex,Escalante,None,1969-02-28,Ciudad de México,alexescal69@gmail.com,None,Facebook,1019251385072748.0,0.0,0.0,0.0,0.0,F5A317A8A8,115.51982328649093,712.8619074130005,24.956974698766626,31.729774398899217,49.93168545026477,49.666773138983785,23.43731910002014,8.583931339182763,7.303606332902124,6.752982597979573,13.245284799089486,16.168444592483752,1.4929771850898206,1.5598908784988001,3.4731137450453184,1.6023831939909958,1.5133435871772507,0.1433422874013798,0.05644197473291225,52
1371,24DA339C1527,Cesar,Eduardo,M,1997-03-22,"Akishima-shi, Tokyo, Japan",camacho00@live.com,5542844555,Facebook,2397824243604638.0,0.0,0.0,0.0,0.0,DA339C1527,4801.34935655765,624.1751599668318,238.5953851470457,240.03287167557073,267.9973716740562,171.84084799932245,227.41332493434095,142.60156617418713,7.554199435763544,58.439323848958395,75.30924544349556,72.43782513088588,32.373300011263765,25.46320648729153,29.821061055384213,27.463694257898684,11.288713456475511,3.5009085954323793,0.3426381481463628,24
1384,68C44D087A66,None,None,M,1978-12-19,None,majuldr@yahoo.com,None,Form,0.0,0.0,0.0,0.0,0.0,C44D087A66,212.1438802791155,1520.075868325247,52.00165438120418,85.14232538079003,59.73567045380088,11.240519844320053,65.0280959126301,31.05607376596083,23.124879934971442,12.12919648014367,7.095197583582035,16.37344609164754,17.524448725106453,15.76526508017451,2.382682334855523,4.740167645278784,10.116070737855747,0.1595903736641685,0.16496666965176374,42
1389,E8508BE37923,None,None,M,1972-02-01,None,breme537@gmail.com,None,Form,0.0,0.0,0.0,0.0,0.0,508BE37923,4413.080304964458,2381.70484497524,417.47028524795195,89.47628634286164,72.0674893201686,77.13228830178512,29.79103552353456,51.14815313976854,80.70846633981495,6.582656614334719,32.23435603645846,21.798337496944455,2.4866771795304383,24.232100229929948,19.64911963007632,3.3634695349313786,8.694964771966053,0.35703463537550945,0.022129714868530097,49
1426,647033A0E28E,None,None,F,1986-12-26,None,estefania8686@gmail.com,None,Form,0.0,0.0,0.0,0.0,0.0,7033A0E28E,1248.2478046541219,57.05585773628252,51.592991010286916,107.41213021098925,75.4002424110209,17.416054808329235,24.245641092367542,26.374677217535222,13.834841822798637,2.648574262772066,7.044362929282261,11.694574645052693,5.508328496996472,6.255651904686302,1.9919154703527069,4.818324574185065,7.417871419093778,0.94318757712499,0.09696775672171734,34
1432,D0040168BEA6,None,None,F,1980-08-21,None,kestivali08@gmail.com,None,Form,0.0,0.0,0.0,0.0,0.0,040168BEA6,6062.451077908517,1428.2056565846874,20.209940721844056,132.58030553125863,293.0525889442159,173.8830442464021,82.11336967039402,120.36359604107875,2.4443855443485423,66.03124764328388,74.36100215693094,58.50482390669128,32.47121831644146,27.160277862178546,42.21468439740701,33.96233874739525,24.48339429658761,3.2480451047678236,0.25900237557018735,40
1436,20EE285F76FE,Gabo ,Hernande,M,1980-02-01,None,gafc@hotmail.com,5555051075,Form,0.0,0.0,0.0,0.0,0.0,EE285F76FE,559.8080739678568,133.90484885220826,50.91375280556886,47.944172776053136,59.38606914625216,35.005432370727874,12.654471408440205,22.506520776994815,19.402014558505417,5.280735841076405,12.50949569327049,13.034491497817083,8.211693745872658,0.6701783847030662,1.9440928285662207,5.83731084274133,1.3246410322566358,0.6484214455329186,0.013582025555629571,41
1465,78FD94E47F74,None,None,M,1978-04-06,None,octavo.rom@hotmail.com,None,Form,0.0,0.0,0.0,0.0,0.0,FD94E47F74,413.7801279070499,494.5519412125115,34.76170012015186,26.194708433927882,29.417412458052368,47.77157773737017,26.998838376685754,10.996498920914854,1.2953263183754504,8.466265305790603,10.414731858622986,2.2350813244272714,0.5440152444051053,7.930671001885965,1.7950583386885053,7.455166985878207,5.8462723589427465,0.5401603280350705,0.004445768283957527,43
1474,403F8C3C3B21,Alejandro,Risso Yañez,M,1979-12-23,Ciudad de México,alexjandro25@hotmail.com,None,Facebook,1.0158074971617652e+16,0.0,0.0,0.0,0.0,3F8C3C3B21,1068.781230622083,313.1952486210315,47.66420049743944,99.7550810162507,79.1371641626677,73.4967353981797,69.57703976444613,46.51063974043508,12.871795867042698,7.439774616208949,11.597899949214105,21.448100684078064,17.083968261711806,12.856296076025483,11.607988770596833,5.122302743533391,6.239373886712316,1.558933919875991,0.05622540246729584,41
1486,60BEB507B488,None,None,M,1997-01-25,None,rfitmix@gmail.com,None,Form,0.0,0.0,0.0,0.0,0.0,BEB507B488,1421.0775721809682,701.5124154673308,185.73410637881625,182.69881769672028,17.068340368831663,22.756299474872826,41.125947500267856,84.1444748670122,41.49520338497809,29.69460196371551,21.982783749100808,22.110908350850856,22.610755204060503,21.69267886628709,11.114635433696366,14.693256437382113,5.479385705705027,1.786627771836482,0.22118919756696725,24
1490,58D9C3B9B6CE,None,None,M,1977-12-23,None,vicdecadente77@gmail.com,None,Form,0.0,0.0,0.0,0.0,0.0,D9C3B9B6CE,4279.141384581141,333.49516373861644,105.10398482057244,8.540030625125944,109.75166422832713,104.03418412715378,181.490111419587,3.2073655755695936,42.297325785455754,4.75295588933146,1.5176740403403228,42.28630599825941,5.713867567946687,4.260149605120441,20.094492718259836,2.4535277591483995,22.69175434040461,1.0290804361030401,0.13897674353507364,43
1498,D4619DF19CD0,None,None,M,1972-08-03,None,jms1972.jm@gmail.com,None,Form,0.0,0.0,0.0,0.0,0.0,619DF19CD0,5596.479851845968,1252.2902084401924,202.90227711634466,380.67997432747717,300.92117339444354,304.49506627740556,249.8339992488975,128.8578176098797,54.38703122861078,73.32207081047672,83.18687571130386,32.71391300081972,34.83736850135539,44.25325530731659,20.175714354435264,21.167402062933274,32.885836516793844,4.402470248362795,0.20769399698359758,48
1511,34291228FE5F,None,None,F,2001-07-27,None,castanedalucia80@gmail.com,5569877507,Form,0.0,0.0,0.0,0.0,0.0,291228FE5F,851.0959345963503,1008.5287544900632,144.04579299025312,183.3185303982315,36.01496814744772,74.51678302620749,20.951743644332858,76.26491459747632,45.81235914177482,0.7819988394117205,19.341036198555262,28.16738122533133,19.52181053919402,8.94168602597144,14.149464390165981,4.6107259824980344,10.833189526663336,0.9947160994387739,0.10821014063154809,19
1519,A896752CFEC7,Nicolas,Lopez,M,1992-06-04,Ciudad de México,colate_0406@hotmail.es,None,Facebook,1859128884229002.0,0.0,0.0,0.0,0.0,96752CFEC7,1231.3066082762582,502.88006921297483,32.73939112660711,136.66071319110603,73.61456331265994,16.477973258212018,35.92711126532798,56.163741173447185,16.793642944835838,25.850198888089885,9.536299652916876,20.17395034220537,2.138287982806546,13.018187204989859,0.47105670030328106,4.069912651743438,2.4245111219607733,1.5980232135627872,0.15575847999268652,28
1521,6083734E5E68,Ale,Val,F,1995-05-14,None,princesale.51@hotmail.com,None,Facebook,2420832184912797.0,0.0,0.0,0.0,0.0,83734E5E68,409.12042812455076,225.86528518455805,45.88028296268195,56.822622240648634,54.053517503239334,30.720792595633426,4.28145935769231,5.386425119279233,15.809163853337994,8.248231152943283,0.7691523730559259,1.4204600273015082,2.6299282916437114,0.3340233401877878,5.669919377152206,6.013048990367594,2.1365156577335234,0.729189912107063,0.10955393588577068,26
1548,403F8C370FB7,Oscarin,Rosas,M,1968-12-13,Ciudad de México,riveralopezg30@gmail.com,None,Facebook,874914682963637.0,0.0,0.0,0.0,0.0,3F8C370FB7,1857.476548263168,171.83110850380555,16.317907680185222,87.9830116813239,106.23542248677204,19.117746010143367,54.53479696361436,64.85671975348268,26.392380737756184,7.244630729310973,12.370612468495361,29.32647191623283,8.44859512009595,0.17146580054167215,12.36093262066663,4.35624022865715,11.71339452903119,1.907668216580168,0.35434629013648933,52
1554,409C287ED4D3,Hector,Corona,M,1982-08-06,None,copierfan@gmail.com,4442212956,Form,0.0,0.0,0.0,0.0,0.0,9C287ED4D3,739.6087373598775,43.75471717693303,86.25843480406532,64.83415055484782,47.97493744131427,28.843286464846685,28.27465643928787,34.45258408099766,16.323878387911613,5.55459866367494,8.075630211739863,12.97529300270539,8.713106781446232,0.07578010504984072,5.533110478853276,7.344918387603964,3.2141362119620798,1.0351489021749782,0.15289454470770883,38
1562,24DA33937AFC,None,None,M,1971-01-21,None,mgcastro@sears.com.mx,None,Form,0.0,0.0,0.0,0.0,0.0,DA33937AFC,243.589116498747,623.77351113857,40.38642492554958,22.173381850387315,9.071726683610882,21.419910233175194,15.984019839150394,13.646222418814164,12.220185193824456,11.248300850890871,10.439631358765435,11.996056909631841,0.4097205501623187,8.786206866132119,0.19355661308200045,0.6553822703134335,2.9117755279654824,1.092049943823389,0.002820327403972719,50
1573,90633BB1ADBF,None,None,M,1988-01-24,None,brunodpn.88@gmail.com,None,Form,0.0,0.0,0.0,0.0,0.0,633BB1ADBF,422.229580831642,68.08247651582272,52.04230799500736,13.810912794274712,30.55056722851653,11.633400360902991,28.193956606600892,28.258370874318523,14.886459304411277,10.731932039663212,3.68228949714671,9.447742091781604,1.2517696726373715,6.836514385920185,6.175871360402497,4.479225761853504,3.034621795387205,0.6001126636559286,0.07188822005478343,33
1582,C08C71FC2F00,Adam,Ochoa,M,1995-08-25,Ciudad de México,maxochoa_24@hotmail.com,None,Facebook,2220330874780347.0,0.0,0.0,0.0,0.0,8C71FC2F00,1798.2299248719291,151.58351255950416,17.15593991314844,120.20073849529813,46.9385558697719,64.5048931712338,74.1420771491553,48.812389028469,30.644613774228986,18.189912996472266,19.379930475453918,30.009571125786128,1.07913024281686,15.593367217126682,5.992867179019114,1.6810793169635225,10.456588496601771,0.26984899328029016,0.135059123740412,25
1584,6489F15DDAAD,Lobo,Hernasdez,M,1987-01-01,None,nraxel_@gmail.com,None,Facebook,667599497343295.0,0.0,0.0,0.0,0.0,89F15DDAAD,992.4557394620722,589.8306567186752,24.411272225202445,45.407321833107474,87.04106834956048,58.099536941166214,5.064911576576566,14.456126757298781,16.04132167447027,27.2607720409024,3.8972538946195483,3.329413997913433,4.348537564424874,14.365930805853049,13.609788027152753,8.95172317531988,0.5178999602340418,0.8067951364584143,0.10392985899218538,34
1597,D0D2B018E08D,Martin,Ramirez,M,1962-01-30,"Cabo San Lucas, Baja California Sur",connectionbaja@gmail.com,None,Facebook,2223001617810954.0,0.0,0.0,0.0,0.0,D2B018E08D,821.6039106294323,8.7085799784001,96.08344220487156,95.81503442220819,4.7120242858907035,19.063550888048233,40.24221101030924,39.97880057338562,15.834188544119364,6.9390761979437485,14.96977559951049,15.932738026103262,1.2167609363077483,6.885887566443766,0.6129515375080726,3.725534988955046,6.100345393926249,0.47837343473400973,0.09681378190219479,59
1621,F82D7C9D9B39,None,None,M,1972-01-25,None,eduardo.chacon@expressa.mx,None,Form,0.0,0.0,0.0,0.0,0.0,2D7C9D9B39,159.90127498777488,745.2768600941306,83.0176680555408,30.54932358000939,32.23777685658194,16.881176000372893,47.10069821345524,5.4520974438563705,14.069957213270577,5.633664269548378,11.635161676377757,15.274559077175864,11.082644132615702,1.8882881054071494,5.283580059328892,5.939765689757625,6.526595535348913,0.10173601942438386,0.1471729900232176,49
1629,88B4A6CD6C05,David,Roma,M,1988-08-14,"Minneapolis, Minnesota",romita11@gmail.com,None,Facebook,1.0154910537744264e+16,0.0,0.0,0.0,0.0,B4A6CD6C05,881.4416032731475,2058.6754051943058,33.86799478908316,69.30093287874273,172.38975490029318,159.5176500200752,27.79466724384493,92.84663231378731,56.027685751818616,42.580083026801255,24.824894733858056,43.62593333742582,23.17077309968718,8.938461559937101,20.191342824813148,1.0452827671794667,8.300310310860356,2.9726103521469716,0.48798162219360375,32
