,client_mac,first_name,last_name,gender,date_of_birth,location,email,mobile,source,facebook_id,twitter_id,instagram_id,linkedin_id,oneclick_id,client_mac10,Restaurante,Relojería / Joyería,Discos,Libros,Lentes,Zona de exclusión,Tabacos,Otros de farmacia,Pastelería,Dulcería,Fotografía,Parafarmacia,Novedades,Caballeros,Juguetes,Dermatología ,Farmacia,Tarjetas,age
75,1094BBCF798A,None,None,M,2000-01-25,None,becerr64@gmail.com,None,Form,0.0,0.0,0.0,0.0,0.0,94BBCF798A,1858.2930977452959,510.4860700828767,56.27720424649891,170.61222128556918,213.65046378783438,140.99690455502022,30.319482062431913,75.4271306117171,59.85005122440707,52.7241000261716,0.2668829016033354,29.43498996862659,23.135549058307962,0.7434864168504768,21.259465439478532,10.050887963632896,6.470066798592363,0.0019458250852694545,21
102,1CCCD61D509C,Kassandra,Martinez,F,1994-06-08,Estado de México,kassandra_martinez_94@hotmail.com,None,Facebook,2578004995617069.0,0.0,0.0,0.0,0.0,CCD61D509C,195.4658564090647,314.6350028534836,60.01126488029222,69.75827036328342,26.463207678947153,16.748748531367845,7.763802216351225,11.178649706614769,4.139247537580921,4.663572937486889,1.0579011829595037,7.465088055670418,8.893261435729512,6.809793468466469,3.951901688192163,2.8602390476133612,1.0477082691775454,0.08648373771822686,26
105,202D072B40AE,None,None,M,1991-01-02,None,yoniantoniomartinez@gmail.com,None,Form,0.0,0.0,0.0,0.0,0.0,2D072B40AE,1017.2814893374099,7190.306568451764,748.8712489538299,545.2181694981667,209.82203052100584,118.25855852475017,161.9906656487938,152.12356655669473,35.257961201577494,143.0970416374112,16.09118698405675,43.27161201126322,95.5523307229483,46.29194036253242,32.65223947761534,40.863950227860514,38.053369792088795,0.9960700902300933,30
108,20326CCD069A,None,None,F,2006-01-25,None,elizabethfragosomagdaleno@mail.com,None,Form,0.0,0.0,0.0,0.0,0.0,326CCD069A,9618.28483235767,7270.446992370432,1131.7029051813604,555.2847731361019,465.9677884734326,831.4798607196848,121.77593171368054,395.36156582685607,191.3701526247653,137.59764979859352,107.33975625220278,96.07923579607663,184.2575684640426,83.53096680593754,12.865891775817449,17.704868445664687,78.10280278698905,2.846457470696544,15
114,20A60C2B69DD,Trebor,Mal Bicho,M,1993-01-16,Azcapotzalco,soy_el_mago_zador@hotmail.com,None,Facebook,2978743708808018.0,0.0,0.0,0.0,0.0,A60C2B69DD,2436.868136680621,1654.921446628474,466.9205428650976,15.913562900055048,270.73458012841303,110.55434219789672,82.91332729308918,50.64787650140608,20.48544214868166,16.700125614173793,50.759507072655175,32.629722026777735,3.983551366145895,42.38303436004126,26.526438937720915,26.430513542616872,24.057938158844635,0.5699115772914438,28
119,20F47840F098,Juan Carlos,Mendoza Morales,M,1996-03-01,None,ianmendoza3105@gmail.com,None,Facebook,282681896464530.0,0.0,0.0,0.0,0.0,F47840F098,3647.2608935337153,509.1844624494802,304.38553138024383,184.9667165632413,171.0706051328114,201.5660818425807,81.35986585208842,112.51603736621308,5.662937523972819,7.112364762072139,19.189092059015483,52.69186363234347,39.15555797452926,10.703110886559308,18.919045935223856,6.2925740959110605,0.45600355927092096,0.5072554507262568,25
120,20F478DBB658,None,None,M,1990-07-26,None,hectormelendez@yahoo.com,None,Form,0.0,0.0,0.0,0.0,0.0,F478DBB658,377.0711479307948,712.5781564371691,100.25216279545033,115.63815473090003,29.41340464595545,32.01036332381898,2.010872796964315,24.74316605845605,32.43062629218452,17.2120212479234,9.225262040422493,3.279685057489264,2.4005612140195107,10.059147985437505,0.41437601768240445,5.884979149667225,2.272708040919289,0.10320423474588136,30
159,3010E451F4D5,David,Gtz,M,1996-08-11,Ciudad de México,david11gtz@gmail.com,None,Facebook,3031061890289432.0,0.0,0.0,0.0,0.0,10E451F4D5,886.7177353386456,1582.794594532411,251.43195245470085,46.04498609633151,87.4974087802011,62.15887304574963,75.45179386315623,81.26078039390244,36.37263715282097,17.58681374160904,27.018986356812462,14.839569733552135,23.779884652238774,6.12389748109269,13.44837679664783,10.21586921004806,11.35216922690449,0.9036711431740757,24
163,304B07B522F1,None,None,M,2000-01-11,None,cdcortes@japay.com,None,Form,0.0,0.0,0.0,0.0,0.0,4B07B522F1,601.0160644124613,188.09013069996917,75.27019184232422,24.716725757491353,41.23236193250754,38.63119289274597,3.5831185148675395,34.12871470665784,9.267341709213017,21.407734899213033,7.378104284689109,3.186175515025603,1.0742368492851353,7.829460709658497,5.655986828169833,8.300792839258468,5.009228060094705,0.22243754636789195,21
164,304B07B573F4,Leo,Hernandez,M,1990-09-15,None,chivasguapo90@gmail.com,None,Facebook,899643443822180.0,0.0,0.0,0.0,0.0,4B07B573F4,997.9892234415789,3519.9961587567777,29.46658687022438,256.0988260395034,56.91642344020508,193.45971128213066,61.096704290723274,89.05827861279214,38.036280151062485,48.774749951031765,61.332688137803075,17.797784194788917,12.92179527547915,25.632493330469536,5.9656157101262135,15.67019378992256,24.871457116419503,0.91502960896059,30
167,306A85526C84,None,None,M,1970-12-12,None,lupiwis70@gmail.com,None,Form,0.0,0.0,0.0,0.0,0.0,6A85526C84,8207.405254207908,1380.999429239167,10.470499168134857,125.3538758206117,687.9854771954328,120.96601907859763,146.7487597411481,217.20753897015328,84.20123338594031,17.667213176183363,11.848783681964322,26.226359603869422,45.48966247527776,38.435636511965164,41.37233373459583,42.93292306403439,27.35132218500245,1.3376787600158342,50
170,306A85B4FBE8,None,None,F,2005-11-03,None,naomi.lightwood2@gmail.com,None,Form,0.0,0.0,0.0,0.0,0.0,6A85B4FBE8,2205.233591554975,1737.4956341442744,112.1788073134834,40.06596411508413,105.71654968411991,87.76152592444897,108.3300607897895,45.64309807803991,64.38881569950817,47.43946328535681,55.19792902315775,34.24971772111456,30.049813821643408,0.41551441410615936,16.365406429274774,2.873058603991012,6.466884212679098,0.12816518495201176,15
193,38539C8258BA,None,None,M,1999-08-25,None,carlos_ecam@hotmail.com,None,Form,0.0,0.0,0.0,0.0,0.0,539C8258BA,4073.0391508179914,1040.4070278160189,518.9903042350859,147.8981631447102,89.54827383162625,220.76518812985785,103.11448879670363,91.98953141137109,125.07153093103841,57.393458814826154,38.96677663755783,38.35403701813327,46.93264883893685,43.82264260576445,17.17699777935078,15.50662196818359,7.905684512126334,1.1174727107172218,21
194,38539C8E6A35,Alan lara,Lara,M,2006-01-01,None,gutierrez.laroberto@gmail.com,None,Form,0.0,0.0,0.0,0.0,0.0,539C8E6A35,265.12288158362355,1301.2268551281031,92.32146113728272,110.40308035196684,40.68450723716386,52.76458173602927,16.857857480712706,7.77490762606039,5.874850430753826,17.397782872465346,12.722502120144304,4.132765589199497,22.965205744741684,6.293119917259997,9.599415412376725,3.8312575602121837,0.7181137732234734,0.3088542986801368,15
200,38D40BB668C4,None,None,M,1984-11-11,None,jack_anje84@hotmail.com,None,Form,0.0,0.0,0.0,0.0,0.0,D40BB668C4,1912.162331896863,5348.798321837045,761.4899382481176,479.15409151404566,288.85475896775716,181.43740737418955,68.3865060297723,246.04682672939873,80.84640527603567,56.334531261817276,72.4318522762739,86.93519565194458,13.591944655544484,39.32692430979882,11.382618158108214,51.42236812559031,7.172247033787843,0.22573065391165548,36
212,403F8C1E1947,Barbara,Islas,F,1984-05-27,None,barbikiu27@gmail.com,None,Form,0.0,0.0,0.0,0.0,0.0,3F8C1E1947,12263.474266742858,8485.98883439095,410.0878674137033,1331.3639762276239,1091.1871915527236,452.33850693687947,302.94199143395105,508.26880018736085,82.25658957908833,199.70252610330704,232.3067017453168,60.67424107718043,114.97021537894545,167.1223382386948,27.83299758536343,6.236958775340089,4.7374439208416,4.508552709859651,37
213,403F8C25E817,None,None,M,1995-07-03,None,luisgerardo.hdz@hotmail.com,None,Form,0.0,0.0,0.0,0.0,0.0,3F8C25E817,14221.655864757415,9619.976534305022,1583.9996268240623,463.03667797904643,769.6952324921059,305.8422176828451,245.42600481169677,358.67588825976367,294.04229552386175,249.12441255434274,260.8261436514989,101.56130665269664,104.97607358548238,40.53377725296711,49.62835506839888,40.16474671949011,14.490484724020178,2.3443571552889666,25
215,403F8C4DA3F3,None,None,M,1997-12-31,None,raymundomc75@gmail.com,None,Form,0.0,0.0,0.0,0.0,0.0,3F8C4DA3F3,1326.1825398564797,304.74422495838894,44.60129130598882,78.24003869980382,72.52373776876036,60.96341147112721,21.513378602042515,17.719926363884994,15.565546077704926,34.7562120953562,6.59248570901913,27.11474778433388,19.418891709575764,13.098019951874383,15.32200283682877,9.730132357441608,14.468592205642288,0.4448202457468057,23
216,4040A79BBC73,Alondra,Luna,F,2002-03-08,None,alondrafrancisco78@gmail.com,None,Facebook,557557011789253.0,0.0,0.0,0.0,0.0,40A79BBC73,4648.109073421796,9167.87525467955,51.469685960841126,1095.1700070025493,725.7461289391836,116.20290854145239,374.51877256384654,259.30730992617725,291.163920848189,113.25492472332587,67.05429387346213,108.49045930303774,142.66495407453348,121.06354800495086,2.795374809990332,51.02221805844289,27.67531331901806,2.4158519496505155,19
233,444ADB371196,None,None,M,2002-01-12,None,martinezob@asf.edu.mx,None,Form,0.0,0.0,0.0,0.0,0.0,4ADB371196,320.15958425855644,4813.017086265908,92.1235812186798,498.4645491007742,176.85239358227972,200.59509320093878,156.6838005574013,143.62415202451885,113.65615684692065,16.812215178641107,72.16555866487258,4.231762982475368,31.16020160995134,33.267175307332735,30.96270946552467,17.753205219514385,18.58192174690786,0.8888527688021176,19
241,44D79170E4C1,Oscar,López,M,1995-02-08,"Cuauhtémoc, Distrito Federal, Mexico",oscarchivas_619@hotmail.com,None,Facebook,3615390245199391.0,0.0,0.0,0.0,0.0,D79170E4C1,4712.826226937877,7517.9658702472025,193.23061207729924,141.9882886134598,53.20142392900008,123.05247936675417,147.68369045578427,176.05118353232294,64.68665574567808,44.47826239183904,87.21221780748215,24.960744142257678,37.20254037063163,93.65736482895004,36.91231679148003,67.0721038539971,26.52150945284013,3.2965094551423926,26
255,48C7965AB60F,None,None,F,2006-02-08,None,xuany83fogoneras@gmail.com,None,Form,0.0,0.0,0.0,0.0,0.0,C7965AB60F,4507.40313076407,14744.802432590443,953.3502737389927,147.5372414129786,507.6726068762147,705.1906887150518,169.11140158968018,146.7668672049801,271.78614453864725,25.308123451562306,31.705093297725334,93.31557664485764,106.60499464008026,21.315048486672353,18.103187816936657,74.77052962761788,71.84781623713013,3.4088423663598473,15
259,48C7969AFD39,None,None,M,2006-01-25,None,sanlop42tonny@gmail.com,None,Form,0.0,0.0,0.0,0.0,0.0,C7969AFD39,408.2552466823084,195.01596363605228,39.63918425845082,96.57922702358333,77.3588121138416,2.8030401530468367,4.539617731996498,12.209718195086053,11.662252371785351,18.40474009505787,2.575045972087397,3.0752481205574753,6.276386387507451,2.8016428961853483,3.4830902806101682,3.5359515623786333,2.7763159371859967,0.008516582278360826,15
291,587F57F2418B,Sheila,Ram,M,2001-11-02,Bogotá,montoyaariel@gmail.com,5547834492,Facebook,936562233349723.0,0.0,0.0,0.0,0.0,7F57F2418B,10077.603413260644,15556.701932766833,1609.2249436116535,135.21305930414533,517.2578617951967,593.2314437427543,82.70689305309567,355.72087018041947,51.307039990851976,113.50213285869003,4.324300947261429,181.6520827433061,22.06105631882615,66.1014220330813,29.420909645415552,136.51725351209194,9.858856646570446,3.59452758916638,19
300,58D9C3B995AE,Xöch,Rodriguez,F,1996-04-05,Guadalajara (México),love_thara@hotmail.com,None,Facebook,1418330088335807.0,0.0,0.0,0.0,0.0,D9C3B995AE,4345.072763364134,15984.037625938457,1758.8914326100123,1391.651628824532,169.81931722888004,780.7468055726297,217.06684315037703,108.01700562519322,85.55680183842809,313.17547542995095,222.7018882055516,113.90847911319422,168.56696396499382,11.085917904506706,90.06158431113525,101.15639618535015,19.04319806402779,5.439872668639114,25
312,601466894C60,None,None,M,1966-10-29,None,rchchs.29@gmail.com,None,Form,0.0,0.0,0.0,0.0,0.0,1466894C60,401.2906269989468,464.1393425245775,51.08263070933982,96.93470309171153,55.073985980564764,68.48376784867392,5.87726638070917,11.980967649271038,24.320582374501125,10.340617663092724,7.4511794114520455,17.953200306970842,6.171996239525972,3.3181800401376416,9.33097978648298,8.945565774405056,3.2885220204246335,0.01588519921260635,54
315,601466F3D78F,Omar,Valdiviezo Antonio,M,1987-01-01,None,valdi.rami@gmail.com,5562013391,Form,0.0,0.0,0.0,0.0,0.0,1466F3D78F,10913.253963590209,8608.692632572527,867.3255098780007,154.1516740346029,627.3485258387632,522.2323269834999,13.056948891511656,287.0225932172577,227.13870716034978,180.8544382837646,53.5522183160088,195.74161601644775,120.20500109253115,87.79037508453786,35.424056558673904,0.4422181297897434,105.61078232027819,4.156412031243513,34
321,601D917769B2,None,None,M,1975-05-29,None,eortizecor@gmail.com,None,Form,0.0,0.0,0.0,0.0,0.0,1D917769B2,2524.628298699742,1743.9541205987905,159.98240517683286,403.69789703325,136.41473909274822,117.30110933136329,90.86289580221396,98.20957086507218,99.92776106801793,77.59428105476493,27.893260354597405,45.93365886203363,39.643821495168,43.36607175344991,15.55800328377862,7.942127753075492,26.548908197338225,0.541069577764047,46
322,601D91776D6F,None,None,M,1965-05-25,None,zamoram@sanborns.com.mx,None,Form,0.0,0.0,0.0,0.0,0.0,1D91776D6F,470.59709229917786,256.653315230296,68.1861630054425,3.7072724049674988,65.61631575765755,32.46301671794836,40.37908561921121,36.015736770834415,2.0819622605312755,22.01668275826083,15.57121770644105,12.806733503776075,2.2693190641270484,9.946351007822456,0.40470808430414656,5.446046642497363,7.482653987350245,0.35632717935444275,56
335,6083730461B6,None,None,M,1989-03-17,None,miakalofa@gmail.com,None,Form,0.0,0.0,0.0,0.0,0.0,83730461B6,9475.873834146292,519.2724729087363,303.5661954898441,180.9873163762121,719.6809726252301,206.21391010501785,166.74752663273833,160.44601067339568,76.41493869448115,56.47913138857595,50.23858361440603,74.47281052699584,20.02056253832013,41.66087786375166,21.676109189672545,22.367486346427906,37.73565800020783,0.1456028796952074,32
345,647033A0E28E,None,None,F,1986-12-26,None,estefania8686@gmail.com,None,Form,0.0,0.0,0.0,0.0,0.0,7033A0E28E,185.93910225655205,225.12950340974393,56.65847339817313,17.5656797122259,63.76519012927853,26.46105848663486,17.946925763829377,29.45874305193548,13.193315529197648,15.459749967784752,4.350207432788434,6.744235883196619,7.719852530232692,0.3088815790817616,5.958329279591445,0.9281317949334362,4.171149831526564,0.24146996329348866,34
365,70288B15E934,Maria Lucila,Pichardo Bello,None,1974-03-18,Ciudad de México,cilabellita@hotmail.com,None,Facebook,1363106803865659.0,0.0,0.0,0.0,0.0,288B15E934,1122.6082604109667,809.5925058656745,98.9025096274157,33.45041905336968,49.289081889809545,119.95265208470694,4.624583920105278,68.64557596569679,24.622150290625953,2.0310229463473854,12.063102408920585,24.767595515119588,0.5386494007776932,16.135858483963407,14.29675979001148,2.8170073749530626,11.592244365251357,0.07002060628457446,47
367,703A512EDC7B,None,None,M,1985-07-05,None,luisfdo2018@gmail.com,None,Form,0.0,0.0,0.0,0.0,0.0,3A512EDC7B,4414.5997328713265,3295.217563555571,198.23163879579064,113.07136719616958,332.5540275750634,392.3302153625041,38.79251232501044,160.61162651331185,51.70904211132267,1.1105703399372333,75.06099842320378,19.471129332236938,26.65586769684651,17.622843002851493,19.70420795733902,4.037331413660216,33.56062286952548,1.6587026583302253,35
377,74428B79E97A,None,None,M,1975-07-08,None,gmarzaroli@icloud.com,None,Form,0.0,0.0,0.0,0.0,0.0,428B79E97A,870.5723937037391,1864.8488009142345,28.35404493484011,163.49324410692105,129.46238405252123,28.206372180317892,74.88658828888072,35.43340569550768,56.2384704385433,38.05677237521129,2.8615234431615746,34.5017359018203,30.805431815658697,15.696311129741135,10.477414362684202,7.962219948306545,9.590579483253268,0.5523072246561554,45
383,74C14F41E867,Oliver,Isunza,M,1981-03-07,Iztapalapa,dies_irae00@hotmail.com,None,Facebook,2783777484972631.0,0.0,0.0,0.0,0.0,C14F41E867,4127.044969660797,9340.210804721259,917.3537072263058,588.4121911097714,130.57875469967414,599.5184705801925,219.70299599844313,121.47037147676839,266.3387579336525,55.10581462208932,132.63305278863697,170.5782334295621,83.26629422703681,67.50379067053845,67.22648486309845,16.90246053340034,80.98892366768338,0.16392179109086774,40
395,7C38AD32D019,Ernesto,Ocampos,M,1994-05-10,None,rantty1999@gmail.com,5581489338,Form,0.0,0.0,0.0,0.0,0.0,38AD32D019,5734.777898475798,1598.2935965712927,453.7800885067031,230.06155162932976,271.50823367454694,42.00163866197264,61.01373092314135,169.43355848980815,167.89200875723157,125.01914439180806,98.49012239236045,13.787402578098881,46.86049677643311,66.35787437028418,43.40507305310686,52.260135715332325,41.82941951707838,2.228025515672558,27
437,844167BC79AE,None,None,M,1999-01-25,None,darvader_200@hotmail.com,None,Form,0.0,0.0,0.0,0.0,0.0,4167BC79AE,17428.59936354463,596.4800721420012,276.30292554418764,1091.5611568374277,1022.6058732017024,279.18292416342945,292.21883201948054,385.54153164041674,190.89200128501156,68.51339683830342,88.24302600339335,8.112929561174212,8.290586006788432,99.38794953892214,101.71684740075757,52.290620083103576,10.560215353366775,4.499748835904216,22
482,8C45007FCBFF,José David Núñez Ramos ,None,M,1977-05-09,None,jdnr78@hotmail.com,None,Form,0.0,0.0,0.0,0.0,0.0,45007FCBFF,7301.244948771236,1391.9590586148531,438.5594501323626,253.86100591046258,540.0237034723843,378.5855907620023,244.03486371792917,171.91074979341423,136.7761780887675,18.03827592841352,112.16751589123231,22.905024656579073,94.54025486531157,26.56600130714916,3.7081923527379375,6.52510981357545,8.270654851698454,2.3234210698894855,44
492,8C99E65ABB9B,None,None,M,2002-01-07,None,leomtzgtz.123@gmail.com,None,Form,0.0,0.0,0.0,0.0,0.0,99E65ABB9B,11415.710670982791,5737.238062750394,488.73136551182927,943.2066795394868,698.7615004984128,231.76365268312608,71.84398667676163,119.79345147696581,284.2906079432697,110.85770308613375,54.64508018531541,1.7117445392575459,111.59388391945666,89.19316225287245,61.268787754930166,86.94700054478571,75.13530844002665,4.307351214183187,19
503,90324B1DFF97,None,None,F,2006-01-25,None,aguirrevalks@gmail.com,None,Form,0.0,0.0,0.0,0.0,0.0,324B1DFF97,15935.473005092304,12578.158708442854,296.77079968149997,41.933058584613775,511.6202398080864,1149.8105072220196,614.201088654771,119.08702615072738,485.40295324268925,358.33237055660516,230.85621248925452,170.2011929872499,221.92702539614294,97.4710102207187,155.59223691415613,17.46552857032752,124.15807457483982,4.5389614111371195,15
509,90735A59DD62,None,None,M,1978-10-11,None,oscar.olayo5@gmail.com,None,Form,0.0,0.0,0.0,0.0,0.0,735A59DD62,4170.841248193398,19354.8235096313,57.63646607715929,1509.401893550116,753.3024584041128,348.4917576773381,68.83288336692598,66.15795352432751,366.4119381849533,34.91339995089524,87.98696018419525,80.80066092038521,27.565508854481983,128.82832679580184,125.95806017307768,28.531947491192046,22.077688504767778,2.4373385155655556,42
520,908D6CC57931,None,None,F,2000-02-18,None,judith_18j_@hotmail.com,None,Form,0.0,0.0,0.0,0.0,0.0,8D6CC57931,105.35076706318536,5263.717579496284,298.5909202637953,329.12814446671285,9.926338342528144,264.72567234752887,174.59811769253977,64.89562987678558,122.14073442586779,1.0360211919634832,79.32038538884737,63.47854443929581,64.05223781131497,53.16433873189066,6.504980695653102,21.310003495524132,30.976437752066957,1.0831465182148134,21
542,94DBC9B0B1FE,None,None,M,1997-12-31,None,juancarlosmendezramirez_@hotmail.com,None,Form,0.0,0.0,0.0,0.0,0.0,DBC9B0B1FE,357.4357493326745,7807.359208267117,49.844583284538054,416.45467346167607,544.1608648213838,445.26356913581753,140.7827642629276,41.51655116382757,109.87538922286782,59.80479519292939,56.49160791829194,12.537696233341302,63.74367270575619,17.564371095322695,3.3253592059245167,47.4273938677535,1.6475097610438798,0.7642410668048143,23
595,A8515BA400D7,Luis,Hernandez Lsa,None,1989-01-12,None,onetsanchez@gmail.com,None,Facebook,2253542058295761.0,0.0,0.0,0.0,0.0,515BA400D7,7378.4826464908465,14600.340569068601,995.6028412133576,393.32308807690066,806.5838126076223,421.1629565674852,85.6573518588747,524.8826977100223,379.8295129548098,112.41899107304504,91.52411499395056,199.17137960055095,119.54190856274926,65.01562514115776,54.24074913198619,9.540658033808507,30.505563238480246,1.175533675754422,32
601,A8967524C395,Guadalupe, BenÃ­tez,M,1888-11-12,None,elsa1211.ian@gmail.com,5569713363,Form,0.0,0.0,0.0,0.0,0.0,967524C395,83.68810303577017,13152.106713318275,421.7248789770992,106.6871414415616,389.2101857811021,379.4547535534658,115.67150877076149,183.83362539638472,111.35174875177508,148.67933187318854,89.9849537737435,117.79270296332673,86.36310962061928,66.85410265626274,53.14948023401322,73.00297917823706,54.29063738327309,1.1540432911433456,32
616,AC1F748947A6,Kev,CR,M,1996-02-14,Ciudad de México,irvin_america15@hotmail.com,None,Facebook,1669398506551245.0,0.0,0.0,0.0,0.0,1F748947A6,5053.674760528091,1055.1589931246556,59.04745810842661,42.995625284358255,72.66386230369798,310.1963837340609,32.57615595513117,181.57238632132587,93.67989615831361,101.51721532797754,64.91275274525887,1.4157802181390735,31.603204211184664,23.988298309825627,40.51357625942048,30.953121651606885,15.891673753641893,1.638856004885168,25
623,ACCF5C24458E,None,None,M,1983-03-17,None,charlyborwn@icloud.com,None,Form,0.0,0.0,0.0,0.0,0.0,CF5C24458E,629.0177505178477,2181.5493554527316,333.2588806720115,257.73194784315405,9.55684308847093,46.54097064592398,29.213060120714662,35.442119657350084,26.732545682605874,62.745118360793576,28.325699481301733,39.93086851086148,39.57546340417322,32.293247543820506,3.507662449376605,25.54258891778299,16.602733898121766,0.43314375295867796,38
636,B0702D3225B1,None,None,F,1979-01-12,None,velazquez.lena@yahoo.com.mx,None,Form,0.0,0.0,0.0,0.0,0.0,702D3225B1,14804.11269050308,24516.10922458877,2567.0384602275935,1624.5264043341374,1334.9677080790395,1761.1076806725252,186.04655484944863,182.6076739388132,759.5254645188561,441.94558680382085,132.89563481509612,378.5508526105652,31.222612299989578,270.4174003341732,95.00293459419237,204.20528318262998,52.45536673775625,5.262466909516874,42
646,B49D0B98244D,None,None,M,1969-10-09,None,hernandez.torres.alvaro@gmail.com,None,Form,0.0,0.0,0.0,0.0,0.0,9D0B98244D,2894.1366763395945,1627.7379143962683,452.09595029493954,15.884588467250596,63.876836152179166,178.22358420466375,21.83298609743979,66.95694161855107,28.706963884740617,35.88105019943021,65.72830569502536,36.6826951724257,18.016850284639283,21.71756425762483,11.423995991267352,23.654157397820146,1.7667343162268927,0.6762052299110292,51
667,B8B2F87928F7,Casandra,Coronel,M,1996-09-04,"Tlalpan, Distrito Federal, Mexico",vampi_barby@hotmail.com,None,Facebook,1360182454168640.0,0.0,0.0,0.0,0.0,B2F87928F7,1940.909886013477,9360.454059365813,811.1811949948474,120.37543133535038,777.9308193586083,542.1207306221663,123.09557307426121,109.71662329914528,44.37654421114601,70.84172460977109,97.07343226076718,16.00856745405618,79.48648739070349,65.73874714778492,10.74538904518269,23.71097065567779,5.894116300899181,0.3397028603416827,24
672,B8C11111BA48,None,None,M,2000-01-25,None,becerr64@gmail.com,None,Form,0.0,0.0,0.0,0.0,0.0,C11111BA48,1667.5391141239224,5841.906788160189,467.4846414262876,66.51505101663786,577.5283779622071,94.16204757008677,93.98449028323678,25.389814988231766,162.2012860268832,37.668869471791496,89.85402699819217,86.94044641505783,65.0250866144369,63.54428385116442,43.09952903596581,24.376260073607433,30.48554529184221,1.294340690259061,21
673,B8C3853B09BB,Jose,Espejo,M,1971-04-07,None,josenatividad451jneg@gmail.com,None,Facebook,502271673681529.0,0.0,0.0,0.0,0.0,C3853B09BB,2742.3585766087344,4920.695428028131,704.6400777319323,614.6855001707495,419.9826363568845,354.8268458335937,104.7932416415329,22.279857140836324,19.73814341462451,9.62434120265372,6.976457228366098,19.631869053148716,59.599580990989764,18.739742197964397,50.42712725198566,49.82369480418356,42.89082574339647,2.2860546002917017,50
682,BC765E4F5BBB,None,None,M,1970-06-05,None,nicocruznapo@gmail.com,None,Form,0.0,0.0,0.0,0.0,0.0,765E4F5BBB,1597.1553369370588,6256.895815015056,642.6012859286965,621.5589421360036,71.25015188258965,299.2910202317616,113.55102170192566,86.03119412571586,181.2919467295095,103.6876732576633,41.11065031698061,82.49105616580619,98.92075884282383,41.54060085027216,59.364740585738254,4.12972630273618,0.8511279238815331,1.2769510657836702,50
698,BCFED93BD806,None,None,F,2001-09-14,None,layevskareyes54@gmail.com,None,Form,0.0,0.0,0.0,0.0,0.0,FED93BD806,2965.077685093104,11305.939530226464,125.36455027582561,765.638115064592,159.54501028190157,608.8229355599304,100.41289213115974,19.5006643444851,83.75014569285744,214.51368012226703,162.45607129787456,27.936412861749528,32.89265451400129,86.47161228033548,18.000051135165027,69.46694250784385,3.382239223408144,1.8288073870332164,19
739,FCA6216298C8,Luis,Garcia Garcia,M,1998-03-17,None,deivid619@hotmail.es,None,Facebook,2209693715786065.0,0.0,0.0,0.0,0.0,A6216298C8,624.5997973301211,480.3442580713131,145.52845048678006,93.6650381106776,129.64814184226586,18.18571991766535,31.81783761462305,39.56383513969065,47.00787597475048,32.46323308366028,15.413570808755019,12.456960568795427,1.6194738752043498,16.299484251421685,11.698153561475987,5.293496554267707,4.284924787654366,0.10974802087778403,23
770,D461DABCBF4A,None,None,F,1979-01-12,None,evelazquez35@yahoo.es,None,Form,0.0,0.0,0.0,0.0,0.0,61DABCBF4A,28388.551113380312,6185.070467794409,2417.666413703839,1883.0033860543294,2223.4757528275077,1352.129432919593,635.0258520690836,256.5344522915476,203.0467924430612,405.08550392148595,399.79512803961967,394.14021388520683,83.20623090891725,150.54370170858806,88.53739045454653,130.08133550516348,132.63156454268545,7.4752675501006145,42
775,D463C6412109,None,None,M,1997-03-23,None,lilianaescudero246@gmail.com,None,Form,0.0,0.0,0.0,0.0,0.0,63C6412109,15485.695929154126,19036.82671671964,1631.2990183247846,32.52066244952148,318.1415222734094,1098.2755163235875,351.72541175672404,537.6890433908156,32.16575037141209,433.1715868143287,75.4859803879973,275.7050301095462,79.59146363335245,173.82704085344275,42.91694208283779,56.55258256662083,1.7027042382729767,2.707098549566622,24
784,D4C94B19308B,None,None,M,1998-08-14,None,ricardo345@gmail.com,None,Form,0.0,0.0,0.0,0.0,0.0,C94B19308B,1427.8954199306743,832.3268077513926,92.5528530861838,170.80904596350814,73.83459059846776,55.78367204570836,18.532906334910088,68.24929047927593,50.60703402025731,12.897077148629641,33.07512051245238,30.95731827216546,17.77882832156891,23.259484511390387,19.664155211001216,15.777167446730727,10.486067999003135,0.5131603666800779,22
791,C08C71A1836A,None,None,M,1973-08-02,None,angelnoguera73@gmail.com,None,Form,0.0,0.0,0.0,0.0,0.0,8C71A1836A,1412.923174337158,154.64632341049094,144.57532638508314,99.25762617022608,130.56002805628574,93.93753074916668,16.615270497437734,26.288852893605142,18.85483345519745,4.585427051330601,15.579628954071618,10.41339174986927,2.305933448210901,3.6974872803036147,7.633132689700336,1.0067938340936866,5.047178114615956,0.07206092315305075,47
795,C08C71D4F5A1,بابلو انطونيو,ألفارادو هيرنانديز,M,1994-11-10,Ciudad de México,pablo.alvarado.94@hotmail.com,None,Facebook,1099261527111645.0,0.0,0.0,0.0,0.0,8C71D4F5A1,761.3208942150586,25625.579642804252,1253.638603154073,658.0611611373832,303.3260473463512,221.59297626046688,534.7649846820553,565.0279040981461,126.1139108675143,262.05333847403256,283.71493436393934,75.00975034630488,180.9559117496581,134.05007051380866,57.37132226832576,124.6062043541578,69.08284451364628,3.729498850831841,26
798,C08C71F5144C,Leticia,Ruiz,F,1965-05-02,None,letitos35@gmail.com,None,Facebook,188069312617119.0,0.0,0.0,0.0,0.0,8C71F5144C,3405.643395129227,5817.188629974788,684.1664654242054,573.4535001221612,499.682702410515,12.523177521148147,283.92586616659605,49.5889628715775,2.8902134526289904,92.78980180385803,71.67536473393899,92.25306427504815,47.222810023934116,20.752128462810862,58.94496253982713,52.055110420140565,18.576989283084504,2.666855384514651,56
801,C0B658075DA7,None,None,M,1957-12-28,None,eduardo.castillo@magnatempus.com,None,Form,0.0,0.0,0.0,0.0,0.0,B658075DA7,376.68225074610115,623.9518623018955,131.9963610841521,143.04406275995942,114.10869585778912,29.877779186492646,49.82976633671281,43.921716236157984,7.544693318983453,2.069575820385106,12.6096823063907,20.54160055131451,2.4373656905529044,0.9679489749396492,5.922422203922322,1.750588863715905,6.360851534744422,0.38277622579017356,63
839,D00401E5AB39,Esteban,Sosa,M,1973-12-26,Nezahualcóyotl (estado de México),estebansosa4964@gmail.com,None,Facebook,633330340553916.0,0.0,0.0,0.0,0.0,0401E5AB39,698.3391317417365,863.4656040606961,42.02477323032183,181.85297752240933,149.34969559089242,3.9639298095150095,39.94701656164983,5.668142069747275,47.94543140141641,17.987065978889337,2.939818924062688,10.670182827978158,12.93994926704205,1.2213695725561178,11.895785605391735,12.750167533432776,8.89599715244947,0.14296114981231603,47
840,D016B47B69D4,Guadalupe,Leyva,F,1978-12-11,None,anayeli.1011@gmail.com,None,Facebook,1128639260806401.0,0.0,0.0,0.0,0.0,16B47B69D4,16441.62812092743,3406.325733182419,227.47497693677954,404.2907615029309,683.6834251509802,92.10295763605929,35.767810597012854,174.02214988188643,110.35780017580407,204.6920861444669,201.27042262764988,163.24945137220075,157.47456822223538,135.91951889506524,107.13437780786563,68.68661656658811,68.48120269662223,0.43801967600240993,42
847,D4C94BF60949,Jhony,Hernandez,M,1992-01-13,None,flakito_jeral@hotmail.com,None,Facebook,2359038677727391.0,0.0,0.0,0.0,0.0,C94BF60949,16304.050597227504,8976.189234706791,2230.0690165973115,919.5413781464847,526.9104995451943,1098.3254963796435,371.53688811422006,597.6489556258217,513.4135574030628,102.40604490343367,248.61259353807364,32.44382694162839,264.9724492733318,59.19997027899264,161.5486911654365,1.551853018832026,130.20767230877667,2.371274825473191,29
866,DC74A8F91FC0,None,None,M,1981-09-28,None,brauoz.rodriguez@gmail.com,None,Form,0.0,0.0,0.0,0.0,0.0,74A8F91FC0,10488.519433157157,6349.665438372259,1370.734266096793,1298.9512971863353,968.2590697438576,63.9671344677641,488.49235085529534,437.8107542047158,218.53408428966395,135.33027079063663,199.9488349618613,22.374027402272187,41.25305613423607,17.771961539153857,33.773419511365695,94.19185060157473,14.4090972925069,1.0136533925581657,39
879,E048D3590CDD,Ernesto,Lopez,M,1966-06-30,None,0,None,Facebook,114989033564057.0,0.0,0.0,0.0,0.0,48D3590CDD,3027.291828991801,16852.980146052923,618.5071533075921,1163.6057381477124,373.1540476451052,719.2824837746309,178.77293845502837,166.50582564259642,70.75566324588391,132.27928815066744,78.92684603383755,142.53064640150092,143.23686994810768,91.90838631113817,59.00624441475433,100.69203787557231,104.37904466141755,3.1848109397256983,54
886,E419C141BE99,Estefanía,Ramírez,F,2000-11-25,Ciudad de México,251100pedagogia@gmail.com,None,Facebook,835704596854306.0,0.0,0.0,0.0,0.0,19C141BE99,2202.158904336952,2195.042757610961,154.91859649967017,48.10307265455919,98.5458218393181,203.98162558450576,28.106400539266293,13.474463302837629,22.193181590442066,56.96697978533807,48.38077676245632,0.5898188982644255,23.851837830292492,8.69726771295594,9.714178666289834,19.96683149100487,18.939296927887145,1.3681879669998114,20
887,E42B3419EC39,None,None,M,1987-03-24,None,lalo1987@hotmail.com,None,Form,0.0,0.0,0.0,0.0,0.0,2B3419EC39,519.2613709206928,2721.5565015882407,326.6601141307815,327.5614267478694,16.51689340907153,230.4780308360521,105.80114346649853,125.20502197919107,91.15549697174816,71.94898953514974,53.08314210929788,30.64538273207458,27.016667198810737,33.32272029054037,24.58147285587806,4.287374126701686,19.404541007121466,0.5137100942791596,34
889,E42B3427926C,Daniela,Merodio,F,1997-07-31,Puebla de Zaragoza,chizpazz-31@hotmail.com,None,Facebook,2868984856554265.0,0.0,0.0,0.0,0.0,2B3427926C,988.1687803304268,2171.1913913047556,42.636042580980515,279.9286427886775,267.9700658023271,88.75803952716115,108.32484413113397,117.27211281830141,50.14451513493848,16.089449376974024,36.93735053226914,14.573003390175584,19.54484737325734,18.883299012826534,12.117098132738066,19.220080267751662,5.067182290593373,0.17325520471313313,23
896,E4E1305EFEE8,Daian,Vega,F,2000-05-01,None,diansarahi268@gmail.com,None,Facebook,1189188998136087.0,0.0,0.0,0.0,0.0,E1305EFEE8,3397.9178918637376,4574.383568825784,55.92934910615102,116.02844511085009,339.7926457316845,278.5396119543096,180.96258640019335,25.360536597187302,61.21086015580553,76.52206483601915,48.90466469329462,16.119283175815333,8.315508799732415,26.899537474976782,14.775709989622912,4.7402767459422614,11.316585438576919,1.280873100319318,21
907,EC5623BAA8FA,Ignacio,Hernández Hernández,M,1990-08-06,Ciudad de México,hernandezhernandezignacio57@gmail.com,None,Facebook,204507117611951.0,0.0,0.0,0.0,0.0,5623BAA8FA,543.8745823592176,533.2166488042001,141.64521304846554,46.124664125177304,17.906511123432036,3.1504423987509718,39.265689166554104,14.210442746803661,23.72123980376704,3.0160976374465274,2.477629463052504,23.018402187840337,4.641893216289655,14.893076211310259,2.704846165355504,4.853148094534161,7.918054669186793,0.36141877861605454,30
911,F018984F0477,None,None,None,1978-08-23,None,emiliocores@hotmail.com,None,Form,0.0,0.0,0.0,0.0,0.0,18984F0477,2451.0837115569,2321.0648674621925,113.65997432345443,432.802184333532,348.09087482095157,73.52939983823671,37.11699667363375,15.232198850467064,94.89441399378505,53.30514997464241,72.34428826497538,64.09365661985068,61.42402372814758,10.882705958877652,17.713462291553615,4.937224289395792,18.321524503865202,1.5033425155404738,42
923,F08A76083F1E,Jezz,Jime,F,1987-07-28,"Tlaxco, Tlaxcala, Mexico",ale_bebita07@hotmail.com,None,Facebook,1428099247327796.0,0.0,0.0,0.0,0.0,8A76083F1E,5823.127434561064,11593.695558313399,961.4569454515578,308.48981834578944,806.8285722131524,521.5427672897777,340.3817258567127,234.19362445107012,328.3045507490533,70.40669292133568,74.3733005037889,120.45710696009817,14.287897419606178,146.1304391881728,0.6762732796980265,82.68098514412716,48.22014230887804,3.7461650427119957,33
940,F4BF804885C4,None,None,F,1998-01-09,None,lunablanca2006@hotmail.com,None,Form,0.0,0.0,0.0,0.0,0.0,BF804885C4,290.86099745741643,56.23508807049319,50.36194682916001,44.99532711520268,62.58484763646031,39.74994824425467,3.56228342038357,18.71706119657409,7.756734824302544,3.0506932131571576,9.075773774944471,4.624059478966633,0.8665076310231447,1.0250403448993899,3.5817982721073967,5.319771688411766,1.3711936801789948,0.26092712206356977,23
941,F4CB5258BE44,Mary,De Villegas,F,1964-03-01,None,0,None,Facebook,763675480834196.0,0.0,0.0,0.0,0.0,CB5258BE44,1081.9346902056839,1455.3919835646811,196.32109523875107,285.30178547539214,56.53346825171863,202.62543520329942,60.42882155445891,44.907131846270076,85.41257215283161,48.43797911190096,34.26634501327464,5.471611082124803,8.897056216698303,30.632671129078012,20.44635345504962,11.722771020391669,13.341465477509209,0.9267640008868201,57
952,F4F524F53763,Iker ,Zejalvo,M,1996-05-12,None,samandro27@gmail.com,9991799066,Form,0.0,0.0,0.0,0.0,0.0,F524F53763,140.7662838358319,332.97476983836356,48.60954171178705,13.987688095201046,0.7273840198697953,44.75336362914582,7.132022273489762,28.657914444899966,9.175596296928257,2.262867333431474,12.387834556526876,3.42514654217245,2.974174127413243,1.6748942732279204,2.863360624427798,1.4027223309009145,4.167907217001675,0.05652884938050611,25
963,F895C7D4C658,None,None,M,2001-04-15,None,josiasdanielmartinezcastro2@gmail.com,None,Form,0.0,0.0,0.0,0.0,0.0,95C7D4C658,1376.5604544447394,6115.746098517052,156.76272327426065,123.91872682180339,279.334444344919,298.5865875982675,37.4342509804708,159.9731669575529,10.815398730668594,22.80195822458289,54.419925721972675,8.02779661426903,80.12111466071485,36.57587586748419,7.019005817773898,35.72713200761111,9.347169666696924,1.8281697491612283,20
