,client_mac,first_name,last_name,gender,date_of_birth,location,email,mobile,source,facebook_id,twitter_id,instagram_id,linkedin_id,oneclick_id,client_mac10,Restaurante,Relojería / Joyería,Tabacos,Discos,Lentes,Novedades,Otros de farmacia,Zona de exclusión,Libros,Pastelería,Dermatología ,Dulcería,Parafarmacia,Fotografía,Farmacia,Caballeros,Juguetes,Pasillo juguetes,Perfumería,Audio,age
106,108EE05C8B36,Herme,De La Cruz,M,1990-10-28,Guadalajara (México),herme_dlcd@hotmail.com,5511961077,Facebook,1235627123265225.0,0.0,0.0,0.0,0.0,8EE05C8B36,412.2436725494446,712.307778565824,31.767954814846632,0.6106006664938219,6.3664737366475705,1.6122693492610196,8.70047946391834,1.5550002871132849,19.964362655277082,0.49698767693973334,1.79049595315801,5.537867012949564,7.064646283890997,5.530846293146142,0.6538252385213453,0.1269044926713639,0.20355039446491247,0.3951380780908511,0.028922493542554335,0.0422239937982631,30
108,10C7534B91D4,None,None,M,2006-01-01,None,saavedragerardo105@gmail.com,None,Form,0.0,0.0,0.0,0.0,0.0,C7534B91D4,12778.60732664816,7138.591138865618,315.0761040550647,701.254416275283,559.8107716306932,47.02028317582178,234.1052009597267,104.17630654792441,231.51119133686322,38.03870958460953,108.36245250388627,36.8369442247666,52.14838541757509,34.515485736561985,21.044107644220816,7.267933210646236,8.980358222274301,0.889626884343963,4.142294691432848,3.620962384526054,15
121,14568E526112,Antonio,Montes de Oca,M,1972-05-05,Ciudad de México,toniky0572@hotmail.com,None,Facebook,2967603553297384.0,0.0,0.0,0.0,0.0,568E526112,68.68349246804281,1069.8884498174143,53.33896167697025,36.266309801437494,7.895374334173731,40.94222430894895,6.887679958576954,5.285924502152495,11.322088729990734,11.187509890080326,2.7353752295589757,5.469067274298406,7.666606507848774,3.7662861808875396,1.006887954342685,0.18250020654305396,0.4443441870080244,0.4702009788526938,0.4531018343085622,0.1076141585631817,49
140,1CB7963CAA86,Karen,Quiroz,F,1993-05-21,Ciudad de México,lucesita_2105@hotmail.com,None,Facebook,1.022111261495578e+16,0.0,0.0,0.0,0.0,B7963CAA86,4073.519544837903,4461.860674638322,413.4034965762068,389.9100250102549,220.4960330625973,68.34872703256683,15.773861691602466,53.619827611262984,76.38716208147876,36.487926539030106,26.043906684613614,35.84243283005809,38.72601447769707,1.8414047423902162,8.602649298596992,1.7697220486486953,6.158444195639035,1.544867372459785,2.061800650655226,0.6014786180173168,28
142,1CCCD67DFFD8,None,None,M,1969-07-25,None,luisjosefra@hotmail.com,None,Form,0.0,0.0,0.0,0.0,0.0,CCD67DFFD8,3322.304240115035,145.0692415833303,20.782196248419616,146.30760514482614,63.798121238208,33.726570996771756,49.47670062661718,57.76112416058175,8.011355620882695,13.461770388516813,23.942407469253496,27.476741488611008,5.658128449010904,11.237970291312113,2.9863119907097206,0.43551342922002906,1.2538661032940255,0.37888390936594596,0.6126619126018245,0.31858883343024624,51
144,202D072B40AE,None,None,M,1991-01-02,None,yoniantoniomartinez@gmail.com,None,Form,0.0,0.0,0.0,0.0,0.0,2D072B40AE,1080.8511083561398,3003.198091040532,124.04540576452167,70.18261250163708,81.00821919351984,55.10126722870494,37.50870433059589,56.74105947121861,61.46485052780129,44.64984871536127,24.484650404468212,8.220901802998092,18.360534019649542,10.803143691101758,3.9093990671568606,0.5640854488412678,2.568886415740982,0.7371375950942267,0.5550523355225471,0.04504208939381473,30
179,2839269F5CC1,None,None,M,1973-12-19,None,sup.julio@hotmail.com,None,Form,0.0,0.0,0.0,0.0,0.0,39269F5CC1,302.7541316841626,931.4829341746139,10.282220838807767,30.14296830621659,8.256333991643187,9.253181905106647,4.162289230231562,11.161011324633604,5.3012125178620995,7.115488724005789,7.087302629215904,4.598510517906772,2.5339741805839866,4.094506473129273,0.3781476365609913,0.4007946915141188,0.36905543637176486,0.30859841661658416,0.22305875923724705,0.09427856157868278,47
187,2C200BDF746D,None,None,M,1981-08-20,None,zhuzhuzai800@hotmail.com,None,Form,0.0,0.0,0.0,0.0,0.0,200BDF746D,6457.200392821384,4059.324917084088,138.4789127327322,354.79133734967746,89.61322380204705,183.96646282426283,113.39916206460164,66.64970806938057,109.94457754343813,51.205108283813615,39.89102412623105,28.228328687478932,18.013076733114655,27.13981183790403,12.964393153399236,2.0815068645120447,1.593888826628058,2.81383092278743,0.15055956142487267,1.5497767110905152,39
214,304B07B67AAA,Pilas,Cortes,M,1991-09-12,None,pepec2293@gmail.com,None,Facebook,412434189645509.0,0.0,0.0,0.0,0.0,4B07B67AAA,2199.380938817399,296.56742847655084,133.530913187488,41.05306763331602,16.268655994214562,75.51068320069115,7.016751192381496,44.02571913844782,3.6997432440600977,20.80670121169742,2.241290216574043,7.140740372133673,3.2413547902070037,10.403833989486275,1.3342903465283467,1.6192709666065845,1.843211804047537,0.10219693236402073,0.7591995560393825,0.45400892976695423,29
260,3CCD5D3530A4,Chaowen,Jiang,F,1986-12-23,"Mexico City, Mexico",elysia.jcw@gmail.com,None,Facebook,1.021815423974412e+16,0.0,0.0,0.0,0.0,CD5D3530A4,718.4446435138598,13.979997802088636,19.46258559306864,54.3746646304214,38.10790868539215,10.177290553944808,11.858944487116819,13.14112848793643,13.711121306223763,8.377415452188503,0.16138053712074746,5.261242499931226,3.727669229663413,0.8230308355080455,1.0347712987741324,0.2254313873071172,0.4718823701333903,0.24238601940252205,0.20629953861271152,0.21020577130559118,34
271,404E369833C4,None,None,M,1992-06-15,None,astromantico1@gmail.com,None,Form,0.0,0.0,0.0,0.0,0.0,4E369833C4,3116.7441699182523,1738.8379479403297,19.19601397295806,56.53432427301691,152.45298437775602,102.01137167133862,21.945866934896376,24.841470101465212,61.578271512886936,28.46170850839902,21.289552104757036,21.374754506357792,22.422888688752526,1.2749290006902632,8.199961103670393,2.2974715881836794,2.265785438191044,1.2159981849332309,1.178369081264744,0.8761610919004601,28
276,409C282A6F84,Marichu,Rmos,F,1995-10-21,"Mexico City, Mexico",marichurabo@hotmail.com,None,Facebook,1270208696331370.0,0.0,0.0,0.0,0.0,9C282A6F84,13585.30204609338,15524.554516647442,723.0217196909304,369.68641505523215,725.2578200130956,448.06424198971877,44.05034053960569,109.47874679426985,7.186544606666689,39.58430662128186,120.13023769583411,47.63177269360355,55.06995102583101,12.676202723769643,4.360177463102955,0.94432290436067,10.416657996776056,2.8521417291653273,3.178064054085307,4.553773661854502,25
289,444ADB371196,None,None,M,2002-01-12,None,martinezob@asf.edu.mx,None,Form,0.0,0.0,0.0,0.0,0.0,4ADB371196,7515.903861119157,7412.087278661965,434.52643704454897,220.34510859293744,498.4008915851496,168.35118382555365,192.01159978533877,69.84238991627626,8.837552062881745,37.79772500837824,110.91460022344151,84.77637910819459,34.6695162006115,40.643493566576744,12.877310873552629,7.811414333504428,1.0780187892276798,0.5825543082881729,0.2534257997517204,1.2892591946682173,19
291,4455C4C2DACF,Ricky Luiss,Rokanlover,M,1992-06-15,Ciudad de México,pyro80@live.com.mx,None,Facebook,2949996581752983.0,0.0,0.0,0.0,0.0,55C4C2DACF,1646.9993009336258,250.89117887049446,126.51163271733608,95.17104180528133,67.95509375017897,36.55106582648734,20.19639621751058,26.894577766557713,17.073895386056623,1.6465535502547501,19.206966586591545,6.490796168739111,9.244782150429012,1.5148909622914644,2.2031813321101144,0.8349510165888843,0.22067217898999664,0.6522383844698396,0.5405109152705141,0.20027348073572843,28
315,4888CA2CCF4F,Miguel,Nava,M,1965-09-16,None,mikinava1234@mail.com,None,Facebook,457885718476096.0,0.0,0.0,0.0,0.0,88CA2CCF4F,6300.618730402018,7434.961588342178,504.3627403341742,447.9846571110378,202.42149063846156,149.72589050864482,174.68212398721795,170.46210154111395,4.239783117098011,111.87620681039961,90.99130889760632,10.006227175078921,39.512788810321034,3.878084104198167,15.86180436298613,6.109465727389782,8.6724559225996,1.9427641992500058,0.9722335730663402,1.7175544351576644,55
322,48C7968EFBF7,None,None,M,2006-01-25,None,ivonneresendizg@hotmail.com,None,Form,0.0,0.0,0.0,0.0,0.0,C7968EFBF7,1872.6725481584294,428.37588929960657,122.89889292916939,123.58060258778039,7.43584845130047,74.93412146481656,37.44233531005349,35.55663714589271,22.484812597449505,13.697613006349245,1.3830490150017285,12.512308790427227,9.128217251395114,4.705237771416358,0.1485739376597339,1.0174611198696966,1.8082895018606984,0.44173005281660394,0.26489677232270387,0.510934836382125,15
346,509EA7CA4844,None,None,M,1973-02-24,None,garellano369@gmail.com,None,Form,0.0,0.0,0.0,0.0,0.0,9EA7CA4844,15770.381434511623,16414.494330145302,275.8152823387527,1123.0202571297873,229.32053189045718,515.2405588008679,167.41340168023444,228.12922615771345,4.02825170832362,160.19436960827204,100.0967281873559,80.98408400048633,19.226746085612625,69.7656564601114,20.309426781352588,15.921789093502479,9.673812138341367,1.9296155614562251,4.78712913452548,5.267368585915566,48
360,549963F35917,None,None,M,1980-12-31,None,rodri041082@outlook.com,None,Form,0.0,0.0,0.0,0.0,0.0,9963F35917,3269.833496526068,889.7496544536995,117.20101176214136,90.75220123184037,70.48868857921565,16.11503330910269,7.6913182647024705,60.123995742262444,44.202944922103526,6.337444481333865,19.597619374753872,28.729995134892384,1.060808722259519,7.7251428286699895,1.0783402656114145,2.800521311362379,0.06586585253774858,0.6330808667780256,1.0623667402718633,0.7504696303927597,40
365,58205971DE84,None,None,M,1964-11-19,None,constryrem@hotmail.com,None,Form,0.0,0.0,0.0,0.0,0.0,205971DE84,2221.7278181060415,2191.9889487116193,77.69780632215897,88.42703580332258,112.87537046550985,51.80974158266241,24.202897193469486,52.97559142241079,59.83701030354,10.4320123884872,17.370559027086266,7.924651790618812,8.083321844612735,19.29032059265365,7.343307273261192,1.1403553522870957,0.014473468579317328,0.7670770903341091,1.170571566884643,0.9211296944603345,56
370,587F57F2418B,Sheila,Ram,M,2001-11-02,Bogotá,montoyaariel@gmail.com,5547834492,Facebook,936562233349723.0,0.0,0.0,0.0,0.0,7F57F2418B,16521.853754156804,11416.331709752229,254.19619712127025,347.9128173248491,62.63552783795915,430.90116690151586,56.47903431199027,207.48219295116996,113.64891960675885,33.13752272684625,17.336873380507782,21.20558486466519,25.674644530918172,51.19205117605684,33.528739332705605,12.828777315341306,12.547456845443207,6.189120884949659,1.9379077679546246,1.980001210064738,19
375,58D9C351F8BE,None,None,M,1967-10-25,None,miguelneg@gmail.com,None,Form,0.0,0.0,0.0,0.0,0.0,D9C351F8BE,1978.7873223848815,540.9402104075601,59.616714714895316,102.88414680642876,63.150160115961086,50.28201416883351,16.912372541747715,45.859155116273726,13.123012475782215,24.746498148355734,8.158384368467004,6.79448709703274,9.666871674119797,11.632921787877274,1.8183072846209247,1.9190987173584937,1.9515226839227942,0.6436537402766155,0.4138028558047663,0.6993429098009284,53
376,58D9C3522A2F,None,None,M,2006-01-25,None,5569137308gus@gmail.com,None,Form,0.0,0.0,0.0,0.0,0.0,D9C3522A2F,1654.757988444517,426.21905372250416,35.15569358492128,93.12227235366502,65.19258832843774,6.1361808168781105,27.989830555683465,0.7413044051624527,15.35529617601829,20.503483324505698,20.033398810317085,4.2640764205640105,8.623917705305548,4.989289471791806,4.061819976411724,0.10084166413895428,0.4188436250747049,0.474534851848582,0.31423532975367013,0.5453504325009745,15
379,58D9C364ED52,None,None,M,1992-05-08,None,10392oscar@gmail.com,None,Form,0.0,0.0,0.0,0.0,0.0,D9C364ED52,2004.2392344550624,2245.179825162818,176.84960865934505,13.74559786065127,96.87123594701076,75.61761855884373,2.069013186175617,47.94225690937578,41.254006684856954,23.33881651028649,19.91452056516075,32.679907882528404,17.639527241394074,12.049948665095584,6.830825579721907,3.5447882843371628,2.227505719665342,0.9735389654715493,0.7962464871492484,0.23597667504915085,29
407,6014666E9ACE,None,None,M,1984-10-08,None,albor.antoniojose89@gmail.com,None,Form,0.0,0.0,0.0,0.0,0.0,14666E9ACE,722.0529846824187,230.05487963990893,0.7810153712608323,66.84915536600353,30.175842364041323,24.161228560364375,8.553706086139046,4.344466829885927,0.4709051947468552,6.795420956646366,2.0532079352673156,2.2503104905903024,0.07737345794319128,4.026930991063638,0.5955840152425881,0.7609374323662345,1.0566763327661226,0.41448976102826923,0.19907783261895365,0.32580669969737636,36
410,601466A71F0F,None,None,M,1988-02-04,None,janethherreraalamilla@gmail.com,None,Form,0.0,0.0,0.0,0.0,0.0,1466A71F0F,321.01768362044254,251.01052590723373,50.69415003258307,30.85684959837735,38.60037247687982,13.28422130344436,7.9636148803649345,15.623414715001637,7.7753256689163415,0.7554789429666282,4.679425705474769,1.1083778286439174,4.632279839146119,4.486123145769105,1.690228696805327,0.1057838778297442,0.12208883332389046,0.23865512310356998,0.1893084755862117,0.16609132810713456,33
413,601466C6EB55,Jose,Jr,None,2000-03-04,"Mexico City, Mexico",cirilo-alvarez.34@outlook.es,None,Facebook,2163068353965680.0,0.0,0.0,0.0,0.0,1466C6EB55,37.18744611838701,587.5786809483131,3.274581958026996,27.69208434728372,42.24615260271549,25.635829831107976,5.434758684144178,10.333090410775254,1.6939111076612512,3.3090515666528466,8.998425111198216,6.033814714147696,4.342831277230689,3.3854441644247935,0.9814878144059537,0.10237066518139008,0.2858005600414908,0.2314761243011763,0.18183340835139453,0.0709285856492453,21
414,601466D83E4E,None,None,F,1982-09-26,None,negritoteamo260982@gmail.com,None,Form,0.0,0.0,0.0,0.0,0.0,1466D83E4E,465.83754089967516,245.04619445619724,10.542426468963372,46.710353232351444,33.6435714923907,18.01784441093698,7.781322951791613,3.716192034328726,12.245048145492646,4.972605991054211,5.29520173449904,2.6932291509390933,1.9136138244015692,1.0519535019487685,0.5637360093984913,0.556184512815953,0.16693935129774312,0.13518233317446668,0.04373261073514696,0.06712688760777737,38
421,601D916DE9CC,None,None,M,2006-01-25,None,alponcho71@hotmail.com,None,Form,0.0,0.0,0.0,0.0,0.0,1D916DE9CC,2809.5352028581174,627.2111518696347,28.444979221761656,38.13228598136481,146.36594785138345,41.221494707710214,10.641029118237357,29.40238675392325,0.506959327482933,24.129665685981916,22.735672236019735,7.416079055604221,15.73864815892074,15.429325589933045,5.386040352455614,2.4879670288061675,1.328078250307578,0.6900900481654679,0.2811052637136033,0.9158906404754309,15
427,601D91C702D5,Ricardo,Perez,M,1969-09-20,None,ricardoperezh.2069@gmail.com,None,Facebook,154442066045960.0,0.0,0.0,0.0,0.0,1D91C702D5,2285.8070249627467,532.098025702835,89.47644200936139,121.22526321360637,128.3745824705721,73.55119728606621,29.315687166937927,28.39318662138626,19.511136954196818,28.452887483937015,8.84957781184402,10.212571572055879,13.300769422368441,12.969269068174466,3.8510109723306147,0.9040379515643537,0.8600715239540553,0.7960264263435116,0.7978714435300938,0.2533599361894599,51
450,64C2DE7FBCE3,Lilian,Mayrin,F,2000-08-19,Ciudad de México,mayrinnnn@hotmail.com,None,Facebook,2522012241449985.0,0.0,0.0,0.0,0.0,C2DE7FBCE3,15537.084950190136,9580.201815176319,903.9915626627848,147.67174387317246,691.3663909882547,476.48050269835466,160.79374007704763,164.6459870164958,87.6699351288912,140.44148738490975,172.62004501652035,154.7184930241959,99.29704643900152,68.04271980291037,24.86619264371423,2.1421884313036132,11.048054459803932,5.153067941655282,0.2138777263763134,2.550199318151486,20
474,703A512EA44B,None,None,M,1997-12-31,None,kevinbibrush77@gmail.com,None,Form,0.0,0.0,0.0,0.0,0.0,3A512EA44B,4322.151925726194,7975.08685351636,516.7889653912661,24.32891313540837,396.74668987415413,162.6735295692705,138.5240944557291,59.99908393147856,110.1472055970092,38.39665180536823,47.6394969415542,38.322832515338625,9.856193207303495,2.3959535518002637,8.387352840705026,4.948978790863518,4.68048073871834,2.291681757970836,0.37159233371584866,2.2615243197877093,23
478,708A097629AD,Pyter,Navarro,M,1986-11-10,Ciudad de México,psyrax_alfred@hotmail.com,None,Facebook,1.0219872801268648e+16,0.0,0.0,0.0,0.0,8A097629AD,572.2361991496556,120.5774422517837,22.214299141786494,31.82605149549322,20.2172614292162,4.5333651878248205,15.712408034442252,12.933028405502576,11.080657084711408,5.155920185619776,2.851005938006779,1.1929861055040614,0.056141592654010475,1.830539008482346,0.8457942843105161,0.7571877363810688,0.8050863344362166,0.056069293749038775,0.008224104880622177,0.11033323555935139,34
485,744AA4C59C98,None,None,M,1987-01-01,None,valdi.rami@gmail.com,None,Form,0.0,0.0,0.0,0.0,0.0,4AA4C59C98,10917.46819344618,16101.768668379136,843.3485562487269,307.57100300224994,79.73643101236324,456.2162292328637,318.4172036678844,111.7252462675228,28.53104083331861,137.1672766793945,36.88090081181356,113.4337718654456,35.71766325829334,48.06863545769237,28.77144358878449,5.8706288895350225,9.123051582912607,0.4745485631271355,2.1853388138598198,2.5241683988846106,34
502,7C38AD35B3C6,None,None,M,1977-12-11,None,rafaelpptrabajo@gmail.com,None,Form,0.0,0.0,0.0,0.0,0.0,38AD35B3C6,10112.477665550534,12950.676598463764,821.816119058056,351.5499946419896,636.2710756960965,479.93392153860054,246.57633317836547,24.76445171381591,272.00318775540615,74.43765001979553,172.2087014489542,73.6983336392857,78.85686092597963,24.70149768336313,21.646117253043528,3.525251314940646,3.517581862542412,2.30660867533552,4.5307793038117605,2.501270276315821,43
504,7C76684FC905,Mauricio,Olivares Perez,M,1976-03-02,"Mexico City, Mexico",mauriciolvrsprz68@gmail.com,5539278007,Facebook,2231175626962763.0,0.0,0.0,0.0,0.0,76684FC905,111.76339788426426,963.2506394667746,49.62912889769015,75.7480458616109,50.44028979306142,20.23989150297083,25.927673145609216,20.06745091239844,6.94850087687823,4.563510978104283,1.6994630002241782,8.232550862552621,5.457229921697944,0.6212363927205458,2.6883830426330753,0.5164997307796778,0.22383088612537316,0.39908004955463766,0.2190625917430867,0.3641342026064422,45
505,7C9A1DD886BD,Jhonan,Hernandez,M,1997-04-11,Miami,jonan_557@hotmail.com,None,Facebook,3025014344210125.0,0.0,0.0,0.0,0.0,9A1DD886BD,7200.714177527862,8165.491688793163,252.6165693468236,254.2979629566875,255.0432934386162,56.00181822445973,206.32217467225493,118.66509369651445,160.14342959013365,42.03467807924791,30.902876888937016,53.92968213216737,36.27589572225194,44.42843756146664,6.360049744337727,5.11604000708554,4.963711573442393,0.22476001144809782,0.9194480950294205,2.548211938066393,24
535,8828B352677D,None,None,M,1980-10-02,None,jimmi1080@hotmail.com,None,Form,0.0,0.0,0.0,0.0,0.0,28B352677D,348.94314497281783,296.74062705772224,43.06211960477848,47.42027950964689,38.836178319540245,23.34954460213951,8.216590449658767,1.9093704316034044,7.441068232231687,8.332209021871131,6.544590417390826,0.3368632171021026,5.571334179041809,1.1048029249538471,1.7329267407519173,0.8119160656762429,0.018476723568878823,0.21696213936341568,0.16467974264325244,0.24631564749756635,40
548,88B4A6808E60,Momo,Gar,M,1989-05-09,Ciudad de México,momoblang@gmail.com,None,Facebook,572371580062551.0,0.0,0.0,0.0,0.0,B4A6808E60,396.67197181481305,1251.1387007202227,14.452278989095445,37.66480273613979,13.258448809789897,52.215664488326524,12.028687101913706,4.133891705196736,21.76840607852911,15.18148863449529,3.440079249480863,2.0374158793253367,2.1117137649500415,4.834637522241219,1.3148497343459589,0.14993539198455288,0.9213013800587181,0.31694418561557425,0.20749029409794273,0.15129151937710214,32
572,8CF11200AA14,Javier,Perez,M,1995-07-19,None,javierpcruz62@gmail.com,None,Facebook,126610222389211.0,0.0,0.0,0.0,0.0,F11200AA14,7071.347311215913,8294.86826628745,60.1625013092352,451.1912655930902,132.20156537632883,326.8626509163273,102.85300161886423,86.79250830326522,152.48690028319183,3.1229668523700607,21.447182537712667,48.873905161501845,23.500194712855002,50.5792898912926,6.574564417096098,9.141372981966278,1.1217153591977116,2.1552969518774314,3.107391502425685,2.6101487280411133,25
574,8CF112A661B0,None,None,M,1983-09-09,None,jcct_carlos@hotmail.com,None,Form,0.0,0.0,0.0,0.0,0.0,F112A661B0,411.66151317205066,563.3147239177734,6.410805148795884,57.04357508438831,40.72195499747732,29.84557838264648,4.407420604301545,2.7500304664040844,21.9946200646866,3.16582308553705,4.5992717937778504,8.496180690240763,0.9590984182353633,5.681377917449996,0.1865787805291505,0.19071206667808516,0.18903961717257547,0.2730732618321545,0.05395578092998703,0.054666749092798894,37
575,8CF112F7FC6A,Ivan,Faynus,M,1996-04-20,"Tulimán, Guerrero, Mexico",marioivan96@hotmail.com,None,Facebook,639392206793253.0,0.0,0.0,0.0,0.0,F112F7FC6A,137.38824924914212,506.6488270360803,3.5296413336309023,31.05161803175426,2.551677687342908,1.8626167093356913,3.641704597635688,6.403626946380766,2.3725505969906786,2.0338111848046854,3.275869097298686,3.5137720735751943,5.15166259479106,2.7981962775486213,1.4908980513457608,0.15983360559140591,0.5521314926606472,0.2904190597275063,0.2497061533503224,0.03318822101282387,25
581,900628BCCCB3,None,None,F,1973-11-28,None,oerivil@hotmail.com,None,Form,0.0,0.0,0.0,0.0,0.0,0628BCCCB3,764.1570581665571,427.1290031166748,38.29081113486161,57.07699496928674,67.28324548254821,39.24410240588886,13.216407587178757,25.40382320715116,4.963326158504013,8.63147320488063,12.195563819751571,0.9286735155205681,6.282505232366265,0.8457057665825515,2.289393270482694,0.84615062000987,1.2833007120874231,0.30936190419781906,0.3035375528929273,0.3195621725768347,47
583,90324B1DFF97,None,None,F,2006-01-25,None,aguirrevalks@gmail.com,None,Form,0.0,0.0,0.0,0.0,0.0,324B1DFF97,2820.5288934089544,3044.45884988289,263.9523013823748,222.22590823833355,183.73192038318612,25.656834543717906,49.0826857606306,15.598512985937246,11.371904000005472,36.25084298258065,40.90993962945942,12.352707654843384,0.7233541484385239,23.895105862011622,9.239568883614668,3.4250868414739584,0.6470244501787789,0.9382368860148115,1.4489880352678446,0.5613340400854965,15
604,940C98344435,Nicolas,Corro,M,1989-12-06,Ciudad de México,jaco61289@hotmail.com,None,Facebook,3475883479107978.0,0.0,0.0,0.0,0.0,0C98344435,4977.086280858878,637.1338615946822,59.8102319177696,258.54495473826694,109.66631187586503,105.08503460755308,54.960461737571265,3.99494767986864,12.092882917665307,54.69640433341761,1.7464532613693202,38.797016887888674,22.80260183293283,1.502936118932418,9.489662617522136,4.060453147070946,3.9083061824536394,0.04802910148748109,1.2056296172500574,1.367538971554279,31
624,98460A2BB270,None,None,M,2006-01-25,None,kevimbobrush77@gmail.com,None,Form,0.0,0.0,0.0,0.0,0.0,460A2BB270,2773.4074396995393,5045.14698126961,257.49518461391807,222.8253322623283,166.89887458920674,86.25874255587023,22.882228853015427,103.27430545332393,2.5251031008020117,63.92421313662142,9.051091376227562,1.226399771372599,32.72035894608457,4.006919701787185,10.062034278173549,5.515530131218128,5.333015742291988,1.2422925691411346,1.1980457469519332,1.0059062025179641,15
656,A0CC2B8C7F37,None,None,F,1984-03-27,None,elizetedecampos@gmail.com,None,Form,0.0,0.0,0.0,0.0,0.0,CC2B8C7F37,604.0850026974335,93.82574172811461,27.600545095430572,6.819385852513202,22.292886602369208,9.781503934594399,9.328892824913083,16.45307287337003,3.4761240603475305,0.027994083134547463,3.3300859258010633,0.23616019094952562,0.8338156622008296,4.5504629934678675,1.1718200463726123,0.308545594243133,0.4500712668204468,0.10943960161165278,0.1808800855520945,0.13756888076007667,37
670,A4D931BE77AA,None,None,F,1994-10-01,None,hellofridis@hotmail.com,None,Form,0.0,0.0,0.0,0.0,0.0,D931BE77AA,3936.900740476924,5420.640710808189,368.2625838285708,52.7528570207804,43.25897759481532,66.31886227967938,96.27042219228905,116.1566216138007,57.33782589953763,56.45556766210779,30.77565087702237,23.905822353858856,38.919333054100726,26.264458944372628,11.482058974888526,1.4213150964141557,2.7167945353751173,2.613474063030338,0.12783888107205557,0.41808384317216407,26
681,A8515BA400D7,Luis,Hernandez Lsa,None,1989-01-12,None,onetsanchez@gmail.com,None,Facebook,2253542058295761.0,0.0,0.0,0.0,0.0,515BA400D7,12217.322707671767,9853.979417086779,317.65037961686534,594.7154934493518,132.55350381726635,210.41995572748098,143.22331749565646,63.85414363102584,208.56510991347997,6.92370427824778,140.1955554260399,53.78964624247001,30.82710992369777,28.993052808089054,5.255317948971437,8.480367001442824,5.7195430804919445,1.4575908420015653,2.022709101444222,2.0513749374338404,32
682,A8515BA42BDB,None,None,M,1984-04-18,None,solecito_cyr@hotmail.com,None,Form,0.0,0.0,0.0,0.0,0.0,515BA42BDB,1357.295593028473,455.0658279607085,31.206764896199083,3.058752425450728,42.3408733237669,14.851774143159894,29.055409961782047,7.078765981259478,12.374024893056035,3.8258366290555377,15.64548346404347,3.089542007505981,8.573883099851924,5.197293876352934,3.7229216609496203,1.0506010336023386,0.7880143615698291,0.01186041289431044,0.571267032289727,0.1955098080287849,37
688,A87D128D7B1A,Uriel,Arenas,M,1997-12-22,"Sydney, Australia",kimuriel_arenas@hotmail.com,None,Facebook,1721497201328916.0,0.0,0.0,0.0,0.0,7D128D7B1A,2708.71952085183,1663.8371539001823,30.847692655392894,55.613525252325545,66.442382355434,107.90710402353857,67.51539664944451,6.473573313682518,37.47864534079857,8.959428580429003,30.543304257045737,11.269170565915429,12.358971771491879,7.15705095983024,6.873690280514189,0.25137300215866265,2.5907226142863347,0.19704637878869397,0.5311999508309604,0.4330472960808732,23
691,A887B3E4EF0A,None,None,None,1987-09-03,None,amateco87@gmail.com,None,Form,0.0,0.0,0.0,0.0,0.0,87B3E4EF0A,1847.7831681321045,4148.292599147395,247.73597052645846,96.11770020878137,80.79863840007303,114.12481053135193,79.38149263273147,41.33089011182727,74.51438544324319,17.055776711059323,36.3123234228655,24.967552776114506,9.938497710139673,3.928795133476627,5.282871494977997,3.658075093508052,2.3673124860907175,1.2569391477214609,1.041483480106278,0.11071740997324829,33
703,A8B86E575383,Anita,Avendaño,F,1999-05-22,Ciudad de México,susigonzalez525@gmail.com,None,Facebook,240682024005509.0,0.0,0.0,0.0,0.0,B86E575383,10561.821791790653,8080.09162833847,497.9637523938032,218.28094086394424,57.917306807978456,98.00187013125165,183.43946659295636,166.60805289731317,60.08506864227637,116.87813780873249,33.82749313677228,35.800743194697525,31.25913017033401,54.66554559552791,6.773929647680989,9.05088930009312,4.24750816906036,0.4560845863833464,3.4391908786266354,0.3914690534431668,22
717,AC577562CA90,Karla,Lopez,F,1997-02-19,Estado de México,cherry115@live.com.mx,None,Facebook,3018313298253445.0,0.0,0.0,0.0,0.0,577562CA90,13374.56577547287,6560.534904604745,221.6212039341248,23.613376341753778,619.6337698280212,310.2802832173966,190.62027831039518,123.3285371540449,141.92830565679535,102.80523933010603,62.74799723039634,60.54614848062232,23.82814435679489,31.268226297433827,13.627171438737365,5.731795510918558,5.031215207213412,1.6419740235924543,1.0926553301785218,3.5529982738561268,24
730,ACF6F7E5E30F,None,None,M,1987-04-23,None,ferfueriv@hotmail.com,None,Form,0.0,0.0,0.0,0.0,0.0,F6F7E5E30F,2351.7066677887874,3820.360994901244,22.929239534360878,35.2743441167932,103.26623857618317,83.22240737670352,55.05141897591155,53.364862885360225,60.41986939755353,16.26699417179983,36.86578615861546,45.106524862189765,26.39666391005387,22.887448934826395,4.307471887075826,0.25079845611642926,4.094037642825558,0.25499900166804146,1.130688535552091,0.8425428863795236,34
733,B019C6A9ED66,None,None,F,1987-11-30,None,mariana_santillan@hotmail.com,None,Form,0.0,0.0,0.0,0.0,0.0,19C6A9ED66,9.798790342242988,660.7928536935937,25.773692611583776,50.51140400338845,35.117134559802686,0.38245010842598864,4.9111374949225635,12.45673713543334,15.188868912469625,7.629086821524695,8.854015585007938,3.444802613025374,2.547910866234539,4.838396681083939,1.0990753642593372,0.228745340145107,0.18096808799077557,0.016049447233230724,0.0073725877048401445,0.22050774392707265,33
747,B0C19E5DD99B,None,None,M,1983-06-13,None,donovansamantha1@gmail.com,None,Form,0.0,0.0,0.0,0.0,0.0,C19E5DD99B,12195.497741633524,16357.001276194855,937.5592529328076,945.3916120541786,740.3886029752728,16.02871022644903,202.74005495861,211.47189144587543,239.0977381383913,41.53459173107377,158.29330779136265,139.34606936998327,19.844473886387778,50.87100209258173,7.913891303627438,5.003405925133246,8.378282759687565,2.8668504909615504,4.502696993569505,4.2685470956669755,37
751,B0E5ED69E336,None,None,M,1983-02-18,None,charlienava.l18@gmail.com,None,Form,0.0,0.0,0.0,0.0,0.0,E5ED69E336,938.9940105154557,779.7405075633696,46.0022203632389,95.23337647749567,56.85529750166625,11.018025733483759,17.51559791171818,0.12406244756410219,6.484325046054792,15.638147204303314,1.1566733863827146,13.543077851644885,9.396632760169316,5.837743851854375,2.996881609398747,0.5785744797821613,0.03404512161276209,0.340177371234583,0.04202662311310013,0.46859618045606055,38
764,B4BFF6BB786D,Lupita,Lopez,F,1998-02-17,Ciudad de México,guadalupe.penaloza20@iems.edu.mx,None,Facebook,2910558332332589.0,0.0,0.0,0.0,0.0,BFF6BB786D,6990.254988145216,8267.071730130408,475.76588691448893,65.01010099895248,365.6506019414245,26.572188774864774,14.81299486211763,54.90173358240926,93.7349830618767,27.35579166686635,3.1569074918534983,31.489894330023944,60.570667212190074,39.97312869912703,1.545241686504883,4.162971828600039,7.236130684006974,0.022308177413405027,3.480703267656522,0.231046543999414,23
773,B85D0A745062,None,None,M,2005-07-23,None,aleckgz@gmail.com,None,Form,0.0,0.0,0.0,0.0,0.0,5D0A745062,5920.640699514543,3707.6650311204694,36.05576921094158,277.17516640798357,348.98655692040575,90.9202266871562,63.36622046239176,137.7573648727838,58.80655634528586,95.62198416478478,27.311473142188202,67.98373393965379,21.216686603603144,4.930856262326426,5.191266217500684,0.014437752574591008,3.846694678790648,1.191020773278738,1.4570557371995179,1.8611991861387551,15
791,B8C3853B09BB,Jose,Espejo,M,1971-04-07,None,josenatividad451jneg@gmail.com,None,Facebook,502271673681529.0,0.0,0.0,0.0,0.0,C3853B09BB,3383.0623395809753,5153.338288651958,379.9838088224392,392.88748100058126,92.23894525523531,69.21063244676057,107.27319710951541,31.719907501632427,16.970990077490207,43.52498062985967,74.61457048750039,35.418721468730396,16.192560587332533,16.43837885218514,6.468791821981031,5.811410375182204,5.315896383745259,1.1356585495331846,0.24439685081417484,1.1490435465438253,50
800,BC765E4F5BBB,None,None,M,1970-06-05,None,nicocruznapo@gmail.com,None,Form,0.0,0.0,0.0,0.0,0.0,765E4F5BBB,773.3999389756999,1346.5328358698416,87.46893063176968,61.539833494166686,52.972353438159345,67.52992063981473,39.82086115646909,9.560455714091121,12.082741217303075,9.336986832063708,13.924981028419705,17.680463775748827,13.196205344253036,8.861568917852356,1.416942927036466,1.5309614800234828,0.0076319803942893165,0.49769818529649745,0.5949733036079601,0.04371508798891832,50
802,BC98DF001FD8,Yess,Mon,F,1989-10-02,Estado de México,yssca.libra7@gmail.com,None,Facebook,2452376001678407.0,0.0,0.0,0.0,0.0,98DF001FD8,26.186231597107007,728.2785786397991,4.326685637089215,19.87382478935825,21.459423938030906,25.027380418805834,11.531977919844492,14.547862452768447,9.146409168229729,4.252449889102538,10.687278866162906,0.5871507744839276,6.008137764221764,0.170276404566888,0.09008023103559235,0.24286510396039018,0.14796448935442183,0.1906425612794723,0.046443566739877006,0.19833578805899227,31
813,BCFED93B0083,David,Levy,M,1990-11-20,Puerto Vallarta,daviidlevy@hotmail.com,3222627469,Facebook,1.0219448928266694e+16,0.0,0.0,0.0,0.0,FED93B0083,1297.2693120474264,1403.2848299435198,115.46510650563297,154.3662615481717,120.61595008745054,43.056858458997105,51.83275251086313,3.0098791533673723,43.63251758293812,31.947654353818464,25.920195728303252,0.15413372948659143,1.3382120226705885,13.403288564504798,0.7425600552840071,1.1888919370201922,1.1712378916974526,0.7404996718373689,0.5492908894992947,0.31056731751227756,30
815,BCFFEB182587,Anirak,Galeana Gil,F,1991-11-03,Monterrey,anirak.galeana.gil@hotmail.com,None,Facebook,2713606265387877.0,0.0,0.0,0.0,0.0,FFEB182587,4866.454514489483,706.5785526282142,285.9848854462508,0.08366245290231498,89.83094485996814,142.25988592563453,55.289583460755765,50.06809302184672,30.13820277224024,12.474743047102463,29.59090206860894,34.31334935110447,24.59902456706204,24.565075273100447,1.3648102671600384,3.0878441328124335,2.842218129761274,0.35472132324245276,0.686342357365731,0.43264442538535114,29
834,C08C7115D404,None,None,M,1997-12-31,None,franciscodiazferia05@gmail.com,None,Form,0.0,0.0,0.0,0.0,0.0,8C7115D404,1339.7120265377425,431.5625446097154,48.59436437977622,49.52252200029834,37.99148175231644,11.887668378754356,16.353243384799576,26.843595382308514,36.56077187853948,20.308881049304333,19.028906748776883,9.395117908189652,7.87444347689385,3.6243808328849667,3.066129742114976,0.14847496957127868,0.658184625612543,0.6849667728209465,0.1785450747408034,0.0037504948387873495,23
853,C0D3C0169A49,None,None,M,1974-09-17,None,arq_mendoza@yahoo.com.mx,None,Form,0.0,0.0,0.0,0.0,0.0,D3C0169A49,254.67974033279407,799.9932142129023,14.454601607391481,28.70328238459536,40.815487178256895,19.84934361536644,22.599442134370904,3.324324773584249,10.918796041143084,13.965092973054793,2.318887268813657,2.997219023389289,1.112288395256229,3.9200262679425575,1.7264562067420495,0.30290374169172496,0.6003803531382091,0.17114012092079822,0.30527833844095237,0.2420950302047353,46
857,C40683D5A4EC,Jose,Dm,M,1980-09-22,"Mexico City, Mexico",ppluis-dom@hotmail.com,None,Facebook,2376931885897624.0,0.0,0.0,0.0,0.0,0683D5A4EC,1860.1969642296901,884.9314802688135,65.94795394087464,125.72975084930746,69.85608280535008,80.13200755588703,41.0420503868863,18.901697899366066,34.91955238438633,19.49297685084608,22.308571214570037,18.967759715567823,3.1931007653012036,6.296579015554766,4.132084746273247,0.6445815611744639,1.191698254320378,0.646569429287693,0.13797165384544494,0.3305664726960179,40
859,C49A0295A2AB,None,None,M,2006-01-25,None,vegalourdes14@yahoo.com.mx,None,Form,0.0,0.0,0.0,0.0,0.0,9A0295A2AB,13147.149272644318,12619.632458836984,767.197031605091,581.5120704516768,418.63585106208524,39.581137778233405,146.28917964865818,170.41733463835885,50.94576597619081,204.87736057085604,39.653645654091044,112.43719620958247,21.506020450345897,90.26991464987324,12.214606785913109,12.855654679442553,11.993742082817956,1.4758605787581494,5.599327068881798,1.7565686278324353,15
879,CC464E395CBE,None,None,F,1977-08-19,None,coronalilia34@gmail.com,None,Form,0.0,0.0,0.0,0.0,0.0,464E395CBE,12886.756187445664,6195.535880390413,302.1972496072564,480.729829160164,383.1423895010956,320.28875384441744,141.42009679946574,52.289187981834296,134.4424713039386,73.35017991713342,124.54662519952215,18.332701986941245,62.84870669136777,10.929244366570904,19.260643950181414,4.904795411297065,1.8423282849771816,0.7843518538055791,2.639335969049972,2.7590403349066315,43
909,D016B4503D24,David,Vaz,M,1983-04-28,"Mexico City, Mexico",pirritokds@hotmail.com,None,Facebook,2204979779522286.0,0.0,0.0,0.0,0.0,16B4503D24,729.3918722458196,22.99792846148498,10.107021231463783,19.336504464272718,31.26195888818261,1.7626374980099422,17.770457629592254,6.182818471573876,16.727393327757273,1.7351212022046418,9.656783067967918,5.516010133055016,3.353793075181249,2.027610671439335,1.6995389581133038,0.3167897673759533,0.04083327373274056,0.008575560249838294,0.053627599477857286,0.05272447304503895,38
918,D07714839F3D,None,None,M,1977-09-28,None,jose.j.j6759@gmail.com,None,Form,0.0,0.0,0.0,0.0,0.0,7714839F3D,17556.758081494212,11958.240971277515,1109.111543495755,988.7323973652691,681.1544315594581,261.5234013154984,26.784463066871883,221.52802158725578,147.26403806504925,212.95906033484064,66.62440173938259,160.30738827425813,44.91946372689854,9.917385818281769,1.2683304912485598,14.256172140232623,4.424628385356719,3.7881435148496094,4.105084464951751,1.3325918828100143,43
964,E0338E414079,None,None,M,2006-01-25,None,mhabana16@yahoo.com,None,Form,0.0,0.0,0.0,0.0,0.0,338E414079,1158.4152089848155,1088.4507104971995,113.46627919048439,93.5184630602016,22.953419906054137,32.09545708189054,20.162142107266277,6.331851068953147,3.5725938968718407,14.286154162976176,10.575426555697634,10.699284711636794,3.986093742871864,2.493839984608934,2.2259286862060508,1.8625973664951798,0.5103417107672144,0.12209352932753029,0.24849751575121146,0.023616239924733134,15
966,E05F45B2F11E,Álvaro,González Martínez de Lecea,None,1979-08-28,None,aglecea@hotmail.com,659052727,Facebook,2727704290621051.0,0.0,0.0,0.0,0.0,5F45B2F11E,245.6313717597797,416.19042023659586,17.254734808504672,35.14619896345628,20.37060923600318,7.577362317431342,5.131793817030889,13.78724042858234,3.6370957098180305,8.71583384031738,3.6378156110942994,2.188521586007528,3.577110505725299,1.7719119455812526,1.759782475779089,0.7228930383960513,0.3790537583828552,0.21742106280684761,0.28390846637766326,0.01892043232955228,41
973,E419C141BE99,Estefanía,Ramírez,F,2000-11-25,Ciudad de México,251100pedagogia@gmail.com,None,Facebook,835704596854306.0,0.0,0.0,0.0,0.0,19C141BE99,2132.2500421507966,6777.563794020295,337.17972514451515,339.24465941818585,243.52908104300798,76.16278809214698,71.27671796222526,93.62550087614305,55.79003972772461,31.297080202999286,32.712395277930035,19.58620851905822,38.58529079186054,21.071843921148233,4.890394259111336,5.452965816192905,1.5938136170326247,0.44719688158091414,0.6830343238464137,2.0574279541997105,20
975,E434934C06B2,None,None,F,1996-01-03,None,lramirez@sears.com.mx,None,Form,0.0,0.0,0.0,0.0,0.0,34934C06B2,136.7335162956319,1520.2174748210389,59.40260263647524,8.311356776187676,61.261810962664526,36.4913164606917,25.145057289843933,16.369603528636407,26.409624370651624,13.1444001461858,16.16455248645397,11.260034784153952,9.847901520924555,2.767322944606395,1.4948404924370386,1.5039962600567909,0.44825054612428056,0.5161280710933168,0.19290425002234363,0.3173053561190474,25
985,E4FDA1B7FA75,None,None,M,2006-01-25,None,medinarj79@hotmail.com,None,Form,0.0,0.0,0.0,0.0,0.0,FDA1B7FA75,2590.022350201478,519.1682369368364,15.993007366640185,131.46880182455183,44.58871432332124,39.85824095149747,21.72726743499495,22.705003107857795,35.70445901607966,25.1503719213134,2.7883112718719536,9.638471151231403,3.1696639058816944,6.342958330391821,4.63113505856856,0.26192906117943765,1.3598926739670874,0.17110603163856755,0.05502502393433527,0.19505440676602429,15
986,E8508BE37923,None,None,M,1972-02-01,None,breme537@gmail.com,None,Form,0.0,0.0,0.0,0.0,0.0,508BE37923,1903.133896678915,1174.405090502435,57.47261352763321,33.528266249500504,20.74365364531662,18.981343286573004,9.514986136146547,28.629137511526963,46.141171991281304,3.8412326635158744,26.037121942775954,0.2890778495289255,1.3609059120855667,11.651145982673057,4.536637084099064,2.368540400821421,0.538774983805252,0.20575407818473193,0.21443016448450286,0.40621940869551015,49
1007,F0C371DB5551,None,None,M,2006-02-25,None,njjajsjs@gmail.com,None,Form,0.0,0.0,0.0,0.0,0.0,C371DB5551,920.0753896339584,1950.3973007141665,28.66672920233723,50.80645955808671,45.08088724292502,53.1219578254648,16.73452707529707,0.6664048964406731,14.651682188290062,15.641415270965322,28.588603524392404,24.425198112401237,7.900114670098335,12.31098436234997,2.74021275205306,1.2629929200639824,1.1741717003131793,0.5897918230376062,0.024900680253686587,0.14027584710470373,15
1017,F437B7D57335,JeSs,Martinez,F,1999-09-07,"Mexico City, Mexico",jezzgua11@hotmail.com,None,Facebook,1983504371769436.0,0.0,0.0,0.0,0.0,37B7D57335,514.2916299629488,1100.2264538847187,9.465319945487803,40.30472709800859,86.78722837316606,14.604198491550386,3.2755233947510343,18.05879341720613,19.867751249548718,21.476066359746252,16.813040059705934,12.91122211675039,6.286526828841245,5.948755169427108,1.284422250578074,1.5929374634838358,1.043761768462266,0.2092679267031669,0.1472131266880546,0.4051611122274019,21
1050,D461DABCBF4A,None,None,F,1979-01-12,None,evelazquez35@yahoo.es,None,Form,0.0,0.0,0.0,0.0,0.0,61DABCBF4A,15337.306734824608,6401.444636522816,825.1411403310668,55.288166892183696,483.8351437398988,316.82566432781385,102.86036458704426,126.20394119581545,25.17635512621452,56.88496745391937,51.97797385713613,66.90506073812021,6.881131659380547,50.94634948117594,28.62492506751136,2.099081343102037,12.086995830180891,4.719855309342563,4.361185168726502,3.430326543944658,42
1060,D4C94B1D4A1F,Luis Fernando,Vazquez,None,1995-06-06,None,luis-mad1@hotmail.com,None,Facebook,2048804638519194.0,0.0,0.0,0.0,0.0,C94B1D4A1F,1579.0000063849136,616.6484699616959,61.45766976428292,79.86557874781504,28.22308378866164,61.827338991915084,24.71519577661839,8.037023590565365,20.60480673071816,8.851807970440522,14.939050329081212,5.975863946505648,5.660356087724691,5.356392364899059,2.5157118869066575,0.9882879587191857,0.02226243208482118,0.37895328383148974,0.43729974224453894,0.4948402603749863,25
1072,D4C94BEC0D94,Luis Alberto,Corona Cabrera,M,1981-07-03,None,lcoronacabrera@hotmail.com,None,Facebook,1669782576387094.0,0.0,0.0,0.0,0.0,C94BEC0D94,894.7970066453022,351.20078847063854,87.11132813725037,80.34034991915917,39.439420525148336,45.988114069039526,20.947440341722842,12.979957080027296,26.34378727744867,10.23537015437174,5.220725586750491,13.20990141527145,0.7971129037777603,0.5139683276245779,3.0670410054034782,0.10709244057756825,0.20204762818548777,0.09081631353713616,0.2784488277837517,0.12928293097960983,39
1073,D4C94BF60949,Jhony,Hernandez,M,1992-01-13,None,flakito_jeral@hotmail.com,None,Facebook,2359038677727391.0,0.0,0.0,0.0,0.0,C94BF60949,7954.190333351153,7016.650199003729,193.13328473703305,20.50590311202841,134.15527760078766,160.55325027701628,79.36779803943536,157.97683378897204,157.55491853625117,22.564635844032875,79.72574406469514,46.10411575582101,4.048347399480422,40.18036686103516,10.686999353198148,2.4341717747224325,0.04987602063713948,1.6949002656364556,3.2569309142324467,0.1661133001055052,29
1091,F82D7C043FEE,None,None,F,1997-01-25,None,elizaldafm@gmail.com,None,Form,0.0,0.0,0.0,0.0,0.0,2D7C043FEE,28889.15337933444,16749.255560873284,421.77561312045725,1334.9859704214782,641.3237022325936,229.69707659303884,50.994153298902404,396.22164848790936,189.2436959860094,127.05428002602584,9.085304221143822,148.754910279244,59.651663073179144,105.29591436778003,37.11198935929309,24.714978060883997,23.08889150935066,0.6545444844693816,2.8591458147904345,3.0775784557223442,24
1110,FC183C22AB68,None,None,M,1982-02-01,None,benguia82@outlook.com,None,Form,0.0,0.0,0.0,0.0,0.0,183C22AB68,9211.683125965672,6840.452226017189,505.6574405902,338.84139395679114,407.91282066445973,142.73575570925092,44.08516367198598,66.25606627436359,97.2349461848243,61.345475067099564,48.09873556908394,41.292745686821625,15.995601880347694,46.134242574633845,21.060371376031757,9.08762609580845,5.957493730125129,3.4269439340045214,0.5217406097590074,2.2200844415501724,39
1116,FC2D5EB96E07,Orlando,Aparicio,M,1983-12-10,Ciudad de México,itachirasingan@hotmail.com,None,Facebook,1519794668181132.0,0.0,0.0,0.0,0.0,2D5EB96E07,12235.092668095776,11530.429706327546,309.2763278875595,612.7764691402845,278.6353604093438,131.63151992845474,28.56114384578156,21.726069376952694,180.2008202979912,137.7591003287119,120.51068735366609,10.368586189111584,57.53762236925836,12.118580096237253,5.198558302557056,11.251514293141813,10.8275437253425,2.817096368904549,3.418884007554109,3.8617416558261706,37
1127,FCA6216298C8,Luis,Garcia Garcia,M,1998-03-17,None,deivid619@hotmail.es,None,Facebook,2209693715786065.0,0.0,0.0,0.0,0.0,A6216298C8,2404.126676565892,576.3961103013186,12.003878395513823,92.57135357169334,9.868409591870387,65.18400694637889,41.24180921258895,42.451149335403166,3.3929700853925304,27.191287992726156,9.977526759154742,11.780534827444113,2.7082337539590364,0.08636641259329267,0.7368988737228019,0.2993191540361443,1.5614534788903365,0.1422222696244685,0.7792516545540191,0.5005408172437,23
1142,FCA621BF8B49,None,None,M,1986-06-17,None,omarluquec76@gmail.com,None,Form,0.0,0.0,0.0,0.0,0.0,A621BF8B49,2330.7735374244876,1352.107592556818,161.71676202674763,68.9299304324034,117.18152606178062,19.35955700058673,4.630445614678822,60.08241396340944,38.66374076625367,23.281128801362904,8.65650170759922,24.04247800115632,13.607174622648612,3.9220676716573375,5.496891678415833,0.5313708262709722,2.4776335666614324,0.15716960318215245,0.7360647006574678,0.646012973222902,34
