,client_mac,first_name,last_name,gender,date_of_birth,location,email,mobile,source,facebook_id,twitter_id,instagram_id,linkedin_id,oneclick_id,client_mac10,Restaurante,Relojería / Joyería,Lentes,Discos,Libros,Otros de farmacia,Pastelería,Zona de exclusión,Parafarmacia,Dulcería,Tabacos,Dermatología ,Farmacia,Novedades,Fotografía,Computo ,Juguetes,Celulares,Caballeros,Tarjetas,age
65,1094BB112073,Raquel,MuÃ±oz,F,1969-09-07,None,ramuce69@yahoo.com.mx,5511440418,Form,0.0,0.0,0.0,0.0,0.0,94BB112073,507.1213066395889,406.59700241693946,84.04572137621984,3.004503122147111,36.250949832843524,45.446561373898355,7.406067250872409,8.053537333915985,23.023952788110616,10.392092394481583,20.477534679098063,4.439795401894283,8.916670732525755,11.197564988951548,6.057684480453029,3.970117182268086,0.5351368283060377,2.1812445130734104,1.330654801424821,0.5519018629870892,51
73,14C21398F09B,None,None,M,1968-01-11,None,enriquerojina@gmail.com,None,Form,0.0,0.0,0.0,0.0,0.0,C21398F09B,663.3784920036114,3557.59847861348,59.11381642385836,46.65515074015841,40.45617185956248,107.29381074535753,103.20750839818928,9.163474558674004,3.496286638981336,6.253666377406727,3.6257631413446436,11.463721244258133,26.06401363453158,2.5958819855755495,7.1988001637162125,9.504531686797888,9.193705720453542,3.140476240913258,6.2416509574215,0.35459886570785354,53
110,2839269F5CC1,None,None,M,1973-12-19,None,sup.julio@hotmail.com,None,Form,0.0,0.0,0.0,0.0,0.0,39269F5CC1,10828.762782171649,8607.778878381265,1368.4668143346648,1025.5454725931397,39.46263258423402,189.74181523812166,247.1046688605616,275.58807340812945,132.99245842020676,53.19110016006848,211.5811972170825,143.99922806850267,93.22985845614197,58.10487648566037,21.791108154459025,19.635212604607393,6.562751902813636,14.020056447396641,19.576220729859912,5.86479378143134,47
128,304B07B67AAA,Pilas,Cortes,M,1991-09-12,None,pepec2293@gmail.com,None,Facebook,412434189645509.0,0.0,0.0,0.0,0.0,4B07B67AAA,381.01371486487795,1547.1187253727355,24.4611216542338,46.53513748347998,90.79402087603435,6.276406841169424,5.646008802389324,26.40023495518238,23.326976059004124,33.733759974537094,21.002815170681863,18.165290679040258,11.190461913539549,0.21707890877306962,3.6072561867320814,2.4032604489494855,1.322045828992954,2.782305214633503,2.5216516189189857,0.4817271460927572,29
130,3096FB093681,None,None,M,1976-06-06,None,soy7pk2@gmail.com,None,Form,0.0,0.0,0.0,0.0,0.0,96FB093681,127.54703445817766,917.5207905620581,97.18188288675064,97.06464305805193,59.031675283148786,28.463511939162785,9.580028111876267,21.9665737651298,18.367964091722303,10.431037401510876,0.7548621062127807,12.016221600859659,11.343653151997412,2.148957190118731,5.3743100311779495,3.7154897716924986,0.4552365701651695,1.9892689043124616,0.4235318844222963,0.6233272314519788,44
159,3880DF9476D3,Beto,Pichardo,M,1999-01-29,Ciudad de México,jesus.pichardolm@gmail.com,None,Facebook,1031933257165417.0,0.0,0.0,0.0,0.0,80DF9476D3,2267.3745707374183,3780.797168242591,360.9990669628071,62.180808719774326,181.55586163927038,115.71698152554784,92.77502240784193,29.653211794256798,36.27079383012821,94.72752105113767,63.849944945356114,33.277216130041545,46.78524874746195,13.340702178441285,10.568980793869772,8.710652791846169,13.497490986564774,5.681169178862373,8.73327114229193,2.5043161944922754,22
179,403F8C27B0AB,Rafael,Ponce,M,1983-12-09,None,rafaelpptrabajo@gmail.com,None,Facebook,1171326566649908.0,0.0,0.0,0.0,0.0,3F8C27B0AB,530.593340996346,220.35688598143005,39.75464199665239,60.11296761109516,7.681191889091293,37.40515670275648,14.848458486169552,22.305479495992522,6.250437260193067,12.904657140565503,15.306871605181422,4.057494648812031,7.33902033352544,0.09553282697229538,4.5812662016757075,0.1530324601985146,2.811725109839298,1.3382842063411198,1.8778393815254597,0.22571566563670417,37
196,444ADB371196,None,None,M,2002-01-12,None,martinezob@asf.edu.mx,None,Form,0.0,0.0,0.0,0.0,0.0,4ADB371196,3180.0798184565774,389.25625178858513,51.57245557216659,35.01656246047607,146.74403186215193,67.51188924444793,41.28590487070929,55.94081702423461,15.60634751786112,42.187791314020636,51.02395149540438,10.355914571878193,29.811632638115206,25.265774488630605,5.294967831892929,5.279870615177581,4.663236993841848,0.5216367815899589,0.8279668758118033,0.7531775964272804,19
207,483FE9EB99CA,Miguel Angel,Silis,M,1986-06-27,None,miguelangelsilis03@gmail.com,None,Facebook,119076849641602.0,0.0,0.0,0.0,0.0,3FE9EB99CA,12775.226725369308,1058.642943778485,1115.8064713388596,754.6162783418127,462.9686343183003,282.3893696061526,195.7124552460404,141.01613692723845,153.6267698747364,70.15449737271761,151.91078240726083,91.33983606492039,80.81128232460742,36.329631128949835,31.865148492131393,19.168022126578485,7.747570845968872,16.755051566748154,3.517245289770673,3.395147579407778,34
251,58D9C3B995AE,Xöch,Rodriguez,F,1996-04-05,Guadalajara (México),love_thara@hotmail.com,None,Facebook,1418330088335807.0,0.0,0.0,0.0,0.0,D9C3B995AE,6025.42464077953,13769.640040206015,664.0079769985356,957.5193951835287,655.4014921820941,206.02173411400807,68.488262386469,193.54295420666875,193.47662927194065,229.56332502644466,180.49663554322527,52.17713259652422,136.78185768464814,6.167750783669196,81.68660432772917,33.738245438723034,40.5485915867726,27.457217661607807,1.8503391564855143,5.009174865380141,25
300,703A512EA44B,None,None,M,1997-12-31,None,kevinbibrush77@gmail.com,None,Form,0.0,0.0,0.0,0.0,0.0,3A512EA44B,7279.318701835514,7738.255338633014,1189.297840562707,134.64644930561172,272.67195577335815,80.25057769243027,67.38445120403553,195.2562313166172,76.91345455233684,85.25985359160956,32.18516104762461,0.5325950804612156,71.66795641346734,29.674302112716077,77.6532070884128,4.360183538849089,26.065032876228724,5.002624251391315,9.028528792518946,3.5755543310922864,23
301,703A518D9148,None,None,M,1979-05-16,None,gerodri@yahoo.com.mx,None,Form,0.0,0.0,0.0,0.0,0.0,3A518D9148,14529.929595539483,3498.936961516461,199.35186194720453,613.1453238140855,232.38007386274606,229.28905115919324,89.10816448104707,156.83692599205858,174.30226704995252,63.99640037815716,114.49894227126286,83.36660604673472,53.53481627910695,7.996742874481132,8.056179027463742,4.626052723606688,16.273568277674137,0.42847190485944703,17.265552881262728,5.676441973156227,42
363,844167BC79AE,None,None,M,1999-01-25,None,darvader_200@hotmail.com,None,Form,0.0,0.0,0.0,0.0,0.0,4167BC79AE,7440.525754305334,7173.384946498769,548.864034108895,493.99746827890255,47.70900300398801,316.0663743727154,282.55421244278557,71.7600453878482,110.59454675265602,197.40517708492894,17.544936944056584,21.683633953495065,38.81464650226294,22.817033729630637,74.66209361772765,8.93703207013678,19.663293877262156,2.4670012031753608,9.314060351334902,0.2347055140953195,22
375,88797E4771D6,None,None,M,2000-01-01,None,eduardoguerrazavala@gmail.com,None,Form,0.0,0.0,0.0,0.0,0.0,797E4771D6,92.52404329537465,726.4821473035611,120.5478693832665,53.065670127059754,24.81197375934538,13.634808227642688,29.26884268328478,15.254557624030744,19.57289422593861,4.171633328237293,6.963393277853058,6.2209830508751045,5.51337487163514,3.4693530077369816,1.635139698274634,3.4121442719993063,0.9261411180566184,0.7278293123100881,0.44223851071784526,0.3549629227994111,21
405,8CF11200AA14,Javier,Perez,M,1995-07-19,None,javierpcruz62@gmail.com,None,Facebook,126610222389211.0,0.0,0.0,0.0,0.0,F11200AA14,534.1026272972688,11015.516635591232,810.4229798458531,526.8521162444362,492.29716433444656,94.26283307915484,146.94598582331736,92.161219422341,152.6247158647057,138.2697831796369,68.20405238685495,96.98484783561821,6.931786399177474,4.7247390027531955,54.923868417345695,19.24339294082854,5.8674954613734025,8.295032944053,14.17025779277715,1.1984661368278584,25
450,90324B1DFF97,None,None,F,2006-01-25,None,aguirrevalks@gmail.com,None,Form,0.0,0.0,0.0,0.0,0.0,324B1DFF97,2081.7275065602753,1832.2058213721914,209.80028343090476,49.40498342041978,158.85745959009995,76.396764485204,68.38567848126289,39.29415852450222,73.51010148021957,21.09386414521014,45.46791804878378,14.379286256204434,15.071806422796493,29.40836505202335,15.489191110072994,2.0974847299316868,0.3857885900166651,5.750259855065762,5.8716935639182,0.4015848808962236,15
453,90735A2D6DD8,Cristian,Piedrahita,M,1992-09-20,None,cristian.jose.1997@hotmail.com,None,Facebook,1.0220536513304598e+16,0.0,0.0,0.0,0.0,735A2D6DD8,530.4841023171655,955.3592193258581,23.39200741892355,26.727423358579113,29.706042677986495,42.26078686047037,16.370357409357165,11.737757087216062,8.347744029476875,3.5837443763110186,22.563132831244616,7.7069404937302695,0.9791834376140979,9.667030904609927,8.290463477248634,5.79912704115563,2.196069606943816,0.4741557564985571,0.037263076431795376,0.3174485131777779,28
482,9427908B213C,Karen,Diaz,F,1997-01-31,Cidade do México,karenivetted@gmail.com,None,Facebook,849824932125330.0,0.0,0.0,0.0,0.0,27908B213C,7751.608676520643,8441.680421877543,1214.6903388694498,642.6370240091424,109.14498954564684,119.14658966135922,83.00755296009226,30.216932179653654,3.434301334558345,118.73754959847362,87.23956897834857,111.4662732081118,69.82352569662909,59.715339159787746,67.08138266432071,1.7177416345799854,28.527410985711672,16.23337948508249,4.833028077233581,2.057973553634166,24
511,A0CC2B8C7F37,None,None,F,1984-03-27,None,elizetedecampos@gmail.com,None,Form,0.0,0.0,0.0,0.0,0.0,CC2B8C7F37,525.4681658086969,2783.5318340826652,245.8489069750935,180.1797393727001,147.60465138694747,80.87690728278716,1.0032771705672847,30.321787174863903,58.90458097792284,48.305814391171765,47.326906379614655,10.69219255815762,9.79575551953736,20.763639524058163,9.85673275417165,7.451931322284192,9.41265128190958,4.859578687329527,5.319911036183019,1.4750363133370115,37
513,A407B6DDA4AE,Erick,Acosta,M,1991-01-07,Ciudad de México,erickjonatan_90@yahoo.com.mx,None,Facebook,2525230754212567.0,0.0,0.0,0.0,0.0,07B6DDA4AE,376.6828735265963,704.5655890585148,77.0471097130902,104.43243679129525,69.61264689137427,20.48771975801448,17.681008804272892,11.095169430091548,2.8395624989284096,14.174320292389504,14.548350530938999,7.718972932903553,6.855733937401162,2.95735274751174,0.5488633627499057,4.148490527033687,0.7250865738416544,2.552477173932694,0.07499493537200366,0.2512405137467913,30
524,A4D931BE77AA,None,None,F,1994-10-01,None,hellofridis@hotmail.com,None,Form,0.0,0.0,0.0,0.0,0.0,D931BE77AA,517.154215596616,610.1919674137366,30.453539093933983,70.99723309977772,55.137712230107994,21.109315622160796,10.415946221067426,2.261136358900169,16.447956720668834,15.611271277672625,0.7516719021483685,2.3044216627336342,2.1347952055381865,2.243400890547007,5.165747810490915,4.209182959930442,3.502748685602509,2.547810673746718,2.009302938689959,0.3506236359298969,26
538,A8967524C395,Guadalupe, BenÃ­tez,M,1888-11-12,None,elsa1211.ian@gmail.com,5569713363,Form,0.0,0.0,0.0,0.0,0.0,967524C395,179.8967355218248,14426.40337546988,227.78563167272918,632.8257218345599,256.38368812711093,95.36453163114464,2.413972059591958,145.3133293439399,94.9680272612125,71.08453964951968,15.544875413983776,6.886929214696985,21.42181428493747,75.66863427475819,9.726881223482055,31.196613300631036,3.594518058173053,0.11871071854504865,10.969004946836503,4.43246599244217,32
545,A8DB0367088A,Edgar,Sanchez,M,1991-07-05,None,dyedgarch10@gmail.com,5526849900,Form,0.0,0.0,0.0,0.0,0.0,DB0367088A,5414.124353089814,15674.765653268229,757.296083723529,296.5576701300899,6.3357445716490055,59.84613410623769,29.18666254101244,256.73088032520485,79.6300288415371,123.25381733203133,81.8704744795707,141.0118399153581,52.609513367340035,47.762483216662105,59.75151319839863,8.975097222956034,24.285895212403556,23.016552878923807,8.655584094725482,1.3340184843218574,29
547,AC1F748947A6,Kev,CR,M,1996-02-14,Ciudad de México,irvin_america15@hotmail.com,None,Facebook,1669398506551245.0,0.0,0.0,0.0,0.0,1F748947A6,3454.50701504749,6094.949508595892,106.77710242360068,524.312717272847,151.95867939257505,122.23491835137159,162.40135597824386,18.769477880418584,84.70025990822674,49.22277976480049,8.208677691339176,56.69998693568707,29.89956262564233,21.38558476412116,25.37898888146935,5.784797903825642,15.0809695837566,5.192419695588253,13.744380897428641,0.7908164056778029,25
561,B055086CA66B,None,None,M,2006-01-25,None,perezfernandezjosefina12@gmail.com,None,Form,0.0,0.0,0.0,0.0,0.0,55086CA66B,2267.873352776675,13085.632942341601,542.8585192840035,18.569924962021528,211.83210022072177,79.31747477469146,260.18914781678455,53.36434632384333,178.42889545984227,106.37106901369403,133.62527145514525,24.7137565065038,108.11030718905361,23.763839106056707,1.5764947446124646,38.80183813515778,16.09045418927396,1.295461783091259,7.303763778332004,3.2810401388953205,15
562,B0702D3225B1,None,None,F,1979-01-12,None,velazquez.lena@yahoo.com.mx,None,Form,0.0,0.0,0.0,0.0,0.0,702D3225B1,1016.9029298151999,5610.900562696679,64.30448693461159,167.6156162579284,121.89924520710822,184.44153174876644,89.74611546270579,6.037306704578076,64.00789507560258,51.29025901651976,7.646396879187254,45.36509150632443,26.119707757198547,0.8465654755271832,27.23921414714498,9.998119091620495,14.336624367626131,2.715717169047204,6.435856437565437,1.1507582490610528,42
565,B0C19E5DD99B,None,None,M,1983-06-13,None,donovansamantha1@gmail.com,None,Form,0.0,0.0,0.0,0.0,0.0,C19E5DD99B,15927.331013595367,10622.627960613667,1072.6644480829325,576.5557566963,348.88371624591747,134.08871632743956,132.44323087954632,356.03854694620225,286.5039082895159,42.21178550515061,26.031414616760944,122.83738942841656,61.95503091543822,125.61661280998048,38.883807529144704,5.923708754704199,4.229700127760884,27.94651870698898,12.051477092340042,4.175256836421994,37
568,B0E5ED69E336,None,None,M,1983-02-18,None,charlienava.l18@gmail.com,None,Form,0.0,0.0,0.0,0.0,0.0,E5ED69E336,19814.5835282625,271.15864659916383,128.71942947195578,351.6341854138609,634.890678584183,58.96889318920409,236.14310936522318,149.2619818654395,159.52973194864805,71.48571000167227,30.550336164518285,127.02979490478427,17.60777631437768,94.00985409539564,29.311831022539597,11.409322075178958,28.490377787507434,1.116531094479982,22.590195299471542,4.508086539892932,38
572,B49D0B98244D,None,None,M,1969-10-09,None,hernandez.torres.alvaro@gmail.com,None,Form,0.0,0.0,0.0,0.0,0.0,9D0B98244D,2388.8537357599043,15724.553102815036,853.198495662652,823.9872516241367,38.12433667122825,314.79923472066304,222.33606506046547,74.53951533334445,141.31063277312214,122.22963918716793,43.928922924013584,132.12336759170174,44.40809488606523,104.30795379528114,16.057047220363295,4.279927407345769,35.03232253264502,12.870284446682094,19.558109896951198,4.501959691233,51
574,B4BFF6BB786D,Lupita,Lopez,F,1998-02-17,Ciudad de México,guadalupe.penaloza20@iems.edu.mx,None,Facebook,2910558332332589.0,0.0,0.0,0.0,0.0,BFF6BB786D,9482.886464941103,4870.824147854791,51.52261071058317,28.30720145878694,149.3149509502689,122.75386482691938,89.66085970715311,104.99036147803383,68.75429959453892,93.15058997600576,151.8555747059082,84.61815261782236,76.5372223921889,40.42755832823345,41.372917739830925,34.373043742698165,22.582592459950355,18.937607016190675,0.005293617010293966,0.12468588198330693,23
580,B853AC530ED0,Wendy,Torres Espinoza,F,1996-05-19,None,wendy_9919@hotmail.com,None,Facebook,2816018975147231.0,0.0,0.0,0.0,0.0,53AC530ED0,2198.8775591570634,11626.547399799621,185.09589739195278,57.076154732626755,412.4734095651841,31.542411124991347,202.26316409987186,8.172934090431758,175.94417534450187,34.661608695783954,38.329884886492025,11.209570113255937,65.36552263428005,10.005764878186497,42.721905864580954,34.86133572181304,21.436710950970195,19.526398988023978,14.608663423673422,0.27952853669467453,25
595,B8B2F87928F7,Casandra,Coronel,M,1996-09-04,"Tlalpan, Distrito Federal, Mexico",vampi_barby@hotmail.com,None,Facebook,1360182454168640.0,0.0,0.0,0.0,0.0,B2F87928F7,799.3839161973806,3873.8886895361557,260.29876009610444,264.7407228357736,114.01077538257954,82.35036239706434,49.99362648276132,28.682462453342826,10.028873030978303,49.28210982211522,15.304180710742388,12.866021042323116,11.392354798394129,38.98396390099411,7.458889777955481,11.003857363866981,8.025864977353896,4.473374488989938,3.4608301302701,1.3703645748546713,24
606,BC765E4F5BBB,None,None,M,1970-06-05,None,nicocruznapo@gmail.com,None,Form,0.0,0.0,0.0,0.0,0.0,765E4F5BBB,18815.21787059302,7420.379358635719,726.4938733734487,1178.3541137891934,622.6411949978925,445.28314951909897,242.73511255461054,76.17854530213809,291.20251295285425,73.33475539921689,207.0793342657536,49.890108772355006,121.70044451364205,76.6892291061945,84.99414562590725,5.339534200597219,13.365228089285987,8.117184148704718,29.36943164434984,0.6348725160130577,50
632,C0A600C8D953,None,None,M,1983-07-27,None,alejandrowuau2707@gmail.com,None,Form,0.0,0.0,0.0,0.0,0.0,A600C8D953,1031.7773273023263,1404.127216104345,167.2568835013988,45.07974082638804,90.67721087927174,80.74870666190883,46.20381431987931,20.223914103663464,37.83799495026851,17.97508334900444,2.1941270905594434,14.20352704423505,15.297215319254072,5.242940924089357,15.349556083029166,6.7819413095025,3.78442064636699,4.913601963392687,2.0614775676785126,1.2633000534383585,37
638,C49A0295A2AB,None,None,M,2006-01-25,None,vegalourdes14@yahoo.com.mx,None,Form,0.0,0.0,0.0,0.0,0.0,9A0295A2AB,15727.745536832064,8715.491149428412,1393.626934924162,574.7999463091328,575.4731068517374,242.67949948068673,55.41522487858323,310.8986224255396,227.01069249135983,78.32917787416267,3.2944409477144796,30.854099596266554,120.27199423413288,51.52037440688178,82.63454107067089,13.297108967402218,49.82951497118253,19.490987677675452,20.508307182670475,6.828739449568303,15
650,CC4463BB3F61,None,None,M,1984-04-01,None,mafz360@yahoo.com.mx,None,Form,0.0,0.0,0.0,0.0,0.0,4463BB3F61,16.99672395014023,526.6106439024392,97.44163435358747,47.25553768978128,7.992320737496098,35.442236585305665,9.666251068222463,4.508958486242862,8.47887660684979,8.67272902093869,12.694778161824766,9.598363760475655,6.096445050909071,5.237860462128736,5.198660913892277,1.2138813590266593,1.0248203962047948,1.172950974303241,0.5815817056630233,0.1147448145681347,37
696,D461DABCBF4A,None,None,F,1979-01-12,None,evelazquez35@yahoo.es,None,Form,0.0,0.0,0.0,0.0,0.0,61DABCBF4A,44041.30403657209,2600.603549880021,1195.2670209947069,127.51121146471243,446.5347580965589,208.00435165005888,400.28067864350015,278.0099222056571,353.460731739518,336.13572040998866,34.99263426603763,199.28187322386398,35.48134094912165,138.17376215750693,39.97302923683893,23.682512210368067,9.242733732330167,23.790917099391077,18.426200602411082,12.843014865322075,42
708,D4C94BF60949,Jhony,Hernandez,M,1992-01-13,None,flakito_jeral@hotmail.com,None,Facebook,2359038677727391.0,0.0,0.0,0.0,0.0,C94BF60949,11425.814526809365,20349.83191355169,1695.7382759348807,78.99038631070144,9.466524093012932,671.5622365580423,307.9554526196993,361.9079333485468,12.576836756607719,244.7957990229837,163.8469021264381,14.437301802711596,57.596800513222135,179.27174245362338,48.95804698233342,63.521756527138315,54.87762299420778,10.815376655124593,25.796906619734028,0.23765831993824313,29
734,E048D3590CDD,Ernesto,Lopez,M,1966-06-30,None,0,None,Facebook,114989033564057.0,0.0,0.0,0.0,0.0,48D3590CDD,12764.256780823382,5428.613391461344,1031.2290991616997,683.8633233343814,363.47228688666485,23.455144422964086,115.43542732563567,144.00014990712722,122.85093478624512,138.16054209407292,186.93671863885004,113.3743771417516,9.889422244921313,44.594104096713394,31.01264409833417,5.148070520292564,8.141293675948173,3.4280673678367237,2.108957942761034,6.02926406907257,54
735,E05F45B2F11E,Álvaro,González Martínez de Lecea,None,1979-08-28,None,aglecea@hotmail.com,659052727,Facebook,2727704290621051.0,0.0,0.0,0.0,0.0,5F45B2F11E,5742.316533732661,10472.998711528471,177.7892067302981,388.65384102329205,631.5015797854655,443.20096449940024,205.36993935551632,117.41747671026317,18.88740510799256,145.33120410306864,13.069814597428994,106.9846323755864,59.58850809946249,69.3238283348402,19.52703143865223,33.30511884690238,24.432648740046098,13.191361281242758,16.44917779337663,4.661015916036629,41
736,E062675C6DF6,None,None,M,1979-05-16,None,gearrolo@gmail.com,None,Form,0.0,0.0,0.0,0.0,0.0,62675C6DF6,3201.189189414797,11240.459459603871,197.4548702497571,624.8559156898507,139.30309819722262,271.2671775993535,84.74620667883572,192.21750384147393,6.4756997829197145,30.63950511805038,87.07801583739077,52.15862953132684,81.67278554624856,25.39003480137273,13.938692546568696,16.300261608501597,26.40468879769688,1.3223012590566499,1.2865777734823016,4.839386122224337,42
760,E8D5372AB338,None,None,None,1990-11-07,None,oscar_13_racso@hotmail.com,5566745811,Form,0.0,0.0,0.0,0.0,0.0,D5372AB338,2233.383612593081,1072.3422931825976,124.0758741121783,7.607594645809071,60.24388321068805,25.869016999378722,25.410929613433122,35.931842010677606,30.169930019468087,41.75427705304884,3.1706782523022734,6.271257400993927,21.724987627656585,13.6128566844737,18.575458122426685,4.499061355094638,2.004432850817265,0.6322125682047591,1.675384190553514,1.0444175071151727,30
769,F018984F0477,None,None,None,1978-08-23,None,emiliocores@hotmail.com,None,Form,0.0,0.0,0.0,0.0,0.0,18984F0477,17314.366713296364,10156.634544489745,660.8383994623206,660.1572260806306,1022.4909091070051,527.7721392514303,230.29816752613795,277.5878180500981,357.84131753031085,120.8118989027499,89.32574175322306,124.07140156621927,138.641928148468,21.23887997379205,3.485141113560346,26.52060362313145,29.006593092043747,16.431000530689154,24.055860481534722,1.4237160205437032,42
820,FC2D5EB96E07,Orlando,Aparicio,M,1983-12-10,Ciudad de México,itachirasingan@hotmail.com,None,Facebook,1519794668181132.0,0.0,0.0,0.0,0.0,2D5EB96E07,8647.81467681447,17636.313184592404,266.5840769784152,913.673092732223,182.89931393352597,260.2085305668191,187.76970497700347,113.98231370908597,309.00146922121235,31.98538016427057,141.3492527462488,26.403899677877856,4.541229395162624,52.09214091094213,20.76843369779425,54.090674202625564,9.595896439335881,10.475507537690364,22.938919854111322,7.512301848778914,37
