,client_mac,first_name,last_name,gender,date_of_birth,location,email,mobile,source,facebook_id,twitter_id,instagram_id,linkedin_id,oneclick_id,client_mac10,Restaurante,Relojería / Joyería,Libros,Discos,Lentes,Zona de exclusión,Tabacos,Otros de farmacia,Dermatología ,Dulcería,Fotografía,Pastelería,Parafarmacia,Novedades,Caballeros,Juguetes,Farmacia,Pasillo juguetes,Celulares,Videojuegos,Pantallas,Audio,age
144,186590606DE9,None,None,M,1964-04-05,None,rosasjl@sanborns.com.mx,None,Form,0.0,0.0,0.0,0.0,0.0,6590606DE9,329.6571137819672,160.82713605311739,38.70417001872376,84.64413116767828,37.97277089462496,56.50833237149503,20.62861126016363,7.420225040394896,4.920355682155335,14.453466982867967,4.137974020209732,9.880438776371637,16.43195396878274,3.2641999125914776,10.506123222666998,4.39687989182371,3.4277899274086208,0.16886618204255,0.6081166553213667,0.2356833725544037,0.0787239630457668,0.12693685399245866,57
149,1C9148EDB47E,None,None,M,1973-11-14,None,mxvendo@hotmail.com,None,Form,0.0,0.0,0.0,0.0,0.0,9148EDB47E,617.0875852520517,1797.1898258401516,270.81795164008645,158.5794516149519,45.18815643073457,12.673081469514992,64.00945437708987,62.801120370579,30.382318933828905,28.239021932495216,24.738404207328774,30.057216096105627,3.518404785956079,35.558454704877484,15.324431722412367,16.81711642365785,10.347257191160939,1.989808167778942,0.4678385301530646,1.4392718540373726,0.3415527934934948,0.4322756615529045,47
154,1CCCD67DFFD8,None,None,M,1969-07-25,None,luisjosefra@hotmail.com,None,Form,0.0,0.0,0.0,0.0,0.0,CCD67DFFD8,1528.3506539650498,1137.7839431228938,21.334898299624633,172.65105844335991,243.49078586004455,135.0253560063132,0.88548941733327,92.42312613565893,89.55976778270733,11.308661282994562,72.15109561816429,24.55951585491493,6.355755221076204,3.979669560472051,21.26911993817618,14.324155291618682,9.878889685265047,1.5254693822356393,0.17627184835284124,0.7732652686386994,0.37875708201261754,0.8142949330942986,51
157,202D072B40AE,None,None,M,1991-01-02,None,yoniantoniomartinez@gmail.com,None,Form,0.0,0.0,0.0,0.0,0.0,2D072B40AE,2017.75428838844,7602.687758564505,743.1054889229836,290.595316894708,717.0722892002833,87.64422596016955,290.1909359694312,24.314890543122246,222.55371146243894,24.00382177384621,27.790699686276408,160.1774562596062,80.06855656547877,82.79382957979149,99.61799753616191,38.21755009451912,18.903375434681696,9.894432561074957,2.674492805271052,0.3207959865321436,1.7748754660558264,0.8432103446213828,30
163,20326C3F504F,혜희,염,F,1978-02-04,None,heahee@naver.com,None,Facebook,2608261659239456.0,0.0,0.0,0.0,0.0,326C3F504F,232.53664470821738,175.2043313054615,43.23836967545782,1.7756098112869343,63.36209303725081,23.51069114525218,11.358335583115966,25.860005573389632,17.926471956452495,5.556497903973073,5.004558425704404,3.3993155236223904,4.0027044128155485,7.438119476280904,7.501373989473987,0.3230490117481872,0.25281414685619563,0.9176098233838678,0.11588998278336586,0.16054647055433055,0.3401428714599394,0.21482516545894342,43
188,2446C8186672,Guillermo,Anaya,None,1972-06-28,None,pooly1936@hotmail.com,None,Facebook,2079386772082787.0,0.0,0.0,0.0,0.0,46C8186672,219.64909599508889,1869.6780803861109,69.83258436393652,150.61239193547206,124.52051409157241,125.39527124714095,78.66776309849841,49.54858327359278,51.121885241944135,54.9343614657619,11.067839962356624,24.730062992307122,27.499965849784967,6.679494054924102,10.61325916755264,11.10225297683424,5.692728469501495,3.2070707786301242,0.15246397858918626,0.35050601167935974,0.38131932208178254,0.5625053366402405,48
218,2C0E3DE63451,None,None,F,2006-09-15,None,carmenmayo84@live.com,None,Form,0.0,0.0,0.0,0.0,0.0,0E3DE63451,3178.1126555769606,769.7048495953561,331.51622564559557,393.5416177204087,149.49066199535557,164.73874297343735,73.92666693885543,78.98120679621624,82.1131460437215,14.239936747067194,29.065497924271412,48.71879857111973,54.359098670770656,19.2701274022699,2.701624125439738,22.51892981644853,5.092560877684813,1.869450607410491,0.6230099282428085,0.17991938242766603,0.46474474508942504,0.7705279158522864,14
227,30074D5308D6,Martín cordova ,None,M,1991-08-29,None,martin.cordova54@outlook.com,None,Form,0.0,0.0,0.0,0.0,0.0,074D5308D6,558.3368324862349,1173.0077372266574,78.93702442041551,75.25622393008742,45.059004269683484,18.893896576516738,101.10720100150297,11.865871510151457,13.367519362099015,2.9455723727321863,42.36181646680024,14.895387138937494,25.661724676107408,18.875885913356502,4.985451778113469,8.459004664262423,5.885335415812439,2.585720183001275,0.2549424342452246,0.13102964326812702,0.6796718327206792,0.4471466972938785,29
240,304B07B5FCA7,Tonatiuh,Rios,M,1997-04-16,"Mexico City, Mexico",skyline16tr@live.com,None,Facebook,953661678134411.0,0.0,0.0,0.0,0.0,4B07B5FCA7,4707.919931159476,20047.272470374908,660.8792065865058,302.39265458304527,370.9015873289069,1314.4475355800394,755.0552861083739,524.348335594157,84.5742142200891,272.0245595597188,430.56666067032285,26.21075715662683,320.38285893841663,264.9530016591809,25.903561444577075,114.07380841475566,7.106461886194345,16.692691076073476,3.625401220711659,6.371262923581718,5.004706826341923,0.29304668799873324,24
243,304B07E2DEDC,None,None,M,1997-12-31,None,serratosr@gmail.com,None,Form,0.0,0.0,0.0,0.0,0.0,4B07E2DEDC,1062.488295412577,55.554029022756914,31.87680338577584,33.09450219929511,40.970157199114254,68.21357048421663,19.2278105893883,27.157172056589847,9.809536861421822,17.524888662889307,28.852094040565323,21.16469700832843,20.519423341910365,3.3579432141568586,18.073505513636206,10.289820940096236,1.6002280430514173,0.022865228618254088,0.2528812320771886,0.10122904875658713,0.5790054663366474,0.26954104844136134,23
244,304B07F4CCE4,None,None,F,2006-01-25,None,lucerocervantes733@gmail.com,None,Form,0.0,0.0,0.0,0.0,0.0,4B07F4CCE4,3695.779161332722,3009.6817793727573,89.43667096386523,602.02707158639,373.0462730912425,210.71242872535518,152.49277625007338,201.48858445072193,134.7840160407392,147.25974948694105,11.249723601937651,126.25341979319543,93.73691340193531,52.99143079613986,36.1792115446264,35.429473805145285,0.8944328838419412,6.78098130161921,2.8359721286195407,1.0133357545526696,1.1483429331914647,1.7782507543900914,15
260,306A85B50356,None,None,M,2006-01-10,None,aletovilla78@gmail.com,None,Form,0.0,0.0,0.0,0.0,0.0,6A85B50356,868.2836923734059,156.93103213624235,49.8686139940779,111.04856041044305,22.457554556084347,7.311465221468801,1.2894699326544148,1.6925614700883573,24.70918912975034,26.5424183129061,24.877895409189545,23.085038887911125,15.007459364295862,9.24643581606607,15.83099014055875,2.7524232806375606,3.5176004827261025,1.595283374157214,0.1313138025027919,0.20020177716388457,0.19019560197075558,0.4306045256985451,15
275,347916EF4FF3,Mario,Hernandez,M,1989-11-04,Coacalco,mariough89@gmail.com,None,Facebook,1.021492951604772e+16,0.0,0.0,0.0,0.0,7916EF4FF3,5196.7846293711555,1000.6303106203234,409.885079400108,261.01304212816973,82.59451947867908,69.3740449605608,13.61003633594309,184.6726178476844,51.78599279842119,27.59955660810207,39.63535947086904,88.36397736116322,23.52044197210238,18.908664518344928,48.79771306038148,25.74722860419788,18.94346706462839,2.914777723726275,1.6643418700258725,2.1986977173437796,0.9834362098177569,0.37206487825207063,31
278,348A7BE97870,None,None,M,1965-05-14,None,halberto1449@gmail.com,None,Form,0.0,0.0,0.0,0.0,0.0,8A7BE97870,347.50583535787166,2577.939510423445,141.8057445097039,51.73692024085955,198.2481995776355,136.4127979289807,143.67675747434774,57.484106520850055,13.252521934856276,12.634723162070319,56.75769323725421,8.461100225731709,31.208594057092306,30.942670158673227,2.4233585788701717,18.83163029133035,11.961392658586892,3.2098124298504573,0.11635337272408414,0.11755918402100794,0.7678772311667693,0.5048414440795709,56
297,3CCD5D480CE1,None,None,M,1993-09-28,None,rub.rub.torres@gmail.com,None,Form,0.0,0.0,0.0,0.0,0.0,CD5D480CE1,114.99974822173446,343.72176711951874,1.3041356684884897,15.57115329783689,14.830902361543446,41.14350354392315,23.904320446303082,10.93803463131299,20.872666113797376,17.405470759655636,8.091308315815066,10.718876627919006,6.898789902256873,11.434409988030607,8.421243880110143,5.342019700209477,3.4808124622307806,1.1510846463980726,0.19126721673922165,0.3146474647015561,0.22448307991866123,0.03935455155623586,27
301,403F8C1E1947,Barbara,Islas,F,1984-05-27,None,barbikiu27@gmail.com,None,Form,0.0,0.0,0.0,0.0,0.0,3F8C1E1947,17224.512435490604,1708.2288471042234,1633.2434464173195,970.341868599639,501.1384799490932,982.4785651281464,783.933985938442,535.2001780982863,50.243216734679244,246.40226794310237,141.52886683952661,277.4828527805896,280.7007420146845,28.455186612240823,98.31467318822827,95.83519408600989,8.570192672516955,9.900210775872164,4.716744229660201,3.526593095007288,2.4116101469759963,4.833842155152838,37
303,403F8C25E817,None,None,M,1995-07-03,None,luisgerardo.hdz@hotmail.com,None,Form,0.0,0.0,0.0,0.0,0.0,3F8C25E817,20580.76420777235,9897.187853362457,1946.2258802074828,766.5004751889111,1155.9262905782864,252.78995878732294,382.76904704162143,0.05086084152564744,433.83607127031615,201.7579245052081,206.0216795463957,31.10092975941445,136.39153274253792,326.7787083131808,275.6952138070275,86.56092885939863,100.1412786148101,19.18568043633935,2.6708152623447123,0.7403479787591027,8.289217494345891,6.615097629954446,25
304,403F8C27B0AB,Rafael,Ponce,M,1983-12-09,None,rafaelpptrabajo@gmail.com,None,Facebook,1171326566649908.0,0.0,0.0,0.0,0.0,3F8C27B0AB,1256.7315692700756,2660.429620189808,5.418115243156147,366.96782306078796,253.98999042813583,2.387100176511021,30.509474378802736,71.91021812698973,94.04532171542004,23.48604406438457,6.6247821721811,49.89993660058289,79.68942786707973,27.528203071588266,37.172364348483654,13.753085986322882,10.25009706295948,0.5795211243159347,1.108797803896987,0.2569073987773904,1.2181198352524922,0.04348007448572923,37
306,403F8C3C3B21,Alejandro,Risso Yañez,M,1979-12-23,Ciudad de México,alexjandro25@hotmail.com,None,Facebook,1.0158074971617652e+16,0.0,0.0,0.0,0.0,3F8C3C3B21,2337.531524123523,1120.6306692747598,196.87187136761378,21.901725877917833,100.33291071863572,50.00936491553713,5.089020519821074,53.377402076319584,6.357156002845034,11.918202918071955,74.41572096419885,29.480350114220194,31.333208882396075,25.322779992218923,2.185140879090716,24.73116325837776,9.292730997629443,4.6163251545474555,0.47586217873776954,0.267398761741946,1.3207654126290371,0.5387056091671688,41
310,403F8C4DA3F3,None,None,M,1997-12-31,None,raymundomc75@gmail.com,None,Form,0.0,0.0,0.0,0.0,0.0,3F8C4DA3F3,3016.2054268223487,11733.228244434134,1062.1792884793472,130.0900124636757,143.08612642370215,793.9433811332356,200.873656431917,359.97064824372404,46.10797324829499,75.94201846109065,100.06112597005475,181.52100692384144,113.03287700164913,106.54866420721187,51.52661395280173,52.21590799536746,49.21806362176815,8.51311606410019,3.4670443856766986,3.6209258237178314,0.634033925752482,0.013843986584212459,23
320,40B89AF330A3,None,None,M,1997-12-31,None,garciaj@sanborns.com,None,Form,0.0,0.0,0.0,0.0,0.0,B89AF330A3,17773.175128323033,1438.653181618242,902.828741898487,402.31557313094095,181.06339174200127,1035.0839484911935,50.739568319266525,214.42090143307288,208.38630318724884,60.81060310173043,177.9694318506563,115.74978211207436,212.66958707707568,17.647538747076194,77.90077443267421,48.27676138614225,48.11027116790376,18.459424582535707,1.538143249164847,1.1722328189771325,3.778722564452632,2.2499887660616253,23
337,444ADB371196,None,None,M,2002-01-12,None,martinezob@asf.edu.mx,None,Form,0.0,0.0,0.0,0.0,0.0,4ADB371196,204.4624579392149,528.9250682446038,151.76259719958125,115.1821747690664,35.36118828838747,95.0154929601495,31.935726898197753,2.653406076383495,10.787732810180374,13.952885621137309,28.196242871716258,1.8379414496362458,5.592454061638898,10.062381502444996,19.40823096514449,1.7609183961532644,2.3676039677377614,1.0907813421098775,0.07941330849375347,0.4204736093527558,0.08046768171723191,0.06436003695217433,19
338,4455C4C2D964,None,None,M,1960-04-01,None,verahugof@gmail.com,None,Form,0.0,0.0,0.0,0.0,0.0,55C4C2D964,2243.0682747286774,3257.681078493827,437.63566990565215,430.9360240743201,509.65207418169575,397.7957837328829,121.39789019554978,90.62362966256163,134.9167449491062,98.91775662258264,1.190882549368751,14.908477103120727,67.5376070522744,91.38299529801007,15.986433804496205,37.459837285949384,3.330891977487816,1.8077105043118578,0.18673670067459236,0.1348051484896629,0.15056048078821618,0.2981355481725225,61
339,4455C4C2DACF,Ricky Luiss,Rokanlover,M,1992-06-15,Ciudad de México,pyro80@live.com.mx,None,Facebook,2949996581752983.0,0.0,0.0,0.0,0.0,55C4C2DACF,493.0920641448771,2198.1670183931687,272.80635265654007,118.38441179307789,94.98457085527987,214.5876165245831,46.4262236971564,99.0381837076376,69.83373085314093,72.66887787820232,23.923640552418025,50.52965967798487,54.48869224611266,31.275571248472296,27.110805675586768,16.289024180097613,3.975380342117258,0.8238283051788072,0.21290431967839857,0.4175974437627922,0.21373861263358318,0.7501068922933302,28
344,449160C9FFD5,None,None,F,1992-12-17,None,perla.clarissa@hotmail.com,None,Form,0.0,0.0,0.0,0.0,0.0,9160C9FFD5,1832.1740903836846,11446.567876882298,181.11104007115838,75.68868306181763,193.90879677588333,523.8592641173768,127.37828246870497,25.0808453611683,333.5869562872713,248.5245832055469,197.2036000646436,103.01015976506166,141.79139768106367,162.0441048675258,74.94414369326269,56.016680047736024,40.877089946158556,7.234942993409222,5.463601971858507,3.4030482260264923,1.350940731650539,2.7798713966956834,28
356,4888CA2CCF4F,Miguel,Nava,M,1965-09-16,None,mikinava1234@mail.com,None,Facebook,457885718476096.0,0.0,0.0,0.0,0.0,88CA2CCF4F,2424.334610375116,9152.311504374504,745.9129797935055,830.4541311653221,45.410815896975635,113.10429929602795,121.84448150457396,163.91190591235855,65.26959670018275,4.4813144996917345,166.09509029217122,107.8117650519449,56.587507387445726,113.61848173171526,39.52502202698452,22.920835121855443,15.26628495187059,4.749166850604887,5.005452173473962,2.640945493236937,0.9466580296125291,1.7971513708280882,55
361,48C7965BFC35,Angel,Mayoral,M,1993-02-05,None,angelchuy_1985@hotmail.com,None,Facebook,2186781984704589.0,0.0,0.0,0.0,0.0,C7965BFC35,1262.2911722624056,6280.896789512475,205.20331532039924,186.11588139799557,187.40226956408108,201.17456255188003,311.69560373084755,223.67927319749543,43.043528916699195,147.57261325264056,144.26289829646706,142.67714172495045,5.003046986025397,99.51004732489112,47.02684000001922,17.69901932154111,24.11022230800841,1.8712354508375038,0.062206770181839635,3.6745856737267175,2.3544718005191054,1.6732746359112836,28
364,48C7969AFD39,None,None,M,2006-01-25,None,sanlop42tonny@gmail.com,None,Form,0.0,0.0,0.0,0.0,0.0,C7969AFD39,486.334234639169,97.68607407569424,70.05427102414397,61.633386301548896,22.025814208617746,43.15331680865066,23.90396485258982,1.9156982441023171,2.553352601456742,15.710722210369774,0.3164235864607553,4.4663733913898,0.9585568732946758,5.060918373478377,1.2187991090732362,3.7079409411028363,3.5688174973626663,0.08510528141893893,0.568297440422708,0.5202522571590281,0.2700371980647318,0.2876430844289232,15
369,4C49E3F48E57,None,None,M,1970-09-30,None,jgarciap@ideal.com.mx,None,Form,0.0,0.0,0.0,0.0,0.0,49E3F48E57,967.2938818292051,4086.6808258332726,589.2593111345642,497.0483608238229,223.63237607645289,275.1422487680525,214.04134153061855,148.57842487400438,9.780232926403341,116.29038718847598,13.418445015836703,33.387367087044275,84.88062928718355,81.19258317585255,64.486856452757,29.146677844292366,14.14393434329297,4.732616014084949,1.0097473831223138,0.48395403750736765,1.0902435675583564,1.2795548065943732,50
371,4C6641A9C235,Luis Enrique,Arzate Valdivia,M,1976-05-04,Cuernavaca,arzate_valdivia@hotmail.com,None,Facebook,2138530819625669.0,0.0,0.0,0.0,0.0,6641A9C235,18235.195288159848,886.5815206247356,1483.3818149729516,739.1792273103974,1196.230591142962,1181.4814833108046,482.3091128888938,498.9743122389538,386.1898464557616,102.39080721760836,264.8358877200087,245.86711420097424,150.29741389487924,122.06425231840498,35.33725228005024,53.71136238350377,14.378066895461618,5.6805454433249505,2.3931864432301864,4.051677098086737,1.7686805670742924,4.700556432092937,45
376,4C910C136244,None,None,F,1965-04-06,None,gsanchez@samborns.com.mx,None,Form,0.0,0.0,0.0,0.0,0.0,910C136244,1342.1639094805116,3037.7355301945695,145.24691209400896,213.7745897659673,47.3744783869968,197.06212820329768,54.4014977602775,39.080738910415405,112.32721334731616,67.87297377067054,5.314494994637551,58.69969949962419,26.637842276369216,59.24077551154555,48.86746256939759,3.296011085113468,9.968040146478776,5.254093367541617,0.2674819600376464,1.3055642661094304,0.639108862299438,0.46945354681458845,56
393,508A0FFBA4C6,None,None,F,1982-06-29,None,marceloaguilarhdz@gmail.com,None,Form,0.0,0.0,0.0,0.0,0.0,8A0FFBA4C6,1207.2422963522909,1187.3293825820822,203.9467445387707,243.84250517080048,204.26589519625216,107.43637758111348,28.54579757296585,77.05624681391942,29.1190944635404,12.33025903759535,11.709243049276315,57.0296646737804,28.944091775332343,2.2925053553651313,42.52747320427233,18.05942406562953,0.7327836123534188,2.396551186338669,1.5553213687427634,0.3313674403014735,0.9349054474537364,0.37206951182359477,38
394,509EA7CA4844,None,None,M,1973-02-24,None,garellano369@gmail.com,None,Form,0.0,0.0,0.0,0.0,0.0,9EA7CA4844,4455.157271054585,21690.108062586853,2149.009562979589,1187.473871281747,1629.9430609805736,515.6080183669019,752.0098173055001,93.07107650014301,212.51992884874696,55.63891571574966,361.93681447329266,217.72560964292396,165.94446853680458,176.82169000963896,85.0960192041561,70.87897252366105,37.76394746126243,22.287010030145474,6.734921048078217,1.9010070179995742,5.727945931212699,2.6420085004378455,48
411,5820596A8C35,None,None,M,1995-02-16,None,luis.rmz.ipn@gmail.com,None,Form,0.0,0.0,0.0,0.0,0.0,20596A8C35,2242.33445079032,5138.833676039448,448.3048216721901,536.2856851599521,424.1115481355042,276.10605828572534,353.6196787352524,53.122853091660915,94.73829183749754,98.31101594519826,135.01398449684004,124.50327513616644,52.45540030852067,97.76026496117332,84.32514993199443,42.543966791044525,21.635579205141987,9.799970115857752,3.2258543310571524,3.2410256585777675,0.5193792846191964,1.2080700862580749,26
428,58D9C364ED52,None,None,M,1992-05-08,None,10392oscar@gmail.com,None,Form,0.0,0.0,0.0,0.0,0.0,D9C364ED52,10424.6522835456,3731.194679175033,1080.9715887164332,129.5919887619753,562.4784321234191,45.86357313316552,408.955772186287,145.5491204572751,18.00087836143805,120.72893612724933,117.46010141068332,8.771737486372494,48.399145129692826,18.757214053136614,103.27257348583126,36.816153679978406,15.557273990142232,7.870967673216063,0.5663425964044352,5.77218493019656,0.5071462534445207,2.261906723030013,29
431,58D9C3B995AE,Xöch,Rodriguez,F,1996-04-05,Guadalajara (México),love_thara@hotmail.com,None,Facebook,1418330088335807.0,0.0,0.0,0.0,0.0,D9C3B995AE,11527.026813629607,9295.048698506449,1307.5160649690306,789.1562116857926,663.8435137168061,57.01047051359148,442.84939835936655,493.2345316510644,244.79117204759984,217.71102777999312,149.62388412486857,126.68332300756234,217.7641270988046,17.11913090567937,32.7714420737568,55.704749748324545,40.68004036840905,19.11132138100635,8.35002427237299,1.7198116380501842,3.826568301625028,2.4576742202426827,25
455,6014667C6F5E,None,None,M,1978-02-15,None,pedrolg78cu@gmail.com,None,Form,0.0,0.0,0.0,0.0,0.0,14667C6F5E,847.0591932085341,3633.8353765476913,108.57344270807498,311.9384760970181,294.3166748605044,334.7515617993595,97.50174635480691,13.703326231381626,116.23696774032825,56.891853441406724,85.73347639754594,27.081909936583866,7.522680566623788,40.623228852138716,15.109740210687795,7.480030435356707,0.8757064159775365,0.77957024025042,1.3136522550631904,2.329158218098485,1.4308401803361555,0.9113873022320907,43
458,601466C6EB55,Jose,Jr,None,2000-03-04,"Mexico City, Mexico",cirilo-alvarez.34@outlook.es,None,Facebook,2163068353965680.0,0.0,0.0,0.0,0.0,1466C6EB55,824.8383553406168,412.75001035821737,184.39057357958987,86.94884019823805,57.37924567545034,94.54889545971606,55.39056038264474,24.807785028160023,28.38968686347291,46.68025062793338,32.65614264450362,4.131096171396887,34.996419051303235,25.169878932560767,16.65310161696032,12.422129192914761,9.091808030786492,2.3952837621559544,0.007998521803634081,0.7868368070861893,0.4286159166182923,0.13648583787074123,21
461,601466F3D78F,Omar,Valdiviezo Antonio,M,1987-01-01,None,valdi.rami@gmail.com,5562013391,Form,0.0,0.0,0.0,0.0,0.0,1466F3D78F,11099.561078629064,10132.862657117266,1842.0288735392367,931.5161840824287,1181.1125217378794,1133.7531720685088,353.9888138000327,436.9868897007508,68.00383222584234,288.72231736384134,327.38003958062654,44.34364364122478,89.8493511242582,231.03787928316845,71.07932687133045,49.60360794404475,52.32616994178925,9.089934472031267,8.86831471886246,8.526273450207086,3.9509517730642822,2.4081669345347647,34
474,601D9177534D,None,None,M,1972-03-20,None,ramirezr@sanborns.com.mx,None,Form,0.0,0.0,0.0,0.0,0.0,1D9177534D,2221.3457760125093,675.2660232163502,349.8643305842778,120.68728793639363,167.2345400240475,90.73392175536803,45.76397830636706,53.449977446188804,96.53390693097815,79.38634857894405,46.19311934418512,31.748646764962174,46.91426310412835,44.57559171702438,11.484642983569247,14.819847799029944,12.819555337924209,1.0567055770552574,2.1534020364675492,1.7084181062289947,0.5899385132649271,0.6697779247362592,49
475,601D91775BD2,None,None,M,1980-07-24,None,sfermoso@sears.com.mx,None,Form,0.0,0.0,0.0,0.0,0.0,1D91775BD2,1326.7696253468575,352.15737054145995,155.08511937497485,22.65302943557613,150.86941741933188,103.60911606585199,110.74613754361326,23.358503684630595,26.855125667669157,25.40256228795916,12.194225906945734,45.75481395735665,16.12021626751438,25.80195233964448,3.2958779745669364,8.270128896973565,2.1844681181554826,2.018382392256873,0.6097584952369314,1.0437691312447321,0.9280223684339078,0.2723767837460654,40
476,601D917769B2,None,None,M,1975-05-29,None,eortizecor@gmail.com,None,Form,0.0,0.0,0.0,0.0,0.0,1D917769B2,2.123923679649009,756.0843501019988,54.380259523453375,69.59083305549166,87.7814981898423,9.148083843493884,42.744549049496406,39.66843890274936,27.760393275367175,22.144357391096975,16.06763676092096,22.00368875403341,18.65219904123418,9.717809607186695,17.07528944460055,6.2266000983406835,1.2073396648942583,0.9593132854730653,0.036717991031340304,0.10562537611593052,0.5115127130870557,0.009580250442636913,46
477,601D91776D6F,None,None,M,1965-05-25,None,zamoram@sanborns.com.mx,None,Form,0.0,0.0,0.0,0.0,0.0,1D91776D6F,2807.842308074549,11254.103609653983,1142.9914263187386,652.8119119109268,994.5613021644949,564.8713429007859,88.33973915777565,407.6308200526507,197.83003431906093,306.7808534549904,116.62717536510233,173.9686969026947,165.78424983270554,169.45540217563618,135.37221479171134,18.403029970676766,18.985032909529686,4.56335661042798,1.9311370718047483,3.6592110065696932,0.3527709282983529,2.1343744268848566,56
478,601D917776C3,None,None,M,1981-06-28,None,mendoza.ecm@gmail.com,5527024018,Form,0.0,0.0,0.0,0.0,0.0,1D917776C3,1768.1485728099635,1919.397776271536,361.05702858337867,415.1186729675532,168.8324070021646,272.48908431444397,172.03391126515905,153.3896100804603,116.34179755226047,34.131573680827536,31.873236841135984,10.66398642351289,11.046131622797803,19.864894490087526,61.41249115001683,12.672332511307228,1.3673593588659845,1.7355361601812958,0.7123450191752124,0.7540385329528694,1.6954108931898992,0.26180246902955284,39
480,601D91BBA9D1,Citlalli,Rosas,F,1981-08-31,Ciudad de México,alexurbano234@gmail.com,None,Facebook,813730255798476.0,0.0,0.0,0.0,0.0,1D91BBA9D1,1185.2774897273207,109.07712513077675,192.48636996694788,90.18038564804829,1.9433629672109562,54.49814900897033,33.63390943971682,23.354822385711564,39.25800253129543,4.834297774980522,25.809253092004994,11.087657175180812,28.558367447341155,1.0482432474317682,2.3186211102860845,1.0905069580495235,6.9050537585446286,1.8140199491484945,0.9787906113658639,0.9802006576531025,0.6307461005113428,0.23462531150332558,39
481,601D91C702D5,Ricardo,Perez,M,1969-09-20,None,ricardoperezh.2069@gmail.com,None,Facebook,154442066045960.0,0.0,0.0,0.0,0.0,1D91C702D5,648.5720184086861,181.7627767327273,22.891371886153948,117.3959078089187,34.29037969053812,86.95481849875377,20.61829832138932,18.93558480715853,26.93538224738512,31.796956492135486,5.463625426823377,13.413013804927306,13.332780419051355,5.6896925341246405,15.639819187313003,8.028806895901957,1.689262757407217,0.5181459328769344,0.7528313280582202,0.6037153994058315,0.3537153730839872,0.3610960471797836,51
494,60AB6784A47E,Isidro,Hernandez Bautista,M,1979-05-15,None,iheba79@yahoo.com.mx,5522583672,Form,0.0,0.0,0.0,0.0,0.0,AB6784A47E,1047.7776039682014,903.1205773888685,9.559819870163691,194.44595619279977,137.6215521591726,150.8415352198856,75.04601400580589,36.31439987873905,2.1135358651829637,17.215776154526935,14.404957672545233,15.871150835514417,42.582379742585466,9.313218055739302,19.134453086309684,3.9593138792515856,0.8731902601572116,1.2585823717063995,1.2238440142916223,1.2080596070526761,0.6873761720021347,0.4267035994971189,42
498,60F189556FFC,None,None,M,1968-06-18,None,artlpz18@hotmail.com,None,Form,0.0,0.0,0.0,0.0,0.0,F189556FFC,912.1657206445287,1234.5359485885258,335.4630722287321,259.06030531118654,59.852049781730514,153.14607994829447,26.543085216782057,44.74710289766273,65.95306415711596,61.56165591604439,66.14058170346205,20.038534033472843,29.13424001030995,16.006717996285953,20.813186145500037,7.188005178558598,13.734085294396223,1.6565512744984576,1.0925444520945675,1.5035823027701676,1.0646319576884629,0.599254960359289,52
504,647033A0E28E,None,None,F,1986-12-26,None,estefania8686@gmail.com,None,Form,0.0,0.0,0.0,0.0,0.0,7033A0E28E,1025.3383135019583,260.2159630212115,30.28181132380854,86.47921362636845,75.96034241380691,33.26955861657888,24.817670448143307,17.880055004366213,52.751143053992834,4.2572984560829195,34.5289175780822,7.723388631206772,7.697173280999432,5.158889974613651,2.2652219094077894,5.233771074301314,3.4029967452446748,0.17809965634122965,0.7812209335904542,0.7525395268906733,0.5970842936546076,0.4293269293487832,34
507,64899A5ACE39,None,None,M,1971-07-31,None,smendieta@yahoo.com,None,Form,0.0,0.0,0.0,0.0,0.0,899A5ACE39,209.19060427323936,180.45186724690106,88.57587705136908,46.61556368696296,21.278890041546294,61.37539490220084,11.536696033674671,15.967781782813018,17.71526511009235,18.260494532812427,15.800129512023991,3.1636363675397896,1.9518283445188906,3.55775089854119,3.056442445007414,1.8061755062734306,3.7782192637634036,0.059307610078900314,0.15919096713749573,0.44120410436387125,0.17482238582122353,0.08285793331837667,49
512,64C2DE7FBCE3,Lilian,Mayrin,F,2000-08-19,Ciudad de México,mayrinnnn@hotmail.com,None,Facebook,2522012241449985.0,0.0,0.0,0.0,0.0,C2DE7FBCE3,13387.950108289742,7145.895028199987,1222.9704018438003,8.402338889968014,92.07108039714721,917.7029617752543,354.4496764523546,64.53592093482362,245.1443984581976,356.2897645331316,15.209129395447038,184.36001793179526,4.508159190790444,134.21905210114463,27.1889883247682,75.17916424799657,65.07671677016025,12.407056685885033,5.8208683174075135,0.07822460587836577,2.3100118280895474,1.2309308262281125,20
529,6C4008BE83D6,Jose,Hernandez,M,1971-02-13,Ciudad de México,chefjoseha@gmail.com,None,Facebook,2647918788820638.0,0.0,0.0,0.0,0.0,4008BE83D6,1161.16641021,3298.175960286982,2.390151797631537,333.1804218557415,265.6083742791327,324.69193758511625,146.51101551982768,3.733572096427776,121.61215874181585,60.950221542074125,30.78130688479944,23.445613788743273,24.8842671926371,28.395551185813645,38.24937828229198,22.473178139165775,14.014867231779018,5.1426910158465855,0.7178351152071649,1.447592080131282,1.4011569714087169,1.0263381974258838,50
534,6C72E7965F7D,Alejandro,Alcalá,M,1987-04-15,Ciudad de México,alejandro_alcala05@hotmail.com,None,Facebook,1.0157867574427416e+16,0.0,0.0,0.0,0.0,72E7965F7D,755.8027794195368,1730.6978886521551,205.2323450557381,179.44390749262948,213.14766661849356,9.606733999643218,26.58672894034194,61.75951334852611,35.36215505638297,65.1788483621588,1.7943443391892269,56.8914598811407,14.31460027420646,11.132342630819425,30.63439827972619,0.14025146539707242,12.961477732363523,1.8344098544304204,1.712442733830135,1.663678366560923,0.5115026689854454,0.5905248277444933,34
542,703A512EA44B,None,None,M,1997-12-31,None,kevinbibrush77@gmail.com,None,Form,0.0,0.0,0.0,0.0,0.0,3A512EA44B,2291.4293976536983,8553.544227936265,380.33164981064306,195.50512155067725,451.8271857915809,275.8001074129449,53.53544966208198,93.873911867275,264.7692276918541,102.90110950661847,82.98157471913493,188.07243900009115,8.188295535680142,58.87401046960012,18.09025505510256,34.111128721216595,15.867718530858152,11.926005036421614,2.955478633004344,3.3878948907987,1.5764623092245178,0.45134821523238,23
553,74428B79E97A,None,None,M,1975-07-08,None,gmarzaroli@icloud.com,None,Form,0.0,0.0,0.0,0.0,0.0,428B79E97A,293.0137404508918,103.0306303573465,6.573259267568711,51.28868186536345,48.14020584085088,13.154769481899663,30.4093246553635,5.671993752629075,9.528131394760717,10.625917972695444,2.147346311182563,17.125369999923187,14.88921696486598,11.103669021693127,10.569366687662725,3.418790796033967,4.044136251400891,0.4604742938688044,0.29945665281943884,0.2770332251703396,0.07830976781221977,0.15017498819699207,45
555,745909BF46A7,Arlette,P,F,1997-07-02,"Mexico City, Mexico",tecktonik_n@hotmail.com,None,Facebook,2247554285312163.0,0.0,0.0,0.0,0.0,5909BF46A7,5727.020921220677,10110.704375499909,221.53473593163187,798.7812102232896,112.40096560673904,368.09237684444355,152.71769776930964,401.3325330006415,252.217315877571,141.43503593243994,133.11363924073916,42.24807287507856,47.51203718454427,163.79606896206514,121.79297917125508,20.888031227980722,43.575705189133664,1.5978522027541233,5.78919918013698,6.774639204265991,2.3824071736537906,0.2922004817359758,23
560,749EAF80D121,Tavo,Alvarez,M,1961-05-26,"Mexico City, Mexico",tavoalva@yahoo.com,None,Facebook,1.0212749577326576e+16,0.0,0.0,0.0,0.0,9EAF80D121,4184.8099227750245,2117.1222707048955,234.82546520935622,64.5128452611895,139.86287005728366,114.03031396966263,253.1045750992856,79.87158913235743,93.29374524974155,0.3903068512751204,2.4485964000345475,5.783396053044597,32.05600709835394,11.981229177582362,6.656032775843607,19.72496946155409,0.8256380561320559,0.508964897450227,1.0772049775780614,1.4612576392895567,0.20012095952460857,0.4526781935392113,60
563,74C14F41E867,Oliver,Isunza,M,1981-03-07,Iztapalapa,dies_irae00@hotmail.com,None,Facebook,2783777484972631.0,0.0,0.0,0.0,0.0,C14F41E867,20082.153664562215,4261.484413094513,1180.7463982823951,1315.145663837279,209.74829469087913,140.04474799514355,0.1261849821681896,35.8826448994016,327.09080491453113,229.43120924010023,264.17428902019134,251.53113220825435,114.87687017549918,161.17541190065964,188.59438833430963,29.342802719746604,37.94536696821727,16.39431937794439,3.210812037833038,1.7641691013165548,1.2348507947228298,2.9015608626747245,40
564,78009EE0FF52,None,None,F,1993-10-12,None,jerry.cominicacion.actuve@gmail.com,None,Form,0.0,0.0,0.0,0.0,0.0,009EE0FF52,124.05308706572711,2907.4571990848503,5.0787990284372855,263.77433491272,163.6192605767294,142.16846818178217,43.34396484114797,34.39438600748137,52.82551884175329,49.755557476039456,6.568013308400188,0.3411552458684602,18.199416510911952,45.10105719486267,31.73488800314979,10.652281188734767,9.721799111368611,1.3889044339521261,0.3920111870087484,1.3982327091084474,0.8921156305215792,0.13954945944451583,27
601,8082230C3C14,None,None,M,1968-03-15,None,omv_spider@yahoo.com.mx,None,Form,0.0,0.0,0.0,0.0,0.0,82230C3C14,1064.9314891023157,1858.0548656288038,27.12375724227813,29.606381017320093,90.11713891500875,117.02455794237902,138.90705550271682,59.10890312596553,54.44965446005772,41.47710283947,2.2285515926084027,1.90701650782731,29.969562122692988,25.71858475207866,6.568282292051764,19.448458165663542,7.5570114998300575,1.0114341981278654,0.7679878435993253,0.05853118106445626,0.19089660734975167,0.7727774607896369,53
619,881196885EEB,None,None,M,2006-01-25,None,memoherrera962@gmail.com,None,Form,0.0,0.0,0.0,0.0,0.0,1196885EEB,804.6950313599705,530.0275661308353,77.28357792053644,65.5462174322801,74.42307819087188,129.14212038727564,29.041022143353743,39.97302036481932,16.22064740716134,8.037684018097663,27.627387588804165,24.329999506091838,14.103892579926127,2.9281046265561574,16.436645865726614,3.7551099311684055,4.394579435707315,0.5443101850492298,0.7711294591277157,0.18012997766786415,0.4865596626638214,0.052185826309170895,15
638,889E33E14A9A,None,None,M,1975-01-15,None,parrapilarparra@gmail.com,None,Form,0.0,0.0,0.0,0.0,0.0,9E33E14A9A,7294.466609288192,11943.741026219892,507.58338892249515,1127.5648794093324,423.41187782215013,677.9476805283371,55.08798009834521,388.82025182069845,62.72093756290058,150.5058265497002,16.920580492996844,5.507183363923353,73.55692460580528,188.9197034902515,31.779514544220422,95.68842793057037,2.041809430676309,10.368874352644578,8.786425407952649,2.2510092706389617,2.8885703157409455,3.4405185725387093,46
645,88B4A64F5994,None,None,M,1997-12-04,None,os526488@gmail.com,None,Form,0.0,0.0,0.0,0.0,0.0,B4A64F5994,14244.424966308812,277.85345455449124,570.4535409167307,961.5002956553925,341.65301784517965,673.6941718296061,492.95614152899753,400.14766500003003,346.93302854300015,185.22977134254592,106.43112227611238,95.77473535909127,178.3879012677351,92.08018357130449,9.168682810459725,71.78846811419903,34.35115078422187,0.9666719329257496,0.1570079805065751,6.621768832110219,3.116522967796221,0.3097305787487146,23
661,8C861E4F3D86,None,None,M,1989-08-09,None,lalo_baez69@hotmail.com,None,Form,0.0,0.0,0.0,0.0,0.0,861E4F3D86,5926.52584923295,11871.236607619183,1421.2209886380142,911.4802503895796,619.4130710714769,1050.7641366567257,498.788431569462,367.04892613539096,108.93917040734901,133.3770180171591,112.32755040489447,113.80810691524674,167.58771964751102,29.92657084661344,184.02157924279285,20.518417566530758,19.471396446756376,15.835583526782855,0.6740698382644555,2.5543694467918345,0.3804446355659709,0.09974174494783473,31
674,8CF11200AA14,Javier,Perez,M,1995-07-19,None,javierpcruz62@gmail.com,None,Facebook,126610222389211.0,0.0,0.0,0.0,0.0,F11200AA14,8724.189153547664,5907.397862815346,51.71614215533798,811.0204881968198,316.4543473588975,697.5515996644347,99.96292417136763,271.03246024728134,100.4351689446931,252.47424412567082,245.9707545314049,85.02238685450283,215.82645877872056,18.382275908155194,75.18221603745161,50.35514457381607,22.3695036948048,7.544354567256298,5.64193396721103,5.657678012200492,3.3526215563771955,1.4602802905860284,25
687,8CF11256F6D8,Rafel,Ponce,M,1978-12-11,None,rafa_sanborns@hotmail.com,None,Facebook,1716195768531936.0,0.0,0.0,0.0,0.0,F11256F6D8,19188.31872976202,6776.982667748898,377.9345412262058,759.019489520598,328.5022134637662,326.5907765995142,190.6118918328832,16.818725757937305,47.13411005400295,134.52093985691974,372.37403268855,13.885474952257061,4.948320291727061,48.116917536908076,51.91700618020318,60.87225764420156,14.471458890590364,7.71669494661195,8.312009596372546,9.491574966535472,5.367199799709306,5.092966683588065,42
699,90324B1DFF97,None,None,F,2006-01-25,None,aguirrevalks@gmail.com,None,Form,0.0,0.0,0.0,0.0,0.0,324B1DFF97,13288.787642429475,5200.932534586887,1590.0363149755503,944.0002763721161,228.70345625341199,205.60349143940283,147.8187830722692,330.5498118344543,283.53863545212937,179.54696597575295,277.48460764647945,175.54296044262477,0.46362326301517987,119.74144562749099,128.41873949846095,38.02137134379476,37.170967931507406,6.319394896318163,4.633778955921921,0.19737924187053668,2.451454848333771,4.036363912737891,15
709,90735A4B05CD,Michell,Martinez,F,1999-03-14,"Mexico City, Mexico",jenmmr03@gmail.com,None,Facebook,926972307694715.0,0.0,0.0,0.0,0.0,735A4B05CD,298.5081155119337,183.711441602894,5.7248242788654045,0.7590879998321749,80.83081065545755,55.081780695178246,21.067253884594706,11.378650930430805,18.775852583442326,23.870703259041047,15.210665070123541,3.3105527043672085,1.4449610555907308,12.913332417461625,12.371527155403678,4.888575884200079,1.3505227205870487,1.2493312226570026,0.008939584003807774,0.20231462612119405,0.22065779921285542,0.12009835860092123,22
740,94DBC9B0B1FE,None,None,M,1997-12-31,None,juancarlosmendezramirez_@hotmail.com,None,Form,0.0,0.0,0.0,0.0,0.0,DBC9B0B1FE,12120.574495401068,85.54754962159465,516.6447158933746,611.5713922704645,481.6419814646839,669.682763253618,320.7021699550502,212.64421761765803,89.2418052081258,84.66416480598222,42.46171393290126,191.755249839329,166.4365009587105,14.19562365749576,120.01543276880068,19.359998164685194,23.74505892419461,12.979236690585909,1.6800714147613136,5.903036729626383,1.5422452536303046,1.0105761736549805,23
753,9C2EA1F63C79,None,None,M,2006-01-25,None,pacobonito40@gmail.com,None,Form,0.0,0.0,0.0,0.0,0.0,2EA1F63C79,445.42097658367527,1749.284659647086,65.46681778200984,41.48842650699156,119.06016489956527,99.15798602320196,74.13580261023353,45.33611043011685,75.8105997386036,44.64571407432181,38.4027159097998,38.17578413858316,28.597851986496522,29.837683957338623,15.992495861500402,3.4566620634721748,7.396474687074025,1.8532335003477363,0.8950820479479161,1.1879479523998155,0.9581335167943251,0.43867608244058603,15
783,A407B66516C2,None,None,M,1997-12-31,None,garciaj@sanborns.com,None,Form,0.0,0.0,0.0,0.0,0.0,07B66516C2,10070.622656551082,133.7989345108798,635.0064380851654,200.71841999561406,470.6684675429027,260.67198963387494,345.9675121758429,18.700335013434632,34.358527040206845,91.46444836533827,0.9328958743138934,97.7047398719465,79.56095058466155,0.4109427451648042,19.645681563543594,47.04696415002485,13.597410250702284,0.6953713499381795,4.863342835086301,3.7005111478804142,1.991785053976822,0.8716756584205635,23
790,A483E79A517B,None,None,F,1997-12-31,None,terealonsodl@gmail.com,None,Form,0.0,0.0,0.0,0.0,0.0,83E79A517B,1341.9789535177777,2202.551344722689,129.25835109018675,279.0132433132015,238.557864072354,307.19029363823404,190.415678751347,84.01647506277507,113.97030114595654,102.76900356086824,29.332828766265372,12.586174828267524,9.758877430681798,49.740521914494785,30.141763672797317,16.532979929555164,16.88704583206542,1.302391679952588,2.223953872412973,1.6422338090491715,0.2842303420945751,0.8454890469745683,23
795,A4C3F05D9D5A,None,None,M,1987-02-05,None,diego_guerrero07@msn.com,None,Form,0.0,0.0,0.0,0.0,0.0,C3F05D9D5A,1462.688740658425,3088.922180733851,513.0823962594405,319.0194159194184,200.5276601300654,15.855724961069651,45.42280857187206,136.7594312270491,107.30616783587844,9.094215452108656,63.43018878795741,13.192820625401794,87.12245533687191,67.68407377419285,48.620388310118095,20.33243448636232,14.43189623871577,0.7827484817204705,0.7068455681974065,0.030306813814022227,0.855965096159501,0.13113473131090717,34
801,A4D931BE77AA,None,None,F,1994-10-01,None,hellofridis@hotmail.com,None,Form,0.0,0.0,0.0,0.0,0.0,D931BE77AA,2647.4652529621394,2865.1427597742963,202.72467281549714,333.8040308847189,25.348874884022354,130.03792543950908,188.61864594211863,94.87577579911925,72.52845303212531,129.32040808688734,73.3275662580378,87.74286360322321,53.25886299812394,5.7080057073834904,22.026896689018702,3.3916287373098393,14.939354402432299,1.3631905947705445,1.9024414373227778,0.011346271326636136,1.272790266673977,0.18825341394361902,26
804,A80C63ED18BB,Lucho,Lucho,F,1989-12-30,Acapulco de Juárez,suricato_69@live.com.mx,None,Facebook,3180262898654578.0,0.0,0.0,0.0,0.0,0C63ED18BB,373.2572241178452,293.95915643866346,79.8968273660307,40.003797993085975,93.52232169412815,18.71430383535767,11.002719733773885,31.83570175478449,31.948474075449273,26.400198587595796,21.896520041335922,19.82711851205744,9.46875629543349,2.9629845540904833,14.275428567375917,3.75784163125161,0.7715418595012904,0.017168251352814932,0.44317744461661274,0.3053436365105356,0.4766968253924545,0.2566967843670916,31
809,A8346A95AD46,Evert,Arellano,F,1946-04-25,None,valcampa@hotmail.com,5532336514,Form,0.0,0.0,0.0,0.0,0.0,346A95AD46,1824.4677366537537,40.01746462558395,244.74750401172682,88.76459719070348,121.48346381380652,36.397568370058224,96.84620578145798,49.59536640080094,46.897213379576904,16.814897658259255,52.887223475044124,16.35816349883576,7.831692877063177,2.240829534168811,3.9626345032382044,4.808546371629958,10.443597725265588,1.532987099679488,1.4299429607495568,0.035789120684186854,0.0070650081443635986,0.4295099397686303,75
819,A86DAA08CE4C,None,None,F,1994-02-11,None,mapicasco@gmail.com,None,Form,0.0,0.0,0.0,0.0,0.0,6DAA08CE4C,20829.641881042746,2833.681409240474,1380.2110427759744,680.4438884864851,258.9764871267951,374.6248327053836,292.0333343345065,5.8267634144773455,210.7134523303663,211.73824390559005,63.664288519140754,150.98023967926468,48.28082775156319,241.62948599897075,99.94824851515237,74.70996500588763,64.35256541976466,16.015056286664638,10.70901516613261,9.588231236717538,2.8410045833736044,4.389736474575,27
821,A87D1258AC5D,Ever,Espindola,None,1988-01-16,"Mexico City, Mexico",dharius-diablo@hotmail.com,5543311254,Facebook,1.0216807597156216e+16,0.0,0.0,0.0,0.0,7D1258AC5D,927.0269949178879,101.91837152347055,182.54185053526564,2.707510466935684,85.94566685358112,64.37793283642907,51.539475832958274,36.092509753630495,1.4703795401805069,35.78686849590992,30.05893278608587,6.742653198870798,29.15854437266533,1.2016162660641543,9.639646172475059,10.450661657726366,1.0507085054783114,1.7726803883277613,0.2625059690722274,0.6029589993715609,0.5432159307821536,0.10831499683187878,33
824,A896750953CB,None,None,M,2006-01-25,None,moises.chepi@gmail.com,None,Form,0.0,0.0,0.0,0.0,0.0,96750953CB,7095.683167476809,281.20506171748985,709.3813795394755,737.3118253245771,501.1554213865751,528.4979024763253,257.21254835124637,123.86497490659303,144.43598873439322,183.84886360416604,170.29795415857834,75.5527192409931,119.75198157296248,76.35761067167323,68.14308808828756,52.28390739019298,13.549946059640083,0.47646414321301056,2.1432642702346287,4.5470231138852,0.685127248602685,0.6137805240890785,15
825,A8967524C395,Guadalupe, BenÃ­tez,M,1888-11-12,None,elsa1211.ian@gmail.com,5569713363,Form,0.0,0.0,0.0,0.0,0.0,967524C395,4655.399485817242,8279.62102966792,252.76445143302558,192.57704182995693,870.1723081833811,516.3105406335242,435.03338340838474,276.6178420451153,226.00606657929228,113.46547545255827,167.53412422434124,194.55750072499626,98.70645625062248,140.96253730054622,117.64463733110107,54.590011516732424,44.75698994677387,10.914552883334864,6.420740386480481,4.97545043701247,4.182291350167472,1.787082597491326,32
827,A896752CFEC7,Nicolas,Lopez,M,1992-06-04,Ciudad de México,colate_0406@hotmail.es,None,Facebook,1859128884229002.0,0.0,0.0,0.0,0.0,96752CFEC7,23.55046639474912,2402.600122872998,150.20975846851715,279.7796270370721,39.46240007489038,197.47481851216986,91.98499877480849,24.381241841149873,79.54815262585338,40.876053654837264,60.15030990210765,45.785011447040574,32.366388101637405,10.027404987278,2.6317286436011207,20.2453532552717,6.055326535366079,0.9565940866719318,0.1724368005925398,0.9908655155636399,0.07919418192485538,0.6717462859003994,28
831,A8A198EDEF7F,None,None,M,1997-12-31,None,franciscocortes56@yahoo.com,None,Form,0.0,0.0,0.0,0.0,0.0,A198EDEF7F,238.6172574420764,671.395567768604,10.211252994893577,43.08594247960584,20.69981999381834,33.369509816896986,10.27972255648876,14.891641629947133,14.054932591736273,17.126064745921173,10.860406890482077,24.89466474827777,14.172793033684824,14.88069816394267,3.281552854199424,3.1714032403427246,4.307846799825342,0.5757429634029125,0.5148411861640035,0.057335719326146554,0.5328826463792523,0.018119733984398926,23
838,A8C83A96D687,Anabel,Escobar,F,1981-08-07,None,garbage0708@hotmail.com,5562491642,Form,0.0,0.0,0.0,0.0,0.0,C83A96D687,894.0150402010025,99.7901820728606,54.678240261491254,108.74804312050765,134.0946899760779,117.56459695435008,4.752827349612577,42.74764668261892,8.137262247841132,31.12338997563719,14.591815307879024,30.36851253517001,29.483180498546808,9.630514723997102,16.824353121161977,6.410639068909742,5.054596348128098,0.9940352127448546,0.4973894342438154,0.8939777489366385,0.596015405426863,0.0030517528547421187,39
842,AC075F6A48CB,None,None,M,1985-12-21,None,alejhandro90@gmail.com,None,Form,0.0,0.0,0.0,0.0,0.0,075F6A48CB,1454.8935661979722,157.2230465501268,245.1838913036317,62.753174212350686,97.86027847481185,52.19611300402042,17.085307047055533,42.35293869476875,65.87582624844286,54.03050502833898,50.668934294180595,8.373685443880847,32.771782258487875,2.3647145771883555,9.336285284207612,15.810484564804849,6.04091584423053,0.03830740251832174,1.1441924182057204,0.4412424164261428,0.345416535131053,0.20939219921788513,35
863,B06FE0A73DC6,None,None,M,2000-01-01,None,alexurbanom@gmail.com,None,Form,0.0,0.0,0.0,0.0,0.0,6FE0A73DC6,506.8800121764598,1838.4500637394553,107.20615277480104,12.14094512809312,61.49497682916,3.1679831245579018,74.89395827478727,43.54871030187791,41.57803189246921,53.70998053569626,15.332404216178055,36.67777305257784,40.13649956611604,36.89873201830752,23.045021751205354,8.033997518278227,9.007823978600861,1.6146640644657628,0.8608661726171347,0.9844846063292263,0.29351564610326225,0.04340263186305183,21
866,B0702D3225B1,None,None,F,1979-01-12,None,velazquez.lena@yahoo.com.mx,None,Form,0.0,0.0,0.0,0.0,0.0,702D3225B1,6502.244912802978,817.0901515909376,42.519001436242505,100.11864423999182,40.53943771169864,132.95135509403354,112.01483708714264,82.7323827679732,119.13548550414984,51.261773689,41.65764973689902,83.89485309736833,53.85083016018021,45.749820560856335,47.54816710406756,4.272982374732321,19.9156691658153,1.0276131938935185,3.431332359804456,1.1821755408096166,1.5006514556168227,1.3602733258068422,42
888,B4BFF6BB786D,Lupita,Lopez,F,1998-02-17,Ciudad de México,guadalupe.penaloza20@iems.edu.mx,None,Facebook,2910558332332589.0,0.0,0.0,0.0,0.0,BFF6BB786D,5402.476745360294,14218.567249412165,1112.2690848680845,244.2005694238675,1277.891127501897,393.96298861753485,37.06059671059522,400.9596573471211,148.81036426237145,81.92103599120568,54.263466263559955,313.7384913364253,125.90092041166562,182.6967626845206,85.97119463606907,1.5386385057156446,72.94188510493316,5.692845430180599,0.387183846105046,4.9837492465633275,1.3245323949902974,2.4409106441375292,23
896,B81DAAE83DC0,Rogelio,Luna,M,1981-07-10,None,ivalun@gmail.com,None,Form,0.0,0.0,0.0,0.0,0.0,1DAAE83DC0,837.9391136993582,5325.170370973517,344.3511904751945,496.95212694599246,285.86344412658565,156.46053935920875,32.80586844424347,17.18062306018799,71.87535845303253,95.23801755875851,97.81085594763465,66.37546832423808,91.6145897566408,17.114141945512085,23.90837376440348,17.027506553891165,26.052135549441704,5.373555341914134,0.7918736043773237,0.26679040238281826,2.199619124464543,0.6284365890190037,39
901,B85D0A745062,None,None,M,2005-07-23,None,aleckgz@gmail.com,None,Form,0.0,0.0,0.0,0.0,0.0,5D0A745062,3060.409146478942,9694.886528910387,162.15445395636445,635.9459557033222,247.8340521408321,606.2003935643512,360.5786382233441,284.28610275659986,194.31489768756924,127.11295140293078,15.526944742102287,121.08014541956184,11.263276950546816,125.96280162471047,47.07982353090884,46.69051128285057,41.83764035192475,0.7718894748928223,3.6047251770184476,2.0728033824634196,4.19657352080524,1.1897437175747183,15
920,B8C3853B09BB,Jose,Espejo,M,1971-04-07,None,josenatividad451jneg@gmail.com,None,Facebook,502271673681529.0,0.0,0.0,0.0,0.0,C3853B09BB,5043.277265707799,5660.335955744429,240.90413308036864,827.9898207809168,368.71086687368097,423.32317505999276,208.96917054462125,105.43471533569485,9.636722460977275,158.84265911079052,125.81618227948726,125.28338322066324,131.70612644909272,17.27333588229445,77.50562183428916,28.535101540612335,3.8622122454184638,12.298025431589043,4.645598203934138,4.356072903231998,1.2356400215511933,0.0582152885612421,50
943,BCFFEB19EF91,Zenon,Castro Rosas,M,1968-04-12,Ciudad de México,conecarz@yahoo.com.mx,None,Facebook,2170939059672460.0,0.0,0.0,0.0,0.0,FFEB19EF91,3348.966113043056,748.1783118457687,339.5659107267243,212.6925025589525,66.84322365719979,126.22639287183955,145.3374939353819,2.3626426108764127,106.42966376835807,91.35054219620038,87.44352942698313,42.939157244699416,43.34129339764415,48.46591390277813,0.7159764194622522,23.135759466283982,4.135016492510004,2.313521725845515,2.0741002263632042,1.913782453489829,0.08245639091568532,0.4866956386661474,53
947,BCFFEB8AD1D2,None,None,M,1972-06-28,None,pooly1936@hotmail.com,None,Form,0.0,0.0,0.0,0.0,0.0,FFEB8AD1D2,285.34480917773686,283.8218870163615,116.6834938320764,38.67361132651945,98.9874202611653,42.45698669941575,59.658552508631786,23.576477061114776,24.507081670612056,32.31472174218262,15.758538106459108,21.032163865167824,19.466661995190293,17.01910687791982,17.851261159512212,7.524015258375382,1.7094216344972688,1.3929362466223913,0.1422373526715436,0.5791803274227617,0.13240669942769806,0.367029180917255,48
948,BCFFEB982AF8,Jorge,Rodríguez,M,1976-05-21,None,jgrivera.fd@gmail.com,None,Facebook,170197080715338.0,0.0,0.0,0.0,0.0,FFEB982AF8,130.4211299519563,223.9119746578161,24.8778535566261,73.365718503501,70.21650998712423,48.28829590859035,4.565530337249453,19.81737070084469,13.397211986462679,18.034433675170053,3.205099378538274,9.557626722443965,12.810827397868211,1.7549331561010613,3.781010730868115,3.812894865564333,0.11619760572333726,0.9902476069892537,0.3182291363460809,0.3131652146864199,0.31882479147556075,0.12491412805435144,45
951,BCFFEBE5E204,Amili,Negrete,F,2002-01-17,None,amili_negrete@hotmail.com,None,Facebook,135054264657570.0,0.0,0.0,0.0,0.0,FFEBE5E204,2801.7112241737236,9834.022020948529,400.63851892876465,290.4095103884603,109.66510580698751,78.89554116811564,70.7466167339134,208.57762447136486,95.1426362556024,103.94327488415063,105.12005489114388,145.33309052627155,70.86071783859131,147.252652344318,6.167724322850204,73.5550286106373,48.12655852706489,9.44397746048171,4.7898967893728654,3.98717075220687,3.384755609166707,1.2262985682811238,19
967,C08C71AC831C,None,None,M,1964-07-28,None,josealonsocamacho35@gmail.com,5515047421,Form,0.0,0.0,0.0,0.0,0.0,8C71AC831C,8431.413786226225,5908.516868023686,1037.7954597399882,1210.1253815276311,800.2994297385459,333.12170532102766,262.2573493544851,428.2682342299885,182.56031233617168,283.55142359111437,135.9473044835602,157.93196075873266,181.15281689908252,48.61949259528701,75.16969138420207,50.89890299496601,52.66360253064019,5.874576192550872,7.0571670853852435,2.074391099974483,3.9512557198963894,1.7488881668620542,56
970,C08C71D20423,Jaime,Ramirez Lopez,M,1977-04-29,None,jaime_ramirez24@hotmail.com,5542633081,Form,0.0,0.0,0.0,0.0,0.0,8C71D20423,744.993166939781,992.0764494908054,134.88229888940631,141.1800343471691,61.68159001311179,7.295612091413906,73.09770491626688,80.10985394344166,70.56488260409412,19.97839649666809,51.2243107360589,28.327905006759977,27.354574385229732,25.441947269391118,12.280815758096015,9.499682179323209,2.456601633725988,2.0291903188241927,0.25340088206874317,0.9208395345919069,0.14297363116104514,0.20776893261059826,44
971,C08C71D4F5A1,بابلو انطونيو,ألفارادو هيرنانديز,M,1994-11-10,Ciudad de México,pablo.alvarado.94@hotmail.com,None,Facebook,1099261527111645.0,0.0,0.0,0.0,0.0,8C71D4F5A1,11226.799533095435,8875.640301196936,1694.057592009795,1499.0116804148379,565.2438069884325,340.1354103922014,208.19389120905436,20.872764308465783,404.41918749400315,267.6199877623214,90.41370125881373,237.42378211880447,298.4368012742587,129.27668313634032,172.13036246658334,41.41208487163717,27.501385808215833,14.43967838758232,9.38428854070548,6.52990205553327,6.630147033977872,2.4270281760635584,26
982,C0B65843AE18,None,None,F,1994-11-28,None,lola2573@gmail.com,None,Form,0.0,0.0,0.0,0.0,0.0,B65843AE18,387.14388146872056,474.340907387514,142.74541694137835,111.12923198014686,1.0852649641432544,49.86585231885315,8.640388893459312,11.26105435055805,40.22672269416141,0.4738414073049019,22.859632869434012,14.248717556940244,18.175611609024017,7.690341418308368,9.912284477484846,5.318222627990494,5.952627250631543,1.5276693418819045,0.324745890624486,0.08749892820175481,0.5721485152507403,0.4179371079872324,26
1002,C8FF284FE391,None,None,M,2006-01-25,None,coronaf@sanborns.com.mx,None,Form,0.0,0.0,0.0,0.0,0.0,FF284FE391,8066.279867036344,5962.438538261389,1039.5812343912403,276.1479743083098,612.7155589230642,216.51749677596123,368.45212043805003,328.8057014412558,127.97056717103621,233.8812778688143,244.01278247725307,163.5146583797417,41.513393386709346,7.229950776415004,19.61107563435554,46.55394302424231,2.720571932467091,8.330993922648627,2.4425898872098215,0.8074820384447688,4.006099428077049,3.4661224969668294,15
1007,CC464EBC5FFA,Jhon,Hernandez,M,1992-01-13,None,Juanruelas1329@gmail.com,None,Facebook,881416209010540.0,0.0,0.0,0.0,0.0,464EBC5FFA,22537.207342480153,7086.721613989689,812.1894677840617,124.34577594576474,851.2402565053665,331.32101638498966,57.50986102951837,104.62390481541834,246.17433362253618,324.7189361702205,355.0122006815498,222.44150522009247,334.77106523948146,156.8603401991624,267.72560217081366,40.49228114631963,53.803681946415196,14.451705774376247,5.497683242507958,5.843040797279088,1.102888845439444,1.9454960088457247,29
1023,CCC0799AAF60,Jose J,Arzate E,M,1976-08-08,"Kyoto, Japan",josejarzatee@yahoo.com.mx,5522527576,Facebook,2432558776763852.0,0.0,0.0,0.0,0.0,C0799AAF60,1946.019292357751,544.4107605620193,55.08647254643793,19.186542857916248,173.57470845995505,105.21329245661249,11.706270704267336,81.44081238222368,34.021675427078165,6.292448558476044,39.69917976695622,19.419553704334866,52.494718190206555,13.697594269541089,21.24552473887154,11.74589078388489,4.398406669694129,3.778192293113917,0.6277435439391543,1.509913621900816,0.14885667961010904,0.28214942520995684,44
1029,D0040168BEA6,None,None,F,1980-08-21,None,kestivali08@gmail.com,None,Form,0.0,0.0,0.0,0.0,0.0,040168BEA6,572.3523147389511,1561.6142162714104,56.57498107796837,230.29505010198068,158.2366076092434,52.48056752178444,82.28041108507036,8.67964077240217,23.974512559269996,40.7318633730351,52.7830967566344,35.732127107764555,4.456547975361629,24.58647566423907,7.319840741396633,8.704201620507128,9.998323029055433,1.6563327486108987,0.6193864461589285,0.2009167432211113,0.5201399630985131,0.20244609283473017,40
1032,D00401F5F921,None,None,M,1997-12-31,None,pmmau16@yahoo.com.mx,None,Form,0.0,0.0,0.0,0.0,0.0,0401F5F921,940.0748456256106,9.261921107946677,138.45328815997246,30.272735447291684,71.15335738981746,79.57929335956953,20.63286461579933,10.662883133044543,1.9515835716450178,25.522573989946103,7.611622062192364,23.485848448665497,3.400849644048197,16.73418676576384,1.886546305487239,1.355243985809936,6.829218598106734,0.778887456966411,0.050127462269596364,0.5355955415537044,0.3827916050717304,0.383735723421959,23
1034,D013FD24427D,Bernardo,Moreno,M,1984-04-03,Ciudad de México,luis-barcenas@outlook.com,None,Facebook,1200293633692694.0,0.0,0.0,0.0,0.0,13FD24427D,182.77930986460984,2065.772568480993,90.63600116497504,84.71239026531428,11.650527279213275,49.89895774080394,82.50054255836947,12.45822323482854,14.642130132938982,34.86375657037842,42.3924551487318,45.64935140940131,40.88611146470781,32.85109915480676,22.306676436846065,1.291699745163092,6.933488285788736,3.411103881242391,0.7666671898037688,0.8012918176231097,0.32898932398720676,0.46665884947357283,37
1035,D016B47B69D4,Guadalupe,Leyva,F,1978-12-11,None,anayeli.1011@gmail.com,None,Facebook,1128639260806401.0,0.0,0.0,0.0,0.0,16B47B69D4,3800.7383523150793,9428.937192375502,588.4309853085944,280.1708288636489,362.4075595884029,433.5490572386726,118.41636574623487,54.59127534438922,302.96188004927586,193.69165234753405,174.60871372786244,53.19067808459194,40.0868527809926,6.457110833539186,117.76562062297377,65.3072230085447,43.93306685763688,12.165157294556032,1.970668892026921,5.345796249344581,2.835695903366814,2.438266567229759,42
1037,D02598BB6E36,None,None,M,1952-06-26,None,roger.moon1@gmail.com,None,Form,0.0,0.0,0.0,0.0,0.0,2598BB6E36,5240.422931613046,1216.429559194551,240.06145315911243,159.40923119528804,163.73160395187708,333.2837078306261,69.77910308405276,3.4082380128171237,55.20235534753612,118.39624099923195,44.87324154059825,93.34072911917488,4.330634195862561,78.44517687667394,55.742271093344705,23.779579298339637,20.53787757434182,7.372884392385664,0.6512158928997077,0.5508290823959028,1.9559356356878623,0.2952009101568512,68
1039,D02B20CCC024,None,None,M,1991-06-15,None,contato@galbajunior.com,None,Form,0.0,0.0,0.0,0.0,0.0,2B20CCC024,5054.016587045885,488.35725370180313,149.00167222680568,264.69796694054816,227.22330741159024,96.98408961895053,69.23076738625639,30.722656727490598,12.531532035853841,114.97959380186198,54.171589991247295,4.841658704655142,26.869381690536326,25.717345863661542,48.11924299349092,32.31860126973355,16.41807614781505,0.6957070241117573,0.7823898437457363,1.0308948955341906,1.1235732626561066,1.1661114157669301,29
1041,D05BA83F18F6,None,None,F,1997-12-20,None,veronicabal@hotmail.com,None,Form,0.0,0.0,0.0,0.0,0.0,5BA83F18F6,5023.011872602958,1983.4072815908899,570.5769391378903,407.2317087987235,438.1137563460909,108.8772053481236,210.07856083043308,86.84893147469225,52.84676780219641,56.49649294622365,106.59100093357101,140.4535664642304,65.46833855907812,44.385489130467114,27.542716292682403,8.490274754339376,2.0582176394784124,5.083584915992404,0.7141038363568684,0.27402038744317375,2.358543945464356,0.09062626267508189,23
1057,D0817A4E3378,None,None,F,1996-01-28,None,jula_6991@hotmail.com,None,Form,0.0,0.0,0.0,0.0,0.0,817A4E3378,329.92066318852017,2938.277152457805,305.2946509867672,310.1070675416614,206.463466712681,187.6779953228905,36.31303343344026,113.94094310157212,93.9657690871169,89.03061174559286,41.89748234383752,3.139203722825293,60.50128299441561,22.283928536891256,31.438161487272,25.386442778436752,6.374042754898291,0.5391116151986167,0.5665241538129764,0.1341857006000229,1.244935788324154,0.5033445454388399,25
1074,D461DABCBF4A,None,None,F,1979-01-12,None,evelazquez35@yahoo.es,None,Form,0.0,0.0,0.0,0.0,0.0,61DABCBF4A,12295.545745938534,2068.4668853425046,565.0083047185153,40.978474032535324,592.979418756935,341.5462648171406,91.31003409787459,203.62773459626402,29.620925118834876,171.4546338792853,167.4736756413741,34.438422015858464,22.80393291733225,61.934813487966856,145.83200349571334,72.50166165573144,7.520430144355261,13.07075164816092,2.353093706840315,5.244671942194852,2.4164842428619338,1.8716378031881287,42
1110,D85DE2BA160D,None,None,M,1977-03-15,None,gtzronald@gmail.com,None,Form,0.0,0.0,0.0,0.0,0.0,5DE2BA160D,507.8441166716022,852.1021125249912,16.460073627442743,4.654647549291333,138.28311488452903,13.678258083692603,55.08648095414239,2.628456001645631,17.70328757167397,30.917842913829013,8.822576127052834,34.75254346436204,22.500116375685963,15.655182932148213,18.90776804106325,8.127197613636048,4.4483598459981035,0.4080287319730272,0.5332648948680457,0.9455925191546506,0.14923764553185487,0.3917410256855009,44
1113,D868C38EAF85,Giovanni M,Tacubeño,M,1994-12-09,"San Cristóbal Ecatepec, Mexico, Mexico",sagittario_94@hotmail.com,None,Facebook,2685021091537088.0,0.0,0.0,0.0,0.0,68C38EAF85,751.9032557840278,722.7289328942526,104.12225342607701,120.36210966916245,154.30046509185547,40.71444025228177,13.161002144637736,13.374657625257333,46.30956126361485,26.709341244179438,19.54813025917659,36.084559456537775,27.2013819121658,13.736248805746982,29.475989534939995,4.9657071528343035,0.19750192066280228,0.7719440329395867,1.26012273985634,0.37319562078237956,0.3104896780208005,0.38870949099045676,26
1122,DC094C661013,Azu,Mgón,F,1979-12-01,Estado de México,azucenamondragon@yahoo.com.mx,None,Facebook,2962616940428712.0,0.0,0.0,0.0,0.0,094C661013,339.8834420291725,105.45070331081783,80.5980685846144,1.2207907826534663,60.0938881325071,30.471775167934954,22.027502120620497,18.109568862843528,1.2411904797120734,16.005450869185584,13.657709096978715,17.180440873575158,5.754945073134104,3.6946771757394226,6.804636483434186,4.1934182447197,0.07203255187118446,0.573595164264264,0.4931815989909934,0.12658922281444102,0.21990449451511587,0.1264896799005477,41
1135,DC74A8F91FC0,None,None,M,1981-09-28,None,brauoz.rodriguez@gmail.com,None,Form,0.0,0.0,0.0,0.0,0.0,74A8F91FC0,6069.797332655247,16045.397398467549,1047.1836283811092,379.12742060695,343.57271849898086,915.5093896604645,290.1970946060161,116.66173917251122,396.6995671748404,379.5441573695643,128.58437560504464,292.728211394555,184.0911926627965,158.2625480692028,39.29969747235913,109.03971672359069,19.449845171080728,0.48265180107356104,8.675943296466809,7.230514534638122,0.5561437199057087,3.908712956051919,39
1166,E0D0835939D5,None,None,M,1973-08-27,None,a.viga23081973@gmail.com,None,Form,0.0,0.0,0.0,0.0,0.0,D0835939D5,14653.915587419502,1588.6309886948688,79.7002139019303,606.9141075238848,560.9604809302798,728.1378409560352,495.0022813119941,296.44757168183264,313.93332155037655,326.9134384109908,149.79475202877433,41.89563793708693,163.1320842824418,98.31957998707696,49.00569202747621,29.480551780458917,25.57166324208038,17.132056499329174,5.168610794394466,6.444202099075627,5.548878464275696,0.9504584758363028,47
1169,E0DCFF01B04B,None,None,M,2006-01-25,None,rbautistacsmpo@gmaio.com,None,Form,0.0,0.0,0.0,0.0,0.0,DCFF01B04B,3790.8765340516234,588.4812497548472,95.3981655300094,203.22397512859445,365.9629636663335,237.93576316392375,96.94171056893292,136.09560633859542,49.68617436336594,52.55179928338392,103.60845898896777,3.3376321622490464,19.9821678693935,4.693752475288351,32.45039658677447,24.54641656571094,1.22159710555539,5.365604374936935,1.2009370284551273,1.9501841047023427,1.0969791050422524,0.39193178331314427,15
1174,E419C141BE99,Estefanía,Ramírez,F,2000-11-25,Ciudad de México,251100pedagogia@gmail.com,None,Facebook,835704596854306.0,0.0,0.0,0.0,0.0,19C141BE99,602.6337462596306,536.8273982405412,32.493831635008945,129.19456102207508,89.84645949418909,55.120303364017055,41.186948365535265,8.225416331110214,9.063341114254023,40.64876730175008,2.586244024405017,23.930559579036128,15.872050055607506,7.673443874520584,11.69322354030935,9.903001851023097,7.3188444157619195,0.05044030481062769,0.8108071301601348,0.3409371393877948,0.5012893661653313,0.07838559070019292,20
1177,E434934BDDF4,None,None,M,1983-01-20,None,ub2044732@gmqil.com,None,Form,0.0,0.0,0.0,0.0,0.0,34934BDDF4,3392.9661028788687,390.23644561061843,278.3357116737715,273.58345105283826,11.533303907106236,29.895011250510287,102.8743149948725,75.10215530835882,103.30285202051397,32.931970711611925,25.78248897506899,79.09981951088734,42.29415767101672,11.182876999593475,24.417854948369488,8.962268045351257,11.803121462849205,3.1950203449650396,0.4830392379740777,0.1238146778691167,1.630220898559065,0.26399781842605324,38
1187,E4E1305EFEE8,Daian,Vega,F,2000-05-01,None,diansarahi268@gmail.com,None,Facebook,1189188998136087.0,0.0,0.0,0.0,0.0,E1305EFEE8,178.94924775464153,5786.796534927209,529.5373439807704,112.52533518661734,464.08531827401424,434.0234561324106,16.95199694580993,3.7137318810504816,142.3981822930706,87.83680478341913,64.08860777084695,46.4676898560222,54.67048897972137,5.286538255632623,41.48010031427486,38.15417266639887,14.787001733777467,3.408926062637867,2.0980114578957108,0.8454608951091731,0.7337712567187665,0.1612785919518084,21
1193,E85A8B376D8E,Osvaldo,Cordova,M,1999-04-17,None,irving.oscg@gmail.com,None,Facebook,1670720209706977.0,0.0,0.0,0.0,0.0,5A8B376D8E,229.92470306856995,2001.73311590619,232.34143259888887,194.6961005262055,153.85006883488035,56.86080372779029,34.8243595405242,61.690792849454866,3.070467632531607,38.46147648387001,21.33508227514328,0.586542571440101,46.97260379239305,38.28446133755846,29.30498385897096,5.142751008772675,10.374543165944914,0.6079700932404069,1.4302955897187195,0.24622827960392998,1.0494840343247847,0.2117328239838011,22
1203,F018984F0477,None,None,None,1978-08-23,None,emiliocores@hotmail.com,None,Form,0.0,0.0,0.0,0.0,0.0,18984F0477,5450.761643822684,749.7422396482941,159.34889424437262,372.22170339221026,459.2324088882497,2.126811492955092,275.5913945001825,9.296853945274153,12.289878439773354,18.95911053043767,39.85273569417077,44.46687522285822,83.70417135107655,27.716567309784093,54.79496724937543,39.34712333414823,1.6678893099112793,4.2002140408947035,1.7657958783768788,0.3462564579986515,1.4428232220863857,1.1236420248827417,42
1204,F01898518A29,Elsa,NuÃ±ez,F,1959-08-24,None,elsa@h-s.mx,5519512127,Form,0.0,0.0,0.0,0.0,0.0,1898518A29,2157.8933326112465,838.6143445095569,107.24389449535576,165.81833208001015,251.09094510696588,125.25174551893406,3.884424883720337,62.77624585469163,5.049048752636645,11.525415260299305,19.930112744520827,34.16905814353701,30.398791997389047,22.541844100063102,12.7404005438838,14.890048108490404,9.84786926288472,2.623298169451866,1.4963332823956026,0.478351411186585,0.33130710801271485,0.4048560547671848,61
1224,F0C371132AF0,None,None,M,2006-01-25,None,oswaldocastillo@gmail.com,None,Form,0.0,0.0,0.0,0.0,0.0,C371132AF0,168.48939828427572,167.74197497248966,53.865604846032554,52.23276872340874,61.60591314087744,46.14417654716669,14.14237453592427,17.60826251947531,13.568334777286662,14.211410387887343,11.306865427589509,5.864084376595324,14.882028380584531,0.768675590765605,10.02178392113153,2.968944940537084,0.9503546069287034,0.856321485416706,0.26238095891346486,0.02189870088697089,0.31120296328239333,0.17523991254392118,15
1226,F0C371AB0C5C,Janeth,Figueroa,F,2003-09-23,None,jane17103@gmail.com,None,Facebook,558629357864655.0,0.0,0.0,0.0,0.0,C371AB0C5C,157.5678070581611,415.6973486493252,134.18918984108083,77.83733624490678,89.26407892524063,45.480199221637804,18.985725124227454,25.03005116001549,10.683891218195203,2.4290986111989366,6.752232124206957,18.444500759094556,12.986869704286581,15.429508655023835,4.341431457787227,2.4333676943677602,0.39549827916056285,0.7484375232327846,0.49449926491839863,0.41813451199250073,0.1600362573628557,0.23075771457683658,17
1237,F4631FE782D3,Laura,Galvan Rivera,F,1994-10-07,Veracruz,laugalvchips@hotmail.com,None,Facebook,2745549935534605.0,0.0,0.0,0.0,0.0,631FE782D3,548.3025459922069,3062.2888066747855,409.78363059160074,79.12756229695444,274.9625616921594,181.22119172379954,193.90494035273065,33.26126489613393,51.977725917483845,39.00888651984537,53.43842684770049,66.93943409557167,40.331273820558614,35.94914759963355,8.26107974572145,28.780403646175564,17.06275082089932,5.082048240722016,1.7420536102895687,0.31346908966639475,0.7617912717424843,0.4990045536187426,26
1240,F47DEFCA98F3,None,None,M,1997-12-31,None,omarbravo82_@hotmail.com,None,Form,0.0,0.0,0.0,0.0,0.0,7DEFCA98F3,538.2038213024604,428.4207765680559,12.885352918863633,100.79048892575577,17.694651380381917,72.23286678085816,62.631261310018964,3.264075379725636,25.829786781142495,2.966059965668717,19.10529401276818,29.80956211837854,9.407307282753765,20.43118988779492,13.669771842064879,3.413181258318795,2.549371858938431,0.7075688388041249,0.8822652561869284,0.6234491578823982,0.32844665967160563,0.15345051350592112,23
1247,F4CB5258BE44,Mary,De Villegas,F,1964-03-01,None,0,None,Facebook,763675480834196.0,0.0,0.0,0.0,0.0,CB5258BE44,391.30147463120824,11.189716064695846,76.66266902796015,83.48919180789899,54.93677930720978,65.89469952290544,29.0030714904831,32.79034430881698,3.4779351178082956,16.26868519767279,21.935892017845823,16.368034862288496,10.077477304142372,9.053656552183392,7.215353205490887,4.7854554377571485,3.946643181966898,1.1977440104763843,0.22983656356401982,0.12534768063143126,0.036557484901060346,0.01343522209244944,57
1253,F4F524F72957,None,None,F,1973-10-21,None,salinasdurangretel@yahoo.com.mx,None,Form,0.0,0.0,0.0,0.0,0.0,F524F72957,19.904483724885374,407.56249453707926,25.602443093509507,53.62384884604239,32.76817795217124,59.91620600563953,34.717416720422854,4.283405088401833,25.467952978333365,18.23659474927242,9.324644263413033,5.05941325150097,13.73538888243596,6.273428861232084,3.8600974092863445,3.9889813040549162,1.5151878097700102,0.7927257626720982,0.049237956127361905,0.1175960866543314,0.0826179352079909,0.11765678188728157,47
1255,F83880DD7465,Juana ,Sánchez ,F,1968-01-13,None,zarkahuaa@yahoo.com.mx,5510109291,Form,0.0,0.0,0.0,0.0,0.0,3880DD7465,297.6725688056393,400.0655577394286,42.2951306493162,59.37951545400583,6.121079626567288,64.46456660655149,11.374886078606586,12.391487883507509,30.188012496050323,4.430139137327233,14.105844058506452,1.4141208915974692,7.597226836600485,8.901240271379725,6.183217180033771,3.7246033892903747,2.2505853916597447,0.5621667624742096,0.5793739754913039,0.6289584752586569,0.4760960319299617,0.19362225877752517,53
1265,F8C39EC41CD3,None,None,M,1998-11-02,None,robsanbeltran@gmail.com,None,Form,0.0,0.0,0.0,0.0,0.0,C39EC41CD3,253.6854144892511,1148.0811405992033,196.76741227911467,193.0819770656899,34.100368521632674,94.6271320741615,78.16612139963449,11.044629579036835,60.334279820701454,32.86538686499999,26.43666960201646,17.272701280529837,2.1448529059722095,17.07811021567003,5.4614574599180274,14.573529813418668,5.9534332309910845,1.5275608679184511,0.3536920912068048,0.5699053967282192,0.42654112909433467,0.44768331311023585,22
1276,FC183C22AB68,None,None,M,1982-02-01,None,benguia82@outlook.com,None,Form,0.0,0.0,0.0,0.0,0.0,183C22AB68,465.30330705249,948.6691303981904,210.747685316787,15.88652687575361,12.860587255396501,132.3947824607551,64.42624336314248,32.47694874708324,35.44566852779632,5.25208687707889,36.24649044221977,33.57050155115606,11.951054847110111,27.995834763679746,13.934393877586487,4.137946506117663,8.522969686576532,1.9939805712971512,0.024646143570569223,0.6769688252506258,0.19833469626027914,0.2839112147009828,39
1278,FC183C9A116A,None,None,F,1990-03-24,None,cinthia240390@icloud.com,None,Form,0.0,0.0,0.0,0.0,0.0,183C9A116A,1211.2931078421725,751.1616373805846,273.97050488762574,223.6125570731617,202.07991488658365,98.05532391645562,84.0054579135665,17.84530218265642,25.77013899041536,62.89554976161263,49.66436228365572,48.53778339980059,47.78726233497577,37.64210282367739,5.533484705715754,9.466038734960021,4.426173841019561,3.1891494519023778,1.1502337646879603,0.762144926496848,0.4822396477512593,0.6695292505212671,31
1285,FC2D5EB96E07,Orlando,Aparicio,M,1983-12-10,Ciudad de México,itachirasingan@hotmail.com,None,Facebook,1519794668181132.0,0.0,0.0,0.0,0.0,2D5EB96E07,5158.3488378367765,20564.496153546756,1786.493704049876,905.5560509545857,559.798728043163,454.1744725497833,260.1976286418253,275.7748427388597,538.4212478193546,3.4539590065408254,138.27151790141602,364.57178603588113,294.4015467880823,52.53649162196679,66.51442408661411,36.90541434124585,70.67339157595828,19.45359701162211,4.091447558070681,2.9978033160898114,1.650634282909061,4.216320292621185,37
1294,FCA6216298C8,Luis,Garcia Garcia,M,1998-03-17,None,deivid619@hotmail.es,None,Facebook,2209693715786065.0,0.0,0.0,0.0,0.0,A6216298C8,5104.246085687928,798.5427228884748,579.1708029069283,87.41515124897447,311.532969670058,401.7982541604725,42.485757053974446,56.45168391109405,49.19608485264246,10.589858182127909,38.525272704871036,14.66287891971176,98.49813519992976,30.203341457018837,64.17073189410017,1.9131762149973346,0.9995621245052473,1.4730725455942206,1.7544203859075842,2.1288174327155955,1.9240023816221066,1.3172181763519275,23
1297,FCA62178F137,Rosalba,Cruz,F,1983-08-11,None,rosi@cruz.com.mx,None,Facebook,189942985457818.0,0.0,0.0,0.0,0.0,A62178F137,821.6892137605938,656.9875972576947,176.50309577650975,167.13067986186286,7.631007779706541,23.99598775094459,10.91452345928859,11.244423500252847,52.22457958970459,10.742497754684877,5.155044089233657,34.742923908052816,26.76748079951891,15.647301714725565,10.884411740332169,3.840349688221751,8.762107740278221,1.633696335967211,0.45207037926045146,0.942268261317432,0.6561134853067596,0.4526253665429504,37
1306,FCA621C20D7F,Miguel,Vazquez Juarez,M,1968-09-09,None,vazquezmiguel68@gmail.com,None,Facebook,2093207014058440.0,0.0,0.0,0.0,0.0,A621C20D7F,433.6073022140311,1399.0378302323438,172.56191350458982,148.57682676527372,198.73457442755188,175.45519885979883,99.10336192055424,13.398832397262565,37.510558086328814,18.935571333676183,51.48174678531685,28.024743805031594,42.27631392975379,36.9087318999669,20.715161992535673,11.951135002833603,0.4960362972090273,1.4519359340589586,1.5202869142652697,0.4835058620323796,0.5511620935164111,0.2172697420689009,52
1307,FCA621DE6637,None,None,None,1997-03-22,None,55alondra22@gmail.com,None,Form,0.0,0.0,0.0,0.0,0.0,A621DE6637,2346.0384022308476,236.02593584314812,228.68155362233682,84.1231424508324,90.27432905915971,3.626551736080597,78.57803375966056,63.470960998815784,8.694570493215457,52.333792937382164,31.298624362284905,59.653749787066225,35.50555282535774,18.318618452488803,38.915147589763244,5.12374109524179,3.49701975514999,1.774131685709634,0.43276059610945194,0.15215302219437735,1.1345386707160081,0.3466890264383187,24
