,client_mac,first_name,last_name,gender,date_of_birth,location,email,mobile,source,facebook_id,twitter_id,instagram_id,linkedin_id,oneclick_id,client_mac10,Restaurante,Relojería / Joyería,Discos,Zona de exclusión,Dermatología ,Otros de farmacia,Lentes,Tabacos,Libros,Fotografía,Caballeros,Pastelería,Dulcería,Farmacia,Novedades,Parafarmacia,Juguetes,Pasillo juguetes,age
128,10C7534B91D4,None,None,M,2006-01-01,None,saavedragerardo105@gmail.com,None,Form,0.0,0.0,0.0,0.0,0.0,C7534B91D4,4062.560240830978,15467.528767861872,1084.9890508765368,725.7182403605823,21.122482077778717,482.4196252360712,57.73048909772431,189.46230565913552,388.5830009842309,181.15721858464389,75.70031255299783,95.96040952536435,38.520730036058765,82.03473519450147,48.6640514045902,27.759546535356783,45.50167076579008,3.587122415791443,15
142,1496E5321742,None,None,M,1997-04-04,None,luiz.villegazz@gmail.com,None,Form,0.0,0.0,0.0,0.0,0.0,96E5321742,28.594985982264593,567.9028911416226,10.118772675335363,45.294455684438645,4.011779546217612,18.10495059585985,20.403390671530882,6.494627910861836,7.208097646988696,6.8595240604801635,14.105308288663334,5.707492786110246,9.331089232170292,6.309113294501057,0.9184488462309024,0.5397172137503695,1.8044439732161177,0.29091044975741026,24
169,1CCCD67DFFD8,None,None,M,1969-07-25,None,luisjosefra@hotmail.com,None,Form,0.0,0.0,0.0,0.0,0.0,CCD67DFFD8,8791.696779935426,2307.8590426141322,45.86060359286987,22.686179257149487,226.42299254284652,38.26907100146759,118.57506987740881,242.6516773658575,231.7802692846381,75.25130697639355,150.82613453814997,49.1325801088155,7.963943349159444,6.240378474730416,24.537217900440734,7.913412398605624,19.608734724528286,0.7246060573802598,51
172,202D072B40AE,None,None,M,1991-01-02,None,yoniantoniomartinez@gmail.com,None,Form,0.0,0.0,0.0,0.0,0.0,2D072B40AE,14243.51659517498,11751.156205557294,1254.0797299620806,477.01108696557316,620.2938336677365,363.816242065791,459.65578505330143,308.09630928770554,350.881601047799,188.2412207926542,283.4677786036987,82.1685057411152,126.42504511915163,65.51687040837065,16.754520781076266,33.67493122071208,12.501381858425917,0.7423566925395793,30
173,20326CCD069A,None,None,F,2006-01-25,None,elizabethfragosomagdaleno@mail.com,None,Form,0.0,0.0,0.0,0.0,0.0,326CCD069A,10421.822445969092,9645.308634809606,226.99553568657066,3.2271806626952664,471.84852518902807,166.9137522610349,505.5284065525864,42.53662780989243,293.45020478307663,61.40380610131938,113.67135618709774,125.15777119336859,117.66649204961833,30.759749119848383,8.190641108353478,8.680033537123787,7.061241522331951,2.777595457355825,15
189,20F478338480,Orlando,De Lima,None,1999-01-23,Naucalpan,orlandomanana@outlook.com,5551825540,Facebook,2023921454572895.0,0.0,0.0,0.0,0.0,F478338480,547.9004818569742,532.95891078978,30.60200153944824,32.77269639898094,9.575788632153794,50.70731922280986,1.3384031755284385,39.31003160501381,32.68582274097596,16.711510385963845,22.01115462768962,2.5258826284631235,5.244714217907009,2.459708224915364,7.563900487702885,0.9595196767164856,3.26695541315346,0.40519837582254115,22
199,2446C8732EB8,Mar,Draco,F,1997-01-03,Ciudad de México,jessiestrella09_@hotmail.com,None,Facebook,2541956082536658.0,0.0,0.0,0.0,0.0,46C8732EB8,8489.173290230832,10419.15556898894,543.0348064465796,150.03563285318225,505.59813978366566,339.58248747483225,250.27556138197212,24.898582622028123,312.63647150462896,64.10742584173079,150.24544103470217,136.4617488120902,84.85260763581617,18.414969094559385,6.6997936993743945,39.168794374502845,10.11270869202376,2.545969528538537,24
201,2446C882C133,Beto,Manrti,M,1995-02-04,None,galvanbeto474@gmail.com,None,Facebook,111236363800281.0,0.0,0.0,0.0,0.0,46C882C133,1034.0174886922136,30.236918204544157,126.01440225649381,76.22516381662575,46.65353134652153,10.707196766410984,10.439854362173385,11.236537228281277,23.07209393372954,12.123389541208791,0.41943601223091864,7.740635473542386,16.654878956239994,8.395070982517561,6.865726177729761,3.2831531311544664,2.902543939838667,0.011979178543079352,26
212,281878D7A841,None,None,F,1978-12-26,None,lemoniq2009@hotmail.com,None,Form,0.0,0.0,0.0,0.0,0.0,1878D7A841,2722.727693168285,1368.9157170886315,206.2155923715544,61.3689164363251,147.92474952366564,36.29504078577401,142.8794320477826,84.24983871847884,92.60152715393296,59.2874049493889,66.04345782324407,45.286887080139024,27.062693942619685,15.878907672279851,9.499908553241468,2.848700857497538,11.292073446189658,0.6214583809691923,42
215,2833347970F2,Cristian,Lucas,M,1994-05-05,None,rtr@hotmail.com,None,Form,0.0,0.0,0.0,0.0,0.0,33347970F2,301.6326995768079,2299.4838177244237,166.732210091088,151.40471075821833,3.376252708059927,51.77822120409355,99.81014925219249,37.04792746394827,13.356276079564799,46.007355639638966,38.61706743750507,23.245522684871034,12.028949772261189,4.8623309425340135,8.957141275691882,11.181386049032549,6.783362796083262,0.69461854398611,27
237,30074D3CFB10,None,None,M,1988-10-21,None,enriqueolguin.27@gmail.com,None,Form,0.0,0.0,0.0,0.0,0.0,074D3CFB10,597.382108625053,3647.0517631522503,116.74617147637638,75.25409993620633,7.556785681725384,76.99943553495427,65.30807126609994,14.85037756140969,11.230306180133338,47.03222487919113,21.053423760092496,50.12316411222875,5.190005344338699,17.259294590780435,8.11551258480258,0.9558250070779726,8.387352644466556,0.5040776628120796,32
240,30074D55319E,None,None,F,2000-09-19,None,luzma_6419@hotmail.com,None,Form,0.0,0.0,0.0,0.0,0.0,074D55319E,728.9937997299953,1092.6911514823619,5.181538714175143,43.413344298271845,51.98709054888805,74.03437945589644,11.373301713974623,38.86084928685944,1.9098002959489817,11.799492955493156,6.023797200364045,9.953288372196212,7.46017750627445,8.57810016844381,4.089676677454902,4.458597573163905,3.7141364584987513,0.4774775617384918,20
256,304B0778BC4E,None,None,M,1992-09-21,None,pksbato@gmail.com,None,Form,0.0,0.0,0.0,0.0,0.0,4B0778BC4E,2305.4860821478815,4641.611063278257,212.63928259631456,14.683056973443566,115.33136389261315,184.57352651385355,165.69062091446244,18.92143077282091,53.61144683500674,37.73658546529391,101.34766369850345,34.06270022813574,4.650331025515741,30.132032506526233,27.050853260389427,7.281219598610018,4.453188511280764,1.7375517810908596,28
260,304B07B67AAA,Pilas,Cortes,M,1991-09-12,None,pepec2293@gmail.com,None,Facebook,412434189645509.0,0.0,0.0,0.0,0.0,4B07B67AAA,5830.258230938972,927.3093112099914,167.48491947168432,72.26615712574716,313.85427002393556,212.93756253135078,9.962603871880077,10.80534744849042,147.11304051115897,45.5310580832562,102.11597134315849,23.44846104639621,28.301505268556394,26.479654357788945,25.15586510543294,8.583655729395655,17.117917088230687,1.2744688445720025,29
270,306A857D3868,None,None,M,2006-01-25,None,riosr@sanborns.com.mx,None,Form,0.0,0.0,0.0,0.0,0.0,6A857D3868,13788.393052707846,3968.0380371775964,795.1412236486011,238.15867711055265,282.32148384750235,416.31000786876285,74.4025164597361,78.49047977926699,332.18303377545357,100.43493181391152,134.1783191398248,67.33063940859525,14.72742150456657,89.35599713998191,2.547216989203367,14.4985867937693,17.757701454378818,1.7306733804522743,15
273,306A8595C45C,None,None,M,1986-01-25,None,jaorze17@gmail.com,None,Form,0.0,0.0,0.0,0.0,0.0,6A8595C45C,711.2275317871064,2482.5833019275115,170.64305844252982,183.89719627300158,167.07403709471663,111.44372088619834,93.69595145540873,86.70240385221307,0.6209828136354751,49.344952740349186,49.09071591898695,34.65604065364504,3.4381702055482575,20.430531815449545,12.223313472785398,11.329469228375528,2.9018601439105827,0.6967612886275454,35
309,38D40BB668C4,None,None,M,1984-11-11,None,jack_anje84@hotmail.com,None,Form,0.0,0.0,0.0,0.0,0.0,D40BB668C4,9928.756595199193,15968.99781445948,1207.459212762284,194.75345317697005,182.95830148391732,475.97549055332576,404.9378769067264,531.8212958727801,308.5174238274816,190.8238354765944,312.6188684433352,54.395896042745996,90.33081831382349,18.122295506763717,19.053453707441797,39.646131643881496,31.466659399945435,2.364577223311977,36
330,403F8C25E817,None,None,M,1995-07-03,None,luisgerardo.hdz@hotmail.com,None,Form,0.0,0.0,0.0,0.0,0.0,3F8C25E817,19249.27806797598,6707.399803288948,1539.604280255842,64.431299751503,560.9956767029955,155.94203794481265,278.26927020773195,400.5926833859748,400.85390000316795,148.17009891366226,147.9376915458421,43.69260986741205,215.83951355710616,63.16464641657035,102.05164509047977,64.98939433987037,51.62607981927168,6.161300932832981,25
331,403F8C3C3B21,Alejandro,Risso Yañez,M,1979-12-23,Ciudad de México,alexjandro25@hotmail.com,None,Facebook,1.0158074971617652e+16,0.0,0.0,0.0,0.0,3F8C3C3B21,1072.4317380894277,901.9664095479875,193.3098230098638,15.418330255087927,0.5480066761857079,44.031734239591785,37.17103600738049,59.73711551287216,7.062929539419684,9.104598079737244,10.277476986708923,4.062129350394489,15.288825949901906,4.371251776202643,11.880127309278377,2.2382313247414327,4.478952562561574,0.6212837826556435,41
337,403F8C4DA3F3,None,None,M,1997-12-31,None,raymundomc75@gmail.com,None,Form,0.0,0.0,0.0,0.0,0.0,3F8C4DA3F3,321.3060609943994,2270.996277764085,54.08405220965502,94.02844342456392,76.6892379491227,56.71628990935079,26.503454316668613,64.60175292773367,14.983358502085919,26.289045485559008,16.946492537004165,0.8202304260043091,9.60377840896652,11.807790524944759,8.158685978432395,4.354587122060727,1.4797584404586435,0.6307030789040664,23
339,4040A79BBC73,Alondra,Luna,F,2002-03-08,None,alondrafrancisco78@gmail.com,None,Facebook,557557011789253.0,0.0,0.0,0.0,0.0,40A79BBC73,5663.842735155031,22537.055817017383,401.60219873065506,795.7109215834258,406.13571353889466,370.11330071314956,447.46202179610924,42.7038389471077,232.20600812818955,29.703808534336737,104.56668402434497,20.136386416364502,150.53705124098693,106.38806552521899,27.165530577144818,19.108588988158292,35.65638869202126,2.9049403914842653,19
345,409C28802AAA,None,None,None,1978-12-12,None,jcp_78@yahoo.com.mx,5535609052,Form,0.0,0.0,0.0,0.0,0.0,9C28802AAA,1634.6432780712314,1971.776415108935,143.52510458112678,60.99173620218018,190.54151679794597,67.78098453792441,98.1149012026752,61.484507643190355,39.144801366389885,26.332302223576594,50.35448815998299,28.038181144220825,2.937456744341551,18.77088342850037,19.31890464322354,9.98268870966682,2.454438909925251,0.8074105249645377,42
355,4400100AC5B8,None,None,M,1995-01-25,None,reac_1@gmail.com,None,Form,0.0,0.0,0.0,0.0,0.0,00100AC5B8,959.0438719238616,28.84528419158106,3.6765026335422433,52.86294126974555,18.93096735729416,47.120146534393655,12.77519619010252,18.183107107706572,14.552120505193441,15.298823270196431,10.903010704102085,5.745531542755283,2.439393504508688,0.5700854967462552,7.190009596368728,2.533168177549684,3.926588708187039,0.4032512861649603,26
364,4455C4C2D964,None,None,M,1960-04-01,None,verahugof@gmail.com,None,Form,0.0,0.0,0.0,0.0,0.0,55C4C2D964,186.36643351255464,521.074640402648,25.730850371488316,33.11665643723203,1.0698527665598607,27.225631084289212,13.731899631941532,4.524784069656195,6.2892029539923735,4.000405465644698,19.03725503829991,7.360099653962458,8.876723447051393,4.6100095328408415,4.933951557553753,0.0566316333144939,1.9585029630049309,0.03646947796541693,61
371,44D79170E4C1,Oscar,López,M,1995-02-08,"Cuauhtémoc, Distrito Federal, Mexico",oscarchivas_619@hotmail.com,None,Facebook,3615390245199391.0,0.0,0.0,0.0,0.0,D79170E4C1,6454.8945510557105,3736.1842991998424,719.732651704175,383.88467891412137,148.19721596758828,201.94937244832118,302.2035964137866,250.56784491634866,119.34601022310976,78.23161595247021,18.329534773451964,53.71230757347508,29.553834419696063,42.437693276708195,19.573451326582195,12.154938715105164,0.12235736069321318,0.9240457588139842,26
376,48794D0159FB,None,None,F,1998-08-10,None,belen10_10@hotmail.com,None,Form,0.0,0.0,0.0,0.0,0.0,794D0159FB,684.9585521284571,25.972869010539693,55.763702231697856,21.206564631718887,33.158024371241,5.657836889730863,11.715403437731858,10.684716083346894,14.559354430921935,13.665607359989137,12.968509242981707,2.041756949583549,2.0370115384881973,0.2527849886932837,2.742062475083216,3.9596814927780035,1.5859500890068237,0.0696126480100056,22
379,48794D8BE18F,Israel,Velazquez,M,1995-01-27,None,tonyandkevin7@gmail.com,None,Facebook,132208071662462.0,0.0,0.0,0.0,0.0,794D8BE18F,4075.8623775496,1023.3604352327761,307.0252214858972,239.4680656187011,131.56281032528878,104.09853443331059,109.61858995306235,128.11814463658942,80.89924306857775,23.792897189967473,46.76524529596869,5.834667114703193,32.663992425383896,16.064082598988588,24.040308251395977,7.446223727001625,6.136076222980486,1.2430848698060817,26
380,4888CA2CCF4F,Miguel,Nava,M,1965-09-16,None,mikinava1234@mail.com,None,Facebook,457885718476096.0,0.0,0.0,0.0,0.0,88CA2CCF4F,4804.787823944425,1114.357581920684,290.22633372154377,282.5993535448006,76.79951481463044,55.11069254010606,69.15651955845843,7.583284866697885,53.43383969215793,7.8361622402861455,91.93611856083258,3.7342217467856407,50.73940310562137,28.657417593667983,1.0946400465707284,12.042050009256624,12.260476482582709,0.6445656108920143,55
386,48C7965AB60F,None,None,F,2006-02-08,None,xuany83fogoneras@gmail.com,None,Form,0.0,0.0,0.0,0.0,0.0,C7965AB60F,41.102073347268124,17864.116492434183,1102.9441963604247,229.35544695725042,392.93059807697153,226.85541969019005,114.80968266246437,25.96769567477857,118.2535210530867,220.80249158567122,73.64008387350911,6.229855207369407,98.78342534773255,85.65593617597777,17.876508584569788,39.57298412428132,37.3962355123369,2.707353331937324,15
387,48C7965BFC35,Angel,Mayoral,M,1993-02-05,None,angelchuy_1985@hotmail.com,None,Facebook,2186781984704589.0,0.0,0.0,0.0,0.0,C7965BFC35,606.0705709099186,862.9792888859042,161.40393545684938,78.48343177972257,61.779897010141575,8.252474151777687,61.04401095250453,6.217935613675118,26.412708190073534,12.580149696887732,11.70155603292451,14.192577052426863,8.584925787918358,5.196393282979382,6.02054903729187,1.1664247004538866,5.544992141907702,0.36817931664283443,28
388,48C7968283D5,None,None,M,1985-12-24,None,theshocco@hotmail.com,None,Form,0.0,0.0,0.0,0.0,0.0,C7968283D5,114.41569000491104,5186.476531059662,369.83024880619274,160.16851164035637,74.31862109134586,92.08080764150249,14.47174984961691,90.4065234879468,151.0172929251443,19.167476148276798,61.53424728420396,7.229394682870814,18.45239440824266,14.300960557628665,6.410681094048422,12.696112070686011,7.859500568813836,1.1632566785495948,35
390,48C7969AFD39,None,None,M,2006-01-25,None,sanlop42tonny@gmail.com,None,Form,0.0,0.0,0.0,0.0,0.0,C7969AFD39,108.31913712842515,541.8963445741215,88.50284542454149,29.536378425301713,41.46709800562694,37.29542025519523,27.57421437328966,28.721459519775237,27.54577397731,4.411713885167694,9.468797493561418,7.682655330902407,2.3224776468947144,2.4335627512441174,4.914374872565892,3.265946173292489,2.4402023350539284,0.2015978277305126,15
394,48C796EE400E,None,None,F,1993-05-01,None,mff.j2506@gmail.com,None,Form,0.0,0.0,0.0,0.0,0.0,C796EE400E,94.76504952668174,482.6777333652296,47.3718966963682,37.494762672314415,30.038105235726714,5.5099362435035095,6.986305414078003,16.77792141874772,2.417701718911605,12.151832906193642,9.653153379473588,9.13878681781591,2.0188790393184286,4.616166784927924,0.8697568945523013,1.478397913452345,1.9279947113329394,0.1056192613713962,28
406,4C6641A9C235,Luis Enrique,Arzate Valdivia,M,1976-05-04,Cuernavaca,arzate_valdivia@hotmail.com,None,Facebook,2138530819625669.0,0.0,0.0,0.0,0.0,6641A9C235,350.580225562988,2249.529303557357,83.69709616103667,106.04545222394162,138.17840601012097,12.701499321812218,103.08792829164344,44.95462866761781,19.824886930618636,51.43228972494011,27.777589466497187,0.030976471241208302,4.906173920058856,3.042933727658784,14.100115465560368,5.881588382763174,1.517314674852391,0.7115914392914034,45
407,4C7C5FA2EE60,None,None,M,1984-05-02,None,gut43@hotmail.com,None,Form,0.0,0.0,0.0,0.0,0.0,7C5FA2EE60,1628.8730361088426,991.8758634426097,232.29733182167786,72.41185876221874,63.89134033945124,7.940750789408369,19.421561648732286,38.62718863379583,48.09848141548542,41.900600938351396,5.509114058186897,7.4920242159681045,13.819445504162653,15.352383831913116,2.4391450259289607,10.394978642303354,3.3227898543085974,0.3321049666549736,37
412,4C910C136244,None,None,F,1965-04-06,None,gsanchez@samborns.com.mx,None,Form,0.0,0.0,0.0,0.0,0.0,910C136244,249.95337730035905,3175.4342365646608,227.05636948638147,200.20033584615825,180.33296821960298,10.755559991740574,36.30469643507028,36.039921890951376,109.55456083920237,48.38168156374833,54.10130896329834,12.12462990727865,9.887030858400243,9.014267253303586,18.65690604189445,9.393496817737105,7.962327042141377,0.8463249780716079,56
425,509EA7CA4844,None,None,M,1973-02-24,None,garellano369@gmail.com,None,Form,0.0,0.0,0.0,0.0,0.0,9EA7CA4844,12929.667318467511,6799.893307151967,1078.8861428798855,671.4487823829573,692.1531372583104,538.0758115814152,570.8556132033262,300.337309756049,170.1542814119961,298.3596608644238,47.17417865836564,50.08452260175182,73.23434942664058,95.06681574849596,54.939153044405586,44.9168897963981,6.6271373735000925,5.12558839260473,48
439,5820596A8C35,None,None,M,1995-02-16,None,luis.rmz.ipn@gmail.com,None,Form,0.0,0.0,0.0,0.0,0.0,20596A8C35,12143.945763978953,9272.975161276823,698.9929078027061,506.211629005468,105.18061414613479,295.33380634233845,240.91583818485054,413.3870235908874,52.50805968515421,28.788509109538627,258.9000811447907,143.65561674095008,169.2145506246184,71.91652764789549,4.144451636801267,20.916083477474725,21.097679146654585,0.9156964579579404,26
446,587F57F2418B,Sheila,Ram,M,2001-11-02,Bogotá,montoyaariel@gmail.com,5547834492,Facebook,936562233349723.0,0.0,0.0,0.0,0.0,7F57F2418B,21052.30831377962,1565.7528965662875,729.6192525183848,687.4618216093656,837.9936677950925,39.19166205036797,504.851656052052,366.128094719027,90.19544089744181,152.56269132095764,266.6955670916314,146.28917823157508,91.4217084518997,19.85722475908009,55.276682822975374,62.39165109879815,24.330042596669685,0.6724476387677042,19
447,58C5CBC9AE27,None,None,M,2006-09-24,None,lorena.bojorges@mail.telcel.com,None,Form,0.0,0.0,0.0,0.0,0.0,C5CBC9AE27,214.5873310378305,352.91182330640817,68.55211064825615,48.44773255132429,47.28435075329371,33.053975710288874,15.944500881125293,25.413948120251867,7.907034037021388,13.53734196823924,6.798409415451032,12.32390051793757,4.974260607802909,3.7370198931756935,2.3208920594981195,3.401430518049867,0.5773139970726306,0.2266239769727998,14
449,58D9C3522A2F,None,None,M,2006-01-25,None,5569137308gus@gmail.com,None,Form,0.0,0.0,0.0,0.0,0.0,D9C3522A2F,1871.993298669721,3440.4689787224256,50.7819641487753,257.53389779213825,142.8188539234564,130.92110444067856,56.162453526223736,5.702145582197198,96.91995067336629,64.907259894399,78.24759004381806,19.21940648019888,6.627731375659809,4.650082321493993,10.7508983264928,14.269837336144112,9.662700540980886,0.36184620182957156,15
451,58D9C35B2625,Ernesto,Montiel,M,1967-11-20,None,netomovil@hotmail.com,None,Facebook,3733720950033669.0,0.0,0.0,0.0,0.0,D9C35B2625,82.49060216922611,521.4212190406827,73.49195508296937,53.42621909125568,15.92914374921979,8.699358391849927,0.8416434417244403,16.04934142164698,18.883203061945604,7.051904820423592,1.4664102706948923,6.605769876369282,5.537492244981555,6.281218930001155,5.193096214908568,3.8873616235330894,0.6469739732773861,0.0970865952898292,53
453,58D9C364ED52,None,None,M,1992-05-08,None,10392oscar@gmail.com,None,Form,0.0,0.0,0.0,0.0,0.0,D9C364ED52,11064.322277617142,3263.0980485881014,123.96245096178963,593.9605021981894,55.35038729162265,294.38189001851583,139.5263914325983,176.40012012018983,86.65687076399158,187.21462116878848,145.89856482431364,13.259511320264382,114.24877866593846,48.068362112577816,24.266794620047193,41.57971872211878,8.370385428032838,3.4343241457782905,29
455,58D9C39DC757,None,None,M,1995-12-05,None,jesuse-flores@outlook.com,None,Form,0.0,0.0,0.0,0.0,0.0,D9C39DC757,9097.446061516435,5367.294566340083,517.4299050159584,16.48535251923447,577.5728565504292,280.6652920326347,186.15957675620552,141.73148069207747,176.77447198792257,134.5995747771975,194.32401156803192,128.7746035679957,94.22081679380786,47.81220575114741,21.011701304848298,5.26055982275169,30.950878886921505,0.4860841163173396,25
456,58D9C3B11F6B,None,None,M,1999-08-24,None,stefannyguadalupeg@gmail.com,None,Form,0.0,0.0,0.0,0.0,0.0,D9C3B11F6B,2432.897922045284,1756.2117303088294,329.1945258343608,52.13261853990957,76.66999332572706,83.37393810864529,73.91119635234796,42.84354724724499,99.53909021118164,65.81558346802386,53.39551698445441,40.31503705106405,10.170425121069853,12.572696382485038,6.308582365146278,12.23671670862511,8.921699784669675,0.4891801609321814,21
458,58D9C3B7419B,None,None,M,2006-01-25,None,macesar@sears.com.mx,None,Form,0.0,0.0,0.0,0.0,0.0,D9C3B7419B,3084.3766032140315,332.10095248349444,13.797671658245775,31.75544333343802,147.36355333383875,30.337621272438962,1.6862797060463706,70.96173090943812,62.554489697695615,12.902484887831738,1.0673379298087489,29.37383970236078,35.278548828565626,15.359777300438438,12.567440540837776,10.028771713843222,5.567360979755766,0.9200925078904932,15
460,58D9C3B995AE,Xöch,Rodriguez,F,1996-04-05,Guadalajara (México),love_thara@hotmail.com,None,Facebook,1418330088335807.0,0.0,0.0,0.0,0.0,D9C3B995AE,7774.892690604108,14952.941070100607,396.5791066314226,215.4751684337671,570.6317739466682,438.9580898796537,105.90289688586218,98.99943783072048,380.7442091689131,68.98660878361426,2.9852900433105307,121.62275274610873,75.97592544780461,82.91906475895587,41.049869104840646,58.82420298555613,20.37189488502792,4.139947763067158,25
463,58D9C3BDA2C8,Luis,Domínguez,M,1995-08-04,Neza,f.ercho120@live.com.mx,None,Facebook,2825687067492458.0,0.0,0.0,0.0,0.0,D9C3BDA2C8,699.2023796521609,1880.8486345007593,98.95579233696714,106.49207449740938,34.91792858336636,12.350262316093243,38.85758440029708,28.19037234589812,25.15640568043571,18.63314627445008,16.982726364415516,31.23191231634513,28.042044586083357,13.488569431196632,9.72142689113518,2.9604602917928977,7.401256185057994,0.5670233461352688,25
478,6014666F1712,None,None,M,1997-12-31,None,jorge358772@gmail.com,None,Form,0.0,0.0,0.0,0.0,0.0,14666F1712,86.75073179834266,1545.1996444091367,92.1881570254755,66.88940917628699,11.954767744681998,24.130493933409017,50.88586528965065,54.82740444426214,4.674966932685568,14.59929064660984,15.883889439864209,10.121607960464065,13.792149062778684,1.7150415688982676,9.169855488937538,6.717626092812673,4.347547720921121,0.15155126478176736,23
479,6014667C6F5E,None,None,M,1978-02-15,None,pedrolg78cu@gmail.com,None,Form,0.0,0.0,0.0,0.0,0.0,14667C6F5E,2.13994441227936,1346.3300626671896,133.9269394504641,69.04440639369346,62.96058116599122,5.160285287549446,51.3398308152447,22.56282884915961,32.54648709886076,29.995935108885273,8.829915344331647,2.738547751092285,10.778215260455992,5.739154977328436,3.062939152013617,2.162298773780444,5.2002379824835305,0.48138950919596457,43
481,601466893202,None,None,M,1987-09-01,None,dj_leon097@hotmail.com,None,Form,0.0,0.0,0.0,0.0,0.0,1466893202,84.92820355599356,8772.755977019782,650.8832903983553,289.44477513576066,316.25328084781404,212.76126772371606,167.88953812525617,38.98658981430868,55.29314693976025,51.274274109225615,7.625128064115664,45.51357417529029,40.27160887788913,24.43335949381111,28.809778461323045,31.079036093868137,3.7269910111280287,2.0701801526013948,33
488,601466C6EB55,Jose,Jr,None,2000-03-04,"Mexico City, Mexico",cirilo-alvarez.34@outlook.es,None,Facebook,2163068353965680.0,0.0,0.0,0.0,0.0,1466C6EB55,7883.784082169739,2946.4331556386423,650.5703497499599,306.0159231609323,242.49568312850027,125.29178213933835,87.07855753224764,42.48508936647083,233.84154400154927,70.0490956047045,11.475771616607261,97.24183155038504,85.47905948887895,42.61103117603302,17.437794474034316,28.47734789368688,14.070536962625457,2.1613643456664744,21
500,601D91762CED,Alan Joshue,Sanchez Martinez,M,1991-03-03,Estado de México,alan_joshue1991@hotmail.com,None,Facebook,1591387124348920.0,0.0,0.0,0.0,0.0,1D91762CED,920.7916690935938,2024.5556801034888,265.4237835677215,69.91138210546505,69.86086886121463,67.50602824393619,15.382129178350977,52.23514622134878,18.657873653026368,17.481213744766947,47.201696280344486,8.961398501233722,9.501699441845291,18.544950264459597,11.78635049595039,8.669877225714545,0.02464842319224247,0.503604594346555,30
503,601D9177699A,Manuel,Leon Mora,M,1978-03-20,Ecatepec de Morelos,manuelga@live.com.mx,None,Facebook,1812184845585019.0,0.0,0.0,0.0,0.0,1D9177699A,82.90396342687892,9575.677670196614,514.6154477755331,184.80034029223972,118.86566609157778,277.8732013655169,247.56612104173334,4.4927917661946,177.88323512249562,114.86026879587486,94.27167342570053,45.828368090041174,30.98226131130635,47.60233795205644,0.8740945008109184,31.072080574131625,5.609057524447939,0.2214207468503448,43
504,601D917769B2,None,None,M,1975-05-29,None,eortizecor@gmail.com,None,Form,0.0,0.0,0.0,0.0,0.0,1D917769B2,1458.9197394962634,137.7270836012637,66.30950424374792,101.74175149594473,2.101259414227312,3.3248946896112055,63.757040540129275,48.9982664289584,18.43505300737782,24.62619088325108,16.636741291851084,17.027343217652387,11.941137940420315,10.306937096273769,8.320579337161204,0.10424111654629181,0.2991520600762286,0.42308413924407795,46
505,601D91776D6F,None,None,M,1965-05-25,None,zamoram@sanborns.com.mx,None,Form,0.0,0.0,0.0,0.0,0.0,1D91776D6F,4672.898676647788,4758.640783824413,688.5682540838583,165.46531442503067,226.18392210113262,251.42791841779146,165.39272698190942,74.9426244574208,222.80452710756404,20.02963917435147,43.463114025305224,16.707641904075924,11.897316676311263,43.49748538018005,0.63577314407712,19.74064700500031,11.073831898214502,1.629802745574388,56
507,601D91BBA9D1,Citlalli,Rosas,F,1981-08-31,Ciudad de México,alexurbano234@gmail.com,None,Facebook,813730255798476.0,0.0,0.0,0.0,0.0,1D91BBA9D1,919.4242157250876,556.9553266471348,36.82617066183023,85.48459583590613,18.315578543481475,66.0582224747475,8.53490112069544,3.730388851759363,44.53323956264933,29.477108967512663,14.75361172231426,21.63677039736409,12.052688031937404,11.732095559830315,9.182511959399442,2.71289057347503,1.586300885542494,0.0033824793328102896,39
517,60837372848C,None,None,M,1995-01-01,None,kay123205@msn.com,None,Form,0.0,0.0,0.0,0.0,0.0,837372848C,222.48323407063998,396.7680809679818,46.345702156368176,22.806587778670295,34.87518914856931,29.681341403969096,25.531164719558102,12.551699947171748,7.288543404482231,9.702467561854517,14.12176808444965,9.468974229595553,8.342188649189794,2.359622181920035,2.7136043349094807,2.2215440271884885,1.5200892425245787,0.21819809095717096,26
532,64C2DE7FBCE3,Lilian,Mayrin,F,2000-08-19,Ciudad de México,mayrinnnn@hotmail.com,None,Facebook,2522012241449985.0,0.0,0.0,0.0,0.0,C2DE7FBCE3,5671.780719761868,17087.35190461694,1116.87682532248,747.579588253067,610.1528567866175,31.797769833192778,543.4976401344743,103.2211836903579,394.12518830958794,126.50920015185224,133.9616121803317,220.3338694321701,122.46621525692174,2.4071660876081693,14.64522448026768,40.353189227846805,49.97798290014448,0.961863574273897,20
535,685ACFCAC8AB,None,None,M,2006-01-25,None,riosr@sanborns.com.mx,None,Form,0.0,0.0,0.0,0.0,0.0,5ACFCAC8AB,9863.867897921278,7500.55650348276,1164.8251947518936,650.918509230666,623.7829960947768,7.529006554489815,128.59354022969663,46.08704286212866,220.67834085558027,115.06774054395981,124.55562875097564,46.82200655626331,121.10087487905584,45.578446621950015,39.148974770162795,24.34587515465986,19.650456415775274,0.8909643239301901,15
540,68A03ECBE0DF,None,None,M,1992-07-07,None,santiagorashid@gmail.com,None,Form,0.0,0.0,0.0,0.0,0.0,A03ECBE0DF,7.8026126573408074,728.0268769717487,51.74059869268835,33.59152938162143,0.3643337985784589,27.13225403020133,10.267651765227358,18.811528618674267,29.406660716922076,18.608823178805494,5.322296130574268,2.250239815223629,8.969771757059643,6.246548754791937,6.221975364958965,2.1532961101423624,3.0482038568957384,0.03479839854496765,28
546,6C006BE003CB,None,None,M,2006-01-25,None,gdfidec@gmeil.com,None,Form,0.0,0.0,0.0,0.0,0.0,006BE003CB,686.1473947188756,1337.8224316362912,144.01475549455358,102.50400401989788,88.33052132799972,81.60276713095809,67.82919267469659,54.186898147169785,63.91388754144675,16.17003085354796,6.7530956755985345,10.90598300318189,7.051295103987701,14.304586853222762,11.150878941476156,4.705763044858682,4.310226201551309,0.29628763068558617,15
547,6C4008BE83D6,Jose,Hernandez,M,1971-02-13,Ciudad de México,chefjoseha@gmail.com,None,Facebook,2647918788820638.0,0.0,0.0,0.0,0.0,4008BE83D6,3851.792398412121,679.3162726181522,146.583470390371,19.14936193198831,194.36944083391745,98.95000919603011,116.389877098215,34.499187308432695,113.83122297159473,51.305902386108734,25.75395798878874,53.34359814759153,25.028873696120893,26.654482397928916,3.534396395404204,8.101109353351193,12.94997604212366,0.44646283175940155,50
552,6CC7ECE5927B,None,None,M,2006-01-25,None,avbarant@gws.com.mx,None,Form,0.0,0.0,0.0,0.0,0.0,C7ECE5927B,667.1377645473616,975.4506073955614,9.465444853723515,104.7266558907366,30.605145135065374,16.908141233028278,4.573013220476231,48.12974447129836,33.46984151443633,25.42033903874622,33.3548509630705,21.586906422719466,19.5085794169681,3.2606825624722093,9.791668356934027,5.818253933698252,1.7871892550056958,0.005171788697609368,15
558,703A512EA44B,None,None,M,1997-12-31,None,kevinbibrush77@gmail.com,None,Form,0.0,0.0,0.0,0.0,0.0,3A512EA44B,11461.987595192133,2066.7593801956373,359.2233140680228,130.9427673198467,21.54048968121127,410.6220539963665,326.89472421262946,322.50178741936537,94.67138904062992,107.68656947843624,44.925704011815526,136.45349900575752,16.46756920817958,8.440537507304265,8.609355736369412,3.767726116673586,34.09948677568523,3.4060510339328554,23
575,745909BF46A7,Arlette,P,F,1997-07-02,"Mexico City, Mexico",tecktonik_n@hotmail.com,None,Facebook,2247554285312163.0,0.0,0.0,0.0,0.0,5909BF46A7,14509.262768785851,382.8814764936567,494.2826873589914,417.1250089546593,142.07621416234193,296.7018819231951,215.37575013734758,275.6090167018451,144.0150904411133,94.83004084101454,168.15306929907817,122.53980292967239,62.80347008956019,20.725632993625315,58.20914923077296,26.189785610422184,20.729968587637856,1.4891854592130245,23
582,74B587F2DED2,None,None,F,1993-10-07,None,noe_mi205@hotmail.com,None,Form,0.0,0.0,0.0,0.0,0.0,B587F2DED2,361.7231582652744,321.3143874336715,12.023350487374177,34.64764176264757,28.70927105471259,29.019314847723724,6.7961289739057635,27.003604067458344,28.88610525345434,16.750728241090965,0.10533766661633989,6.226555932657528,9.635642725588186,4.393635117654268,5.261555395010054,4.037517004624601,1.1443854127165694,0.32168035781924303,27
605,7CA17716C5E3,None,None,M,2000-01-01,None,jmejia71@hotmail.com,None,Form,0.0,0.0,0.0,0.0,0.0,A17716C5E3,1642.1376412458703,5706.179697493842,63.2404308746277,14.383633589233943,137.4239354536053,213.61987513819912,110.34577508646791,7.781874076374375,129.2549308038991,25.73375786494324,14.47804350026996,29.838388140189444,42.50817099231698,0.9948264005846926,27.381222251242377,20.397009487951085,18.264886332198802,0.03590126818412175,21
612,7CF90EF0C4B5,None,None,M,2006-08-18,None,gongoraj@sanborns.com,None,Form,0.0,0.0,0.0,0.0,0.0,F90EF0C4B5,5314.36542251713,265.7382498454132,347.14336684127954,99.6460339027072,152.80442767958712,195.5150403539722,90.16944436119921,83.26477199928767,107.49606474824301,46.4309048905329,68.25959473211805,26.387380316483693,6.049184082872892,0.8655445086815883,10.370776171407824,0.6609543447086053,10.053680800879919,1.7791579034957485,14
627,80656D86B4B0,Srita,Queen,F,1984-01-05,"CancÃºn, Quintana Roo",paul_mel8265@hotmail.com,None,Facebook,1.0156368962176712e+16,0.0,0.0,0.0,0.0,656D86B4B0,9773.923300397868,4995.7325260437365,154.3972847468011,294.09514830164824,158.18786166177114,279.6662440274794,119.8237101433489,68.81786124395764,230.24556370450765,86.43239364240107,147.02537020931717,131.5007434894252,44.950232216900424,46.16756834965488,44.029243284163236,37.689531987336245,21.091720415764396,0.22369613392063858,37
636,84B5417BC01C,Irwing Elias,Flores Cisneeros,M,1994-04-28,Naucalpan,ninaespinobarros@gmail.com,None,Facebook,128381535048069.0,0.0,0.0,0.0,0.0,B5417BC01C,424.64612835984565,3015.536363982243,50.43542721862891,48.830058622810284,125.75334357780055,62.019328675734855,83.69151627099461,59.94950268339102,37.208678781899444,8.396316260082147,35.52529671001578,35.76619408058962,17.99263823725731,13.192638142524922,8.88545478816994,10.722734281724826,9.095943608787804,0.35243571749885894,27
640,881196888221,None,None,M,2006-01-25,None,azulyoro_0392@hotmail.com,None,Form,0.0,0.0,0.0,0.0,0.0,1196888221,473.29453207254465,1696.1843909837871,69.92446355375687,97.78176847584888,27.051466977701143,77.30568253831396,30.870370848982255,23.44587190478012,11.148959373297021,37.640772045323196,23.810938269549325,19.598209103433053,3.181739726961059,9.8922384499064,9.631659771846063,7.734863183102052,6.070348491621206,0.43172422924589277,15
655,889E33E14A9A,None,None,M,1975-01-15,None,parrapilarparra@gmail.com,None,Form,0.0,0.0,0.0,0.0,0.0,9E33E14A9A,1817.7734163742641,17739.137499707234,773.408934699323,114.37025880913396,239.17198633604525,218.93494394481237,136.99623451483217,117.5713189211089,132.22099354353514,244.15725812788628,136.53788327139475,143.70291670726562,119.11973604094895,60.96826147268561,32.16060972784667,17.100509804225585,19.162421057459557,0.5048169399953606,46
660,88B4A64F5994,None,None,M,1997-12-04,None,os526488@gmail.com,None,Form,0.0,0.0,0.0,0.0,0.0,B4A64F5994,2736.560252221046,3261.253819250184,399.1612355186196,269.03305642115674,50.67622179593788,120.23206634585173,177.40084212311578,1.8775523045163,105.70554522665128,83.6620844741562,56.58557777239426,14.299877369781703,9.128433329849429,28.520228670085753,3.0581995407913714,10.558531265859715,1.3707509343269244,0.9157254356755034,23
680,8C861E4F3D86,None,None,M,1989-08-09,None,lalo_baez69@hotmail.com,None,Form,0.0,0.0,0.0,0.0,0.0,861E4F3D86,600.3266718686369,8190.818268303144,259.23352838397795,153.89705961681142,249.49076816999406,269.2985526413985,6.8122817467994,198.34165792812362,37.09207322287743,106.24849975627819,42.94687506828839,15.450908513514129,53.31964917111161,39.12181280996901,4.410448582706838,26.46746565574068,16.469797326841295,2.253681233786419,31
684,8C8EF25581FC,Gael,PÃ©rez,M,2001-06-30,"Mexico City, Mexico",gael_banana@hotmail.com,None,Facebook,2168013593427913.0,0.0,0.0,0.0,0.0,8EF25581FC,191.57216250284046,516.3603842028941,8.794252737910108,36.52968021238108,6.542874299888352,32.57526321791272,13.46667719703514,0.9214735539273032,13.203646013108914,4.31330152971191,17.69766814112796,12.496803663283718,0.5784772662279818,1.1631664139767286,0.4558946428900203,0.10046164089520657,0.9607279242434332,0.2670848397446319,19
685,8C99E65ABB9B,None,None,M,2002-01-07,None,leomtzgtz.123@gmail.com,None,Form,0.0,0.0,0.0,0.0,0.0,99E65ABB9B,2416.6353656259553,13104.11716250292,1138.29731099933,590.3355625322125,512.4908273773087,260.1566190020207,328.7067204141031,309.96250333271166,158.3178286545878,249.7205794314043,157.25276973422547,102.26926307385958,34.30830320462838,69.86834770221016,14.914396734871616,13.382242109439868,19.501913970991332,3.7622835972194513,19
696,8CF11200AA14,Javier,Perez,M,1995-07-19,None,javierpcruz62@gmail.com,None,Facebook,126610222389211.0,0.0,0.0,0.0,0.0,F11200AA14,3235.763963549216,13748.951189674433,193.18100954952956,182.19811524760934,305.938436935661,378.8162556768903,0.9962448249965256,20.295596693464542,216.0817396255499,70.53347124186396,66.98080561075909,39.78137157637828,136.32467280836647,15.748329254152136,13.827918736190364,14.640469115115087,17.240285381989004,3.70012449783161,25
701,8CF11256F6D8,Rafel,Ponce,M,1978-12-11,None,rafa_sanborns@hotmail.com,None,Facebook,1716195768531936.0,0.0,0.0,0.0,0.0,F11256F6D8,9699.524877388083,11995.41811398494,1252.7177921247085,553.0024761154839,677.0303038518174,427.1006328367222,271.44462493352654,90.24539477614955,419.33966818542547,34.67370069226562,98.5042084811055,66.10239911064875,159.32413024640596,47.78531780744618,35.19849851815507,40.30870606079008,34.161499043602056,4.117655842722886,42
705,90324B1DFF97,None,None,F,2006-01-25,None,aguirrevalks@gmail.com,None,Form,0.0,0.0,0.0,0.0,0.0,324B1DFF97,7720.901408612264,15538.768634998187,1384.7419624179736,57.375741626717215,632.6553300586228,105.24028013824305,335.65751833573154,79.4357216228819,460.4108666515627,192.7139618680688,253.1469230543414,72.82087023718141,42.56260123164751,8.30096870932722,59.50386112886086,41.667673236714464,52.94319958967492,5.152476482004429,15
712,90735A59DD62,None,None,M,1978-10-11,None,oscar.olayo5@gmail.com,None,Form,0.0,0.0,0.0,0.0,0.0,735A59DD62,3660.9836677727944,22750.04207132331,206.51240799784242,932.4231708304841,699.7154277977658,489.8744941216903,472.71803450956276,430.14974083520224,379.6443205149087,265.9430743403783,51.63360334171735,231.1867357825768,98.89155572955606,96.70759416940156,79.39074940286183,50.44155024760755,55.647394907533496,0.09440637479553655,42
745,94DBC9B0B1FE,None,None,M,1997-12-31,None,juancarlosmendezramirez_@hotmail.com,None,Form,0.0,0.0,0.0,0.0,0.0,DBC9B0B1FE,784.9687750240503,373.6754265991024,28.19790926376165,0.37136788431263884,52.74698093438552,41.342282582092515,5.650857830276362,32.81458531550976,9.638846028081112,21.721936635906378,6.048977447333721,11.784402154392914,1.1651267998569574,8.367575691213819,0.3813523619129958,5.251900798586601,1.8416505719491614,0.030046077275202764,23
783,A407B66516C2,None,None,M,1997-12-31,None,garciaj@sanborns.com,None,Form,0.0,0.0,0.0,0.0,0.0,07B66516C2,456.1760068471275,5972.077248519057,144.79421246911258,86.00121269127953,89.61007035877773,212.60703120499102,64.07933029145819,34.34176111337651,154.03931172294247,4.563903550066054,23.8719155946097,4.758623805825861,44.7904019475111,37.40129237441896,25.82889750277726,5.139702983742394,11.457750308201584,1.4613267147256308,23
813,A8515BA400D7,Luis,Hernandez Lsa,None,1989-01-12,None,onetsanchez@gmail.com,None,Facebook,2253542058295761.0,0.0,0.0,0.0,0.0,515BA400D7,22325.89973708681,12305.470452109403,182.37036458181387,1164.1467775833441,524.7514051150899,94.39717542012518,522.7128176541623,61.99635093623994,454.5049112414952,341.30245125923335,69.26021969460423,143.77073533317497,16.95389473304324,16.8193007374862,89.57415928998589,51.07397163973118,50.328880437189355,4.666395147063649,32
814,A8515BD3FBD3,Apolinar,Felipe,None,1982-09-10,Ciudad de México,felipeapolinar0@gmail.com,None,Facebook,2399930433630863.0,0.0,0.0,0.0,0.0,515BD3FBD3,2076.065061564633,1442.7883714480233,59.534295088932666,136.68037124061883,129.74782866738238,51.314851133944906,35.897045785457685,3.396884050626808,42.89251995113894,64.93406069233328,48.34917717590369,25.31052262223506,17.495434107650713,8.85002625973593,2.686103748257745,11.090748112924766,9.787618142325814,0.17908020787422238,38
815,A8515BD93347,None,None,M,1978-03-20,None,manuelga@live.com.mx,None,Form,0.0,0.0,0.0,0.0,0.0,515BD93347,2491.735060536619,5995.825564523118,349.6580323356586,69.03887420545385,327.4618338902498,115.22361566011823,72.4745881801804,16.680764359432178,111.6417004866754,2.456956991678356,93.95869891266969,47.37409122422187,1.1401603311345658,2.16363896231045,23.420975453219402,7.807480054872269,20.160133108670028,0.7778307837212916,43
820,A87D12080EAD,None,None,M,1980-02-24,None,02241980.erik@gmail.com,None,Form,0.0,0.0,0.0,0.0,0.0,7D12080EAD,1073.241573641099,355.2643099784577,11.547611163423207,54.847771710722434,11.926056345236692,55.323725421701305,47.55808927163176,0.9348040890993305,42.85536066521172,0.09786600578534123,16.17440136693734,13.509014268445195,0.48369283090751125,2.6751856695288128,7.547766888605672,2.6091208253108498,4.953130042108476,0.4505198157875943,41
821,A87D1258AC5D,Ever,Espindola,None,1988-01-16,"Mexico City, Mexico",dharius-diablo@hotmail.com,5543311254,Facebook,1.0216807597156216e+16,0.0,0.0,0.0,0.0,7D1258AC5D,275.8801540342987,343.4474578650809,44.367769256994734,24.46562400988307,20.5831798335954,27.240121490539817,22.42110385629726,22.909109887638174,25.354446942882646,6.801563942500053,6.164744975232032,8.107633133228873,9.009205702844183,2.3520277445345976,1.5020362902426245,1.695863109714955,0.6206968556242851,0.0772610688677365,33
822,A87D128D7B1A,Uriel,Arenas,M,1997-12-22,"Sydney, Australia",kimuriel_arenas@hotmail.com,None,Facebook,1721497201328916.0,0.0,0.0,0.0,0.0,7D128D7B1A,458.9030499997983,5111.655074429306,371.1438687440111,28.28473021404495,16.123769743242054,149.32256879851582,118.62659996746879,27.125879016413922,137.01555632306554,96.74799311649257,24.76368629018221,58.82760101054105,62.222954958253716,27.041796071668852,14.265273795230943,19.607336535682048,11.726600222668303,1.5956607634128666,23
833,A8A198EDEF7F,None,None,M,1997-12-31,None,franciscocortes56@yahoo.com,None,Form,0.0,0.0,0.0,0.0,0.0,A198EDEF7F,638.6800480261629,176.8819760594292,63.204098516208525,15.558113786444887,21.65335385468054,14.132673007225936,29.045565694522523,17.99857411861742,33.22719706633145,15.587298841818276,17.085840606264775,9.949863067897397,0.5681732255790133,1.6255126411650789,1.935690548998307,2.4735529374493153,2.30796599980287,0.08450200140136849,23
850,AC3743028EB3,None,None,M,1985-10-30,None,willipereztorres2015@gmail.com,None,Form,0.0,0.0,0.0,0.0,0.0,3743028EB3,8449.934736404646,16402.45096771567,1378.1229012529436,928.8895428957304,251.7305199666682,566.3258743288011,307.69867449736694,371.25459303057124,30.170278597801047,333.32057890573304,67.73669783881351,158.79118457127353,67.63706099252985,104.84711042672397,39.286822800840916,49.888243960850254,51.926170744282736,0.9880410687485109,35
860,ACF6F7BF63F6,None,None,F,2005-12-28,None,mj005619@gmail.com,None,Form,0.0,0.0,0.0,0.0,0.0,F6F7BF63F6,3563.5349563999616,94.1897767595243,244.894196632885,49.723409760926685,189.65630459073606,137.3640693857106,42.35531840881374,89.5945640024635,41.15303013713597,12.829962408163889,31.00385837234707,34.603880038868475,8.997098047880906,4.578496422831099,8.588512209010036,6.308091245731722,0.5695549304771602,1.0549202465338754,15
890,B4BFF62A2CC3,Maik,VazQuez,M,1988-09-06,Ciudad de México,miky_880906@hotmail.com,None,Facebook,2894140867310463.0,0.0,0.0,0.0,0.0,BFF62A2CC3,389.1359812910468,98.42571153205662,51.09636767593296,41.7110770117863,20.699222345480536,6.356509515757198,15.954694722831738,7.677436212146645,10.106344970750225,9.720299424804388,4.491266234171668,6.00834010490234,3.5283868103072304,1.750997454608993,3.610017419489238,0.19439519182529813,0.34473617843079285,0.18821590367100924,32
891,B4BFF6B6B457,Guadalupe Nubia Azul,Maya Garibay,F,1999-09-25,None,azulmaya41@gmail.com,5534318640,Form,0.0,0.0,0.0,0.0,0.0,BFF6B6B457,1476.4579551443144,683.209737333035,176.51428085686996,100.83715334976945,75.05947971245212,83.10668456394953,64.09738427515344,38.539714629718254,27.467367895411222,13.471274625012672,34.55267671822757,7.106531974182623,1.4888382613536444,2.3351574816920864,11.675415582459504,1.0915729661516547,7.322509411187717,0.6662652190592608,21
892,B4BFF6BB786D,Lupita,Lopez,F,1998-02-17,Ciudad de México,guadalupe.penaloza20@iems.edu.mx,None,Facebook,2910558332332589.0,0.0,0.0,0.0,0.0,BFF6BB786D,4851.123361578863,11889.535741405436,188.7439982007949,404.0006862999335,88.9482001901684,214.81259586699304,295.15390989790734,215.8446795493778,174.9945836081728,16.936571091143374,25.66384907764808,1.7501494881026298,107.78265644586155,51.58689714411022,42.55543129975823,39.31978869571942,19.5235386239254,1.7233615360817534,23
900,B85D0A745062,None,None,M,2005-07-23,None,aleckgz@gmail.com,None,Form,0.0,0.0,0.0,0.0,0.0,5D0A745062,5235.029038593195,1822.5863943831541,197.59801018714583,183.12262870822497,182.2466067516656,68.43578433763159,106.3278720733896,122.523833390249,155.1063112051207,92.82009446785227,26.250237224399875,74.14948348325123,42.000522873067396,13.546359864076539,20.245024641222972,3.5075553778228152,17.906610327825003,1.597632110707223,15
914,B894365FABAE,None,None,M,2006-01-06,None,reyesmejia0106@hotmail.com,None,Form,0.0,0.0,0.0,0.0,0.0,94365FABAE,12.918616478166072,625.6829665300531,15.146246331670813,45.8645568905375,45.797319550878726,3.8320096588066215,10.996224674789387,22.72662523660445,4.851310177903631,16.105065800299908,17.12707173164364,11.68847227578703,2.711423188071412,1.2256225900680786,4.044697577205964,1.1776480634346622,2.99576909201448,0.10835415206446268,15
918,B8B2F87928F7,Casandra,Coronel,M,1996-09-04,"Tlalpan, Distrito Federal, Mexico",vampi_barby@hotmail.com,None,Facebook,1360182454168640.0,0.0,0.0,0.0,0.0,B2F87928F7,814.8350085870276,39.06846878135274,72.16093580756576,56.17181686054202,54.885449015501,13.060759170199372,3.948332946840472,34.671438868920525,28.149185839445032,8.037300692050502,18.94935967191446,2.4622130617775233,8.850197656010382,2.7312889731667154,3.6035104277898524,0.7048938342223589,0.6558282254191073,0.05401158025504641,24
923,B8C3853B09BB,Jose,Espejo,M,1971-04-07,None,josenatividad451jneg@gmail.com,None,Facebook,502271673681529.0,0.0,0.0,0.0,0.0,C3853B09BB,20759.20249992002,3492.8310655215137,438.8971526897829,712.2195964592061,570.6921930731878,433.1237113035907,367.4178970526321,198.29189611743402,241.86008687930382,170.55683095951042,300.04571339432533,118.74818681437816,18.23216940264195,8.20643446838185,77.98066020479378,17.41679171181636,43.67253220121601,5.6045818262590235,50
925,B8C385FABB56,None,None,M,2006-09-13,None,rendon741@hotmail.com,None,Form,0.0,0.0,0.0,0.0,0.0,C385FABB56,743.2932029874967,6338.873601002394,144.73761222700105,339.95080603334094,163.60771366351761,62.287449996864595,126.59713555736298,165.8752270022584,37.78290890245521,102.02827053211573,55.78846506064387,25.376497578004205,21.721270004167746,30.80932518623523,25.714972382963897,0.33148039924822725,8.121861113610688,0.10220037031738416,14
946,BCFED93BD806,None,None,F,2001-09-14,None,layevskareyes54@gmail.com,None,Form,0.0,0.0,0.0,0.0,0.0,FED93BD806,480.9192043915558,213.00656444910183,71.56467100352417,59.91318683443257,57.63548192608797,10.898530536914366,23.62391122565124,34.57132637356855,26.10597071039683,6.508121550077816,19.91826049284044,14.692990822323244,12.309395345900642,6.537159477244486,4.114391298120283,0.15233579274064976,0.22647954602124395,0.3020182234981777,19
951,BCFFEB3465D8,None,None,F,1986-06-25,None,rebe.riveraeli@gmail.com,None,Form,0.0,0.0,0.0,0.0,0.0,FFEB3465D8,5695.488177115191,3897.920651775352,320.644305188083,342.02197971018114,144.81789170492146,300.5233936966557,219.9283327224508,240.39702010283222,163.87676798730277,151.81082400896912,106.1460802544984,100.9744569195559,77.77025478864533,34.97856423422886,43.53514481006282,14.352809527675436,4.789852681269956,2.023492772124702,34
958,BCFFEBB0A0D3,Guillermo,Vandooren,M,1987-03-27,Ecatepec de Morelos,oscaralvaradojuarez1987@gmail.com,None,Facebook,190512921974942.0,0.0,0.0,0.0,0.0,FFEBB0A0D3,661.3604328804696,1023.6685705682603,59.98385629005492,4.789108163366421,4.0458338654450205,13.105370596568676,32.6297791569408,51.494211789387705,18.487517074588755,4.390083695215157,11.794705706309747,25.336277659568918,9.140982763283969,8.172327083830586,2.7976405123319505,4.021357885719795,5.756927699571109,0.02501660908607677,34
962,BCFFEBE5E204,Amili,Negrete,F,2002-01-17,None,amili_negrete@hotmail.com,None,Facebook,135054264657570.0,0.0,0.0,0.0,0.0,FFEBE5E204,7111.0076597909665,7272.130113406054,212.53377428983902,588.5901173189518,61.43731334533297,414.11263286114934,359.4325594948331,300.72407748128944,38.503305153492654,49.45838118488488,172.33104926137622,28.851329340169638,41.67771396587255,54.49167447012785,43.86765608380982,0.8841892263742785,30.845540971761423,0.12091235371329062,19
979,C08C71D20423,Jaime,Ramirez Lopez,M,1977-04-29,None,jaime_ramirez24@hotmail.com,5542633081,Form,0.0,0.0,0.0,0.0,0.0,8C71D20423,1152.0201366159004,996.7277327904336,182.49032009565494,20.65018569611578,42.99464200183411,58.55965320840455,47.95902283987553,23.370579598249737,55.11324128523427,46.30863434935948,15.571640947817581,2.4429722405501844,6.882715639280692,10.520485756682657,2.4989036897485364,7.8674292658228255,2.2576507435686914,0.7640532354666744,44
986,C0B658075DA7,None,None,M,1957-12-28,None,eduardo.castillo@magnatempus.com,None,Form,0.0,0.0,0.0,0.0,0.0,B658075DA7,837.33278431165,19.649921785807663,49.10991976634648,45.36420907034262,21.46751308343839,45.393859546492486,25.695863631718087,33.69304482244587,26.695215695139165,11.94298812426842,10.273981657075337,11.063549859669893,3.5812667197398063,0.21728377494488924,3.000732316456733,1.0614757238872055,1.043884337324383,0.41250577325251947,63
987,C0B65843AE18,None,None,F,1994-11-28,None,lola2573@gmail.com,None,Form,0.0,0.0,0.0,0.0,0.0,B65843AE18,1435.7060514077968,1069.321557223952,6.329280122905195,92.36201035456733,10.577726014070418,9.23959336311516,27.679419449182376,36.852430468213726,13.464129680141209,6.5490632371555435,45.808041777186745,27.138835362176376,23.55616862286733,15.924605109306265,6.801683964257061,6.733955224254986,0.6757941954018394,0.2796544234494079,26
998,C49A0295A2AB,None,None,M,2006-01-25,None,vegalourdes14@yahoo.com.mx,None,Form,0.0,0.0,0.0,0.0,0.0,9A0295A2AB,7645.796154064501,15517.14648678026,286.9946852554116,214.10786841400184,821.3692064933028,331.59538935340635,337.0947295719039,212.5498252351057,8.781447456814927,332.0592169733077,220.44460928602396,220.8380562584322,190.57825877765305,52.912814026971574,93.95469565675562,60.0986466856834,21.951530849832984,2.7263788606330572,15
1007,C8FF284FE391,None,None,M,2006-01-25,None,coronaf@sanborns.com.mx,None,Form,0.0,0.0,0.0,0.0,0.0,FF284FE391,4273.922401932134,11210.088245608351,684.5132123117328,114.68062722571858,44.82041348558504,24.221631586874874,388.57404004902537,316.76148995355726,303.6184732087368,94.96340426804987,76.46917752958666,55.02670593860435,50.910150066953385,39.71532897347858,47.825357239171296,4.586818712967644,31.980168314459434,1.3223535950116307,15
1013,CC464EBC5FFA,Jhon,Hernandez,M,1992-01-13,None,Juanruelas1329@gmail.com,None,Facebook,881416209010540.0,0.0,0.0,0.0,0.0,464EBC5FFA,15843.530926383506,16628.949881295906,1829.453965577298,966.3446313371145,909.7469947258895,265.4194364667809,81.65473097223257,401.3990591330942,65.44251148619553,19.69061154257196,171.85579102253664,48.286926296556175,41.49801641413508,108.21677935276738,73.82239003820071,32.55026969988002,38.45196570775143,4.685112547581092,29
1032,D00401289276,Maritza,Puertos,F,1991-11-08,"Villahermosa, Tabasco",uopss@hotmail.com,9931948967,Facebook,1.0217941124270382e+16,0.0,0.0,0.0,0.0,0401289276,581.1405790109393,29.063652767451547,6.772431374615939,14.734843606159869,29.55864630696039,6.992821152087542,8.927134815703733,4.429803430644428,22.053451481374438,13.557895320877789,4.993953439053831,7.356529055897483,8.666992006805382,3.291478036191729,2.5354047069296253,2.154341890638308,0.675988064792508,0.09405353287641974,29
1034,D0040168BEA6,None,None,F,1980-08-21,None,kestivali08@gmail.com,None,Form,0.0,0.0,0.0,0.0,0.0,040168BEA6,1892.0577273238787,1753.422614772583,366.6030290608327,157.99412018663352,189.5236431206668,150.25426670893734,121.60872132571644,104.63350961675488,54.55303382169099,43.88342015538596,21.27860562247771,54.92597062638328,14.38346062986443,13.719272879469607,9.556297078947859,5.370537788423141,12.486789791034072,0.7449794903210664,40
1038,D013FD24427D,Bernardo,Moreno,M,1984-04-03,Ciudad de México,luis-barcenas@outlook.com,None,Facebook,1200293633692694.0,0.0,0.0,0.0,0.0,13FD24427D,555.4279025969155,809.9865040211556,122.26240619159235,88.39407269131894,51.296948754624594,55.22711973238084,5.644819088142069,40.19108429824523,48.824291025775175,1.6416823356319086,29.2375870429531,18.45685182922943,6.949793210755924,0.20429237539584244,0.723262471450201,1.6738646104065833,0.48513878937641153,0.3723789346505986,37
1039,D016B4503D24,David,Vaz,M,1983-04-28,"Mexico City, Mexico",pirritokds@hotmail.com,None,Facebook,2204979779522286.0,0.0,0.0,0.0,0.0,16B4503D24,2257.5005045884905,2252.969313378247,27.71360184843717,169.54940154005854,190.31223159792134,88.88620892038007,63.47909832660184,82.03704809382198,9.103285806350277,83.61661186180851,79.41300761297701,26.334071562035493,33.548869552499724,21.096797741214708,16.565758697423476,5.276074851584532,1.2531205700017962,0.34499345014485694,38
1045,D05BA83F18F6,None,None,F,1997-12-20,None,veronicabal@hotmail.com,None,Form,0.0,0.0,0.0,0.0,0.0,5BA83F18F6,12730.880056600981,2000.030575674082,115.3065999324799,165.77696005177447,371.6894628937494,106.74465542740474,137.9511423726089,133.38635198906482,171.63404045410556,144.41956856858937,68.30184684807645,109.94013863920097,77.51486107244024,57.769360212013645,35.17878968972506,41.92601386347601,5.627565010259421,2.9220106999669473,23
1061,D0817A4E3378,None,None,F,1996-01-28,None,jula_6991@hotmail.com,None,Form,0.0,0.0,0.0,0.0,0.0,817A4E3378,313.5622351152817,491.6391768301039,30.53813355626673,16.42976901901469,57.13895241992321,21.309924528499966,3.843513457653106,0.3702792990395,6.729369716178646,12.68915930134837,16.375538979067848,11.197445237385224,8.455193855618683,0.07305709281150842,5.540946196578215,0.43098217876161604,1.594091569704625,0.08223164676230227,25
1071,D461DABCBF4A,None,None,F,1979-01-12,None,evelazquez35@yahoo.es,None,Form,0.0,0.0,0.0,0.0,0.0,61DABCBF4A,950.4950144270979,13622.414965401447,322.2256932867836,400.0164628020557,539.2133154271254,321.85669831873076,7.536699943570884,63.43654233077547,15.639220675742207,169.94448777356558,49.326868834135084,64.7231923350173,100.87384956320462,20.614692286711495,5.3830915025960095,26.06432555322773,20.54024968389646,2.6946298543170157,42
1073,D463C6412109,None,None,M,1997-03-23,None,lilianaescudero246@gmail.com,None,Form,0.0,0.0,0.0,0.0,0.0,63C6412109,2676.9060524538313,363.84481610262884,45.47344672369413,144.54794136890467,83.74904195142517,36.646125209112036,89.60955942093022,32.17543492814417,12.728455463890501,10.96939908376681,2.1220745499010287,8.28489492971329,8.586670725563728,2.2531048901863913,2.9504174994585917,1.047465410303181,2.948115800506783,0.15698348803878281,24
1088,D8557517FAC7,None,None,M,1968-07-30,None,ofelia.czgz@gmail.com,None,Form,0.0,0.0,0.0,0.0,0.0,557517FAC7,22497.668256474914,3245.5816519228515,41.858786408027605,686.1705924197435,71.57318239465972,255.07001731251194,282.3824054149449,127.68840493076024,291.40016291492094,89.79163212679279,264.9878001328763,162.38922680146598,187.6784959519388,76.51809138731501,2.7414851305057435,30.356316120097436,34.041341194764094,5.102150960913488,52
1112,DC74A8F91FC0,None,None,M,1981-09-28,None,brauoz.rodriguez@gmail.com,None,Form,0.0,0.0,0.0,0.0,0.0,74A8F91FC0,20354.678009087853,603.9847471580147,410.5731174571586,617.4185060952427,205.5783654396254,338.25524346098007,28.25520957288374,223.87274538970354,18.987260052612378,101.38097988161553,149.73715371019873,193.2654035438399,171.29316123389728,13.159472287167544,52.803244654977256,40.86121267156971,32.6600946184507,1.2360736842119615,39
1116,DCBFE92D48D7,Gregorio,Alvarez Aguilar,M,1971-09-29,Ciudad de México,galvarez2909@hotmail.com,None,Facebook,3496900450382132.0,0.0,0.0,0.0,0.0,BFE92D48D7,245.0660619430637,5268.979100288046,162.10457386672013,276.32164771786745,22.46113959811007,76.50370175897619,61.89497346587304,112.90982462514268,130.76610759844576,30.541886736916954,37.99547738062008,39.192517384970444,47.91932092948173,22.110156878993337,6.534610434269953,5.23682724237765,5.272827827495564,0.18924432262840696,49
1124,DCE8388A1483,Karis,Solecito,None,1987-09-09,Ciudad de México,0,5515059230,Facebook,297004531685697.0,0.0,0.0,0.0,0.0,E8388A1483,1509.996788685581,97.65555888971815,28.091854384771757,60.926142713774325,52.43882443797169,71.91325116818734,33.684417338849315,18.826150906260036,45.41080505472618,4.777747724884992,8.924672994347093,13.866238547660373,15.542850442607584,12.05336376022793,7.833884408769001,0.971483790032127,5.76409736632611,0.3218673853051388,33
1138,E05F45B2F11E,Álvaro,González Martínez de Lecea,None,1979-08-28,None,aglecea@hotmail.com,659052727,Facebook,2727704290621051.0,0.0,0.0,0.0,0.0,5F45B2F11E,1603.4820846568487,2979.392989165443,364.77821477590004,177.85601125534603,152.5197668301977,17.91879129515149,133.76612431640908,72.23500894336165,57.0162369849725,50.397957343321906,55.847746278150304,62.14320881303104,14.61461730735672,17.853087777574757,7.416639774549275,9.677485748035721,9.061044524909036,1.0229842094395167,41
1140,E062675C6B64,None,None,M,2006-01-25,None,gemininosaga005@gmail.com,None,Form,0.0,0.0,0.0,0.0,0.0,62675C6B64,1408.49857413932,662.3860524182812,124.34366088313728,112.80746630682597,85.50552722203389,72.99128497555076,67.4397345706899,27.883999930460014,34.362422302616416,0.6959178443287563,7.655707086172001,5.8833478096265885,6.1292178382825995,4.348568581107456,8.774040624238632,7.715644725967851,5.726723321378293,0.8521094199830889,15
1149,E419C141BE99,Estefanía,Ramírez,F,2000-11-25,Ciudad de México,251100pedagogia@gmail.com,None,Facebook,835704596854306.0,0.0,0.0,0.0,0.0,19C141BE99,13854.123593399518,3239.6515775852836,857.051065620979,441.10124644728694,215.57930237385023,436.99814384813175,222.02377686289813,373.0612953190947,108.98155918643776,58.5448277068666,239.7658999518952,43.204670726778744,48.91482231804083,59.82251909512655,56.02524015202915,39.60893711032871,37.71556118748346,0.8259611079679853,20
1159,E4A7C5EC7640,None,None,F,2006-01-25,None,sanchez.d.karla.m@gmail.com,None,Form,0.0,0.0,0.0,0.0,0.0,A7C5EC7640,1729.3587234756105,10746.388612205335,403.01419776944806,292.3088423791613,339.8021120663772,350.0384253824479,124.8558012108766,65.72715670205173,90.55557078199837,176.51899712858545,113.87436603974292,19.074267567858406,63.240526015384866,36.4628188140724,30.304668198914452,27.024971115619227,2.54139992231617,0.9085432241994894,15
1164,E4FDA1B7F508,Juan,Osa,None,1975-09-10,Ciudad de México,rojas75@hotmail.com,5529668610,Facebook,1.0161777782065484e+16,0.0,0.0,0.0,0.0,FDA1B7F508,232.30037369454809,253.709571667537,46.9669522618072,4.826949110359343,20.002981849333743,1.067431734300334,27.4346095795461,10.295970329245538,7.994694743772545,3.283854449028969,2.396262642712291,0.7513607760711375,2.85740204783522,4.916660462285359,4.007611259205679,1.3513141137937068,0.6734953128696218,0.1625039657481262,45
1165,E4FDA1B7FA75,None,None,M,2006-01-25,None,medinarj79@hotmail.com,None,Form,0.0,0.0,0.0,0.0,0.0,FDA1B7FA75,1537.5309506446063,1489.9083571741999,141.1065876923565,135.3423995025496,159.44808044084715,41.40262394718134,11.426817268588342,55.830472699295676,71.39325343810007,59.29573328656809,44.79656508734881,26.94578078536319,19.343717925603432,2.184148031562075,4.955932328572909,8.197712637196881,4.517346616429925,0.37352049362915146,15
1167,E8508BE37923,None,None,M,1972-02-01,None,breme537@gmail.com,None,Form,0.0,0.0,0.0,0.0,0.0,508BE37923,2142.704636781974,431.0963185798596,114.50598545260998,16.401758712489226,9.090022458317193,88.0078488646207,90.48704188198559,63.90334937193809,76.7289892473255,9.440329669837912,49.86549852630208,27.07949237652075,9.018789512065508,10.294587226159905,3.3676454823118562,5.397161612122763,7.575277575255258,0.035266668303654304,49
1169,EC1F723D2B97,None,None,F,1986-06-06,None,alita1105@gmail.com,None,Form,0.0,0.0,0.0,0.0,0.0,1F723D2B97,308.15634622791526,2766.3880791971364,301.93670807701767,146.85080665951313,111.88147046974116,50.24155009118221,112.96974858527349,88.73067159943619,66.49889390302164,19.677119717139448,2.346972545843986,24.386139802773485,34.64777941333843,0.9588846319716018,3.749546988370577,4.088771906788034,8.92388432208507,0.5666258614546498,34
1177,EC8C9A56BA67,monica,reyes carmona,F,1978-12-26,None,lemoniq2009@hotmail.com,5514851143,Form,0.0,0.0,0.0,0.0,0.0,8C9A56BA67,1467.137749970832,891.0825928329924,36.473102236443005,130.69570173536454,98.8355973001743,48.64095354913045,12.06953203480866,37.448192856236254,71.10412836645345,6.811428771357741,33.19665451111617,23.5449697118478,18.089112538504427,8.417464369294212,9.181555096994778,2.7927466630121787,6.955182893441676,0.5233345619956037,42
1180,F0038C028D6F,None,None,M,1960-04-01,None,verahugof@gmail.com,None,Form,0.0,0.0,0.0,0.0,0.0,038C028D6F,3694.6252363799367,509.9757267851221,154.09558661637348,216.6117539240377,94.68815987015083,16.032630555945868,140.89906721934364,37.29467760158081,62.228401484253624,20.740084790933487,41.874981362646125,6.113265445337856,1.9133721536008823,17.629174427156354,14.257986392819628,8.335364951080033,10.343227540947689,1.3413024987317543,61
1182,F018984F0477,None,None,None,1978-08-23,None,emiliocores@hotmail.com,None,Form,0.0,0.0,0.0,0.0,0.0,18984F0477,706.5590863456671,8164.491722980099,363.3781558774919,285.62311641693844,284.13421886678714,304.0997830231931,58.395707104114805,153.2981057204392,21.894961457000697,52.9707534218332,133.25930545960043,52.68735436178093,60.810315115695694,50.77730851490608,8.397115444099672,11.62235334221556,13.954680750377014,2.645955797761452,42
1192,F08A76083F1E,Jezz,Jime,F,1987-07-28,"Tlaxco, Tlaxcala, Mexico",ale_bebita07@hotmail.com,None,Facebook,1428099247327796.0,0.0,0.0,0.0,0.0,8A76083F1E,9946.261677982764,1939.7998930546967,630.6039937008978,103.27465192070721,256.30043462490585,15.362629384960462,334.8579864779169,285.507447863839,234.3828700943693,120.8282855801697,62.258295097962005,87.84697796874381,3.6067518377667978,44.30314926611918,17.100486530509723,14.487943746608199,29.246427026324064,1.9700978407364362,33
1193,F08A767F39F6,Diana,Gacu,None,1991-05-29,Ciudad de México,dianagacu@gmail.com,None,Facebook,2558904611027628.0,0.0,0.0,0.0,0.0,8A767F39F6,12722.066100648051,5947.566118513402,1279.9946455874278,52.9566189952245,489.4225668232954,403.3983543351573,204.46545416898428,225.77064170459425,229.45006556706343,65.52396802585005,31.456440571841064,156.59627830165937,28.64073530506576,12.216052019088096,30.437974275852934,5.7741833719231845,25.582848090309884,2.680953695212041,29
1203,F0D7AA3B18CA,Mika,Likon,F,1971-01-22,Ciudad de México,mikapriest@hotmail.com,None,Facebook,3136984629698538.0,0.0,0.0,0.0,0.0,D7AA3B18CA,7570.063896880893,3400.003959045346,595.2437865564877,170.84982679444346,485.87799410857065,23.820612475567202,43.038620327227896,228.31090230285193,265.47335718122395,178.54613061370074,60.321773408549326,39.70757543818615,32.570061184531724,17.970363348397946,50.1431347796758,9.131080554183445,18.48996954250386,1.4369554576587813,50
1204,F0D7AA473B4A,None,None,M,1991-06-17,None,gianlinarezg@hotmail.com,None,Form,0.0,0.0,0.0,0.0,0.0,D7AA473B4A,1028.1752508211428,1198.1451982002372,102.34801662170112,77.0945636704446,42.876196368343464,62.78286898942197,84.93612662273787,71.18133919265445,23.178258094903427,40.73066029971604,14.524414120055136,4.694345727780102,19.135562895422854,8.170183412435188,4.9913565785516525,7.916389714121189,0.624300477080415,0.49496819324905095,29
1211,F0EE106CE18C,None,None,F,2006-01-25,None,anacabreracarrillobell@gmail.com,None,Form,0.0,0.0,0.0,0.0,0.0,EE106CE18C,312.44348001212416,1748.017554373051,27.67936630390627,81.34614723650698,97.00354799300904,18.684056479971662,30.471201089558914,3.206002432225854,16.916344863039896,18.544829051076405,5.014168794775101,18.29734745453153,0.25513178003168846,8.017164817036775,10.364671747603632,7.194113113038093,5.894171840452355,0.6507006180603679,15
1224,F47DEFCA98F3,None,None,M,1997-12-31,None,omarbravo82_@hotmail.com,None,Form,0.0,0.0,0.0,0.0,0.0,7DEFCA98F3,86.98874489626063,832.9433367622992,7.2289167992114916,8.563157740955077,27.45733121371355,8.70490079718802,41.744146401172195,13.933100351241123,12.716239483827582,5.023545006779853,6.891258511386623,9.475028264870504,6.764192256584621,0.6963132001306275,5.881949102362555,1.651626047253769,1.9231798406761555,0.4130333240864279,23
1261,FC183C22AB68,None,None,M,1982-02-01,None,benguia82@outlook.com,None,Form,0.0,0.0,0.0,0.0,0.0,183C22AB68,621.9779673823514,2578.5739926020888,166.6195193819639,39.02221742286491,33.582276802074276,89.1448685091872,76.63840790590466,55.5091693543081,62.75279229062623,28.425845262792276,46.3272378667139,13.369045879181204,6.919992199072926,2.2701157568066357,14.16080278734299,6.059596585464136,6.471301041006006,0.17485097025057794,39
1262,FC183C53CEB4,None,None,M,1993-08-26,None,donjuan_angel@icloud.com,None,Form,0.0,0.0,0.0,0.0,0.0,183C53CEB4,2931.17277277239,628.1106088414206,159.39462390961447,92.6203423238326,52.284461362378494,44.78788587282648,41.62630068965532,53.3983283023179,39.37426202708865,19.94994541721066,3.589285920756341,35.726415783072355,10.385964947131914,13.367788606428324,17.378661488035405,1.4525592839510633,6.324901789906098,1.054890661983242,27
1263,FC183C59228A,None,None,M,1993-07-23,None,clauz_mtz@live.com.mx,None,Form,0.0,0.0,0.0,0.0,0.0,183C59228A,377.39903804882516,1076.124076507915,84.9524678147582,57.91634497252335,2.5748654501578585,51.147270519696896,20.959733133469268,13.856282190671841,0.806237370246729,11.007623861820031,11.116541117762125,2.227680594831794,5.7166673922401054,10.735714419816613,0.29747391391514283,5.776814010617216,0.32272112562737865,0.06244755510488253,27
1265,FC183C9A116A,None,None,F,1990-03-24,None,cinthia240390@icloud.com,None,Form,0.0,0.0,0.0,0.0,0.0,183C9A116A,8471.93320657536,2776.263049493832,724.1549619167924,330.171948464253,99.15712397649104,172.38669751789556,71.74711736965114,24.973630651767532,78.77559582525808,165.98479485507787,62.2739403226057,93.89175209480268,60.783292083421735,33.37580124654215,38.30093268057677,18.05901983628096,7.050171042915108,1.7169640464775198,31
1266,FC183CA06F6A,Angel,Cordova,M,1982-05-26,"Alvaro Obregón, Guerrero, Mexico",escribeuna@hotmail.com,None,Facebook,1.0216174454450416e+16,0.0,0.0,0.0,0.0,183CA06F6A,178.442341280081,3978.0855962452015,265.92293914258653,73.33580788501409,15.837596605473118,14.279732922735207,132.03968977147915,0.9978395298534803,14.1165127771753,66.39070068615328,33.11368634169714,17.28706211758011,10.719128387359003,11.471639364139058,19.649018959614597,8.523418491242703,3.2814133813535316,0.5058761112607985,39
1287,FCA621A64EDA,Luis,Juarez,M,1997-12-11,Ciudad de México,luifenano240@gmail.com,None,Facebook,1149186815443185.0,0.0,0.0,0.0,0.0,A621A64EDA,926.1170462763997,18981.96713671513,640.4505961733609,304.20466548855086,610.5034302470137,235.79448988618128,437.77105710542435,197.88467831061382,106.94557155831235,187.27299802998388,52.58071020693544,87.40600043941582,79.30255310823352,29.172568022034127,15.987835505722872,45.813369458462844,21.051624151210472,3.7736693170097886,23
1302,D4C94B18D89E,Alejandro,Roque,M,1987-09-23,None,aroque309@gmail.com,5578437250,Form,0.0,0.0,0.0,0.0,0.0,C94B18D89E,1580.6787560949026,299.2027713129095,143.44018194465028,69.08284617334922,17.4394240463696,17.176967563470118,43.14933709424324,13.795617358876726,58.21815644550122,33.34491820735015,24.002004435080472,6.895067606567193,4.9030087865434036,1.7296439512295825,8.99479319684838,1.1311157240678873,0.685005752907992,0.13038430513257318,33
1308,D4C94B1ABE2F,None,None,M,2006-01-25,None,jguel2705@gmail.com,None,Form,0.0,0.0,0.0,0.0,0.0,C94B1ABE2F,658.0412016039758,185.0881928481528,19.230524690545987,2.360818195241961,18.879537049794855,40.94385196091014,8.10562518792982,16.059251716460828,3.6217489766488393,3.6953217043819873,18.64028989925333,11.036997140305216,2.401494924000038,2.2781732304235875,3.848991483206224,2.0792369107757542,3.3510967914506637,0.33764568654208305,15
1311,D4C94B59A094,El-gallito,Cumbia,M,1913-02-03,None,gallo.cumbia@gmail.com,None,Facebook,463660541045860.0,0.0,0.0,0.0,0.0,C94B59A094,1620.0975807943464,187.43651733968693,60.68754252867369,19.261943423651754,51.884865780125544,7.813790901784378,4.411432265803954,55.92274820891925,18.60990809088505,29.686904134518866,4.647793148371899,8.647894677596465,15.477627777991813,2.0446526003093526,3.7090375095918118,1.660240062759703,2.865537541783657,0.13398321319981,8
