,client_mac,first_name,last_name,gender,date_of_birth,location,email,mobile,source,facebook_id,twitter_id,instagram_id,linkedin_id,oneclick_id,client_mac10,Relojería / Joyería,Restaurante,Lentes,Discos,Otros de farmacia,Zona de exclusión,Libros,Dulcería,Parafarmacia,Pastelería,Dermatología ,Tabacos,Fotografía,Caballeros,Novedades,Juguetes,Farmacia,Pasillo juguetes,Regalos,age
159,1CCCD67DFFD8,None,None,M,1969-07-25,None,luisjosefra@hotmail.com,None,Form,0.0,0.0,0.0,0.0,0.0,CCD67DFFD8,863.0085705888769,156.35514549658868,87.4331082600239,35.159657893428694,69.47061401280341,58.746955779764214,19.4955627511269,21.648131041538633,5.9429993710686535,16.651722877049142,7.9486530477682615,10.44254862844682,0.6742968173388594,3.0825197311330004,0.6778480969617018,1.0373953121600274,2.194843851158917,0.7306521021616266,0.29877434060215224,51
162,202D072B40AE,None,None,M,1991-01-02,None,yoniantoniomartinez@gmail.com,None,Form,0.0,0.0,0.0,0.0,0.0,2D072B40AE,8062.08079542303,4300.560964355629,505.853510474742,167.57175876321173,228.07604748807253,340.99744655241034,300.75910743835414,83.4085124216793,95.1704749171227,155.65833124373006,97.64493706904501,40.98925272297278,42.93150536474738,22.734017911154034,5.53708551157366,30.18928115060185,45.62393747565716,0.2642536160104296,1.9487801002542855,30
166,20326CCD069A,None,None,F,2006-01-25,None,elizabethfragosomagdaleno@mail.com,None,Form,0.0,0.0,0.0,0.0,0.0,326CCD069A,5008.763819481474,14481.719103712787,485.94714786607335,9.567166204691015,512.6828152091246,385.97509074927734,402.05638264506644,116.00407143574188,28.168541532520546,163.4941143849292,75.83193860545512,71.41545639541152,117.6644760869483,0.4136362639969595,70.05380515292359,37.75569002074919,6.589738239359,4.708551342320736,2.1884546711520523,15
190,2446C88BCCFE,None,None,M,1985-01-29,None,dalbarez2901@gmail.com,None,Form,0.0,0.0,0.0,0.0,0.0,46C88BCCFE,140.47662461722572,3629.921219656197,52.44317352399187,74.46232707401896,164.50059501646174,47.516559485100586,45.43510375635985,53.13183444815295,40.24212467907516,30.89226878932453,30.985755757636785,37.67088148334323,30.404470427441105,15.70910188328976,17.835526452663572,7.705849125694277,12.978224769696505,1.9007783657199029,0.7875806886065939,36
198,24DF6A139788,None,None,M,1989-11-28,None,tetotaty211016@gmail.com,None,Form,0.0,0.0,0.0,0.0,0.0,DF6A139788,2415.6639144239543,23981.72564654698,855.2304690423176,565.8850072937838,36.473478334805165,669.5754651651375,96.54216072298739,277.37313596738807,125.75642916273597,162.34777939105575,203.74990184176016,185.79322163235318,38.20709095184621,62.58668687873541,93.32119725864118,24.012693393379912,48.23986100038442,0.5929162293834482,2.9229447623629734,31
214,30074D55319E,None,None,F,2000-09-19,None,luzma_6419@hotmail.com,None,Form,0.0,0.0,0.0,0.0,0.0,074D55319E,868.35770962672,3166.7703460938837,329.8880060187311,40.66517816993185,112.85562517615028,19.81706949140098,109.0021643694317,49.80988299298221,53.89530351062207,31.650711120420695,41.5985925301205,39.072950368179825,9.438900813159718,10.162024468250095,17.398437313191074,5.561900929458038,5.229788641718426,0.4165085729711939,0.4088997926776834,20
217,30074D6A71E7,None,None,F,2006-01-25,None,rocco1245@gmai.com,None,Form,0.0,0.0,0.0,0.0,0.0,074D6A71E7,4616.296820386874,1806.4611030680326,182.62536062062526,55.58905899993982,149.98961284325716,121.58293784805431,15.78091306454573,57.30608939564697,28.134370959455076,81.43365421366511,25.037784151210506,32.00911242581371,11.525047193515581,34.30624685663711,30.945529310616045,5.58746426945314,18.831215982750862,2.0536888636003434,0.5039895463047874,15
222,30074D80B7FE,None,None,F,1989-05-05,None,jessicavereniceortizvega@gmail.com,None,Form,0.0,0.0,0.0,0.0,0.0,074D80B7FE,468.5963874717113,456.53482033283893,20.560206972179753,62.14575217820781,10.032919824353467,37.014999485639926,29.486318173323372,15.26257820275797,19.780341869861875,12.787781082226974,2.538639757182614,12.824645056786432,5.481760247576569,4.674776550874701,0.1438608178405853,4.530767596539853,1.453188298452964,0.05297150684353791,0.09728457480086758,32
228,3035ADB823CA,None,None,M,1968-01-08,None,paulinagustin@gmail.com,None,Form,0.0,0.0,0.0,0.0,0.0,35ADB823CA,1269.0400313813739,351.21412861050624,32.589713510125826,77.51168640477161,83.48027911040585,58.805048612693064,41.667149486173166,28.606895070539952,27.571954736098338,3.8915135323431493,22.57147346244335,1.5862809084785718,16.643492239431502,4.468735537317934,1.6671505747003934,2.526549544576325,5.337662197697432,0.7035051756921953,0.11674990463022365,53
233,304B0748F2F4,None,None,M,2006-09-06,None,luismanueli0691@gmail.com,None,Form,0.0,0.0,0.0,0.0,0.0,4B0748F2F4,416.13604355167644,387.9770489247954,77.03797519403626,17.417771699527126,29.236505221905894,19.262067442992112,17.45832919852463,15.65992837954301,0.3164311365392492,10.11809944709967,1.5174045619571117,7.160071953845333,2.344508514296434,6.486085931160884,3.2188835221010077,5.049544639723348,5.241790512895568,0.3423541119780303,0.01915605540256234,14
241,304B07B67AAA,Pilas,Cortes,M,1991-09-12,None,pepec2293@gmail.com,None,Facebook,412434189645509.0,0.0,0.0,0.0,0.0,4B07B67AAA,2186.172891132996,461.31388142266513,161.73765049013903,103.8319296335503,128.52807053777448,59.08676169851373,93.95673061824324,24.110460584193994,34.89595381347825,44.08097966617447,10.477240665692914,24.914265404055644,7.808772101275822,12.748393184641278,6.943620594975709,9.712060296528449,9.220329375688943,0.21657938413901315,0.243429395274252,29
322,444ADB371196,None,None,M,2002-01-12,None,martinezob@asf.edu.mx,None,Form,0.0,0.0,0.0,0.0,0.0,4ADB371196,1406.4869068911717,7523.188124697659,209.26635997545014,353.65817495669984,234.3725418126722,55.265577910284925,184.85650021463718,46.57957158591216,5.170038757064391,39.49220702117404,55.43137091189308,75.0976961306733,0.8145026249779523,17.490445327383902,13.012548786517877,17.606180654405946,22.189505270775662,3.8096568438617835,1.2120896267845072,19
332,44D79170E4C1,Oscar,López,M,1995-02-08,"Cuauhtémoc, Distrito Federal, Mexico",oscarchivas_619@hotmail.com,None,Facebook,3615390245199391.0,0.0,0.0,0.0,0.0,D79170E4C1,1896.5231088915612,5916.372515974502,485.2541769587504,339.49888888392206,209.0231729062594,41.99282748360342,208.81080411903,18.65904687471822,17.813444432912945,62.37834034749768,48.3650004166153,4.107550614371514,13.473177616068337,13.794651847167161,27.722752832750814,2.527925313502032,1.692611646927411,2.4215911005831963,1.5684117392579437,26
339,483FE9EB99CA,Miguel Angel,Silis,M,1986-06-27,None,miguelangelsilis03@gmail.com,None,Facebook,119076849641602.0,0.0,0.0,0.0,0.0,3FE9EB99CA,2606.782241258189,6335.130976431517,114.93149352149248,183.3453541834701,72.43581911029342,212.27268685599955,192.44548671556947,77.87545377246379,67.91001453646605,21.80099547482282,65.55328577203392,80.21226689150484,34.1658095804054,4.517309192956476,32.28435302393131,34.57613680177703,26.03977413727645,1.198982011767922,1.5215607280602905,34
346,4888CA2CCF4F,Miguel,Nava,M,1965-09-16,None,mikinava1234@mail.com,None,Facebook,457885718476096.0,0.0,0.0,0.0,0.0,88CA2CCF4F,1106.3192374153987,2718.8274946034517,273.7189634204205,187.15711312249172,64.69374678292753,60.82586541782518,85.40624133979995,61.22605690144682,43.073393936896835,6.122083364931012,19.606251322318833,26.808598941695564,27.022638925013414,18.6402979091886,16.313328447647653,2.289585928220947,11.467716164302628,0.976819689600593,0.5045663664216344,55
352,48C7965AB60F,None,None,F,2006-02-08,None,xuany83fogoneras@gmail.com,None,Form,0.0,0.0,0.0,0.0,0.0,C7965AB60F,15811.425856689166,2403.519880580496,495.1825428448733,907.523534512109,572.7614260535843,12.127138613841685,330.39166227896135,93.5098136348214,78.57873539293325,11.179887667652153,167.53767185512186,1.0683125846137445,47.03436452051497,1.0749765980073214,41.88591658162473,22.367227066301794,3.184711021266273,2.2950269665401546,1.3513145375727607,15
356,48C7969AFD39,None,None,M,2006-01-25,None,sanlop42tonny@gmail.com,None,Form,0.0,0.0,0.0,0.0,0.0,C7969AFD39,3861.715381417043,232.75398015924128,55.46702182817814,16.721502632075772,148.175703322735,19.49590783258161,19.9872996962682,44.98934035161249,31.587255840846993,33.74393135627594,42.52403423689585,22.427492492164284,29.2018959875916,17.947044620480252,9.997175780278265,6.05070695136224,1.7770964044674686,0.6625542184364243,0.7746748714659797,15
408,587F57F2418B,Sheila,Ram,M,2001-11-02,Bogotá,montoyaariel@gmail.com,5547834492,Facebook,936562233349723.0,0.0,0.0,0.0,0.0,7F57F2418B,15542.478028638789,13364.55113797655,537.0719026683735,226.2788959914154,842.7455018483163,525.1931850334445,330.1142002703693,199.42821222102066,210.31642050871645,301.87819506387615,58.39139828379477,3.784761494268023,98.32282748965527,98.79860121067796,108.97495897403275,81.67390034211812,94.7843963368288,1.8699341735818604,0.343541474178508,19
417,58D9C364ED52,None,None,M,1992-05-08,None,10392oscar@gmail.com,None,Form,0.0,0.0,0.0,0.0,0.0,D9C364ED52,3415.3454777228126,379.4120655837818,188.69609566130634,213.3673797036677,152.99673813337512,81.53136824896626,0.5068839873748102,46.553612074600416,56.84492921794559,63.39947613151733,27.166699926903778,14.683503877938975,13.823231890513817,20.03270970701104,11.534687787976987,9.496880674907596,9.861430011097832,0.41477046649676663,0.33205919180612525,29
423,58D9C3B9B6CE,None,None,M,1977-12-23,None,vicdecadente77@gmail.com,None,Form,0.0,0.0,0.0,0.0,0.0,D9C3B9B6CE,1117.9483872193448,4937.858726530262,127.6700521042495,91.2899769645273,230.38923766424176,164.29826039129986,19.802677483542357,64.14093219795686,45.09512830054695,78.82802216882509,35.210365673346644,46.140360034013355,25.292221969464702,6.582751267769298,12.127832594377123,7.606434236477537,0.7681205952663209,2.740001618613031,1.2105109858767367,43
445,601466C6EB55,Jose,Jr,None,2000-03-04,"Mexico City, Mexico",cirilo-alvarez.34@outlook.es,None,Facebook,2163068353965680.0,0.0,0.0,0.0,0.0,1466C6EB55,144.183130389192,510.40126136308226,7.115650788982147,3.7114240593167964,16.996733490649337,15.32973888230762,5.579532378064727,11.44384142122095,7.0851475873791605,3.220502332806852,2.6889192688034247,8.230082810465573,6.737992653266415,4.375233380463127,3.5705766355141635,3.312428504319099,1.4858817346802635,0.47620552274276856,0.05571679674346138,21
446,601466E8582F,Leo,Rys,M,1983-12-12,Ciudad de México,perezralicia000@gmail.com,None,Facebook,2746158445512511.0,0.0,0.0,0.0,0.0,1466E8582F,711.7125415875907,719.6069349939739,17.85948503920547,34.64353534975317,26.754817754155745,21.442306476032016,9.725525922281836,8.33619823262552,22.285582587120548,22.392478042291614,11.22620013285515,0.040238413800863404,11.52677968287644,1.166752078178118,0.5715153290697222,0.2860163775400447,7.730589979810084,0.4279634170263061,0.26453860381218447,37
454,601D917769B2,None,None,M,1975-05-29,None,eortizecor@gmail.com,None,Form,0.0,0.0,0.0,0.0,0.0,1D917769B2,180.063961445657,5048.710461795858,199.1581898124008,270.0406672058833,22.91533348177475,108.47456299116688,90.64941495514107,37.60442271506519,31.803320807858807,9.417270954090672,35.03129852419535,30.989436493139753,0.9215600293026803,26.613374705271532,9.976086763546459,2.2930401694259457,3.9850443352138747,2.32367538638799,0.028877428621118258,46
455,601D91776D6F,None,None,M,1965-05-25,None,zamoram@sanborns.com.mx,None,Form,0.0,0.0,0.0,0.0,0.0,1D91776D6F,250.59433525147847,461.56716845380924,45.9870790824482,36.83450584283068,49.17846531549658,16.723649314637477,18.04108927751977,10.16126915778482,14.224527913668334,14.610270994343002,5.519188017096251,8.621927430338841,0.9481837973289404,7.287579975367915,2.7518991985233545,3.935906177902811,0.39585207255463395,0.5164774309340375,0.10062529593677014,56
456,601D91778BDB,None,None,M,1977-12-03,None,arteagam@sanborns.com.mx,None,Form,0.0,0.0,0.0,0.0,0.0,1D91778BDB,60.17756652537551,775.5510096772995,29.822543152895395,76.38755539423819,15.89559816195756,49.2671558212425,40.52868447842299,10.316004233768751,2.2358207495630134,5.139141542172374,3.1234723077135844,10.903393008496593,9.398726262223372,0.2783980903322408,0.9188925136763185,3.0609771689230656,2.338646321688231,0.4286887355008521,0.22772585450989724,43
461,601D91BBA9D1,Citlalli,Rosas,F,1981-08-31,Ciudad de México,alexurbano234@gmail.com,None,Facebook,813730255798476.0,0.0,0.0,0.0,0.0,1D91BBA9D1,414.1347967658103,138.6367083968444,55.59293113076494,42.09445474396644,0.9125082003116517,16.485124757213644,17.813265936261327,5.63142956864833,5.863300362610197,7.49439132238941,6.456227967034639,4.919613188178719,4.946896668815633,2.235382761014,3.6652753587653657,2.1215021300484422,4.287008858484219,0.47892547435178795,0.23025640848649903,39
464,601D91D6EDE8,None,None,M,2002-12-04,None,andres561@live.com.mx,None,Form,0.0,0.0,0.0,0.0,0.0,1D91D6EDE8,293.8733689676962,527.3498919825881,7.9009040764135685,29.602618746191467,26.86635860400098,17.83530432010206,26.78029026633253,11.085418048484705,5.342941032599253,0.5895430897465672,0.5162956597650311,12.217215555358697,0.3753832600495448,0.36262141070688036,0.3985243715386824,3.522313615185301,3.738802511617963,0.38670864920405534,0.2554958324182774,18
471,608373092E32,Michelle,Vargas S,None,1975-03-16,"Mexico City, Mexico",michelle.salim@gmail.com,None,Facebook,2177958585596958.0,0.0,0.0,0.0,0.0,8373092E32,2299.1361647395015,1812.8585650535556,125.62351770658938,125.57170194350493,61.38415897932403,103.05202905086965,69.21591406991416,55.40501484658134,37.90475421419692,43.576086889631696,15.110085816053672,20.926457873571298,14.54897098942488,22.894405924074306,0.024074958946674555,5.634024265611628,4.949702486420844,0.43975957882640104,0.7446106134011721,46
504,6C71D92FC290,None,None,F,2006-01-25,None,plazacarsot@sanborns.com,None,Form,0.0,0.0,0.0,0.0,0.0,71D92FC290,1228.2325692058448,2607.30875933027,60.94886280905078,194.41971013996,187.13022780882665,1.4754026964785356,59.78852357909491,26.930232053624305,56.38074576554714,62.10173790887957,32.76495078848308,47.46803993811028,26.840467355906046,25.17162473733939,20.959210929249696,10.41073699160194,1.3449849802073262,0.7295855129482638,0.5936274685792704,15
510,703A512EDC7B,None,None,M,1985-07-05,None,luisfdo2018@gmail.com,None,Form,0.0,0.0,0.0,0.0,0.0,3A512EDC7B,2191.095463822518,20366.413377566783,901.1632003950524,1004.7482050765589,654.6691830002167,621.0121794051748,226.92136042343768,67.60743753627722,212.24814357795637,57.93284075759262,172.3830012400094,100.9446281681948,141.21403264843988,32.90069375061329,12.686771872680884,71.45760357221803,31.62000648687852,5.441579903237176,0.5402907961608386,35
527,74C14F41E867,Oliver,Isunza,M,1981-03-07,Iztapalapa,dies_irae00@hotmail.com,None,Facebook,2783777484972631.0,0.0,0.0,0.0,0.0,C14F41E867,1841.3610168968473,1089.2510678284564,4.491620228467862,143.08265381944435,76.43101382324069,106.6292862399284,54.818563209278196,4.160356543902347,8.875669762835033,2.0981790075211966,34.85599480188054,3.676682583720638,4.505615067225372,16.575810990700386,15.731334701730919,8.926343643639521,5.715888897103478,1.2274659282913527,0.5854360257859988,40
555,7CD6613A410D,None,None,M,1971-12-24,None,irtorresa00@gmail.com,None,Form,0.0,0.0,0.0,0.0,0.0,D6613A410D,267.9186016327665,661.9456944328542,88.60899181793518,42.382845729401694,24.09035402942596,9.365263087487099,26.768368694882568,3.869660692359182,10.685929230877928,6.806613887113931,7.377814609929268,13.133062171300882,1.6665955483178156,2.1068186823724124,6.054768602112078,1.9123938292722658,1.9041781287658932,0.3878461861837714,0.014199006641552167,49
561,800C67BC601E,None,None,M,1986-04-15,None,eder.tovesc@gmail.com,None,Form,0.0,0.0,0.0,0.0,0.0,0C67BC601E,1936.589223730562,178.786741556438,133.06478511437095,48.78411071471428,11.115140160440554,31.098150978431523,74.12603738061127,28.889733628883967,28.423668602145337,26.27846242515781,21.02145873916759,16.345455823559835,13.899054072360732,11.578973833991967,4.937968370848966,11.664874281076079,4.270001069755201,0.9542152110814569,0.17194430640249328,35
568,804E7046D3EA,None,None,M,1983-08-30,None,blackhoga@gmail.com,None,Form,0.0,0.0,0.0,0.0,0.0,4E7046D3EA,3086.576980705901,32356.904745849846,274.71949228878253,695.5950073866354,24.093547926573578,541.0025253429116,301.57865687768094,385.27782992449795,169.22295681627338,251.325705750609,0.2530448360036107,32.85386226549495,75.92172659835316,93.21315313389158,84.67336612901413,117.64049512270766,48.31714358853581,3.0336279388452114,0.7961315174466124,37
579,847637809620,None,None,M,1967-10-11,None,arqcourja@gmail.com,None,Form,0.0,0.0,0.0,0.0,0.0,7637809620,546.2743358370384,131.22231161248055,88.88262140333526,57.60192136318535,22.50810445569043,8.00080960516948,12.499711795103035,10.306894887423814,1.527610709545028,16.967400582073644,7.688976901913491,12.26059543486435,9.062517620450013,2.710287971967072,0.5359913025419955,2.8327986666167417,0.5150722595951451,0.5874881729464415,0.01454941806011541,53
602,88797E4771D6,None,None,M,2000-01-01,None,eduardoguerrazavala@gmail.com,None,Form,0.0,0.0,0.0,0.0,0.0,797E4771D6,2173.4288181507254,6040.8129642617505,39.84836978962264,428.18428372088084,311.31434006863196,215.9725771560483,19.486420940858025,14.325197832627268,33.24003178598198,20.991820952039344,75.20353987684993,70.48485361873851,5.465980105337379,37.44366914349316,20.67488200074696,23.360128013850744,31.964779824925586,3.06019465238236,0.7371481045101281,21
604,88797E9DC664,None,None,None,1959-12-02,None,esra_1012@hotmail.com,None,Form,0.0,0.0,0.0,0.0,0.0,797E9DC664,74.08182658069326,467.262388659249,57.75094506582363,47.79073338298365,14.007078242777775,13.433327119907847,22.323652283995173,3.3650776946652194,5.225021761007119,6.449482686488987,3.2586869610048494,3.6513214183495184,4.8988278670402226,5.47845503207149,3.7587148873609633,2.4738203899415447,3.1769935756711063,0.39862861459840365,0.21501777637031738,61
620,88B4A64F5994,None,None,M,1997-12-04,None,os526488@gmail.com,None,Form,0.0,0.0,0.0,0.0,0.0,B4A64F5994,13101.890685169457,2287.940609288688,120.17767940472471,175.95348766285298,219.29179544823518,197.46156737968346,257.6889418402107,107.75931629685473,168.07762106738704,36.54326405371242,79.10468164884584,118.73386916445675,77.28815532056251,31.369251502666383,35.69999734239873,25.16517772606453,12.770937271993198,1.6921263609425714,1.3908360502624815,23
635,8C450079DECA,None,None,F,2006-01-25,None,lojomaug13@hotmail.com,None,Form,0.0,0.0,0.0,0.0,0.0,450079DECA,1670.5294882036444,1022.5929815207511,191.56712562602752,30.370664258797547,47.06082358411546,67.80639768888152,70.15477873692367,14.16229218834079,6.950651837687972,24.7445344287728,10.423736226647328,27.893753643925088,22.725344195329146,13.480761008766892,8.740564929947459,8.871984964619626,0.18027088290306412,0.9873088381666173,0.7565372357512219,15
644,8C861E4F3D86,None,None,M,1989-08-09,None,lalo_baez69@hotmail.com,None,Form,0.0,0.0,0.0,0.0,0.0,861E4F3D86,9247.334298922875,16319.391251027704,1318.749974308848,915.6206063601835,12.655818609058164,658.8734779316363,583.1000795611515,346.36188536641384,87.72105090013181,219.52149235457333,169.0778923369614,16.32761725956803,119.52469035009729,117.58101734660994,63.86479583793889,80.26758033170148,34.452097771440876,8.3580989198604,2.2162745032434157,31
650,8C99E65ABB9B,None,None,M,2002-01-07,None,leomtzgtz.123@gmail.com,None,Form,0.0,0.0,0.0,0.0,0.0,99E65ABB9B,1744.700712618736,15832.055272003268,287.14845071805354,589.8427788344072,62.79857120867456,274.6099244346359,32.66656405579015,63.89577003622537,155.0236438333902,103.30774195159002,113.48111951606205,93.5172245613059,1.6911700473129492,42.71833172012953,6.299375788695573,37.45782445723164,5.508048455490055,1.7395530105088537,1.5379227484913764,19
680,90633BF9743D,Arvízu,LS,F,1996-10-14,Ciudad de México,nayellicd9.1410@gmail.com,None,Facebook,2409561065924539.0,0.0,0.0,0.0,0.0,633BF9743D,361.5994451097033,483.69244910428114,39.001032954277754,43.95411955071298,59.15650630532732,15.050763325021306,32.853756688009625,24.28348851771444,18.963517061309382,17.332388412689124,6.303793948283312,10.582344881962786,1.9488382250722136,4.407215187199146,0.8502991252762193,5.510317138208402,5.36452376180522,0.0645680893683413,0.08063261377753517,24
688,90735A59DD62,None,None,M,1978-10-11,None,oscar.olayo5@gmail.com,None,Form,0.0,0.0,0.0,0.0,0.0,735A59DD62,16539.96194573462,10986.447771931584,459.4711696712559,174.47915237288487,517.4295368012988,212.72743375105279,444.36947542975423,209.37956777211713,49.04871481269429,227.57678009958917,23.96583729602155,27.80630720178164,50.023646465540104,110.11126196155212,81.53629150931025,15.491760629279256,67.72758707391755,7.814889510799396,0.6308699749519466,42
690,90735A7B2D58,None,None,M,1984-07-22,None,gerarquiagodoy@gmail.com,None,Form,0.0,0.0,0.0,0.0,0.0,735A7B2D58,478.68958461106115,407.2895244851754,97.46069261805596,57.141478036814014,56.19850715651509,33.85749153714799,25.472051965603665,7.02647875904897,20.16970154926523,2.2721718224775276,8.73767856051162,4.379799579856854,6.2409987181111815,3.011653839338522,4.845993004920742,5.2539036801263785,4.605550471448073,0.15137996341777687,0.19535964110345094,36
744,9C5CF9EA7856,Yair,Yépez,M,1979-05-28,"Atlanta, Georgia",yair.yepez@yahoo.com,None,Facebook,2512940768734401.0,0.0,0.0,0.0,0.0,5CF9EA7856,716.3636807211631,488.9223475363301,109.08201250070944,60.01583420761841,11.988455372485353,4.538423338892452,25.72592911177149,17.54174282333286,21.359773056555735,20.169542859286498,9.083584590208442,2.05553276730335,12.22167975344499,3.431503513711852,1.7227553380439746,2.833724291229146,5.306413411196139,0.22891308820157766,0.4081517185148649,42
746,9CAD97B2923F,None,None,M,2006-01-25,None,vallealfonso77@gmail.com,None,Form,0.0,0.0,0.0,0.0,0.0,AD97B2923F,4497.2932131933685,8960.461992330685,104.319600201235,387.0186065247092,167.3702695790893,266.0200969394155,128.92193261923435,75.00091240942423,94.76208003859911,90.27660529443045,110.97225754317385,44.009053034719656,76.5223577336176,21.227082058900315,22.51763071024001,39.92090790635438,19.709351777797718,4.375742632792753,1.3003074722084533,15
748,9CE65E1E72B9,None,None,None,2006-01-01,None,mayradiaz13@hotmail.com,None,Form,0.0,0.0,0.0,0.0,0.0,E65E1E72B9,578.0788498707578,436.93856164033707,92.4222683233257,32.63459028832417,35.241625312745256,9.37562267468509,11.329443757196046,7.3827631776672895,19.655437140613515,14.355288385227485,2.7559310278349125,16.37604829227303,3.1378791704141538,6.653006166492069,7.175740545602026,4.390763510647637,2.0259910235779146,0.04230244578181077,0.02788724649704829,15
751,A041477C8D21,Alberto,Ojeda,M,1977-09-09,None,alberto770909@hotmail.com,None,Facebook,1.0217640772305374e+16,0.0,0.0,0.0,0.0,41477C8D21,1778.4351948176734,140.2693418523997,168.79326039979392,146.9350273979613,84.2790290410548,23.26424484340002,69.84945399025723,31.826483836906288,38.092082655280414,13.227986956285964,27.722834969035496,25.97359303949266,11.51610354947709,8.768913939299132,8.9690471859694,0.21374974160339338,6.762777327410374,0.6752693927527578,0.42560506394725656,43
782,A4D931BE77AA,None,None,F,1994-10-01,None,hellofridis@hotmail.com,None,Form,0.0,0.0,0.0,0.0,0.0,D931BE77AA,1782.5473242767828,1362.6723161964946,49.463474352302,180.679527206098,25.645606290753893,69.13343728587427,34.20987360929462,43.72292435214636,14.600698383123165,22.909430222574894,42.59561723077421,19.616556925144266,24.661359859963365,3.8436959917543776,9.324219218962533,2.796556614366257,14.129307046984385,0.031830540652002595,0.4162443959549565,26
788,A8346A1513B0,None,None,F,1995-09-08,None,poleoney.89@gmail.com,None,Form,0.0,0.0,0.0,0.0,0.0,346A1513B0,63.13910553562666,616.6566522686006,12.279065818363001,60.93978532315571,49.55457547726263,7.5539584621625755,33.41178785924869,20.155513126287417,14.30897285102823,16.12707256911939,13.460730349781345,0.6282949534939101,7.408250833358051,5.389542572301043,0.32742924110937116,3.920099796486977,4.475414375242812,0.13405205165713288,0.1296965357144059,25
793,A8346AC8753E,None,None,M,1999-02-15,None,brian_los13@hotmail.com,None,Form,0.0,0.0,0.0,0.0,0.0,346AC8753E,5453.937772367695,103.22601156194128,224.04358595448628,274.7457495965704,190.8454874186747,28.222374628359653,10.362708067378124,95.531979061364,74.86433669495106,2.090754750220805,50.34922475642938,34.6820345981634,20.31478054115981,20.06177091323788,1.8483775099047555,15.650222974173959,24.629559330093596,2.557176990618907,0.036092284575834174,22
797,A8515BA400D7,Luis,Hernandez Lsa,None,1989-01-12,None,onetsanchez@gmail.com,None,Facebook,2253542058295761.0,0.0,0.0,0.0,0.0,515BA400D7,18322.61308924676,3442.0654058329005,225.4189496784407,587.4428981838577,509.18354911457925,474.0894521446634,86.20978022445927,144.18093953333113,109.25188976799807,84.55818511952154,158.9892713355327,130.85376675612076,37.871672149840535,67.13195803482051,3.649694639031382,78.49044679316184,59.20888413423774,1.384246338431084,1.4059209723015387,32
798,A8515BA42BDB,None,None,M,1984-04-18,None,solecito_cyr@hotmail.com,None,Form,0.0,0.0,0.0,0.0,0.0,515BA42BDB,2633.2990014601,2990.2260278062126,357.7088234819556,172.8193656466392,143.03052454485305,87.44346351037157,125.48761585528305,90.22319526734863,45.22624570574627,35.899645528251746,21.633795343558255,17.340579625411273,12.863455852144357,30.64598252374961,25.922385383403967,25.00685234447901,9.233930451612377,2.1509922363310783,0.8381174325483415,37
813,A8967524C395,Guadalupe, BenÃ­tez,M,1888-11-12,None,elsa1211.ian@gmail.com,5569713363,Form,0.0,0.0,0.0,0.0,0.0,967524C395,825.3390592067705,394.2298506862287,91.0871259135469,51.1617635436428,8.399513014880423,47.52714172814879,3.7181420847109994,14.452933593095146,21.602817311895347,16.26844975720029,20.16633840750947,0.47492076602431454,6.5740965962760844,2.376813541646509,4.958347994888949,5.227603270186688,5.934661634665932,0.35705594245086864,0.1433650062312676,32
838,A8B86E575383,Anita,Avendaño,F,1999-05-22,Ciudad de México,susigonzalez525@gmail.com,None,Facebook,240682024005509.0,0.0,0.0,0.0,0.0,B86E575383,17675.822034296587,7087.949822567611,1391.846610009421,36.12072316399969,50.52626827175175,162.10771874603583,354.77978496715417,348.31612815785303,246.69952860896478,64.8314344593552,44.749912069978954,172.7865514640677,0.2748490402191988,41.40264522339856,83.96149496805741,74.14958422421165,44.000385749084124,6.461078382158081,0.21344563009894077,22
845,A8DB0367088A,Edgar,Sanchez,M,1991-07-05,None,dyedgarch10@gmail.com,5526849900,Form,0.0,0.0,0.0,0.0,0.0,DB0367088A,783.6715503267849,18370.503124273022,514.2156624786895,150.44871006115557,469.9803412182438,101.8717493720998,236.24788623979006,120.86101241581,151.280308500502,142.54611851099943,196.24323642870309,2.090579129613057,104.55506282914014,78.25363515646949,68.90688629314015,7.9885456687757825,63.05228797224362,7.810560050021698,1.4727430747970158,29
862,ACEE9E6114A0,None,None,M,2006-01-25,None,jesusdotor692@gmail.com,None,Form,0.0,0.0,0.0,0.0,0.0,EE9E6114A0,6684.779226337333,14042.851124102712,385.4809105397403,556.7079905163584,423.87520207150965,89.92587600514788,105.79276544299785,206.74580798303737,99.6142066380929,220.72196669947232,81.28411689181264,156.33684213850017,90.58447501643977,65.08600255455852,28.4557406230795,22.859024823375023,40.851283448892865,7.061131118019488,2.9863070489140027,15
864,ACF6F7BF63F6,None,None,F,2005-12-28,None,mj005619@gmail.com,None,Form,0.0,0.0,0.0,0.0,0.0,F6F7BF63F6,2088.5863329132867,1635.4594558687525,164.71360198370903,15.567116167145715,94.3969853720398,79.64316816331903,36.454951390812106,17.80686836954558,23.6052956381533,28.878239948816596,39.80927587171808,20.49863571865796,24.83011083306984,2.7731632137804128,15.33401994032357,0.10051979317633959,14.522175258907778,1.8472074362821669,0.1728761185033384,15
865,ACF6F7E5E30F,None,None,M,1987-04-23,None,ferfueriv@hotmail.com,None,Form,0.0,0.0,0.0,0.0,0.0,F6F7E5E30F,12876.58576157477,9403.761711870971,810.1157181176947,846.5423214353254,188.13648970544358,568.8348359237118,213.39543518386782,328.5998905696551,222.79802328339858,94.00435815793396,215.99564278169413,75.39280161208728,33.07912491370308,72.50910502469128,91.4316248060734,2.220777590509581,81.64170326675273,8.873516855487038,0.08115732622591537,34
876,B055086CA66B,None,None,M,2006-01-25,None,perezfernandezjosefina12@gmail.com,None,Form,0.0,0.0,0.0,0.0,0.0,55086CA66B,998.7316401402064,701.9686214695175,13.01570616257615,83.98090582792736,18.479552390817823,63.125531851034225,44.07145366852598,35.05119611911148,30.684836517493796,17.153456131255034,21.556307639814328,21.297538375564745,14.511619270271726,2.2143032512377676,5.564477403632231,6.775611741328282,4.065507236429276,0.24807534114694368,0.5036594621082424,15
885,B0E5ED69E336,None,None,M,1983-02-18,None,charlienava.l18@gmail.com,None,Form,0.0,0.0,0.0,0.0,0.0,E5ED69E336,16865.53101347607,2822.4357365616893,1166.0529169662834,113.44488446653271,314.8227361250636,548.5743127785603,177.12760296461084,207.15834958215947,56.94973766309525,0.36170851015690275,131.2606990911162,11.779236367027305,79.74820550236808,47.25817418954734,3.260387165134173,27.88820863704903,64.63285409322526,4.680443993025139,1.032791867288581,38
898,B4BFF62A2CC3,Maik,VazQuez,M,1988-09-06,Ciudad de México,miky_880906@hotmail.com,None,Facebook,2894140867310463.0,0.0,0.0,0.0,0.0,BFF62A2CC3,12.822184340403453,986.1113736290639,11.27088316614443,81.97638988950558,68.61677208419101,47.81819062106917,39.56594231178709,4.107324554563476,21.618073154741744,10.587995813011904,0.9167483088171836,1.1369664419834047,5.327821311817788,5.49309483933637,1.9315930764276596,4.338380528222185,6.655575508151433,0.6702483545391925,0.03444206622322,32
899,B4BFF6BB786D,Lupita,Lopez,F,1998-02-17,Ciudad de México,guadalupe.penaloza20@iems.edu.mx,None,Facebook,2910558332332589.0,0.0,0.0,0.0,0.0,BFF6BB786D,9223.763202048835,4013.0138094878944,631.3491912626356,435.7444870173876,259.884193897459,3.923187904115029,169.13271415602443,155.90970058778774,1.4538626446538672,164.3200383303456,144.39710785154926,44.15896382958862,92.6526453992813,7.720172607507866,19.30090731975696,17.89741564209858,1.5387712762352894,2.2877425885844924,1.5518861482610404,23
900,B4C4FC556F6F,Yosem,Guerra,M,1978-05-30,Ciudad de México,yosemrangel@hotmail.com,None,Facebook,1.0156620156736804e+16,0.0,0.0,0.0,0.0,C4FC556F6F,347.5687533748643,879.8406375332416,20.01741924802874,74.92642809696115,77.89166942065661,45.56714236139156,44.79299865976097,18.836313045154164,20.440350313181952,3.155475010418388,7.483227257146022,10.271952054234651,12.502700408148078,8.331356159498272,4.771712380926832,4.623107746832682,6.944730141586603,0.9023475259498441,0.13167926201765345,42
909,B853AC530ED0,Wendy,Torres Espinoza,F,1996-05-19,None,wendy_9919@hotmail.com,None,Facebook,2816018975147231.0,0.0,0.0,0.0,0.0,53AC530ED0,4051.3983578310717,3297.3673665695114,89.8595796877551,228.38563498383257,170.0985975899976,218.97096336039422,66.08029616391167,37.68704023421249,67.65681298887912,29.793577555601864,45.4562408164802,36.69494370188813,6.724764686812081,21.313331833559356,2.13506649702594,27.764322999352498,12.808181478224949,1.2874528264673468,1.517468195022517,25
913,B85D0A745062,None,None,M,2005-07-23,None,aleckgz@gmail.com,None,Form,0.0,0.0,0.0,0.0,0.0,5D0A745062,1828.8112120958242,6174.196655946619,300.1287670877901,198.4136617066874,234.92259399560692,1.4439233451270315,57.754949834469045,33.23147513941261,26.084582745016643,46.34589437937215,26.939359165926422,67.23337544309227,58.15516464265285,17.53848584599685,9.99507205625545,5.613317357162247,14.890006021434965,3.7163233298138003,1.5851798617391437,15
929,B8C38504630C,AURORA BEATRIZ,AVILA,None,1930-01-01,None,auroravila2906@hotmail.com,None,Form,0.0,0.0,0.0,0.0,0.0,C38504630C,3113.5549092904002,221.96655320002083,302.19472531566515,200.55536745457695,161.19851456147725,131.90986604552995,92.92262768886069,65.86704101729835,28.720938979517733,42.14383951842726,8.05673251344265,41.859222242557784,10.78950417895041,21.045474240879134,17.35952917414518,5.85532776933407,1.3827607642899462,1.2745880563160312,0.3424779883101202,91
930,B8C3853B09BB,Jose,Espejo,M,1971-04-07,None,josenatividad451jneg@gmail.com,None,Facebook,502271673681529.0,0.0,0.0,0.0,0.0,C3853B09BB,2867.897934426815,2877.334228581982,410.3134980008392,135.9807220762911,25.07908774901156,144.59413324001267,79.5378297479297,61.65330968878843,49.62207531362246,31.583218002385497,2.077310724314003,39.950332194848016,41.20219099613865,9.327849923098793,5.677583529495331,24.85895126267271,0.2207298816687176,1.8938245783761194,0.19519008171073085,50
942,BC765E4F5BBB,None,None,M,1970-06-05,None,nicocruznapo@gmail.com,None,Form,0.0,0.0,0.0,0.0,0.0,765E4F5BBB,10131.389165540635,39.37694003025804,588.7229674839042,224.43508847922757,192.71216668402357,83.54813954113676,59.98213916365504,117.79902866632851,7.360070707119223,72.78999612253934,103.31477734553388,28.317560718374928,48.28261533344244,6.728243762731653,12.36315906305275,31.122954764977063,6.671084324158083,0.9931003213192076,1.090801947587334,50
954,BCE63F85CF13,None,None,M,2006-01-25,None,salinasf@sanborns.net,None,Form,0.0,0.0,0.0,0.0,0.0,E63F85CF13,579.437953856068,596.9308616455824,34.284301033079686,59.567414990930224,5.498152190015917,0.7993007301502568,21.275383457703953,19.996788963359343,24.131573518614925,14.01354167147865,18.50895759093621,9.600088111814761,6.868843000492244,7.8064921795281865,4.561759332023097,3.5351871753774478,5.498370699354817,0.26926639847522776,0.4157634550143369,15
955,BCFFEB145918,None,None,M,2006-01-25,None,carlosandres_20castro@hotmail.com,None,Form,0.0,0.0,0.0,0.0,0.0,FFEB145918,707.2044832519134,55.86351507068751,79.16904047333239,41.01859818003552,24.21634297172761,10.903806622497974,21.021507036130572,18.478176276048682,10.159349086213222,1.6657343901324444,1.2393455108144575,0.15046057158390183,4.738749506618625,2.3406652775815164,5.802360254122419,2.870521176119263,3.54105570602813,0.5924736836927663,0.023814954719615384,15
978,C08C7122DF4C,Axel,Belmont,M,1978-06-15,None,abelmont75@gmail.com,5545995596,Form,0.0,0.0,0.0,0.0,0.0,8C7122DF4C,415.89577426335745,17.966453198027327,65.86453515396013,55.95787296807889,32.18431785734669,8.291135571590846,16.290836146394252,15.47894492998788,1.0078630134039674,10.87761849572408,5.817930948874199,2.3929014912105826,7.1142040908991975,5.034102135153215,1.0991324331395254,4.056333914037974,4.162373968739242,0.4339714950815775,0.0736979249930971,42
996,C0B658075DA7,None,None,M,1957-12-28,None,eduardo.castillo@magnatempus.com,None,Form,0.0,0.0,0.0,0.0,0.0,B658075DA7,569.2228451309929,199.3840181814047,42.952259664334896,8.706732422696165,16.626714857522934,28.24685857870553,2.5801796073637346,4.533567863281523,4.819540104543985,10.355014699881272,8.515635886809966,5.466469983163599,4.836535868630047,5.173244626242852,3.071201837078304,5.5980020403960475,0.3726975337041323,0.2668682477011332,0.27161286554638414,63
997,C0B6584DB8F5,None,None,None,1992-09-07,None,naddc7@gmail.com,None,Form,0.0,0.0,0.0,0.0,0.0,B6584DB8F5,885.4136654340004,1765.0152252862583,229.91093534280185,44.33997502556992,82.1486453956459,114.95280565223217,20.015106446510973,12.064774079790281,41.57707688856394,8.054880871898668,18.58684770344076,24.622347688775307,12.426952226941914,8.556114539938255,2.57754198357326,5.9984840180472005,11.836495920320502,0.6679050788376295,0.23422041685304276,28
1006,C49A0295A2AB,None,None,M,2006-01-25,None,vegalourdes14@yahoo.com.mx,None,Form,0.0,0.0,0.0,0.0,0.0,9A0295A2AB,15778.084977249926,254.5453503817783,60.191041314017234,433.82811697391656,427.65825518221993,97.27581607703071,307.4659061877855,36.765281790544854,17.835982392942725,169.1334931446331,46.322986466119865,121.75287716293222,93.74126654490611,7.839200461034829,13.824347193320083,37.111234245012064,50.91363499712023,6.103750079903027,2.6064821548567307,15
1015,C8FF284FE391,None,None,M,2006-01-25,None,coronaf@sanborns.com.mx,None,Form,0.0,0.0,0.0,0.0,0.0,FF284FE391,739.8936529879944,11013.47837093539,479.96017206771893,553.8012180055719,57.68943027685157,314.6545022187911,107.96342534835371,40.729822459563856,108.81816052113706,76.30505307510056,67.64448241678892,40.678905133855174,1.7766126748732796,7.0075464299172765,11.469069124164294,26.456136268758243,12.538155626796055,3.523756844475921,2.6115275838999135,15
1043,D013FD24427D,Bernardo,Moreno,M,1984-04-03,Ciudad de México,luis-barcenas@outlook.com,None,Facebook,1200293633692694.0,0.0,0.0,0.0,0.0,13FD24427D,1226.1065839155226,315.3981305305786,14.052661814809404,20.60937872441819,61.57045537478614,68.17217845771033,55.33470793581412,25.54526038733426,16.350022260504677,0.09039312247170044,14.960059303935939,13.53722928610352,13.557338112498133,0.9896940713428052,5.9292838353487705,4.56468173267976,7.865417640804966,0.13200712298436895,0.23451637035090103,37
1071,D45383820DAE,None,None,F,2006-01-25,None,jarquinalmd@yahoo.com.mx,None,Form,0.0,0.0,0.0,0.0,0.0,5383820DAE,457.5927420526559,125.06309139360584,18.173364220537263,6.158004397550709,9.202607222920156,27.44958333734193,4.31366474323989,11.145720836144273,9.474537982928,7.138480489742805,2.362153006799616,7.670041267697245,6.915199176976782,5.111056395578419,3.5220105478205777,1.0490312814160667,0.14957756858936788,0.33046046835453663,0.17867361010070767,15
1072,D461DABCBF4A,None,None,F,1979-01-12,None,evelazquez35@yahoo.es,None,Form,0.0,0.0,0.0,0.0,0.0,61DABCBF4A,13294.663929611588,44438.9268251707,214.5053456813887,1032.7078104958173,347.7639479006424,265.28393223528644,804.1895232254648,377.51958122754877,401.6477207813509,228.110920603148,314.5139717551424,78.45022958406295,217.12408158510766,113.82569378178196,21.02310223989932,27.724634494872628,158.374614218969,3.277812739444375,5.366322667776918,42
1077,D463C63E68F1,Pepeltoro,Pepeltoro,M,1995-01-26,None,quintareg23@gmail.com,None,Facebook,121784616035822.0,0.0,0.0,0.0,0.0,63C63E68F1,903.3119025949741,1678.1621478018442,64.95685049387376,45.76604236947476,69.87460703163181,85.29996600804036,43.182160628832705,54.44144338227666,19.09869228120684,34.86577587277612,17.868143969888536,1.0614552361596612,9.457911604836317,15.789455131837919,1.5002655020804176,1.1330135514564506,8.5754511359266,0.34148570123103955,0.31322970165163705,26
1079,D463C6412109,None,None,M,1997-03-23,None,lilianaescudero246@gmail.com,None,Form,0.0,0.0,0.0,0.0,0.0,63C6412109,18378.08111000975,1958.3019885040262,1005.6699422246215,520.3826514685986,712.2983482078885,229.74841409487297,388.8043012711072,28.893266464777955,94.32649596754771,162.57337059835848,131.36038420997352,73.15321441150338,93.09552095428008,44.89130579324969,14.190914074337853,8.731102610922731,66.04482392667224,0.755451203972874,2.697394003542522,24
1081,D463C66A9E50,Victor,Juárez,M,1981-03-12,"Nezahualcóyotl, Mexico",victorjuarez2012@gmail.com,None,Facebook,1144200232433613.0,0.0,0.0,0.0,0.0,63C66A9E50,2217.2804302625445,126.80074716770866,215.62048150166225,23.13444784988453,101.40744660890255,44.94217998737459,58.590964087069295,13.460439674028414,7.445758226331188,10.219991405081275,16.93410769089911,26.87966067156275,4.545152575512326,9.33257460112559,1.0316097781150049,10.660082129964966,0.9888953833745242,1.1398831687724151,0.5851472300865393,40
1106,D4C94B1D4A1F,Luis Fernando,Vazquez,None,1995-06-06,None,luis-mad1@hotmail.com,None,Facebook,2048804638519194.0,0.0,0.0,0.0,0.0,C94B1D4A1F,2873.4436141381757,619.1378722022403,46.93101519123863,123.02615078111772,65.37893309210435,72.34876448484614,84.44316424536325,10.40411597850455,36.769903422474655,42.89472434310861,34.40517540197905,2.527500247457121,3.1130713480034653,2.258484342633798,1.3488900646821855,13.269944421200087,7.565662922061651,1.4231223237415174,0.30989104906722914,25
1113,D4C94BDD0DBD,None,None,M,2000-06-17,None,condorsoumayacarso@gmail.com,None,Form,0.0,0.0,0.0,0.0,0.0,C94BDD0DBD,52.57956593839394,2267.679207969487,114.16966581542708,100.45031637735951,55.6383094686671,88.49605125092225,88.79167044780382,25.826844028604928,30.449963286341603,1.9136100609220743,3.9341585625089404,28.60091804862842,9.123824497246975,5.318492384234417,13.428391748371624,13.01872633210866,0.011173217423468104,0.9207495660287005,0.6483609995190224,20
1114,D4C94BEC0D94,Luis Alberto,Corona Cabrera,M,1981-07-03,None,lcoronacabrera@hotmail.com,None,Facebook,1669782576387094.0,0.0,0.0,0.0,0.0,C94BEC0D94,289.30212548875494,311.153542103918,3.7575375085880736,64.2372390278036,47.07615883640884,38.24099781772216,13.8517129832633,2.2287749366567904,11.285024616406867,2.663363496735438,6.103491674205291,3.190743993208636,0.41692793890791646,1.2628274660860481,4.366327498918858,2.6777177276336395,2.454673835876728,0.5100836020162791,0.2207294468884836,39
1130,DC16B24B15C4,Gary,Arellano,M,1973-02-24,Naucalpan,garellano369@gmail.com,None,Facebook,1318385754983116.0,0.0,0.0,0.0,0.0,16B24B15C4,80.5482632511463,27359.39074739755,466.31511987109457,1163.7966798250127,647.4572445733722,696.8843952374016,599.0121597810312,203.49753595448763,36.852753070929545,30.159361114169197,170.10668304760958,31.481123915551724,128.22864745997168,115.75796082411112,85.45371651280011,32.161123836677724,11.176007366384308,8.24029556688695,2.4801813938127184,48
1136,DC44B6AD4E65,None,None,M,1966-01-28,None,loyolae@sanborns.com,None,Form,0.0,0.0,0.0,0.0,0.0,44B6AD4E65,8.708651228876427,721.8392462568039,32.56635258356374,39.64449441068795,50.206709942819465,29.792427680964753,28.14459859910727,11.023560387235042,13.346353027448076,14.118347701773653,7.81926207146298,9.297677872493129,4.973236660590965,4.979159776714789,3.4982085437466255,2.233551748515631,0.2462733098358067,0.46682303350264853,0.09506516385755906,55
1137,DC667273EA19,None,None,F,1971-02-09,None,mluluherrejonv@gmail.com,None,Form,0.0,0.0,0.0,0.0,0.0,667273EA19,91.62439558547088,573.349728641859,2.517689178630297,57.18220000589225,34.311799360143446,2.979693633008696,9.924599334495234,5.10603873008118,12.102145962985544,8.787049208180417,0.6976611736090197,6.764902569293781,0.4303558543575283,1.9672115872284912,0.27786909994183695,3.221241105450656,3.3281304762711765,0.26780677452959034,0.15948171857093243,50
1143,DC74A8F91FC0,None,None,M,1981-09-28,None,brauoz.rodriguez@gmail.com,None,Form,0.0,0.0,0.0,0.0,0.0,74A8F91FC0,9121.238528298569,12289.619091972234,497.35822068136406,570.028460170186,671.6570039382316,81.40464910542599,209.88231948398234,177.7242903898508,163.53550032724397,220.13301548905963,109.49263704151527,68.0517320416549,55.72565687445645,3.3107866551030742,62.67961520585191,26.607641180023155,45.18784869484732,5.887135740604044,1.4758667097979754,39
1149,DCBFE92D48D7,Gregorio,Alvarez Aguilar,M,1971-09-29,Ciudad de México,galvarez2909@hotmail.com,None,Facebook,3496900450382132.0,0.0,0.0,0.0,0.0,BFE92D48D7,501.69313325371667,2961.0451690682953,172.4981504918859,17.331642224176736,72.62400486279675,63.57108923707738,74.42472225088966,24.7234755361075,13.916006276418148,38.64067341721763,15.543208275950501,3.497548323381772,14.305433129706284,4.0781429952222785,8.531236886084107,14.453463661085731,6.346766279746038,0.20496011827604874,0.5711737119670345,49
1162,E048D3590CDD,Ernesto,Lopez,M,1966-06-30,None,0,None,Facebook,114989033564057.0,0.0,0.0,0.0,0.0,48D3590CDD,1927.578643707073,216.71131814349428,34.446078705905556,58.265184653898075,9.451756461682843,81.69430738263864,49.67702821284556,44.144551995870664,10.8871863704328,18.44710767827703,8.771452193737577,14.084475031004999,2.0688642946630122,0.7311839986620491,7.840949954285621,5.498178212473383,2.4133336445351454,1.1148919652565725,0.17350739326315476,54
1179,E419C141BE99,Estefanía,Ramírez,F,2000-11-25,Ciudad de México,251100pedagogia@gmail.com,None,Facebook,835704596854306.0,0.0,0.0,0.0,0.0,19C141BE99,19394.448470828018,1234.303624503217,992.3955293813141,211.83986630040803,746.0820823746704,429.45785233759017,101.80872275662142,130.35995644507312,125.09499021136608,176.99580014336357,73.99313018876902,63.1664945359114,52.46175306199805,6.854423260033223,35.96566137887746,10.753409155915643,42.38635451021266,5.645121844941256,2.986756781698267,20
1185,E4A4714862AF,Azmi,MH,F,1990-12-10,"Puebla De Los Angeles, Puebla, Mexico",azmi_lae@hotmail.com,None,Facebook,2798791833545648.0,0.0,0.0,0.0,0.0,A4714862AF,1186.6675886045134,888.9464238749489,112.2480441920756,113.85791543238771,113.65830996565417,21.893322561072598,74.30285657602367,18.967344556339828,28.726935189455737,21.244417816688944,33.99716840805968,29.648970194591787,21.551453360587725,0.22244303937871157,11.225780328184731,10.00727846452525,3.151465261974639,0.11757725917280369,0.5647049143643111,30
1193,E4FDA1B7FA75,None,None,M,2006-01-25,None,medinarj79@hotmail.com,None,Form,0.0,0.0,0.0,0.0,0.0,FDA1B7FA75,2387.2453900957494,541.6339234614277,215.65777705115954,55.13973425616951,136.15912148474405,74.6124819024895,49.692863291621926,17.590426422200544,24.22713578309742,28.573194450636517,11.690090432839986,24.627509447521852,20.016168455118343,18.128011472267396,14.983259832980302,7.885427819814015,12.785011815290312,0.6300434173670755,0.7224291075050521,15
1195,E8508BE37923,None,None,M,1972-02-01,None,breme537@gmail.com,None,Form,0.0,0.0,0.0,0.0,0.0,508BE37923,323.3484461625419,2463.286044686832,224.86922930393325,2.3107062457526855,82.0271909117092,41.13112365892349,21.572312998072718,7.626090373293692,8.352969590575094,31.694987179672157,15.265847192991501,17.155592819247918,4.746808768668733,12.938888159921788,1.859057758437593,12.42804006231172,5.625782008317482,0.3524755729269932,0.40840654587092023,49
1213,F018984F0477,None,None,None,1978-08-23,None,emiliocores@hotmail.com,None,Form,0.0,0.0,0.0,0.0,0.0,18984F0477,1523.7946246141917,9914.965544592877,172.5050922931832,142.53342125732718,151.8068639464814,250.0376396442149,105.98954159892396,13.740752466129901,102.48971388035329,14.799898228549983,16.290992530912654,21.440745675177904,46.7368308644457,26.047806569114822,0.7153013172680082,38.224832646110364,30.14261300181919,2.1733104900640248,0.5644743828529074,42
1220,F08A76083F1E,Jezz,Jime,F,1987-07-28,"Tlaxco, Tlaxcala, Mexico",ale_bebita07@hotmail.com,None,Facebook,1428099247327796.0,0.0,0.0,0.0,0.0,8A76083F1E,10006.29869315666,5858.817803335741,967.4305403906878,36.49376314734867,15.866319177671686,249.5912974755029,351.5883600821833,155.62956036745703,63.978872754356175,26.339526513531737,44.11527406189337,41.63731735330073,85.72101294053903,53.76521181583438,32.38198966436124,44.07570058056326,11.169944182243361,1.6339473970518552,1.4648656030736154,33
1237,F460E267C78A,Verito,Urban,F,1972-06-02,"Mexico City, Mexico",veronika432001@hotmail.com,None,Facebook,2337053616386327.0,0.0,0.0,0.0,0.0,60E267C78A,426.1547081761233,134.05011352240038,21.7355017720295,9.527616837859547,10.889630850974108,6.363779351205171,14.832190597502418,4.5758893044471085,1.7894242857511733,11.560918313041562,9.034444269782192,6.935214533802307,7.056279262817848,2.9590189607818136,3.008678418184722,1.4300987561828473,0.661647037965597,0.3883878887083968,0.04645786043991876,48
1240,F47DEFCA98F3,None,None,M,1997-12-31,None,omarbravo82_@hotmail.com,None,Form,0.0,0.0,0.0,0.0,0.0,7DEFCA98F3,274.5977755504101,969.9153913606275,106.82395564345298,86.75705443599446,13.237340804581816,59.90894922560373,51.106847300625205,24.395702344346258,11.778868786780444,8.707054196873836,22.136148950775922,8.85372794830213,2.8270756936331,5.701404422430613,7.7211491345285115,0.6080629114657647,3.0182672099080614,0.6361589928226069,0.2690650868372144,23
1267,F82D7C5CAD57,None,None,F,1997-05-10,None,jessicaoe84@gmail.com,None,Form,0.0,0.0,0.0,0.0,0.0,2D7C5CAD57,219.97110879033758,1083.9774402949174,40.95218556430392,77.83676350324086,5.052282550345217,52.42590768786232,48.348865019949066,25.766651045075953,0.05798386445123301,18.52769813038133,5.829403171614885,17.249098226999116,13.525214366592238,5.22820840442227,8.233649938112459,0.7599932477457867,2.8358839724154676,0.0844033050493132,0.33725891618349085,24
1291,FC2D5EB96E07,Orlando,Aparicio,M,1983-12-10,Ciudad de México,itachirasingan@hotmail.com,None,Facebook,1519794668181132.0,0.0,0.0,0.0,0.0,2D5EB96E07,9932.224371426102,16444.38694427659,1107.713696935895,1072.8504677290425,215.21154964548282,144.4458822245053,184.23253425605435,182.74778572210414,176.23215680679962,182.3820789198811,108.79641273657978,34.9197869952961,2.4218531757999733,100.04791578342044,25.394509879337953,74.70821135525415,85.83377639050234,7.923624526609307,2.526441214739552,37
1295,FC94357D2C96,None,None,M,1979-01-25,None,plazacarso@sanborns.net,None,Form,0.0,0.0,0.0,0.0,0.0,94357D2C96,3983.1272389156147,1227.2344766610724,321.2001624113029,57.33693773225309,221.2897270229555,44.18389078854993,129.48174694573143,87.35112455681143,12.594090359469527,29.361239278274535,31.498248028336864,1.558196009611346,1.9451858808366775,15.461433294957752,13.401291043980152,8.640999078742345,21.447338566716784,2.45784671355759,0.428826711223775,42
1299,FCA6216298C8,Luis,Garcia Garcia,M,1998-03-17,None,deivid619@hotmail.es,None,Facebook,2209693715786065.0,0.0,0.0,0.0,0.0,A6216298C8,949.7847338947473,1964.7331873897667,178.20538622392027,120.80675826265099,117.6143099786892,118.58352692011339,2.8353693110228053,32.789132509865,24.28380711727962,16.150569706091897,6.490310057732476,38.75540876963441,18.572378994563948,14.282809031386343,12.371907604018325,12.490667698986668,4.963695658264138,1.796731119684269,0.48930975158236956,23
1301,FCA6216F1EB7,Pau,Ramcor,F,1980-04-02,"Mexico City, Mexico",pau020480@hotmail.com,None,Facebook,2206577372796857.0,0.0,0.0,0.0,0.0,A6216F1EB7,79.08412890285501,762.539543837573,45.28851332895209,6.7236041046312325,3.227957449783714,41.03277042339849,22.21938859761444,1.9098017517754602,0.6966686831971244,18.57370922039177,3.3923598452293016,7.448946540409883,8.138306780417269,3.7183665893396207,1.5759588113457657,5.803250065045866,2.0046572808107594,0.529992251107448,0.09207553612182402,41
