client_mac,first_name,last_name,gender,date_of_birth,location,email,mobile,source,facebook_id,twitter_id,instagram_id,linkedin_id,oneclick_id,client_mac10,Restaurante,Relojería / Joyería,Discos,Zona de exclusión,Lentes,Libros,Tabacos,Otros de farmacia,Pastelería,Dulcería,Parafarmacia,Juguetes,Novedades,Dermatología ,Farmacia,Fotografía,Caballeros,Pantallas,Pasillo juguetes,Computo pasillo,age
B0E5ED69E336,None,None,M,1983-02-18,None,charlienava.l18@gmail.com,None,Form,0.0,0.0,0.0,0.0,0.0,E5ED69E336,4.0,2.0,1.0,0.0,1.0,1.0,1.0,0.0,0.0,0.0,0.0,0.0,0.0,0.0,0.0,0.0,0.0,0.0,0.0,0.0,38
D02B20DBAEF8,BeTo,Vazquez,M,1994-02-08,Phoenix,albert020894com@hotmail.com,None,Facebook,3061463280560047.0,0.0,0.0,0.0,0.0,2B20DBAEF8,1.0,0.0,0.0,0.0,0.0,0.0,0.0,0.0,0.0,0.0,0.0,0.0,0.0,0.0,0.0,0.0,0.0,0.0,0.0,0.0,27
8CF11200AA14,Javier,Perez,M,1995-07-19,None,javierpcruz62@gmail.com,None,Facebook,126610222389211.0,0.0,0.0,0.0,0.0,F11200AA14,4.0,4.0,1.0,1.0,2.0,1.0,1.0,1.0,0.0,0.0,0.0,0.0,0.0,0.0,0.0,0.0,0.0,0.0,0.0,0.0,25
601466F3D78F,Omar,Valdiviezo Antonio,M,1987-01-01,None,valdi.rami@gmail.com,5562013391,Form,0.0,0.0,0.0,0.0,0.0,1466F3D78F,2.0,1.0,0.0,0.0,0.0,0.0,0.0,0.0,0.0,0.0,0.0,0.0,0.0,0.0,0.0,0.0,0.0,0.0,0.0,0.0,34
7CA17716C5E3,None,None,M,2000-01-01,None,jmejia71@hotmail.com,None,Form,0.0,0.0,0.0,0.0,0.0,A17716C5E3,3.0,0.0,0.0,0.0,0.0,0.0,0.0,0.0,0.0,0.0,0.0,0.0,0.0,0.0,0.0,0.0,0.0,0.0,0.0,0.0,21
F4BF80BFC206,None,None,None,1983-03-08,None,frey2206@hotmail.com,None,Form,0.0,0.0,0.0,0.0,0.0,BF80BFC206,4.0,3.0,2.0,1.0,0.0,1.0,1.0,0.0,1.0,1.0,0.0,0.0,0.0,0.0,0.0,0.0,0.0,0.0,0.0,0.0,38
8CF11256F6D8,Rafel,Ponce,M,1978-12-11,None,rafa_sanborns@hotmail.com,None,Facebook,1716195768531936.0,0.0,0.0,0.0,0.0,F11256F6D8,4.0,4.0,2.0,1.0,1.0,1.0,0.0,0.0,0.0,1.0,0.0,0.0,0.0,0.0,0.0,0.0,0.0,0.0,0.0,0.0,42
D463C6412109,None,None,M,1997-03-23,None,lilianaescudero246@gmail.com,None,Form,0.0,0.0,0.0,0.0,0.0,63C6412109,4.0,4.0,2.0,2.0,2.0,1.0,1.0,1.0,0.0,0.0,0.0,0.0,0.0,0.0,0.0,0.0,0.0,0.0,0.0,0.0,24
F0D7AA3B18CA,Mika,Likon,F,1971-01-22,Ciudad de México,mikapriest@hotmail.com,None,Facebook,3136984629698538.0,0.0,0.0,0.0,0.0,D7AA3B18CA,4.0,3.0,1.0,1.0,1.0,1.0,1.0,0.0,1.0,0.0,0.0,0.0,0.0,0.0,0.0,0.0,0.0,0.0,0.0,0.0,50
38D40BB668C4,None,None,M,1984-11-11,None,jack_anje84@hotmail.com,None,Form,0.0,0.0,0.0,0.0,0.0,D40BB668C4,3.0,4.0,2.0,2.0,1.0,1.0,0.0,0.0,0.0,0.0,0.0,0.0,0.0,0.0,0.0,0.0,0.0,0.0,0.0,0.0,36
AC3743028EB3,None,None,M,1985-10-30,None,willipereztorres2015@gmail.com,None,Form,0.0,0.0,0.0,0.0,0.0,3743028EB3,4.0,4.0,2.0,1.0,1.0,1.0,0.0,0.0,0.0,0.0,0.0,0.0,0.0,0.0,0.0,0.0,0.0,0.0,0.0,0.0,35
D461DABCBF4A,None,None,F,1979-01-12,None,evelazquez35@yahoo.es,None,Form,0.0,0.0,0.0,0.0,0.0,61DABCBF4A,4.0,4.0,2.0,3.0,2.0,1.0,1.0,0.0,1.0,1.0,1.0,0.0,0.0,0.0,0.0,0.0,0.0,0.0,0.0,0.0,42
202D072B40AE,None,None,M,1991-01-02,None,yoniantoniomartinez@gmail.com,None,Form,0.0,0.0,0.0,0.0,0.0,2D072B40AE,3.0,4.0,2.0,2.0,1.0,0.0,1.0,1.0,0.0,1.0,0.0,0.0,0.0,0.0,0.0,0.0,0.0,0.0,0.0,0.0,30
F82D7C043FEE,None,None,F,1997-01-25,None,elizaldafm@gmail.com,None,Form,0.0,0.0,0.0,0.0,0.0,2D7C043FEE,4.0,4.0,3.0,2.0,3.0,2.0,1.0,1.0,1.0,0.0,1.0,0.0,0.0,0.0,0.0,0.0,0.0,0.0,0.0,0.0,24
74C14F41E867,Oliver,Isunza,M,1981-03-07,Iztapalapa,dies_irae00@hotmail.com,None,Facebook,2783777484972631.0,0.0,0.0,0.0,0.0,C14F41E867,4.0,4.0,2.0,1.0,1.0,1.0,0.0,0.0,0.0,0.0,0.0,0.0,0.0,0.0,0.0,0.0,0.0,0.0,0.0,0.0,40
18EE6993903E,None,None,M,1983-09-10,None,ola.k.ase.fs63@gmail.com,None,Form,0.0,0.0,0.0,0.0,0.0,EE6993903E,4.0,4.0,3.0,3.0,1.0,0.0,2.0,2.0,0.0,0.0,1.0,1.0,0.0,0.0,0.0,0.0,0.0,0.0,0.0,0.0,37
58D9C364ED52,None,None,M,1992-05-08,None,10392oscar@gmail.com,None,Form,0.0,0.0,0.0,0.0,0.0,D9C364ED52,1.0,1.0,0.0,0.0,0.0,0.0,0.0,0.0,0.0,0.0,0.0,0.0,0.0,0.0,0.0,0.0,0.0,0.0,0.0,0.0,29
54BAD693A102,None,None,M,2006-01-25,None,sanbornscafecarso@rappi.com,None,Form,0.0,0.0,0.0,0.0,0.0,BAD693A102,4.0,4.0,1.0,1.0,2.0,0.0,1.0,0.0,0.0,0.0,1.0,0.0,0.0,0.0,0.0,0.0,0.0,0.0,0.0,0.0,15
FCA62182BF43,None,None,F,2006-05-30,None,ferni15_pink@hotmail.com,None,Form,0.0,0.0,0.0,0.0,0.0,A62182BF43,4.0,4.0,0.0,0.0,1.0,1.0,0.0,0.0,0.0,0.0,0.0,0.0,0.0,0.0,0.0,0.0,0.0,0.0,0.0,0.0,14
44D79170E4C1,Oscar,López,M,1995-02-08,"Cuauhtémoc, Distrito Federal, Mexico",oscarchivas_619@hotmail.com,None,Facebook,3615390245199391.0,0.0,0.0,0.0,0.0,D79170E4C1,3.0,4.0,2.0,1.0,0.0,1.0,0.0,0.0,1.0,0.0,0.0,0.0,0.0,0.0,0.0,0.0,0.0,0.0,0.0,0.0,26
FC94357D2C96,None,None,M,1979-01-25,None,plazacarso@sanborns.net,None,Form,0.0,0.0,0.0,0.0,0.0,94357D2C96,4.0,4.0,1.0,1.0,1.0,1.0,1.0,0.0,1.0,0.0,0.0,0.0,0.0,0.0,0.0,0.0,0.0,0.0,0.0,0.0,42
5427585581C4,None,None,M,1980-12-31,None,aybplazacarso@sanborns.net,None,Form,0.0,0.0,0.0,0.0,0.0,27585581C4,4.0,4.0,2.0,3.0,3.0,1.0,2.0,1.0,2.0,1.0,1.0,0.0,0.0,1.0,0.0,0.0,0.0,0.0,0.0,0.0,40
E062675C6DF6,None,None,M,1979-05-16,None,gearrolo@gmail.com,None,Form,0.0,0.0,0.0,0.0,0.0,62675C6DF6,4.0,4.0,1.0,2.0,0.0,1.0,1.0,1.0,0.0,0.0,0.0,0.0,0.0,0.0,0.0,0.0,0.0,0.0,0.0,0.0,42
B8B2F87928F7,Casandra,Coronel,M,1996-09-04,"Tlalpan, Distrito Federal, Mexico",vampi_barby@hotmail.com,None,Facebook,1360182454168640.0,0.0,0.0,0.0,0.0,B2F87928F7,3.0,3.0,0.0,0.0,1.0,0.0,0.0,0.0,0.0,0.0,0.0,0.0,0.0,0.0,0.0,0.0,0.0,0.0,0.0,0.0,24
A4C3F05D9D5A,None,None,M,1987-02-05,None,diego_guerrero07@msn.com,None,Form,0.0,0.0,0.0,0.0,0.0,C3F05D9D5A,4.0,4.0,2.0,1.0,3.0,1.0,0.0,1.0,1.0,1.0,0.0,0.0,1.0,0.0,0.0,0.0,0.0,0.0,0.0,0.0,34
D4A33D11A399,None,None,F,2001-06-24,None,fernanda_2083@yahoo.es,None,Form,0.0,0.0,0.0,0.0,0.0,A33D11A399,4.0,4.0,3.0,2.0,0.0,2.0,1.0,0.0,0.0,1.0,1.0,1.0,1.0,0.0,0.0,0.0,0.0,0.0,0.0,0.0,19
703A518D9148,None,None,M,1979-05-16,None,gerodri@yahoo.com.mx,None,Form,0.0,0.0,0.0,0.0,0.0,3A518D9148,4.0,2.0,2.0,0.0,1.0,0.0,1.0,0.0,0.0,0.0,0.0,0.0,0.0,0.0,0.0,0.0,0.0,0.0,0.0,0.0,42
B0C19EE59F3F,None,None,M,2006-04-15,None,javibulls150497@gmail.com,None,Form,0.0,0.0,0.0,0.0,0.0,C19EE59F3F,1.0,0.0,0.0,0.0,0.0,0.0,0.0,0.0,0.0,0.0,0.0,0.0,0.0,0.0,0.0,0.0,0.0,0.0,0.0,0.0,15
B0702D3225B1,None,None,F,1979-01-12,None,velazquez.lena@yahoo.com.mx,None,Form,0.0,0.0,0.0,0.0,0.0,702D3225B1,4.0,4.0,2.0,2.0,2.0,2.0,2.0,1.0,1.0,1.0,1.0,0.0,0.0,0.0,0.0,0.0,0.0,0.0,0.0,0.0,42
BC765E4F5BBB,None,None,M,1970-06-05,None,nicocruznapo@gmail.com,None,Form,0.0,0.0,0.0,0.0,0.0,765E4F5BBB,4.0,3.0,0.0,0.0,0.0,1.0,0.0,0.0,0.0,0.0,0.0,0.0,0.0,0.0,0.0,0.0,0.0,0.0,0.0,0.0,50
A0CC2B8C7F37,None,None,F,1984-03-27,None,elizetedecampos@gmail.com,None,Form,0.0,0.0,0.0,0.0,0.0,CC2B8C7F37,0.0,1.0,0.0,0.0,0.0,0.0,0.0,0.0,0.0,0.0,0.0,0.0,0.0,0.0,0.0,0.0,0.0,0.0,0.0,0.0,37
F018984F0477,None,None,None,1978-08-23,None,emiliocores@hotmail.com,None,Form,0.0,0.0,0.0,0.0,0.0,18984F0477,0.0,3.0,0.0,0.0,0.0,0.0,0.0,0.0,0.0,0.0,0.0,0.0,0.0,0.0,0.0,0.0,0.0,0.0,0.0,0.0,42
88299CF32821,None,None,M,1997-03-08,None,madrigalmart20@gmail.com,None,Form,0.0,0.0,0.0,0.0,0.0,299CF32821,0.0,1.0,0.0,0.0,0.0,0.0,0.0,0.0,0.0,0.0,0.0,0.0,0.0,0.0,0.0,0.0,0.0,0.0,0.0,0.0,24
48C7968F45A1,None,None,M,2006-01-25,None,ah079907@gmail.com,None,Form,0.0,0.0,0.0,0.0,0.0,C7968F45A1,1.0,2.0,0.0,0.0,0.0,0.0,0.0,0.0,0.0,0.0,0.0,0.0,0.0,0.0,0.0,0.0,0.0,0.0,0.0,0.0,15
FC183C22AB68,None,None,M,1982-02-01,None,benguia82@outlook.com,None,Form,0.0,0.0,0.0,0.0,0.0,183C22AB68,4.0,0.0,1.0,1.0,0.0,0.0,0.0,0.0,0.0,0.0,0.0,0.0,0.0,0.0,0.0,0.0,0.0,0.0,0.0,0.0,39
B49D0B98244D,None,None,M,1969-10-09,None,hernandez.torres.alvaro@gmail.com,None,Form,0.0,0.0,0.0,0.0,0.0,9D0B98244D,3.0,4.0,1.0,0.0,0.0,1.0,0.0,0.0,1.0,0.0,0.0,0.0,0.0,0.0,0.0,0.0,0.0,0.0,0.0,0.0,51
4888CA2CCF4F,Miguel,Nava,M,1965-09-16,None,mikinava1234@mail.com,None,Facebook,457885718476096.0,0.0,0.0,0.0,0.0,88CA2CCF4F,3.0,3.0,0.0,1.0,0.0,0.0,0.0,0.0,0.0,0.0,0.0,0.0,0.0,0.0,0.0,0.0,0.0,0.0,0.0,0.0,55
C0B65843AE18,None,None,F,1994-11-28,None,lola2573@gmail.com,None,Form,0.0,0.0,0.0,0.0,0.0,B65843AE18,1.0,2.0,0.0,0.0,0.0,0.0,0.0,0.0,0.0,0.0,0.0,0.0,0.0,0.0,0.0,0.0,0.0,0.0,0.0,0.0,26
304B072BCBF2,Jonathan,Castañeda,M,1996-04-11,Miami,zimeko94@gmail.com,None,Facebook,3293706880662043.0,0.0,0.0,0.0,0.0,4B072BCBF2,3.0,1.0,0.0,1.0,0.0,0.0,0.0,0.0,0.0,0.0,0.0,0.0,0.0,0.0,0.0,0.0,0.0,0.0,0.0,0.0,25
88BFE4C7FA5D,Jhonan,Hernandez,M,1997-04-11,Miami,jonan_557@hotmail.com,None,Facebook,3025014344210125.0,0.0,0.0,0.0,0.0,BFE4C7FA5D,0.0,3.0,0.0,0.0,0.0,0.0,0.0,0.0,0.0,0.0,0.0,0.0,0.0,0.0,0.0,0.0,0.0,0.0,0.0,0.0,24
8C7967A21DA7,None,None,F,1979-06-27,None,alerdz2004l@gmail.com,None,Form,0.0,0.0,0.0,0.0,0.0,7967A21DA7,4.0,3.0,2.0,1.0,1.0,0.0,1.0,1.0,0.0,0.0,0.0,0.0,0.0,0.0,0.0,0.0,0.0,0.0,0.0,0.0,41
60720BD94FD5,Jesús Cuauhtémoc,Hernández Benavidez,M,1970-08-19,Ecatepec de Morelos,jesuscuauhtemochernandezbenavi@gmail.com,None,Facebook,140582414026195.0,0.0,0.0,0.0,0.0,720BD94FD5,4.0,3.0,1.0,1.0,1.0,0.0,1.0,1.0,0.0,1.0,1.0,0.0,0.0,0.0,0.0,0.0,0.0,0.0,0.0,0.0,50
6CB7490579A2,None,None,F,1973-07-29,None,azucenadelcastillo111@gmail.com,None,Form,0.0,0.0,0.0,0.0,0.0,B7490579A2,1.0,0.0,0.0,0.0,0.0,0.0,0.0,0.0,0.0,0.0,0.0,0.0,0.0,0.0,0.0,0.0,0.0,0.0,0.0,0.0,47
90633BE80FB9,None,None,F,2006-01-25,None,brayan.mb61@gmail.com,None,Form,0.0,0.0,0.0,0.0,0.0,633BE80FB9,4.0,2.0,1.0,1.0,0.0,1.0,0.0,0.0,1.0,0.0,0.0,0.0,0.0,0.0,0.0,0.0,0.0,0.0,0.0,0.0,15
804E7046D3EA,None,None,M,1983-08-30,None,blackhoga@gmail.com,None,Form,0.0,0.0,0.0,0.0,0.0,4E7046D3EA,4.0,4.0,0.0,1.0,0.0,0.0,0.0,0.0,0.0,0.0,0.0,0.0,0.0,0.0,0.0,0.0,0.0,0.0,0.0,0.0,37
D02B20CCC024,None,None,M,1991-06-15,None,contato@galbajunior.com,None,Form,0.0,0.0,0.0,0.0,0.0,2B20CCC024,2.0,1.0,0.0,0.0,0.0,0.0,0.0,0.0,0.0,0.0,0.0,0.0,0.0,0.0,0.0,0.0,0.0,0.0,0.0,0.0,29
C08C71B4DA43,Aaron,Granados,M,1997-03-13,Ciudad de México,5583146624@gmail.com,None,Facebook,498937507717399.0,0.0,0.0,0.0,0.0,8C71B4DA43,3.0,4.0,2.0,1.0,1.0,0.0,1.0,0.0,0.0,0.0,0.0,0.0,0.0,0.0,0.0,0.0,0.0,0.0,0.0,0.0,24
7CA177FCD828,None,None,M,2006-01-25,None,elizabethcebrero24@gmail.com,None,Form,0.0,0.0,0.0,0.0,0.0,A177FCD828,4.0,0.0,1.0,2.0,1.0,1.0,0.0,0.0,1.0,0.0,0.0,0.0,0.0,0.0,0.0,0.0,0.0,0.0,0.0,0.0,15
B4BFF6BB786D,Lupita,Lopez,F,1998-02-17,Ciudad de México,guadalupe.penaloza20@iems.edu.mx,None,Facebook,2910558332332589.0,0.0,0.0,0.0,0.0,BFF6BB786D,4.0,3.0,1.0,1.0,1.0,0.0,0.0,0.0,1.0,0.0,0.0,0.0,0.0,0.0,0.0,0.0,0.0,0.0,0.0,0.0,23
A8967524C395,Guadalupe, BenÃ­tez,M,1888-11-12,None,elsa1211.ian@gmail.com,5569713363,Form,0.0,0.0,0.0,0.0,0.0,967524C395,3.0,4.0,1.0,0.0,0.0,0.0,1.0,0.0,0.0,0.0,0.0,0.0,0.0,0.0,0.0,0.0,0.0,0.0,0.0,0.0,32
403F8C25E817,None,None,M,1995-07-03,None,luisgerardo.hdz@hotmail.com,None,Form,0.0,0.0,0.0,0.0,0.0,3F8C25E817,4.0,4.0,2.0,0.0,2.0,0.0,1.0,0.0,0.0,1.0,0.0,0.0,0.0,0.0,0.0,0.0,0.0,0.0,0.0,0.0,25
508A0FFBA4C6,None,None,F,1982-06-29,None,marceloaguilarhdz@gmail.com,None,Form,0.0,0.0,0.0,0.0,0.0,8A0FFBA4C6,4.0,3.0,0.0,1.0,1.0,1.0,0.0,1.0,1.0,0.0,0.0,0.0,0.0,0.0,0.0,0.0,0.0,0.0,0.0,0.0,38
D016B47B69D4,Guadalupe,Leyva,F,1978-12-11,None,anayeli.1011@gmail.com,None,Facebook,1128639260806401.0,0.0,0.0,0.0,0.0,16B47B69D4,3.0,4.0,0.0,0.0,1.0,1.0,0.0,0.0,0.0,0.0,0.0,0.0,0.0,0.0,0.0,0.0,0.0,0.0,0.0,0.0,42
C08C71D4F5A1,بابلو انطونيو,ألفارادو هيرنانديز,M,1994-11-10,Ciudad de México,pablo.alvarado.94@hotmail.com,None,Facebook,1099261527111645.0,0.0,0.0,0.0,0.0,8C71D4F5A1,4.0,3.0,2.0,1.0,1.0,1.0,0.0,0.0,0.0,0.0,0.0,0.0,0.0,0.0,0.0,0.0,0.0,0.0,0.0,0.0,26
A8515BA400D7,Luis,Hernandez Lsa,None,1989-01-12,None,onetsanchez@gmail.com,None,Facebook,2253542058295761.0,0.0,0.0,0.0,0.0,515BA400D7,3.0,3.0,0.0,1.0,0.0,0.0,0.0,0.0,0.0,0.0,0.0,0.0,0.0,0.0,0.0,0.0,0.0,0.0,0.0,0.0,32
B8C3853B09BB,Jose,Espejo,M,1971-04-07,None,josenatividad451jneg@gmail.com,None,Facebook,502271673681529.0,0.0,0.0,0.0,0.0,C3853B09BB,4.0,0.0,0.0,0.0,1.0,0.0,0.0,0.0,0.0,0.0,0.0,0.0,0.0,0.0,0.0,0.0,0.0,0.0,0.0,0.0,50
889E33E14A9A,None,None,M,1975-01-15,None,parrapilarparra@gmail.com,None,Form,0.0,0.0,0.0,0.0,0.0,9E33E14A9A,3.0,3.0,0.0,0.0,0.0,0.0,0.0,0.0,0.0,0.0,0.0,0.0,0.0,0.0,0.0,0.0,0.0,0.0,0.0,0.0,46
E048D3590CDD,Ernesto,Lopez,M,1966-06-30,None,0,None,Facebook,114989033564057.0,0.0,0.0,0.0,0.0,48D3590CDD,0.0,0.0,0.0,0.0,0.0,0.0,0.0,0.0,0.0,0.0,0.0,0.0,0.0,0.0,0.0,0.0,0.0,0.0,0.0,0.0,54
403F8C615E45,None,None,F,1978-01-12,None,amadolores260@gmail.com,None,Form,0.0,0.0,0.0,0.0,0.0,3F8C615E45,0.0,1.0,0.0,0.0,0.0,0.0,0.0,0.0,0.0,0.0,0.0,0.0,0.0,0.0,0.0,0.0,0.0,0.0,0.0,0.0,43
601D91776D6F,None,None,M,1965-05-25,None,zamoram@sanborns.com.mx,None,Form,0.0,0.0,0.0,0.0,0.0,1D91776D6F,3.0,0.0,0.0,0.0,0.0,0.0,0.0,0.0,0.0,0.0,0.0,0.0,0.0,0.0,0.0,0.0,0.0,0.0,0.0,0.0,56
4455C4C2DACF,Ricky Luiss,Rokanlover,M,1992-06-15,Ciudad de México,pyro80@live.com.mx,None,Facebook,2949996581752983.0,0.0,0.0,0.0,0.0,55C4C2DACF,2.0,3.0,0.0,0.0,1.0,0.0,0.0,0.0,0.0,0.0,0.0,0.0,0.0,0.0,0.0,0.0,0.0,0.0,0.0,0.0,28
304596DC2D27,Danni,Rosas,None,1990-02-24,"Mexico City, Mexico",zann_soad_24@hotmail.com,None,Facebook,2436079133069411.0,0.0,0.0,0.0,0.0,4596DC2D27,1.0,0.0,0.0,0.0,0.0,0.0,0.0,0.0,0.0,0.0,0.0,0.0,0.0,0.0,0.0,0.0,0.0,0.0,0.0,0.0,31
703A512EA44B,None,None,M,1997-12-31,None,kevinbibrush77@gmail.com,None,Form,0.0,0.0,0.0,0.0,0.0,3A512EA44B,4.0,3.0,1.0,1.0,1.0,1.0,0.0,0.0,0.0,0.0,0.0,0.0,0.0,0.0,0.0,0.0,0.0,0.0,0.0,0.0,23
90735A0A9089,None,None,M,2006-01-11,None,valevale191@hotmail.com,None,Form,0.0,0.0,0.0,0.0,0.0,735A0A9089,1.0,3.0,1.0,0.0,0.0,0.0,0.0,0.0,0.0,0.0,0.0,0.0,0.0,0.0,0.0,0.0,0.0,0.0,0.0,0.0,15
D05BA83F18F6,None,None,F,1997-12-20,None,veronicabal@hotmail.com,None,Form,0.0,0.0,0.0,0.0,0.0,5BA83F18F6,2.0,3.0,0.0,0.0,1.0,0.0,0.0,0.0,0.0,0.0,0.0,0.0,0.0,0.0,0.0,0.0,0.0,0.0,0.0,0.0,23
2039567D35AF,None,None,None,1974-03-03,None,plu_25@hotmail.com,None,Form,0.0,0.0,0.0,0.0,0.0,39567D35AF,4.0,4.0,2.0,1.0,1.0,1.0,0.0,0.0,1.0,1.0,1.0,0.0,0.0,0.0,0.0,0.0,0.0,0.0,0.0,0.0,47
48C7968283D5,None,None,M,1985-12-24,None,theshocco@hotmail.com,None,Form,0.0,0.0,0.0,0.0,0.0,C7968283D5,4.0,3.0,0.0,1.0,0.0,1.0,0.0,0.0,0.0,0.0,0.0,0.0,0.0,0.0,0.0,0.0,0.0,0.0,0.0,0.0,35
304B07B5FCA7,Tonatiuh,Rios,M,1997-04-16,"Mexico City, Mexico",skyline16tr@live.com,None,Facebook,953661678134411.0,0.0,0.0,0.0,0.0,4B07B5FCA7,4.0,3.0,1.0,1.0,1.0,1.0,0.0,1.0,1.0,0.0,0.0,0.0,0.0,0.0,0.0,0.0,0.0,0.0,0.0,0.0,24
7C38AD32D019,Ernesto,Ocampos,M,1994-05-10,None,rantty1999@gmail.com,5581489338,Form,0.0,0.0,0.0,0.0,0.0,38AD32D019,4.0,3.0,2.0,2.0,1.0,1.0,0.0,0.0,1.0,1.0,0.0,0.0,0.0,0.0,0.0,0.0,0.0,0.0,0.0,0.0,27
647033C3C184,None,None,M,1988-01-25,None,redjose89@gmail.com,None,Form,0.0,0.0,0.0,0.0,0.0,7033C3C184,4.0,3.0,1.0,1.0,0.0,0.0,0.0,0.0,0.0,1.0,0.0,0.0,0.0,0.0,0.0,0.0,0.0,0.0,0.0,0.0,33
201811261CB1,Calixto,Hernández,M,1977-10-14,None,0,None,Facebook,146925806954430.0,0.0,0.0,0.0,0.0,1811261CB1,3.0,3.0,1.0,0.0,0.0,0.0,0.0,0.0,0.0,0.0,0.0,0.0,0.0,0.0,0.0,0.0,0.0,0.0,0.0,0.0,43
90633BCB02C9,None,None,M,1985-12-24,None,pikkiperechocho@gmail.com,None,Form,0.0,0.0,0.0,0.0,0.0,633BCB02C9,3.0,4.0,2.0,1.0,1.0,1.0,1.0,0.0,0.0,0.0,0.0,0.0,0.0,0.0,0.0,0.0,0.0,0.0,0.0,0.0,35
304B0748995E,None,None,F,2006-01-25,None,fariasavilamariaclara@gmail.com,None,Form,0.0,0.0,0.0,0.0,0.0,4B0748995E,4.0,3.0,1.0,1.0,0.0,0.0,0.0,0.0,1.0,0.0,1.0,0.0,0.0,0.0,0.0,0.0,0.0,0.0,0.0,0.0,15
2446C8732EB8,Mar,Draco,F,1997-01-03,Ciudad de México,jessiestrella09_@hotmail.com,None,Facebook,2541956082536658.0,0.0,0.0,0.0,0.0,46C8732EB8,4.0,4.0,1.0,1.0,1.0,1.0,1.0,0.0,0.0,0.0,0.0,0.0,0.0,0.0,0.0,0.0,0.0,0.0,0.0,0.0,24
5C51884FE369,None,None,M,2006-12-31,None,maldonadohugo149@gmail.com,None,Form,0.0,0.0,0.0,0.0,0.0,51884FE369,2.0,3.0,0.0,0.0,0.0,0.0,0.0,0.0,0.0,0.0,0.0,0.0,0.0,0.0,0.0,0.0,0.0,0.0,0.0,0.0,14
A407B6E12354,Mirian,Palomino,F,1984-12-02,Azcapotzalco,yakam_382@hotmail.com,None,Facebook,1.0219014607507744e+16,0.0,0.0,0.0,0.0,07B6E12354,4.0,4.0,2.0,1.0,0.0,1.0,0.0,1.0,0.0,0.0,0.0,0.0,0.0,0.0,0.0,0.0,0.0,0.0,0.0,0.0,36
844167BC79AE,None,None,M,1999-01-25,None,darvader_200@hotmail.com,None,Form,0.0,0.0,0.0,0.0,0.0,4167BC79AE,4.0,3.0,1.0,1.0,1.0,0.0,1.0,0.0,0.0,0.0,0.0,0.0,0.0,0.0,0.0,0.0,0.0,0.0,0.0,0.0,22
4C910C0B2558,None,None,M,1989-09-15,None,cesram8905@gmail.com,None,Form,0.0,0.0,0.0,0.0,0.0,910C0B2558,3.0,4.0,2.0,1.0,0.0,1.0,0.0,1.0,1.0,0.0,0.0,0.0,0.0,0.0,0.0,0.0,0.0,0.0,0.0,0.0,31
B853AC530ED0,Wendy,Torres Espinoza,F,1996-05-19,None,wendy_9919@hotmail.com,None,Facebook,2816018975147231.0,0.0,0.0,0.0,0.0,53AC530ED0,1.0,2.0,0.0,0.0,0.0,0.0,0.0,0.0,0.0,0.0,0.0,0.0,0.0,0.0,0.0,0.0,0.0,0.0,0.0,0.0,25
304B07B573F4,Leo,Hernandez,M,1990-09-15,None,chivasguapo90@gmail.com,None,Facebook,899643443822180.0,0.0,0.0,0.0,0.0,4B07B573F4,4.0,4.0,1.0,1.0,1.0,1.0,1.0,0.0,0.0,0.0,0.0,0.0,0.0,0.0,0.0,0.0,0.0,0.0,0.0,0.0,30
90324B1DFF97,None,None,F,2006-01-25,None,aguirrevalks@gmail.com,None,Form,0.0,0.0,0.0,0.0,0.0,324B1DFF97,4.0,4.0,1.0,1.0,0.0,1.0,0.0,1.0,0.0,0.0,0.0,0.0,0.0,0.0,0.0,0.0,0.0,0.0,0.0,0.0,15
804A14904E98,Chaps,Hernandez,None,1990-07-04,Ciudad de México,jafet_guapisimo@hotmail.com,None,Facebook,2613815202000411.0,0.0,0.0,0.0,0.0,4A14904E98,4.0,4.0,2.0,2.0,1.0,1.0,1.0,1.0,0.0,0.0,0.0,0.0,0.0,0.0,0.0,0.0,0.0,0.0,0.0,0.0,30
285AEBB2F322,None,None,M,1970-06-20,None,valverdeperezvicente@hotmail.com,None,Form,0.0,0.0,0.0,0.0,0.0,5AEBB2F322,4.0,4.0,2.0,0.0,0.0,1.0,1.0,0.0,0.0,0.0,0.0,0.0,0.0,0.0,0.0,0.0,0.0,0.0,0.0,0.0,50
C0A600C8D953,None,None,M,1983-07-27,None,alejandrowuau2707@gmail.com,None,Form,0.0,0.0,0.0,0.0,0.0,A600C8D953,4.0,3.0,2.0,2.0,1.0,1.0,1.0,0.0,0.0,0.0,1.0,0.0,0.0,0.0,0.0,0.0,0.0,0.0,0.0,0.0,37
BCFED93BD806,None,None,F,2001-09-14,None,layevskareyes54@gmail.com,None,Form,0.0,0.0,0.0,0.0,0.0,FED93BD806,2.0,3.0,0.0,1.0,0.0,0.0,0.0,0.0,0.0,0.0,0.0,0.0,0.0,0.0,0.0,0.0,0.0,0.0,0.0,0.0,19
745909BF46A7,Arlette,P,F,1997-07-02,"Mexico City, Mexico",tecktonik_n@hotmail.com,None,Facebook,2247554285312163.0,0.0,0.0,0.0,0.0,5909BF46A7,4.0,4.0,0.0,2.0,1.0,1.0,0.0,0.0,1.0,0.0,0.0,0.0,0.0,0.0,0.0,0.0,0.0,0.0,0.0,0.0,23
BC98DF048276,None,None,M,1982-05-20,None,barbypiolina69@gmail.com,None,Form,0.0,0.0,0.0,0.0,0.0,98DF048276,1.0,1.0,0.0,0.0,0.0,0.0,0.0,0.0,0.0,0.0,0.0,0.0,0.0,0.0,0.0,0.0,0.0,0.0,0.0,0.0,39
58D9C3B995AE,Xöch,Rodriguez,F,1996-04-05,Guadalajara (México),love_thara@hotmail.com,None,Facebook,1418330088335807.0,0.0,0.0,0.0,0.0,D9C3B995AE,3.0,4.0,0.0,1.0,1.0,0.0,0.0,1.0,0.0,0.0,0.0,0.0,0.0,0.0,0.0,0.0,0.0,0.0,0.0,0.0,25
FC8743CC9CE6,Fabian,Ruiz Flores,M,1984-01-20,Naucalpan de Juárez,fchavez.fc790@gmail.com,None,Facebook,2526663440934353.0,0.0,0.0,0.0,0.0,8743CC9CE6,4.0,4.0,2.0,0.0,1.0,1.0,0.0,0.0,0.0,0.0,0.0,0.0,0.0,0.0,0.0,0.0,0.0,0.0,0.0,0.0,37
B44BD2B73DD7,None,None,M,1974-09-15,None,mariaelenacun@gmail.com,None,Form,0.0,0.0,0.0,0.0,0.0,4BD2B73DD7,2.0,2.0,0.0,0.0,0.0,0.0,0.0,0.0,0.0,0.0,0.0,0.0,0.0,0.0,0.0,0.0,0.0,0.0,0.0,0.0,46
AC075F6A48CB,None,None,M,1985-12-21,None,alejhandro90@gmail.com,None,Form,0.0,0.0,0.0,0.0,0.0,075F6A48CB,3.0,4.0,1.0,0.0,0.0,0.0,0.0,0.0,0.0,0.0,0.0,0.0,0.0,0.0,0.0,0.0,0.0,0.0,0.0,0.0,35
B41C3065E8E2,None,None,M,2005-10-10,None,siete@gmail.com,None,Form,0.0,0.0,0.0,0.0,0.0,1C3065E8E2,1.0,0.0,0.0,0.0,0.0,0.0,0.0,0.0,0.0,0.0,0.0,0.0,0.0,0.0,0.0,0.0,0.0,0.0,0.0,0.0,15
3CCD5DB06F85,Chio,Rosales,F,1978-01-12,Ciudad de México,rociorl.12@hotmail.com,None,Facebook,3039649199412418.0,0.0,0.0,0.0,0.0,CD5DB06F85,4.0,3.0,0.0,1.0,0.0,1.0,0.0,0.0,0.0,0.0,0.0,0.0,0.0,0.0,0.0,0.0,0.0,0.0,0.0,0.0,43
FCA62178D3A5,Maricruz,Pérez Montero,F,1976-05-03,Estado de México,cachorrosexy@yahoo.com.mx,None,Facebook,3111719062386461.0,0.0,0.0,0.0,0.0,A62178D3A5,3.0,4.0,1.0,1.0,1.0,0.0,0.0,0.0,0.0,0.0,0.0,0.0,0.0,0.0,0.0,0.0,0.0,0.0,0.0,0.0,45
20F47840F098,Juan Carlos,Mendoza Morales,M,1996-03-01,None,ianmendoza3105@gmail.com,None,Facebook,282681896464530.0,0.0,0.0,0.0,0.0,F47840F098,1.0,3.0,0.0,0.0,0.0,0.0,0.0,0.0,0.0,0.0,0.0,0.0,0.0,0.0,0.0,0.0,0.0,0.0,0.0,0.0,25
601466A358F2,Saul,Salinas,M,1977-02-01,"Argüello, Cordoba, Argentina",conduit09@gmail.com,None,Facebook,1364334473757668.0,0.0,0.0,0.0,0.0,1466A358F2,1.0,1.0,0.0,0.0,0.0,0.0,0.0,0.0,0.0,0.0,0.0,0.0,0.0,0.0,0.0,0.0,0.0,0.0,0.0,0.0,44
C49A0295A2AB,None,None,M,2006-01-25,None,vegalourdes14@yahoo.com.mx,None,Form,0.0,0.0,0.0,0.0,0.0,9A0295A2AB,4.0,1.0,1.0,0.0,1.0,0.0,1.0,0.0,1.0,0.0,0.0,0.0,0.0,0.0,0.0,0.0,0.0,0.0,0.0,0.0,15
60F189556FFC,None,None,M,1968-06-18,None,artlpz18@hotmail.com,None,Form,0.0,0.0,0.0,0.0,0.0,F189556FFC,2.0,1.0,0.0,0.0,0.0,0.0,0.0,0.0,0.0,0.0,0.0,0.0,0.0,0.0,0.0,0.0,0.0,0.0,0.0,0.0,52
E4A7C5EC7640,None,None,F,2006-01-25,None,sanchez.d.karla.m@gmail.com,None,Form,0.0,0.0,0.0,0.0,0.0,A7C5EC7640,4.0,3.0,1.0,1.0,0.0,0.0,1.0,1.0,0.0,0.0,0.0,0.0,0.0,0.0,0.0,0.0,0.0,0.0,0.0,0.0,15
4040A79BBC73,Alondra,Luna,F,2002-03-08,None,alondrafrancisco78@gmail.com,None,Facebook,557557011789253.0,0.0,0.0,0.0,0.0,40A79BBC73,3.0,3.0,0.0,1.0,0.0,0.0,0.0,0.0,0.0,0.0,0.0,0.0,0.0,0.0,0.0,0.0,0.0,0.0,0.0,0.0,19
802BF905D7DD,None,None,F,1989-10-16,None,quimicoperativosup@sanborns.com.mx,None,Form,0.0,0.0,0.0,0.0,0.0,2BF905D7DD,3.0,3.0,1.0,0.0,0.0,0.0,0.0,0.0,0.0,0.0,0.0,0.0,0.0,0.0,0.0,0.0,0.0,0.0,0.0,0.0,31
9427908B213C,Karen,Diaz,F,1997-01-31,Cidade do México,karenivetted@gmail.com,None,Facebook,849824932125330.0,0.0,0.0,0.0,0.0,27908B213C,3.0,2.0,0.0,0.0,0.0,0.0,0.0,0.0,0.0,0.0,0.0,0.0,0.0,0.0,0.0,0.0,0.0,0.0,0.0,0.0,24
344DF750870D,None,None,M,1996-03-01,None,ianmendoza3105@gmail.com,None,Form,0.0,0.0,0.0,0.0,0.0,4DF750870D,3.0,4.0,1.0,1.0,0.0,0.0,0.0,0.0,0.0,0.0,0.0,0.0,0.0,0.0,0.0,0.0,0.0,0.0,0.0,0.0,25
A8515B9CF6D3,Daniel,Rojas,M,1994-02-16,Ciudad de México,daniel.rojaserre@hotmail.com,None,Facebook,570825597040699.0,0.0,0.0,0.0,0.0,515B9CF6D3,1.0,1.0,0.0,0.0,0.0,0.0,0.0,0.0,0.0,0.0,0.0,0.0,0.0,0.0,0.0,0.0,0.0,0.0,0.0,0.0,27
40CD7AF42F73,None,None,M,1997-12-31,None,zallyvargas1@gmail.com,None,Form,0.0,0.0,0.0,0.0,0.0,CD7AF42F73,0.0,1.0,0.0,0.0,0.0,0.0,0.0,0.0,0.0,0.0,0.0,0.0,0.0,0.0,0.0,0.0,0.0,0.0,0.0,0.0,23
20EE28D5637D,None,None,F,1996-01-24,None,carmelatf@gmail.com,None,Form,0.0,0.0,0.0,0.0,0.0,EE28D5637D,1.0,1.0,0.0,0.0,0.0,0.0,0.0,0.0,0.0,0.0,0.0,0.0,0.0,0.0,0.0,0.0,0.0,0.0,0.0,0.0,25
F0EE10043E5E,None,None,F,2004-12-30,None,barriguad@gmail.com,None,Form,0.0,0.0,0.0,0.0,0.0,EE10043E5E,1.0,3.0,0.0,0.0,0.0,0.0,0.0,0.0,0.0,0.0,0.0,0.0,0.0,0.0,0.0,0.0,0.0,0.0,0.0,0.0,16
24FB65D33058,None,None,None,2002-10-10,None,francico@gmail.com,None,Form,0.0,0.0,0.0,0.0,0.0,FB65D33058,2.0,2.0,0.0,0.0,0.0,0.0,0.0,0.0,0.0,0.0,0.0,0.0,0.0,0.0,0.0,0.0,0.0,0.0,0.0,0.0,18
90633BAFFF53,Vero,Velazquez,F,1991-01-15,Ciudad de México,verovelazquez184@gmail.com,None,Facebook,1484643725042820.0,0.0,0.0,0.0,0.0,633BAFFF53,4.0,2.0,1.0,0.0,0.0,1.0,0.0,0.0,0.0,0.0,0.0,0.0,0.0,0.0,0.0,0.0,0.0,0.0,0.0,0.0,30
4C910C578730,Alvaro,Perez Rodriguez,M,1980-02-19,Ciudad de México,biem_alvaro@hotmail.com,None,Facebook,3025690764109087.0,0.0,0.0,0.0,0.0,910C578730,3.0,3.0,0.0,0.0,0.0,0.0,0.0,0.0,0.0,0.0,0.0,0.0,0.0,0.0,0.0,0.0,0.0,0.0,0.0,0.0,41
748D08A3848E,Julio,Garcia Juarez ,M,1996-10-11,None,garciajuarezjulio55@gmail.com,5569406767,Form,0.0,0.0,0.0,0.0,0.0,8D08A3848E,0.0,3.0,0.0,0.0,0.0,0.0,0.0,0.0,0.0,0.0,0.0,0.0,0.0,0.0,0.0,0.0,0.0,0.0,0.0,0.0,24
306A85B4FBE8,None,None,F,2005-11-03,None,naomi.lightwood2@gmail.com,None,Form,0.0,0.0,0.0,0.0,0.0,6A85B4FBE8,1.0,3.0,0.0,0.0,0.0,0.0,0.0,0.0,0.0,0.0,0.0,0.0,0.0,0.0,0.0,0.0,0.0,0.0,0.0,0.0,15
20F478DBB658,None,None,M,1990-07-26,None,hectormelendez@yahoo.com,None,Form,0.0,0.0,0.0,0.0,0.0,F478DBB658,3.0,2.0,0.0,0.0,0.0,0.0,0.0,0.0,0.0,0.0,0.0,0.0,0.0,0.0,0.0,0.0,0.0,0.0,0.0,0.0,30
3412F9F5E2A4,Eduardo,Mgc,M,1990-06-23,None,julioarteaga92@gmail.com,None,Facebook,129407595047046.0,0.0,0.0,0.0,0.0,12F9F5E2A4,3.0,4.0,0.0,1.0,1.0,1.0,0.0,0.0,0.0,0.0,0.0,0.0,0.0,0.0,0.0,0.0,0.0,0.0,0.0,0.0,30
E0338ECDC12D,Rich,Quiroz,M,1976-06-26,Ciudad López Mateos,rqc26@yahoo.com,None,Facebook,3707767255915702.0,0.0,0.0,0.0,0.0,338ECDC12D,1.0,3.0,1.0,0.0,0.0,0.0,0.0,0.0,0.0,0.0,0.0,0.0,0.0,0.0,0.0,0.0,0.0,0.0,0.0,0.0,44
30074DBC3E71,Eduardo,Acosta Jaramillo,M,1980-08-01,Estado de México,lalo_trolla@hotmail.com,None,Facebook,2421847727889310.0,0.0,0.0,0.0,0.0,074DBC3E71,1.0,0.0,0.0,0.0,0.0,0.0,0.0,0.0,0.0,0.0,0.0,0.0,0.0,0.0,0.0,0.0,0.0,0.0,0.0,0.0,40
B44BD2472F6B,None,None,F,1977-03-23,None,rosendocarmen@yahoo.com,None,Form,0.0,0.0,0.0,0.0,0.0,4BD2472F6B,2.0,0.0,0.0,0.0,0.0,0.0,0.0,0.0,0.0,0.0,0.0,0.0,0.0,0.0,0.0,0.0,0.0,0.0,0.0,0.0,44
D81C797E18BA,None,None,None,1988-08-18,None,elsasosahuerta@gmail.com,None,Form,0.0,0.0,0.0,0.0,0.0,1C797E18BA,2.0,2.0,0.0,0.0,0.0,0.0,0.0,0.0,0.0,0.0,0.0,0.0,0.0,0.0,0.0,0.0,0.0,0.0,0.0,0.0,32
D02B20600691,None,None,None,1980-01-01,None,uno@doscreativos.com,None,Form,0.0,0.0,0.0,0.0,0.0,2B20600691,2.0,3.0,1.0,0.0,0.0,0.0,0.0,0.0,0.0,0.0,0.0,0.0,0.0,0.0,0.0,0.0,0.0,0.0,0.0,0.0,41
48C7969BAC63,None,None,M,1985-04-05,None,guerreroaguila11@gmail.com,None,Form,0.0,0.0,0.0,0.0,0.0,C7969BAC63,1.0,0.0,0.0,0.0,0.0,0.0,0.0,0.0,0.0,0.0,0.0,0.0,0.0,0.0,0.0,0.0,0.0,0.0,0.0,0.0,36
FCA6216298C8,Luis,Garcia Garcia,M,1998-03-17,None,deivid619@hotmail.es,None,Facebook,2209693715786065.0,0.0,0.0,0.0,0.0,A6216298C8,2.0,2.0,0.0,0.0,0.0,0.0,0.0,0.0,0.0,0.0,0.0,0.0,0.0,0.0,0.0,0.0,0.0,0.0,0.0,0.0,23
D077149F8A05,Arnulfo,Rosas,M,1966-01-08,Ciudad de México,arnulfo.rosash@gmail.com,None,Facebook,1401408786692169.0,0.0,0.0,0.0,0.0,77149F8A05,1.0,1.0,0.0,0.0,0.0,0.0,0.0,0.0,0.0,0.0,0.0,0.0,0.0,0.0,0.0,0.0,0.0,0.0,0.0,0.0,55
D85DE2BA160D,None,None,M,1977-03-15,None,gtzronald@gmail.com,None,Form,0.0,0.0,0.0,0.0,0.0,5DE2BA160D,3.0,1.0,0.0,0.0,1.0,0.0,0.0,0.0,0.0,0.0,0.0,0.0,0.0,0.0,0.0,0.0,0.0,0.0,0.0,0.0,44
3880DF538557,Karen,Avelar,F,1999-05-31,Ciudad de México,cherriesdestination@gmail.com,None,Facebook,3921447084596598.0,0.0,0.0,0.0,0.0,80DF538557,3.0,2.0,0.0,0.0,0.0,0.0,0.0,0.0,0.0,0.0,0.0,0.0,0.0,0.0,0.0,0.0,0.0,0.0,0.0,0.0,21
90735A4B05CD,Michell,Martinez,F,1999-03-14,"Mexico City, Mexico",jenmmr03@gmail.com,None,Facebook,926972307694715.0,0.0,0.0,0.0,0.0,735A4B05CD,3.0,1.0,0.0,0.0,0.0,0.0,0.0,0.0,0.0,0.0,0.0,0.0,0.0,0.0,0.0,0.0,0.0,0.0,0.0,0.0,22
3C2EFFD47518,Yongru,Wu,F,1982-01-15,None,wuyongru123@gmail.com,None,Facebook,596282890907293.0,0.0,0.0,0.0,0.0,2EFFD47518,0.0,2.0,0.0,0.0,0.0,0.0,0.0,0.0,0.0,0.0,0.0,0.0,0.0,0.0,0.0,0.0,0.0,0.0,0.0,0.0,39
48C7969AFD39,None,None,M,2006-01-25,None,sanlop42tonny@gmail.com,None,Form,0.0,0.0,0.0,0.0,0.0,C7969AFD39,1.0,1.0,0.0,0.0,0.0,0.0,0.0,0.0,0.0,0.0,0.0,0.0,0.0,0.0,0.0,0.0,0.0,0.0,0.0,0.0,15
C08C71FBB4D6,Dweencx,CG,F,1999-02-04,Estado de México,wen-rosa@hotmail.com,None,Facebook,2547066292217666.0,0.0,0.0,0.0,0.0,8C71FBB4D6,0.0,1.0,0.0,0.0,0.0,0.0,0.0,0.0,0.0,0.0,0.0,0.0,0.0,0.0,0.0,0.0,0.0,0.0,0.0,0.0,22
20DA228B8D09,Adriana,Castellanos,F,1978-03-05,"Mexico City, Mexico",rosuco23@msn.com,None,Facebook,1.0219106732562992e+16,0.0,0.0,0.0,0.0,DA228B8D09,0.0,0.0,0.0,0.0,0.0,0.0,0.0,0.0,0.0,0.0,0.0,0.0,0.0,0.0,0.0,0.0,0.0,0.0,0.0,0.0,43
