client_mac,first_name,last_name,gender,date_of_birth,location,email,mobile,source,facebook_id,twitter_id,instagram_id,linkedin_id,oneclick_id,client_mac10,Restaurante,Relojería / Joyería,Discos,Lentes,Zona de exclusión,Libros,Tabacos,Otros de farmacia,Pastelería,Dulcería,Parafarmacia,Dermatología ,Novedades,Caballeros,Fotografía,Juguetes,Farmacia,Pasillo juguetes,Tarjetas,Pantallas,age
141F78139783,None,None,M,1988-03-28,None,pakocorosam@gmail.com,None,Form,0.0,0.0,0.0,0.0,0.0,1F78139783,0.0,1.0,0.0,0.0,0.0,0.0,0.0,0.0,0.0,0.0,0.0,0.0,0.0,0.0,0.0,0.0,0.0,0.0,0.0,0.0,33
186590606DE9,None,None,M,1964-04-05,None,rosasjl@sanborns.com.mx,None,Form,0.0,0.0,0.0,0.0,0.0,6590606DE9,1.0,3.0,0.0,0.0,0.0,0.0,0.0,0.0,0.0,0.0,0.0,0.0,0.0,0.0,0.0,0.0,0.0,0.0,0.0,0.0,57
18703B68DC48,Luis,Hernandez,M,1994-07-02,Ciudad de México,lg_hm0207@hotmail.com,None,Facebook,3435249463155971.0,0.0,0.0,0.0,0.0,703B68DC48,2.0,1.0,0.0,0.0,0.0,0.0,0.0,0.0,0.0,0.0,0.0,0.0,0.0,0.0,0.0,0.0,0.0,0.0,0.0,0.0,26
18EE6993903E,None,None,M,1983-09-10,None,ola.k.ase.fs63@gmail.com,None,Form,0.0,0.0,0.0,0.0,0.0,EE6993903E,4.0,3.0,1.0,0.0,0.0,0.0,0.0,0.0,0.0,0.0,0.0,0.0,0.0,0.0,0.0,0.0,0.0,0.0,0.0,0.0,37
1C7B238AC62A,None,None,M,1983-05-12,None,ghummy00@hotmail.com,None,Form,0.0,0.0,0.0,0.0,0.0,7B238AC62A,2.0,2.0,0.0,0.0,0.0,0.0,0.0,0.0,0.0,0.0,0.0,0.0,0.0,0.0,0.0,0.0,0.0,0.0,0.0,0.0,38
1CCCD61D509C,Kassandra,Martinez,F,1994-06-08,Estado de México,kassandra_martinez_94@hotmail.com,None,Facebook,2578004995617069.0,0.0,0.0,0.0,0.0,CCD61D509C,1.0,3.0,0.0,0.0,0.0,0.0,0.0,0.0,0.0,0.0,0.0,0.0,0.0,0.0,0.0,0.0,0.0,0.0,0.0,0.0,26
20326C3F504F,혜희,염,F,1978-02-04,None,heahee@naver.com,None,Facebook,2608261659239456.0,0.0,0.0,0.0,0.0,326C3F504F,1.0,1.0,0.0,0.0,0.0,0.0,0.0,0.0,0.0,0.0,0.0,0.0,0.0,0.0,0.0,0.0,0.0,0.0,0.0,0.0,43
20326C925E50,Karla,Doch,None,1984-03-01,"Mexico City, Mexico",karla_8@live.com.mx,5538464705,Facebook,2502895086405797.0,0.0,0.0,0.0,0.0,326C925E50,1.0,0.0,0.0,0.0,0.0,0.0,0.0,0.0,0.0,0.0,0.0,0.0,0.0,0.0,0.0,0.0,0.0,0.0,0.0,0.0,37
20F47840F098,Juan Carlos,Mendoza Morales,M,1996-03-01,None,ianmendoza3105@gmail.com,None,Facebook,282681896464530.0,0.0,0.0,0.0,0.0,F47840F098,4.0,4.0,0.0,1.0,0.0,0.0,1.0,0.0,0.0,0.0,0.0,0.0,0.0,0.0,0.0,0.0,0.0,0.0,0.0,0.0,25
2446C8732EB8,Mar,Draco,F,1997-01-03,Ciudad de México,jessiestrella09_@hotmail.com,None,Facebook,2541956082536658.0,0.0,0.0,0.0,0.0,46C8732EB8,3.0,3.0,0.0,0.0,0.0,0.0,0.0,0.0,0.0,0.0,0.0,0.0,0.0,0.0,0.0,0.0,0.0,0.0,0.0,0.0,24
2446C8762CC1,Jose Fernando,Chuil Noh,M,1981-05-29,"Mexico City, Mexico",ferchuil@hotmail.com,None,Facebook,1.0219473108277624e+16,0.0,0.0,0.0,0.0,46C8762CC1,1.0,0.0,0.0,0.0,0.0,0.0,0.0,0.0,0.0,0.0,0.0,0.0,0.0,0.0,0.0,0.0,0.0,0.0,0.0,0.0,39
2446C88BCCFE,None,None,M,1985-01-29,None,dalbarez2901@gmail.com,None,Form,0.0,0.0,0.0,0.0,0.0,46C88BCCFE,1.0,3.0,0.0,0.0,0.0,0.0,0.0,0.0,0.0,0.0,0.0,0.0,0.0,0.0,0.0,0.0,0.0,0.0,0.0,0.0,36
2446C89EBC73,None,None,M,2006-01-25,None,dpminguezha@sanborns.com.mx,None,Form,0.0,0.0,0.0,0.0,0.0,46C89EBC73,0.0,3.0,0.0,0.0,0.0,0.0,0.0,0.0,0.0,0.0,0.0,0.0,0.0,0.0,0.0,0.0,0.0,0.0,0.0,0.0,15
24DA330E8FD2,Ulises,Bonilla,M,1983-11-20,Ciudad de México,mbonilla@sears.com.mx,None,Facebook,123486868748601.0,0.0,0.0,0.0,0.0,DA330E8FD2,0.0,1.0,0.0,0.0,0.0,0.0,0.0,0.0,0.0,0.0,0.0,0.0,0.0,0.0,0.0,0.0,0.0,0.0,0.0,0.0,37
24DA330F373C,None,None,M,2006-01-25,None,ernesto.faustino11@gmail.com,None,Form,0.0,0.0,0.0,0.0,0.0,DA330F373C,0.0,2.0,0.0,0.0,0.0,0.0,0.0,0.0,0.0,0.0,0.0,0.0,0.0,0.0,0.0,0.0,0.0,0.0,0.0,0.0,15
24DA339C1527,Cesar,Eduardo,M,1997-03-22,"Akishima-shi, Tokyo, Japan",camacho00@live.com,5542844555,Facebook,2397824243604638.0,0.0,0.0,0.0,0.0,DA339C1527,3.0,0.0,1.0,1.0,0.0,0.0,0.0,0.0,0.0,0.0,0.0,0.0,0.0,0.0,0.0,0.0,0.0,0.0,0.0,0.0,24
2833347970F2,Cristian,Lucas,M,1994-05-05,None,rtr@hotmail.com,None,Form,0.0,0.0,0.0,0.0,0.0,33347970F2,0.0,3.0,0.0,0.0,0.0,0.0,0.0,0.0,0.0,0.0,0.0,0.0,0.0,0.0,0.0,0.0,0.0,0.0,0.0,0.0,27
30074D55319E,None,None,F,2000-09-19,None,luzma_6419@hotmail.com,None,Form,0.0,0.0,0.0,0.0,0.0,074D55319E,1.0,2.0,0.0,0.0,0.0,0.0,0.0,0.0,0.0,0.0,0.0,0.0,0.0,0.0,0.0,0.0,0.0,0.0,0.0,0.0,20
304596DC2D27,Danni,Rosas,None,1990-02-24,"Mexico City, Mexico",zann_soad_24@hotmail.com,None,Facebook,2436079133069411.0,0.0,0.0,0.0,0.0,4596DC2D27,1.0,3.0,0.0,0.0,0.0,0.0,0.0,0.0,0.0,0.0,0.0,0.0,0.0,0.0,0.0,0.0,0.0,0.0,0.0,0.0,31
344DF750870D,None,None,M,1996-03-01,None,ianmendoza3105@gmail.com,None,Form,0.0,0.0,0.0,0.0,0.0,4DF750870D,0.0,1.0,0.0,0.0,0.0,0.0,0.0,0.0,0.0,0.0,0.0,0.0,0.0,0.0,0.0,0.0,0.0,0.0,0.0,0.0,25
3880DF8B0C4A,Jkuiik,Rodríguez,M,1982-10-15,"Mexico City, Mexico",jivan2904@gmail.com,None,Facebook,1078388692369007.0,0.0,0.0,0.0,0.0,80DF8B0C4A,0.0,1.0,0.0,0.0,0.0,0.0,0.0,0.0,0.0,0.0,0.0,0.0,0.0,0.0,0.0,0.0,0.0,0.0,0.0,0.0,38
3CCD36B284E3,None,None,M,2006-01-25,None,momstps1303@gmail.com,None,Form,0.0,0.0,0.0,0.0,0.0,CD36B284E3,4.0,1.0,1.0,0.0,1.0,0.0,1.0,0.0,0.0,0.0,0.0,0.0,0.0,0.0,0.0,0.0,0.0,0.0,0.0,0.0,15
403F8C25E817,None,None,M,1995-07-03,None,luisgerardo.hdz@hotmail.com,None,Form,0.0,0.0,0.0,0.0,0.0,3F8C25E817,4.0,4.0,2.0,2.0,0.0,0.0,1.0,1.0,0.0,0.0,0.0,0.0,0.0,0.0,0.0,0.0,0.0,0.0,0.0,0.0,25
403F8C31E729,Antonio,Blas,M,1978-07-07,None,anflsjwha@gmail.com,None,Facebook,485442135610297.0,0.0,0.0,0.0,0.0,3F8C31E729,1.0,0.0,0.0,0.0,0.0,0.0,0.0,0.0,0.0,0.0,0.0,0.0,0.0,0.0,0.0,0.0,0.0,0.0,0.0,0.0,42
403F8C3C3B21,Alejandro,Risso Yañez,M,1979-12-23,Ciudad de México,alexjandro25@hotmail.com,None,Facebook,1.0158074971617652e+16,0.0,0.0,0.0,0.0,3F8C3C3B21,2.0,2.0,0.0,0.0,0.0,0.0,0.0,0.0,0.0,0.0,0.0,0.0,0.0,0.0,0.0,0.0,0.0,0.0,0.0,0.0,41
403F8C4B86CF,None,None,M,1966-09-10,None,carlospina1009@gmail.com,None,Form,0.0,0.0,0.0,0.0,0.0,3F8C4B86CF,0.0,3.0,1.0,0.0,0.0,0.0,0.0,0.0,0.0,0.0,0.0,0.0,0.0,0.0,0.0,0.0,0.0,0.0,0.0,0.0,54
404E36267815,None,None,M,2006-07-24,None,power@telmexmail.com,None,Form,0.0,0.0,0.0,0.0,0.0,4E36267815,1.0,2.0,0.0,0.0,0.0,0.0,0.0,0.0,0.0,0.0,0.0,0.0,0.0,0.0,0.0,0.0,0.0,0.0,0.0,0.0,14
404E369833C4,None,None,M,1992-06-15,None,astromantico1@gmail.com,None,Form,0.0,0.0,0.0,0.0,0.0,4E369833C4,4.0,3.0,1.0,1.0,0.0,0.0,1.0,0.0,0.0,0.0,0.0,0.0,0.0,0.0,0.0,0.0,0.0,0.0,0.0,0.0,28
444ADB371196,None,None,M,2002-01-12,None,martinezob@asf.edu.mx,None,Form,0.0,0.0,0.0,0.0,0.0,4ADB371196,3.0,3.0,1.0,0.0,0.0,0.0,0.0,0.0,0.0,0.0,0.0,0.0,0.0,0.0,0.0,0.0,0.0,0.0,0.0,0.0,19
449160C9FFD5,None,None,F,1992-12-17,None,perla.clarissa@hotmail.com,None,Form,0.0,0.0,0.0,0.0,0.0,9160C9FFD5,3.0,1.0,0.0,0.0,0.0,0.0,0.0,0.0,0.0,0.0,0.0,0.0,0.0,0.0,0.0,0.0,0.0,0.0,0.0,0.0,28
44D79170E4C1,Oscar,López,M,1995-02-08,"Cuauhtémoc, Distrito Federal, Mexico",oscarchivas_619@hotmail.com,None,Facebook,3615390245199391.0,0.0,0.0,0.0,0.0,D79170E4C1,4.0,3.0,1.0,0.0,0.0,0.0,0.0,0.0,0.0,0.0,0.0,0.0,0.0,0.0,0.0,0.0,0.0,0.0,0.0,0.0,26
44D791C8B4B0,None,None,M,1975-09-27,None,gabriellowski@gmail.com,None,Form,0.0,0.0,0.0,0.0,0.0,D791C8B4B0,0.0,1.0,0.0,0.0,0.0,0.0,0.0,0.0,0.0,0.0,0.0,0.0,0.0,0.0,0.0,0.0,0.0,0.0,0.0,0.0,45
4888CA2CCF4F,Miguel,Nava,M,1965-09-16,None,mikinava1234@mail.com,None,Facebook,457885718476096.0,0.0,0.0,0.0,0.0,88CA2CCF4F,4.0,2.0,1.0,0.0,0.0,0.0,0.0,0.0,0.0,0.0,0.0,0.0,0.0,0.0,0.0,0.0,0.0,0.0,0.0,0.0,55
48C7961C1BD5,None,None,None,1971-03-30,None,fergarbito@hotmail.com,None,Form,0.0,0.0,0.0,0.0,0.0,C7961C1BD5,2.0,3.0,0.0,0.0,0.0,0.0,0.0,0.0,0.0,0.0,0.0,0.0,0.0,0.0,0.0,0.0,0.0,0.0,0.0,0.0,50
4C6641BA4787,Jesus,Angel,M,1990-11-12,None,jangeles1290@gmail.com,None,Facebook,709962429836814.0,0.0,0.0,0.0,0.0,6641BA4787,1.0,2.0,0.0,0.0,0.0,0.0,0.0,0.0,0.0,0.0,0.0,0.0,0.0,0.0,0.0,0.0,0.0,0.0,0.0,0.0,30
5820596A8C35,None,None,M,1995-02-16,None,luis.rmz.ipn@gmail.com,None,Form,0.0,0.0,0.0,0.0,0.0,20596A8C35,3.0,4.0,0.0,0.0,0.0,0.0,1.0,1.0,0.0,0.0,0.0,0.0,0.0,0.0,0.0,0.0,0.0,0.0,0.0,0.0,26
587F57F2418B,Sheila,Ram,M,2001-11-02,Bogotá,montoyaariel@gmail.com,5547834492,Facebook,936562233349723.0,0.0,0.0,0.0,0.0,7F57F2418B,4.0,4.0,0.0,1.0,1.0,0.0,1.0,1.0,0.0,0.0,0.0,0.0,0.0,0.0,0.0,0.0,0.0,0.0,0.0,0.0,19
58D9C3522A2F,None,None,M,2006-01-25,None,5569137308gus@gmail.com,None,Form,0.0,0.0,0.0,0.0,0.0,D9C3522A2F,2.0,3.0,0.0,0.0,0.0,0.0,0.0,0.0,0.0,0.0,0.0,0.0,0.0,0.0,0.0,0.0,0.0,0.0,0.0,0.0,15
58D9C35B2625,Ernesto,Montiel,M,1967-11-20,None,netomovil@hotmail.com,None,Facebook,3733720950033669.0,0.0,0.0,0.0,0.0,D9C35B2625,2.0,2.0,0.0,0.0,0.0,0.0,0.0,0.0,0.0,0.0,0.0,0.0,0.0,0.0,0.0,0.0,0.0,0.0,0.0,0.0,53
58D9C364ED52,None,None,M,1992-05-08,None,10392oscar@gmail.com,None,Form,0.0,0.0,0.0,0.0,0.0,D9C364ED52,4.0,3.0,1.0,1.0,0.0,0.0,0.0,0.0,0.0,0.0,0.0,0.0,0.0,0.0,0.0,0.0,0.0,0.0,0.0,0.0,29
58D9C39DC757,None,None,M,1995-12-05,None,jesuse-flores@outlook.com,None,Form,0.0,0.0,0.0,0.0,0.0,D9C39DC757,4.0,3.0,1.0,0.0,0.0,0.0,0.0,0.0,0.0,0.0,0.0,0.0,0.0,0.0,0.0,0.0,0.0,0.0,0.0,0.0,25
601466C6EB55,Jose,Jr,None,2000-03-04,"Mexico City, Mexico",cirilo-alvarez.34@outlook.es,None,Facebook,2163068353965680.0,0.0,0.0,0.0,0.0,1466C6EB55,3.0,3.0,0.0,0.0,0.0,0.0,0.0,0.0,0.0,0.0,0.0,0.0,0.0,0.0,0.0,0.0,0.0,0.0,0.0,0.0,21
601D913E47D1,None,None,M,2006-01-25,None,bettinfranco111@gmail.com,None,Form,0.0,0.0,0.0,0.0,0.0,1D913E47D1,2.0,2.0,0.0,0.0,0.0,0.0,0.0,0.0,0.0,0.0,0.0,0.0,0.0,0.0,0.0,0.0,0.0,0.0,0.0,0.0,15
84B5417BC01C,Irwing Elias,Flores Cisneeros,M,1994-04-28,Naucalpan,ninaespinobarros@gmail.com,None,Facebook,128381535048069.0,0.0,0.0,0.0,0.0,B5417BC01C,2.0,1.0,0.0,0.0,0.0,0.0,0.0,0.0,0.0,0.0,0.0,0.0,0.0,0.0,0.0,0.0,0.0,0.0,0.0,0.0,27
881196885EEB,None,None,M,2006-01-25,None,memoherrera962@gmail.com,None,Form,0.0,0.0,0.0,0.0,0.0,1196885EEB,2.0,2.0,0.0,0.0,0.0,0.0,0.0,0.0,0.0,0.0,0.0,0.0,0.0,0.0,0.0,0.0,0.0,0.0,0.0,0.0,15
88B4A632D13F,None,None,M,1982-10-31,None,jorpevar@gmail.com,None,Form,0.0,0.0,0.0,0.0,0.0,B4A632D13F,1.0,1.0,0.0,0.0,0.0,0.0,0.0,0.0,0.0,0.0,0.0,0.0,0.0,0.0,0.0,0.0,0.0,0.0,0.0,0.0,38
88B4A64F5994,None,None,M,1997-12-04,None,os526488@gmail.com,None,Form,0.0,0.0,0.0,0.0,0.0,B4A64F5994,2.0,3.0,1.0,1.0,0.0,0.0,0.0,0.0,0.0,0.0,0.0,0.0,0.0,0.0,0.0,0.0,0.0,0.0,0.0,0.0,23
88BFE4C7FA5D,Jhonan,Hernandez,M,1997-04-11,Miami,jonan_557@hotmail.com,None,Facebook,3025014344210125.0,0.0,0.0,0.0,0.0,BFE4C7FA5D,0.0,3.0,0.0,0.0,0.0,0.0,0.0,0.0,0.0,0.0,0.0,0.0,0.0,0.0,0.0,0.0,0.0,0.0,0.0,0.0,24
8C7967A21DA7,None,None,F,1979-06-27,None,alerdz2004l@gmail.com,None,Form,0.0,0.0,0.0,0.0,0.0,7967A21DA7,4.0,3.0,1.0,0.0,1.0,0.0,0.0,1.0,0.0,0.0,0.0,0.0,0.0,0.0,0.0,0.0,0.0,0.0,0.0,0.0,41
8C99E65ABB9B,None,None,M,2002-01-07,None,leomtzgtz.123@gmail.com,None,Form,0.0,0.0,0.0,0.0,0.0,99E65ABB9B,3.0,4.0,0.0,1.0,0.0,0.0,1.0,0.0,0.0,0.0,0.0,0.0,0.0,0.0,0.0,0.0,0.0,0.0,0.0,0.0,19
8CF11200AA14,Javier,Perez,M,1995-07-19,None,javierpcruz62@gmail.com,None,Facebook,126610222389211.0,0.0,0.0,0.0,0.0,F11200AA14,4.0,3.0,1.0,1.0,0.0,0.0,0.0,0.0,0.0,0.0,0.0,0.0,0.0,0.0,0.0,0.0,0.0,0.0,0.0,0.0,25
90633B7D2B9B,Chioma,Ikpide,F,1998-10-21,Ciudad de México,churu_joviet@hotmail.com,None,Facebook,2790314347713430.0,0.0,0.0,0.0,0.0,633B7D2B9B,0.0,1.0,0.0,0.0,0.0,0.0,0.0,0.0,0.0,0.0,0.0,0.0,0.0,0.0,0.0,0.0,0.0,0.0,0.0,0.0,22
90633BAFFF53,Vero,Velazquez,F,1991-01-15,Ciudad de México,verovelazquez184@gmail.com,None,Facebook,1484643725042820.0,0.0,0.0,0.0,0.0,633BAFFF53,4.0,3.0,1.0,1.0,0.0,0.0,0.0,1.0,0.0,0.0,0.0,0.0,0.0,0.0,0.0,0.0,0.0,0.0,0.0,0.0,30
90633BE80FB9,None,None,F,2006-01-25,None,brayan.mb61@gmail.com,None,Form,0.0,0.0,0.0,0.0,0.0,633BE80FB9,4.0,3.0,2.0,1.0,0.0,1.0,1.0,0.0,0.0,0.0,0.0,0.0,0.0,0.0,0.0,0.0,0.0,0.0,0.0,0.0,15
90633BF9743D,Arvízu,LS,F,1996-10-14,Ciudad de México,nayellicd9.1410@gmail.com,None,Facebook,2409561065924539.0,0.0,0.0,0.0,0.0,633BF9743D,2.0,1.0,0.0,0.0,0.0,0.0,0.0,0.0,0.0,0.0,0.0,0.0,0.0,0.0,0.0,0.0,0.0,0.0,0.0,0.0,24
90735A52A254,Iesu,Téigh,M,1993-06-07,Ciudad de México,j125val@gmail.com,None,Facebook,230473194739112.0,0.0,0.0,0.0,0.0,735A52A254,0.0,2.0,0.0,0.0,0.0,0.0,0.0,0.0,0.0,0.0,0.0,0.0,0.0,0.0,0.0,0.0,0.0,0.0,0.0,0.0,27
601D9177534D,None,None,M,1972-03-20,None,ramirezr@sanborns.com.mx,None,Form,0.0,0.0,0.0,0.0,0.0,1D9177534D,1.0,0.0,0.0,0.0,0.0,0.0,0.0,0.0,0.0,0.0,0.0,0.0,0.0,0.0,0.0,0.0,0.0,0.0,0.0,0.0,49
601D917768D7,None,None,M,1976-02-19,None,apaulin@sears.com.mx,None,Form,0.0,0.0,0.0,0.0,0.0,1D917768D7,1.0,3.0,0.0,0.0,0.0,0.0,0.0,0.0,0.0,0.0,0.0,0.0,0.0,0.0,0.0,0.0,0.0,0.0,0.0,0.0,45
601D917769B2,None,None,M,1975-05-29,None,eortizecor@gmail.com,None,Form,0.0,0.0,0.0,0.0,0.0,1D917769B2,1.0,1.0,0.0,0.0,0.0,0.0,0.0,0.0,0.0,0.0,0.0,0.0,0.0,0.0,0.0,0.0,0.0,0.0,0.0,0.0,45
601D917776C3,None,None,M,1981-06-28,None,mendoza.ecm@gmail.com,5527024018,Form,0.0,0.0,0.0,0.0,0.0,1D917776C3,3.0,0.0,0.0,0.0,0.0,0.0,0.0,0.0,0.0,0.0,0.0,0.0,0.0,0.0,0.0,0.0,0.0,0.0,0.0,0.0,39
60720B9C1184,None,None,M,1995-01-18,None,ramonavila84066@gmail.com,None,Form,0.0,0.0,0.0,0.0,0.0,720B9C1184,0.0,1.0,0.0,0.0,0.0,0.0,0.0,0.0,0.0,0.0,0.0,0.0,0.0,0.0,0.0,0.0,0.0,0.0,0.0,0.0,26
608373092E32,Michelle,Vargas S,None,1975-03-16,"Mexico City, Mexico",michelle.salim@gmail.com,None,Facebook,2177958585596958.0,0.0,0.0,0.0,0.0,8373092E32,1.0,0.0,0.0,0.0,0.0,0.0,0.0,0.0,0.0,0.0,0.0,0.0,0.0,0.0,0.0,0.0,0.0,0.0,0.0,0.0,46
64C2DE7FBCE3,Lilian,Mayrin,F,2000-08-19,Ciudad de México,mayrinnnn@hotmail.com,None,Facebook,2522012241449985.0,0.0,0.0,0.0,0.0,C2DE7FBCE3,4.0,4.0,2.0,0.0,0.0,0.0,0.0,0.0,0.0,0.0,0.0,0.0,0.0,0.0,0.0,0.0,0.0,0.0,0.0,0.0,20
685ACF58D674,None,None,M,1960-07-24,None,vpower.vs@gmail.com,None,Form,0.0,0.0,0.0,0.0,0.0,5ACF58D674,3.0,3.0,1.0,0.0,0.0,0.0,0.0,0.0,0.0,0.0,0.0,0.0,0.0,0.0,0.0,0.0,0.0,0.0,0.0,0.0,60
6C71D92FC290,None,None,F,2006-01-25,None,plazacarsot@sanborns.com,None,Form,0.0,0.0,0.0,0.0,0.0,71D92FC290,3.0,3.0,1.0,1.0,0.0,0.0,0.0,0.0,0.0,0.0,0.0,0.0,0.0,0.0,0.0,0.0,0.0,0.0,0.0,0.0,15
6CB7490579A2,None,None,F,1973-07-29,None,azucenadelcastillo111@gmail.com,None,Form,0.0,0.0,0.0,0.0,0.0,B7490579A2,2.0,3.0,0.0,0.0,0.0,0.0,0.0,0.0,0.0,0.0,0.0,0.0,0.0,0.0,0.0,0.0,0.0,0.0,0.0,0.0,47
703A518D9148,None,None,M,1979-05-16,None,gerodri@yahoo.com.mx,None,Form,0.0,0.0,0.0,0.0,0.0,3A518D9148,4.0,4.0,2.0,1.0,0.0,0.0,1.0,0.0,0.0,0.0,0.0,0.0,0.0,0.0,0.0,0.0,0.0,0.0,0.0,0.0,42
745909BF46A7,Arlette,P,F,1997-07-02,"Mexico City, Mexico",tecktonik_n@hotmail.com,None,Facebook,2247554285312163.0,0.0,0.0,0.0,0.0,5909BF46A7,3.0,4.0,0.0,0.0,0.0,0.0,1.0,0.0,0.0,0.0,0.0,0.0,0.0,0.0,0.0,0.0,0.0,0.0,0.0,0.0,23
74A528CBC84A,None,None,M,1992-03-07,None,vazquez.lopez.adriansaid@gmai.com,None,Form,0.0,0.0,0.0,0.0,0.0,A528CBC84A,3.0,0.0,0.0,0.0,0.0,0.0,0.0,0.0,0.0,0.0,0.0,0.0,0.0,0.0,0.0,0.0,0.0,0.0,0.0,0.0,29
7C38AD32D019,Ernesto,Ocampos,M,1994-05-10,None,rantty1999@gmail.com,5581489338,Form,0.0,0.0,0.0,0.0,0.0,38AD32D019,4.0,4.0,0.0,1.0,0.0,1.0,0.0,1.0,1.0,0.0,0.0,0.0,0.0,0.0,0.0,0.0,0.0,0.0,0.0,0.0,27
7C4685EF9E1D,Ivan,Perez Alegria,M,1997-10-03,Municipio de Huixquilucan,edgar.pereza19@hotmail.com,None,Facebook,2587881991482796.0,0.0,0.0,0.0,0.0,4685EF9E1D,1.0,2.0,0.0,0.0,0.0,0.0,0.0,0.0,0.0,0.0,0.0,0.0,0.0,0.0,0.0,0.0,0.0,0.0,0.0,0.0,23
7CA17716C5E3,None,None,M,2000-01-01,None,jmejia71@hotmail.com,None,Form,0.0,0.0,0.0,0.0,0.0,A17716C5E3,1.0,0.0,0.0,0.0,0.0,0.0,0.0,0.0,0.0,0.0,0.0,0.0,0.0,0.0,0.0,0.0,0.0,0.0,0.0,0.0,21
7CF90EF0C4B5,None,None,M,2006-08-18,None,gongoraj@sanborns.com,None,Form,0.0,0.0,0.0,0.0,0.0,F90EF0C4B5,3.0,3.0,0.0,0.0,0.0,0.0,0.0,0.0,0.0,0.0,0.0,0.0,0.0,0.0,0.0,0.0,0.0,0.0,0.0,0.0,14
800184ECC108,Lalis,Gomez,None,1973-01-06,None,jacksonlalis@hotmail.com,5515024061,Facebook,209314420019657.0,0.0,0.0,0.0,0.0,0184ECC108,0.0,3.0,0.0,0.0,0.0,0.0,0.0,0.0,0.0,0.0,0.0,0.0,0.0,0.0,0.0,0.0,0.0,0.0,0.0,0.0,48
800C67BC601E,None,None,M,1986-04-15,None,eder.tovesc@gmail.com,None,Form,0.0,0.0,0.0,0.0,0.0,0C67BC601E,1.0,3.0,0.0,0.0,0.0,0.0,0.0,0.0,0.0,0.0,0.0,0.0,0.0,0.0,0.0,0.0,0.0,0.0,0.0,0.0,35
94DBC9B0B1FE,None,None,M,1997-12-31,None,juancarlosmendezramirez_@hotmail.com,None,Form,0.0,0.0,0.0,0.0,0.0,DBC9B0B1FE,3.0,3.0,1.0,0.0,0.0,0.0,0.0,0.0,0.0,0.0,0.0,0.0,0.0,0.0,0.0,0.0,0.0,0.0,0.0,0.0,23
9C5CF96032AA,None,None,F,2000-01-01,None,andrea9830@hotmail.com,None,Form,0.0,0.0,0.0,0.0,0.0,5CF96032AA,0.0,1.0,0.0,0.0,0.0,0.0,0.0,0.0,0.0,0.0,0.0,0.0,0.0,0.0,0.0,0.0,0.0,0.0,0.0,0.0,21
9C5CF9EA7856,Yair,Yépez,M,1979-05-28,"Atlanta, Georgia",yair.yepez@yahoo.com,None,Facebook,2512940768734401.0,0.0,0.0,0.0,0.0,5CF9EA7856,1.0,0.0,0.0,0.0,0.0,0.0,0.0,0.0,0.0,0.0,0.0,0.0,0.0,0.0,0.0,0.0,0.0,0.0,0.0,0.0,41
A056F3B64DCB,Farid,Salum,P,1998-05-17,"Mexico City, Mexico",http.faridsalum@gmail.com,5586736644,Facebook,2334470046599354.0,0.0,0.0,0.0,0.0,56F3B64DCB,3.0,1.0,0.0,0.0,0.0,0.0,0.0,0.0,0.0,0.0,0.0,0.0,0.0,0.0,0.0,0.0,0.0,0.0,0.0,0.0,23
A4D931BE77AA,None,None,F,1994-10-01,None,hellofridis@hotmail.com,None,Form,0.0,0.0,0.0,0.0,0.0,D931BE77AA,3.0,0.0,0.0,0.0,0.0,0.0,0.0,0.0,0.0,0.0,0.0,0.0,0.0,0.0,0.0,0.0,0.0,0.0,0.0,0.0,26
AC1F748947A6,Kev,CR,M,1996-02-14,Ciudad de México,irvin_america15@hotmail.com,None,Facebook,1669398506551245.0,0.0,0.0,0.0,0.0,1F748947A6,0.0,3.0,0.0,0.0,0.0,0.0,0.0,0.0,0.0,0.0,0.0,0.0,0.0,0.0,0.0,0.0,0.0,0.0,0.0,0.0,25
AC3743028EB3,None,None,M,1985-10-30,None,willipereztorres2015@gmail.com,None,Form,0.0,0.0,0.0,0.0,0.0,3743028EB3,4.0,4.0,0.0,2.0,1.0,1.0,0.0,0.0,1.0,1.0,0.0,0.0,0.0,0.0,0.0,0.0,0.0,0.0,0.0,0.0,35
B06FE0CB0C44,Jazmin,Espindola,F,1987-10-20,Ciudad de México,jazpe20@hotmail.com,None,Facebook,2548358361936720.0,0.0,0.0,0.0,0.0,6FE0CB0C44,0.0,1.0,0.0,0.0,0.0,0.0,0.0,0.0,0.0,0.0,0.0,0.0,0.0,0.0,0.0,0.0,0.0,0.0,0.0,0.0,33
B0702D3225B1,None,None,F,1979-01-12,None,velazquez.lena@yahoo.com.mx,None,Form,0.0,0.0,0.0,0.0,0.0,702D3225B1,3.0,3.0,1.0,1.0,0.0,0.0,0.0,0.0,0.0,0.0,0.0,0.0,0.0,0.0,0.0,0.0,0.0,0.0,0.0,0.0,42
B0E5ED69E336,None,None,M,1983-02-18,None,charlienava.l18@gmail.com,None,Form,0.0,0.0,0.0,0.0,0.0,E5ED69E336,3.0,4.0,0.0,1.0,0.0,0.0,0.0,0.0,0.0,0.0,0.0,0.0,0.0,0.0,0.0,0.0,0.0,0.0,0.0,0.0,38
B4BFF6BB786D,Lupita,Lopez,F,1998-02-17,Ciudad de México,guadalupe.penaloza20@iems.edu.mx,None,Facebook,2910558332332589.0,0.0,0.0,0.0,0.0,BFF6BB786D,3.0,3.0,1.0,1.0,0.0,0.0,0.0,0.0,0.0,0.0,0.0,0.0,0.0,0.0,0.0,0.0,0.0,0.0,0.0,0.0,23
B853AC530ED0,Wendy,Torres Espinoza,F,1996-05-19,None,wendy_9919@hotmail.com,None,Facebook,2816018975147231.0,0.0,0.0,0.0,0.0,53AC530ED0,4.0,3.0,0.0,1.0,0.0,0.0,0.0,0.0,0.0,0.0,0.0,0.0,0.0,0.0,0.0,0.0,0.0,0.0,0.0,0.0,25
B85D0A745062,None,None,M,2005-07-23,None,aleckgz@gmail.com,None,Form,0.0,0.0,0.0,0.0,0.0,5D0A745062,4.0,3.0,0.0,0.0,0.0,0.0,0.0,0.0,0.0,0.0,0.0,0.0,0.0,0.0,0.0,0.0,0.0,0.0,0.0,0.0,15
B87BC5A99F4A,Irving Alain,Ayala Vilchiz,M,1991-07-10,San Pedro Garza García,irvingalain.av@gmail.com,5533315917,Facebook,2159948984323821.0,0.0,0.0,0.0,0.0,7BC5A99F4A,3.0,3.0,0.0,0.0,0.0,0.0,0.0,0.0,0.0,0.0,0.0,0.0,0.0,0.0,0.0,0.0,0.0,0.0,0.0,0.0,29
B8B2F87928F7,Casandra,Coronel,M,1996-09-04,"Tlalpan, Distrito Federal, Mexico",vampi_barby@hotmail.com,None,Facebook,1360182454168640.0,0.0,0.0,0.0,0.0,B2F87928F7,1.0,3.0,0.0,0.0,0.0,0.0,0.0,0.0,0.0,0.0,0.0,0.0,0.0,0.0,0.0,0.0,0.0,0.0,0.0,0.0,24
B8C3850E0294,Eduardo,Ca,M,1976-12-13,None,filoycp@hotmail.com,None,Facebook,3991155094231856.0,0.0,0.0,0.0,0.0,C3850E0294,1.0,1.0,0.0,0.0,0.0,0.0,0.0,0.0,0.0,0.0,0.0,0.0,0.0,0.0,0.0,0.0,0.0,0.0,0.0,0.0,44
BC4101172EBF,Jr.,Lopez Rodriguez,None,1954-07-01,Estado de México,jrgorila@yahoo.com.mx,None,Facebook,2407045506038400.0,0.0,0.0,0.0,0.0,4101172EBF,0.0,1.0,0.0,0.0,0.0,0.0,0.0,0.0,0.0,0.0,0.0,0.0,0.0,0.0,0.0,0.0,0.0,0.0,0.0,0.0,66
BCFFEB19EF91,Zenon,Castro Rosas,M,1968-04-12,Ciudad de México,conecarz@yahoo.com.mx,None,Facebook,2170939059672460.0,0.0,0.0,0.0,0.0,FFEB19EF91,0.0,2.0,0.0,0.0,0.0,0.0,0.0,0.0,0.0,0.0,0.0,0.0,0.0,0.0,0.0,0.0,0.0,0.0,0.0,0.0,53
BCFFEB8AD1D2,None,None,M,1972-06-28,None,pooly1936@hotmail.com,None,Form,0.0,0.0,0.0,0.0,0.0,FFEB8AD1D2,0.0,1.0,0.0,0.0,0.0,0.0,0.0,0.0,0.0,0.0,0.0,0.0,0.0,0.0,0.0,0.0,0.0,0.0,0.0,0.0,48
BCFFEB982AF8,Jorge,Rodríguez,M,1976-05-21,None,jgrivera.fd@gmail.com,None,Facebook,170197080715338.0,0.0,0.0,0.0,0.0,FFEB982AF8,3.0,1.0,0.0,0.0,0.0,0.0,0.0,0.0,0.0,0.0,0.0,0.0,0.0,0.0,0.0,0.0,0.0,0.0,0.0,0.0,45
C08C7121D434,None,None,M,2001-01-25,None,cesarolin24@gmail.com,None,Form,0.0,0.0,0.0,0.0,0.0,8C7121D434,1.0,1.0,0.0,0.0,0.0,0.0,0.0,0.0,0.0,0.0,0.0,0.0,0.0,0.0,0.0,0.0,0.0,0.0,0.0,0.0,20
C08C714873D9,None,None,M,2000-01-01,None,enriquevillaramirez5@gmail.com,None,Form,0.0,0.0,0.0,0.0,0.0,8C714873D9,0.0,0.0,0.0,0.0,0.0,0.0,0.0,0.0,0.0,0.0,0.0,0.0,0.0,0.0,0.0,0.0,0.0,0.0,0.0,0.0,21
C08C71A59C93,None,None,F,1997-12-31,None,evarosariogalvanperez5@gmail.com,None,Form,0.0,0.0,0.0,0.0,0.0,8C71A59C93,1.0,1.0,0.0,0.0,0.0,0.0,0.0,0.0,0.0,0.0,0.0,0.0,0.0,0.0,0.0,0.0,0.0,0.0,0.0,0.0,23
C08C71B4DA43,Aaron,Granados,M,1997-03-13,Ciudad de México,5583146624@gmail.com,None,Facebook,498937507717399.0,0.0,0.0,0.0,0.0,8C71B4DA43,4.0,3.0,1.0,1.0,0.0,1.0,0.0,0.0,0.0,0.0,0.0,0.0,0.0,0.0,0.0,0.0,0.0,0.0,0.0,0.0,24
C08C71D20423,Jaime,Ramirez Lopez,M,1977-04-29,None,jaime_ramirez24@hotmail.com,5542633081,Form,0.0,0.0,0.0,0.0,0.0,8C71D20423,2.0,0.0,0.0,0.0,0.0,0.0,0.0,0.0,0.0,0.0,0.0,0.0,0.0,0.0,0.0,0.0,0.0,0.0,0.0,0.0,44
C08C71D4F5A1,بابلو انطونيو,ألفارادو هيرنانديز,M,1994-11-10,Ciudad de México,pablo.alvarado.94@hotmail.com,None,Facebook,1099261527111645.0,0.0,0.0,0.0,0.0,8C71D4F5A1,4.0,4.0,1.0,1.0,1.0,0.0,0.0,1.0,0.0,0.0,0.0,0.0,0.0,0.0,0.0,0.0,0.0,0.0,0.0,0.0,26
C49F4CD6D4FD,Rocio,Urbina,F,1994-03-08,"Mexico City, Mexico",rocio_ura99@hotmail.com,None,Facebook,564613440668951.0,0.0,0.0,0.0,0.0,9F4CD6D4FD,4.0,2.0,1.0,1.0,1.0,0.0,0.0,0.0,0.0,0.0,0.0,0.0,0.0,0.0,0.0,0.0,0.0,0.0,0.0,0.0,27
C8FF284FE391,None,None,M,2006-01-25,None,coronaf@sanborns.com.mx,None,Form,0.0,0.0,0.0,0.0,0.0,FF284FE391,4.0,1.0,1.0,0.0,0.0,1.0,0.0,1.0,0.0,0.0,0.0,0.0,0.0,0.0,0.0,0.0,0.0,0.0,0.0,0.0,15
D016B4503D24,David,Vaz,M,1983-04-28,"Mexico City, Mexico",pirritokds@hotmail.com,None,Facebook,2204979779522286.0,0.0,0.0,0.0,0.0,16B4503D24,2.0,3.0,0.0,0.0,0.0,0.0,0.0,0.0,0.0,0.0,0.0,0.0,0.0,0.0,0.0,0.0,0.0,0.0,0.0,0.0,38
D07714839F3D,None,None,M,1977-09-28,None,jose.j.j6759@gmail.com,None,Form,0.0,0.0,0.0,0.0,0.0,7714839F3D,1.0,1.0,0.0,0.0,0.0,0.0,0.0,0.0,0.0,0.0,0.0,0.0,0.0,0.0,0.0,0.0,0.0,0.0,0.0,0.0,43
D461DABCBF4A,None,None,F,1979-01-12,None,evelazquez35@yahoo.es,None,Form,0.0,0.0,0.0,0.0,0.0,61DABCBF4A,2.0,4.0,1.0,1.0,0.0,0.0,0.0,0.0,0.0,0.0,0.0,0.0,0.0,0.0,0.0,0.0,0.0,0.0,0.0,0.0,42
D463C6412109,None,None,M,1997-03-23,None,lilianaescudero246@gmail.com,None,Form,0.0,0.0,0.0,0.0,0.0,63C6412109,4.0,4.0,2.0,0.0,1.0,0.0,0.0,1.0,0.0,0.0,0.0,0.0,0.0,0.0,0.0,0.0,0.0,0.0,0.0,0.0,24
D4C94B10FA90,None,None,M,1997-12-31,None,mondragona@sanborns.com,None,Form,0.0,0.0,0.0,0.0,0.0,C94B10FA90,3.0,1.0,0.0,0.0,0.0,0.0,0.0,0.0,0.0,0.0,0.0,0.0,0.0,0.0,0.0,0.0,0.0,0.0,0.0,0.0,23
D4C94B1D4A1F,Luis Fernando,Vazquez,None,1995-06-06,None,luis-mad1@hotmail.com,None,Facebook,2048804638519194.0,0.0,0.0,0.0,0.0,C94B1D4A1F,3.0,3.0,0.0,1.0,0.0,0.0,0.0,0.0,0.0,0.0,0.0,0.0,0.0,0.0,0.0,0.0,0.0,0.0,0.0,0.0,25
D4C94B7C0A12,Damian,Macias,M,1996-07-23,None,damianmacias848@gmail.com,None,Facebook,258827725364648.0,0.0,0.0,0.0,0.0,C94B7C0A12,1.0,0.0,0.0,0.0,0.0,0.0,0.0,0.0,0.0,0.0,0.0,0.0,0.0,0.0,0.0,0.0,0.0,0.0,0.0,0.0,24
D4C94BC6D99C,Luis,Antonio AH,M,1999-06-14,Ciudad de México,alonsoluis001@hotmail.com,None,Facebook,1664083010400975.0,0.0,0.0,0.0,0.0,C94BC6D99C,0.0,1.0,0.0,0.0,0.0,0.0,0.0,0.0,0.0,0.0,0.0,0.0,0.0,0.0,0.0,0.0,0.0,0.0,0.0,0.0,21
D4C94BF60949,Jhony,Hernandez,M,1992-01-13,None,flakito_jeral@hotmail.com,None,Facebook,2359038677727391.0,0.0,0.0,0.0,0.0,C94BF60949,3.0,4.0,0.0,1.0,0.0,0.0,0.0,1.0,0.0,0.0,0.0,0.0,0.0,0.0,0.0,0.0,0.0,0.0,0.0,0.0,29
D868C38EAF85,Giovanni M,Tacubeño,M,1994-12-09,"San Cristóbal Ecatepec, Mexico, Mexico",sagittario_94@hotmail.com,None,Facebook,2685021091537088.0,0.0,0.0,0.0,0.0,68C38EAF85,1.0,0.0,0.0,0.0,0.0,0.0,0.0,0.0,0.0,0.0,0.0,0.0,0.0,0.0,0.0,0.0,0.0,0.0,0.0,0.0,26
D868C3D6238F,None,None,M,1995-07-03,None,luisgerardo.hdz@hotmail.com,None,Form,0.0,0.0,0.0,0.0,0.0,68C3D6238F,3.0,2.0,0.0,0.0,0.0,0.0,0.0,0.0,0.0,0.0,0.0,0.0,0.0,0.0,0.0,0.0,0.0,0.0,0.0,0.0,25
D8C7717A9BFC,None,None,F,2000-01-08,None,melizita_19@hotmail.com,None,Form,0.0,0.0,0.0,0.0,0.0,C7717A9BFC,2.0,1.0,0.0,0.0,0.0,0.0,0.0,0.0,0.0,0.0,0.0,0.0,0.0,0.0,0.0,0.0,0.0,0.0,0.0,0.0,21
DC44B626411A,Maria ,Rojas,F,1969-12-07,None,oble69@hotmail.com,5553203132,Form,0.0,0.0,0.0,0.0,0.0,44B626411A,0.0,1.0,0.0,0.0,0.0,0.0,0.0,0.0,0.0,0.0,0.0,0.0,0.0,0.0,0.0,0.0,0.0,0.0,0.0,0.0,51
DC74A8F91FC0,None,None,M,1981-09-28,None,brauoz.rodriguez@gmail.com,None,Form,0.0,0.0,0.0,0.0,0.0,74A8F91FC0,4.0,3.0,1.0,1.0,0.0,0.0,0.0,0.0,0.0,0.0,0.0,0.0,0.0,0.0,0.0,0.0,0.0,0.0,0.0,0.0,39
DCBFE92D48D7,Gregorio,Alvarez Aguilar,M,1971-09-29,Ciudad de México,galvarez2909@hotmail.com,None,Facebook,3496900450382132.0,0.0,0.0,0.0,0.0,BFE92D48D7,2.0,2.0,0.0,0.0,0.0,0.0,0.0,0.0,0.0,0.0,0.0,0.0,0.0,0.0,0.0,0.0,0.0,0.0,0.0,0.0,49
DCBFE92D4B32,None,None,None,1986-01-03,None,negromartinez_16@hotmail.com,None,Form,0.0,0.0,0.0,0.0,0.0,BFE92D4B32,0.0,1.0,0.0,0.0,0.0,0.0,0.0,0.0,0.0,0.0,0.0,0.0,0.0,0.0,0.0,0.0,0.0,0.0,0.0,0.0,35
E048D3590CDD,Ernesto,Lopez,M,1966-06-30,None,0,None,Facebook,114989033564057.0,0.0,0.0,0.0,0.0,48D3590CDD,4.0,3.0,1.0,0.0,0.0,0.0,0.0,0.0,0.0,0.0,0.0,0.0,0.0,0.0,0.0,0.0,0.0,0.0,0.0,0.0,54
E062675C2CF9,Felix,Hernandez,M,1989-10-10,None,t.h.e.spy@hotmail.com,None,Facebook,792750851076145.0,0.0,0.0,0.0,0.0,62675C2CF9,3.0,1.0,0.0,0.0,0.0,0.0,0.0,0.0,0.0,0.0,0.0,0.0,0.0,0.0,0.0,0.0,0.0,0.0,0.0,0.0,31
E062675C6DF6,None,None,M,1979-05-16,None,gearrolo@gmail.com,None,Form,0.0,0.0,0.0,0.0,0.0,62675C6DF6,3.0,4.0,1.0,0.0,0.0,1.0,1.0,1.0,0.0,0.0,0.0,0.0,0.0,0.0,0.0,0.0,0.0,0.0,0.0,0.0,42
E419C141BE99,Estefanía,Ramírez,F,2000-11-25,Ciudad de México,251100pedagogia@gmail.com,None,Facebook,835704596854306.0,0.0,0.0,0.0,0.0,19C141BE99,2.0,1.0,0.0,0.0,0.0,0.0,0.0,0.0,0.0,0.0,0.0,0.0,0.0,0.0,0.0,0.0,0.0,0.0,0.0,0.0,20
E470B8CEE69F,None,None,M,1976-01-10,None,reyjauces@outlook.com,5536662423,Form,0.0,0.0,0.0,0.0,0.0,70B8CEE69F,0.0,3.0,0.0,0.0,0.0,0.0,0.0,0.0,0.0,0.0,0.0,0.0,0.0,0.0,0.0,0.0,0.0,0.0,0.0,0.0,45
E4A7C5EC7640,None,None,F,2006-01-25,None,sanchez.d.karla.m@gmail.com,None,Form,0.0,0.0,0.0,0.0,0.0,A7C5EC7640,1.0,2.0,0.0,0.0,0.0,0.0,0.0,0.0,0.0,0.0,0.0,0.0,0.0,0.0,0.0,0.0,0.0,0.0,0.0,0.0,15
E4E1305EFEE8,Daian,Vega,F,2000-05-01,None,diansarahi268@gmail.com,None,Facebook,1189188998136087.0,0.0,0.0,0.0,0.0,E1305EFEE8,4.0,3.0,1.0,0.0,1.0,1.0,1.0,0.0,0.0,0.0,0.0,0.0,0.0,0.0,0.0,0.0,0.0,0.0,0.0,0.0,21
E4FDA1B7FA75,None,None,M,2006-01-25,None,medinarj79@hotmail.com,None,Form,0.0,0.0,0.0,0.0,0.0,FDA1B7FA75,2.0,3.0,0.0,0.0,0.0,0.0,0.0,0.0,0.0,0.0,0.0,0.0,0.0,0.0,0.0,0.0,0.0,0.0,0.0,0.0,15
F018984F0477,None,None,None,1978-08-23,None,emiliocores@hotmail.com,None,Form,0.0,0.0,0.0,0.0,0.0,18984F0477,2.0,3.0,0.0,0.0,0.0,0.0,0.0,0.0,0.0,0.0,0.0,0.0,0.0,0.0,0.0,0.0,0.0,0.0,0.0,0.0,42
F0D7AA3B18CA,Mika,Likon,F,1971-01-22,Ciudad de México,mikapriest@hotmail.com,None,Facebook,3136984629698538.0,0.0,0.0,0.0,0.0,D7AA3B18CA,1.0,0.0,0.0,0.0,0.0,0.0,0.0,0.0,0.0,0.0,0.0,0.0,0.0,0.0,0.0,0.0,0.0,0.0,0.0,0.0,50
F0D7AA473B4A,None,None,M,1991-06-17,None,gianlinarezg@hotmail.com,None,Form,0.0,0.0,0.0,0.0,0.0,D7AA473B4A,3.0,1.0,0.0,0.0,0.0,0.0,0.0,0.0,0.0,0.0,0.0,0.0,0.0,0.0,0.0,0.0,0.0,0.0,0.0,0.0,29
F460E2008937,None,None,M,1985-01-01,None,jardel.marquez@gmail.com,None,Form,0.0,0.0,0.0,0.0,0.0,60E2008937,1.0,0.0,0.0,0.0,0.0,0.0,0.0,0.0,0.0,0.0,0.0,0.0,0.0,0.0,0.0,0.0,0.0,0.0,0.0,0.0,36
F4BF80BFC206,None,None,None,1983-03-08,None,frey2206@hotmail.com,None,Form,0.0,0.0,0.0,0.0,0.0,BF80BFC206,1.0,3.0,0.0,0.0,0.0,0.0,0.0,0.0,0.0,0.0,0.0,0.0,0.0,0.0,0.0,0.0,0.0,0.0,0.0,0.0,38
F82D7CB0EBE4,None,None,M,1972-09-01,None,sandraestrad@gmail.com,None,Form,0.0,0.0,0.0,0.0,0.0,2D7CB0EBE4,0.0,1.0,0.0,0.0,0.0,0.0,0.0,0.0,0.0,0.0,0.0,0.0,0.0,0.0,0.0,0.0,0.0,0.0,0.0,0.0,48
F8ADCB108A20,None,None,F,1995-10-04,None,vanessameco95@gmail.com,None,Form,0.0,0.0,0.0,0.0,0.0,ADCB108A20,0.0,0.0,0.0,0.0,0.0,0.0,0.0,0.0,0.0,0.0,0.0,0.0,0.0,0.0,0.0,0.0,0.0,0.0,0.0,0.0,25
F8C39EC41CD3,None,None,M,1998-11-02,None,robsanbeltran@gmail.com,None,Form,0.0,0.0,0.0,0.0,0.0,C39EC41CD3,3.0,3.0,0.0,0.0,0.0,0.0,0.0,0.0,0.0,0.0,0.0,0.0,0.0,0.0,0.0,0.0,0.0,0.0,0.0,0.0,22
FC2D5EB96E07,Orlando,Aparicio,M,1983-12-10,Ciudad de México,itachirasingan@hotmail.com,None,Facebook,1519794668181132.0,0.0,0.0,0.0,0.0,2D5EB96E07,4.0,4.0,2.0,0.0,1.0,0.0,0.0,1.0,0.0,0.0,0.0,0.0,0.0,0.0,0.0,0.0,0.0,0.0,0.0,0.0,37
FC8743CC9CE6,Fabian,Ruiz Flores,M,1984-01-20,Naucalpan de Juárez,fchavez.fc790@gmail.com,None,Facebook,2526663440934353.0,0.0,0.0,0.0,0.0,8743CC9CE6,3.0,3.0,0.0,1.0,0.0,0.0,0.0,0.0,0.0,0.0,0.0,0.0,0.0,0.0,0.0,0.0,0.0,0.0,0.0,0.0,37
FCA6216298C8,Luis,Garcia Garcia,M,1998-03-17,None,deivid619@hotmail.es,None,Facebook,2209693715786065.0,0.0,0.0,0.0,0.0,A6216298C8,0.0,1.0,0.0,0.0,0.0,0.0,0.0,0.0,0.0,0.0,0.0,0.0,0.0,0.0,0.0,0.0,0.0,0.0,0.0,0.0,23
FCA62182BF43,None,None,F,2006-05-30,None,ferni15_pink@hotmail.com,None,Form,0.0,0.0,0.0,0.0,0.0,A62182BF43,2.0,0.0,0.0,0.0,0.0,0.0,0.0,0.0,0.0,0.0,0.0,0.0,0.0,0.0,0.0,0.0,0.0,0.0,0.0,0.0,14
FCAB90BCCBFB,None,None,F,2006-08-01,None,stefany.alanis@hotmail.com,None,Form,0.0,0.0,0.0,0.0,0.0,AB90BCCBFB,3.0,2.0,0.0,0.0,0.0,0.0,0.0,0.0,0.0,0.0,0.0,0.0,0.0,0.0,0.0,0.0,0.0,0.0,0.0,0.0,14
