client_mac,first_name,last_name,gender,date_of_birth,location,email,mobile,source,facebook_id,twitter_id,instagram_id,linkedin_id,oneclick_id,client_mac10,Relojería / Joyería,Restaurante,Discos,Tabacos,Lentes,Novedades,Caballeros,Libros,Zona de exclusión,Fotografía,Otros de farmacia,Pantallas,Dulcería,Pastelería,Videojuegos,Dermatología ,Parafarmacia,Juguetes,Computo pasillo,Celulares,Farmacia,Tarjetas,Pasillo juguetes,age
1CB7963CAA86,Karen,Quiroz,F,1993-05-21,Ciudad de México,lucesita_2105@hotmail.com,None,Facebook,1.022111261495578e+16,0.0,0.0,0.0,0.0,B7963CAA86,3.0,3.0,2.0,0.0,1.0,1.0,1.0,1.0,1.0,0.0,1.0,0.0,0.0,0.0,0.0,0.0,0.0,0.0,0.0,0.0,0.0,0.0,0.0,28
2446C8F2A398,None,None,M,2006-02-23,None,glossermercurio8@gmail.com,None,Form,0.0,0.0,0.0,0.0,0.0,46C8F2A398,0.0,3.0,1.0,2.0,0.0,1.0,0.0,0.0,0.0,0.0,0.0,0.0,0.0,0.0,0.0,0.0,0.0,0.0,0.0,0.0,0.0,0.0,0.0,15
30074DC13DE2,None,None,M,1985-01-21,None,juanmen12@yahoo.com,None,Form,0.0,0.0,0.0,0.0,0.0,074DC13DE2,3.0,2.0,1.0,1.0,1.0,0.0,0.0,0.0,0.0,0.0,0.0,0.0,0.0,0.0,0.0,0.0,0.0,0.0,0.0,0.0,0.0,0.0,0.0,36
34145FCEE3F9,None,None,M,1996-06-14,None,la521262@gmail.com,None,Form,0.0,0.0,0.0,0.0,0.0,145FCEE3F9,3.0,4.0,0.0,3.0,1.0,0.0,1.0,0.0,1.0,0.0,0.0,0.0,0.0,0.0,0.0,0.0,0.0,0.0,0.0,0.0,0.0,0.0,0.0,24
38539C86FF0F,None,None,M,1991-02-14,None,lizethtamayo0214@gmail.com,None,Form,0.0,0.0,0.0,0.0,0.0,539C86FF0F,3.0,3.0,2.0,1.0,1.0,0.0,0.0,0.0,0.0,0.0,0.0,0.0,0.0,0.0,0.0,0.0,0.0,0.0,0.0,0.0,0.0,0.0,0.0,30
404E369833C4,None,None,M,1992-06-15,None,astromantico1@gmail.com,None,Form,0.0,0.0,0.0,0.0,0.0,4E369833C4,2.0,3.0,3.0,1.0,1.0,1.0,0.0,0.0,1.0,1.0,0.0,0.0,0.0,0.0,0.0,0.0,0.0,0.0,0.0,0.0,0.0,0.0,0.0,28
444ADB371196,None,None,M,2002-01-12,None,martinezob@asf.edu.mx,None,Form,0.0,0.0,0.0,0.0,0.0,4ADB371196,3.0,1.0,1.0,1.0,0.0,0.0,0.0,0.0,0.0,0.0,0.0,0.0,0.0,0.0,0.0,0.0,0.0,0.0,0.0,0.0,0.0,0.0,0.0,19
44D79170E4C1,Oscar,López,M,1995-02-08,"Cuauhtémoc, Distrito Federal, Mexico",oscarchivas_619@hotmail.com,None,Facebook,3615390245199391.0,0.0,0.0,0.0,0.0,D79170E4C1,1.0,1.0,1.0,0.0,0.0,0.0,0.0,0.0,0.0,0.0,0.0,0.0,0.0,0.0,0.0,0.0,0.0,0.0,0.0,0.0,0.0,0.0,0.0,26
4888CA2CCF4F,Miguel,Nava,M,1965-09-16,None,mikinava1234@mail.com,None,Facebook,457885718476096.0,0.0,0.0,0.0,0.0,88CA2CCF4F,4.0,1.0,3.0,0.0,1.0,1.0,1.0,0.0,0.0,0.0,0.0,0.0,0.0,0.0,0.0,0.0,0.0,0.0,0.0,0.0,0.0,0.0,0.0,55
508A0FFBA4C6,None,None,F,1982-06-29,None,marceloaguilarhdz@gmail.com,None,Form,0.0,0.0,0.0,0.0,0.0,8A0FFBA4C6,4.0,3.0,1.0,1.0,1.0,1.0,0.0,1.0,1.0,1.0,1.0,0.0,0.0,0.0,0.0,0.0,0.0,0.0,0.0,0.0,0.0,0.0,0.0,38
509EA7CA4844,None,None,M,1973-02-24,None,garellano369@gmail.com,None,Form,0.0,0.0,0.0,0.0,0.0,9EA7CA4844,4.0,4.0,2.0,3.0,1.0,1.0,0.0,1.0,0.0,0.0,1.0,1.0,1.0,0.0,0.0,0.0,0.0,0.0,0.0,0.0,0.0,0.0,0.0,48
54F201E6CE87,None,None,M,2005-08-10,None,dnielog@hotmail.com,None,Form,0.0,0.0,0.0,0.0,0.0,F201E6CE87,1.0,2.0,0.0,1.0,0.0,0.0,0.0,0.0,0.0,0.0,0.0,0.0,0.0,0.0,0.0,0.0,0.0,0.0,0.0,0.0,0.0,0.0,0.0,15
601466C6EB55,Jose,Jr,None,2000-03-04,"Mexico City, Mexico",cirilo-alvarez.34@outlook.es,None,Facebook,2163068353965680.0,0.0,0.0,0.0,0.0,1466C6EB55,0.0,1.0,0.0,1.0,0.0,0.0,0.0,0.0,0.0,0.0,0.0,0.0,0.0,0.0,0.0,0.0,0.0,0.0,0.0,0.0,0.0,0.0,0.0,21
647033A0E28E,None,None,F,1986-12-26,None,estefania8686@gmail.com,None,Form,0.0,0.0,0.0,0.0,0.0,7033A0E28E,0.0,1.0,0.0,0.0,0.0,0.0,0.0,0.0,0.0,0.0,0.0,0.0,0.0,0.0,0.0,0.0,0.0,0.0,0.0,0.0,0.0,0.0,0.0,34
6C006B27A4D1,Luis Antonio,Carreto Ortega,M,1992-10-07,"Ecatepec Morelos, Mexico, Mexico",luy_ananagas@hotmail.com,None,Facebook,1.021214030577554e+16,0.0,0.0,0.0,0.0,006B27A4D1,4.0,4.0,2.0,2.0,2.0,2.0,0.0,1.0,1.0,0.0,1.0,0.0,0.0,0.0,0.0,0.0,0.0,0.0,0.0,0.0,0.0,0.0,0.0,28
6C006B80545D,None,None,M,1987-10-21,None,kevinbobrush77@gmail.com,None,Form,0.0,0.0,0.0,0.0,0.0,006B80545D,1.0,3.0,1.0,1.0,1.0,0.0,0.0,0.0,0.0,0.0,0.0,0.0,0.0,0.0,0.0,0.0,0.0,0.0,0.0,0.0,0.0,0.0,0.0,33
6CAB31AD4931,None,None,M,1968-10-11,None,raymin_6873@hotmail.com,None,Form,0.0,0.0,0.0,0.0,0.0,AB31AD4931,1.0,0.0,1.0,0.0,0.0,0.0,0.0,0.0,0.0,0.0,0.0,0.0,0.0,0.0,0.0,0.0,0.0,0.0,0.0,0.0,0.0,0.0,0.0,52
6CB7490579A2,None,None,F,1973-07-29,None,azucenadelcastillo111@gmail.com,None,Form,0.0,0.0,0.0,0.0,0.0,B7490579A2,3.0,3.0,3.0,1.0,1.0,1.0,0.0,1.0,1.0,0.0,0.0,0.0,0.0,0.0,0.0,0.0,0.0,0.0,0.0,0.0,0.0,0.0,0.0,47
703A512EA44B,None,None,M,1997-12-31,None,kevinbibrush77@gmail.com,None,Form,0.0,0.0,0.0,0.0,0.0,3A512EA44B,4.0,1.0,2.0,3.0,1.0,1.0,1.0,1.0,1.0,1.0,1.0,0.0,0.0,1.0,0.0,0.0,0.0,0.0,0.0,0.0,0.0,0.0,0.0,23
7CD1C3DB7F57,None,None,M,1991-02-08,None,oscar.lopezipn@gmail.com,None,Form,0.0,0.0,0.0,0.0,0.0,D1C3DB7F57,0.0,3.0,0.0,1.0,0.0,0.0,0.0,0.0,0.0,0.0,0.0,0.0,0.0,0.0,0.0,0.0,0.0,0.0,0.0,0.0,0.0,0.0,0.0,30
8058F8492F17,Daft,Nathan,None,1997-11-18,Ciudad de México,kesito_nomo@live.com.mx,None,Facebook,2911808388889927.0,0.0,0.0,0.0,0.0,58F8492F17,1.0,0.0,0.0,0.0,0.0,0.0,0.0,0.0,0.0,0.0,0.0,0.0,0.0,0.0,0.0,0.0,0.0,0.0,0.0,0.0,0.0,0.0,0.0,23
808223472231,None,None,M,2006-07-27,None,ouen0727@gmail.com,None,Form,0.0,0.0,0.0,0.0,0.0,8223472231,3.0,1.0,1.0,0.0,0.0,0.0,0.0,0.0,0.0,0.0,0.0,0.0,0.0,0.0,0.0,0.0,0.0,0.0,0.0,0.0,0.0,0.0,0.0,14
881196717513,None,None,M,1997-12-31,None,micatrejolopez@gmail.com,None,Form,0.0,0.0,0.0,0.0,0.0,1196717513,0.0,3.0,2.0,0.0,0.0,0.0,0.0,0.0,0.0,0.0,0.0,0.0,0.0,0.0,0.0,0.0,0.0,0.0,0.0,0.0,0.0,0.0,0.0,23
88299C3DAA0D,None,None,M,1992-02-12,None,valo_a@hotmail.com,None,Form,0.0,0.0,0.0,0.0,0.0,299C3DAA0D,3.0,4.0,1.0,1.0,1.0,0.0,1.0,1.0,1.0,0.0,1.0,0.0,0.0,0.0,0.0,0.0,0.0,0.0,0.0,0.0,0.0,0.0,0.0,29
8C7967A21DA7,None,None,F,1979-06-27,None,alerdz2004l@gmail.com,None,Form,0.0,0.0,0.0,0.0,0.0,7967A21DA7,3.0,3.0,1.0,2.0,1.0,1.0,1.0,0.0,1.0,0.0,0.0,0.0,0.0,0.0,0.0,0.0,0.0,0.0,0.0,0.0,0.0,0.0,0.0,41
8C99E65ABB9B,None,None,M,2002-01-07,None,leomtzgtz.123@gmail.com,None,Form,0.0,0.0,0.0,0.0,0.0,99E65ABB9B,3.0,4.0,2.0,1.0,2.0,1.0,1.0,1.0,1.0,0.0,0.0,0.0,0.0,0.0,0.0,0.0,0.0,0.0,0.0,0.0,0.0,0.0,0.0,19
8CB84A000892,None,None,M,1986-01-27,None,cda_djinn@hotmail.com,None,Form,0.0,0.0,0.0,0.0,0.0,B84A000892,1.0,2.0,0.0,0.0,0.0,0.0,0.0,0.0,0.0,0.0,0.0,0.0,0.0,0.0,0.0,0.0,0.0,0.0,0.0,0.0,0.0,0.0,0.0,35
8CF11200AA14,Javier,Perez,M,1995-07-19,None,javierpcruz62@gmail.com,None,Facebook,126610222389211.0,0.0,0.0,0.0,0.0,F11200AA14,2.0,3.0,3.0,2.0,1.0,0.0,0.0,0.0,1.0,0.0,0.0,0.0,0.0,0.0,0.0,0.0,0.0,0.0,0.0,0.0,0.0,0.0,0.0,25
8CF112D800A6,Serch,Torres,M,1981-08-29,Ciudad de México,sgtorres_10@hotmail.com,None,Facebook,2344902345597498.0,0.0,0.0,0.0,0.0,F112D800A6,3.0,1.0,0.0,2.0,1.0,0.0,0.0,0.0,0.0,0.0,0.0,0.0,0.0,0.0,0.0,0.0,0.0,0.0,0.0,0.0,0.0,0.0,0.0,39
90633BE80FB9,None,None,F,2006-01-25,None,brayan.mb61@gmail.com,None,Form,0.0,0.0,0.0,0.0,0.0,633BE80FB9,3.0,3.0,2.0,2.0,0.0,0.0,1.0,1.0,0.0,0.0,0.0,0.0,0.0,0.0,0.0,0.0,0.0,0.0,0.0,0.0,0.0,0.0,0.0,15
A0CC2B8C7F37,None,None,F,1984-03-27,None,elizetedecampos@gmail.com,None,Form,0.0,0.0,0.0,0.0,0.0,CC2B8C7F37,3.0,2.0,0.0,1.0,1.0,0.0,0.0,0.0,0.0,0.0,0.0,0.0,0.0,0.0,0.0,0.0,0.0,0.0,0.0,0.0,0.0,0.0,0.0,37
A4D931BE77AA,None,None,F,1994-10-01,None,hellofridis@hotmail.com,None,Form,0.0,0.0,0.0,0.0,0.0,D931BE77AA,2.0,3.0,3.0,1.0,0.0,0.0,0.0,0.0,0.0,0.0,0.0,0.0,0.0,0.0,0.0,0.0,0.0,0.0,0.0,0.0,0.0,0.0,0.0,26
A87D12F4E965,Josias Daniel,Martínez Castro,M,1999-03-05,"Mexico City, Mexico",josiasdanielmartinezcastro2@gmail.com,None,Facebook,146378259854265.0,0.0,0.0,0.0,0.0,7D12F4E965,1.0,2.0,1.0,1.0,0.0,0.0,0.0,0.0,0.0,0.0,0.0,0.0,0.0,0.0,0.0,0.0,0.0,0.0,0.0,0.0,0.0,0.0,0.0,22
A8DB0301D377,None,None,M,2006-01-25,None,kevknbobrush77@gmail.com,None,Form,0.0,0.0,0.0,0.0,0.0,DB0301D377,4.0,4.0,3.0,2.0,1.0,1.0,1.0,1.0,1.0,0.0,1.0,0.0,1.0,0.0,1.0,0.0,0.0,0.0,0.0,0.0,0.0,0.0,0.0,15
A8DB03FE6420,None,None,None,2001-04-14,None,dragon0777vico@gmail.com,None,Form,0.0,0.0,0.0,0.0,0.0,DB03FE6420,4.0,3.0,3.0,3.0,3.0,2.0,1.0,2.0,0.0,2.0,1.0,0.0,1.0,0.0,1.0,0.0,0.0,0.0,0.0,0.0,0.0,0.0,0.0,20
B44BD2BA101E,JD,Ponce,M,2000-10-09,Ciudad de México,jose45ponce.com@outlook.com,None,Facebook,937877933218507.0,0.0,0.0,0.0,0.0,4BD2BA101E,2.0,3.0,0.0,2.0,1.0,1.0,0.0,1.0,0.0,0.0,0.0,0.0,0.0,0.0,0.0,0.0,0.0,0.0,0.0,0.0,0.0,0.0,0.0,20
B4BFF6BB786D,Lupita,Lopez,F,1998-02-17,Ciudad de México,guadalupe.penaloza20@iems.edu.mx,None,Facebook,2910558332332589.0,0.0,0.0,0.0,0.0,BFF6BB786D,4.0,3.0,1.0,1.0,0.0,1.0,1.0,1.0,1.0,0.0,0.0,0.0,0.0,0.0,0.0,0.0,0.0,0.0,0.0,0.0,0.0,0.0,0.0,23
B853AC530ED0,Wendy,Torres Espinoza,F,1996-05-19,None,wendy_9919@hotmail.com,None,Facebook,2816018975147231.0,0.0,0.0,0.0,0.0,53AC530ED0,0.0,0.0,0.0,0.0,0.0,0.0,0.0,0.0,0.0,0.0,0.0,0.0,0.0,0.0,0.0,0.0,0.0,0.0,0.0,0.0,0.0,0.0,0.0,25
B87BC5AC59E2,Jose Mi,Navarro,M,1989-10-31,None,jpekel31@hotmail.com,None,Facebook,1261319310734513.0,0.0,0.0,0.0,0.0,7BC5AC59E2,0.0,0.0,0.0,0.0,0.0,0.0,0.0,0.0,0.0,0.0,0.0,0.0,0.0,0.0,0.0,0.0,0.0,0.0,0.0,0.0,0.0,0.0,0.0,31
B89436B0B9E8,None,None,M,2006-01-25,None,carlioni88@gmail.com,None,Form,0.0,0.0,0.0,0.0,0.0,9436B0B9E8,1.0,2.0,1.0,0.0,0.0,0.0,0.0,0.0,0.0,0.0,0.0,0.0,0.0,0.0,0.0,0.0,0.0,0.0,0.0,0.0,0.0,0.0,0.0,15
BC765E4F5BBB,None,None,M,1970-06-05,None,nicocruznapo@gmail.com,None,Form,0.0,0.0,0.0,0.0,0.0,765E4F5BBB,3.0,4.0,2.0,2.0,2.0,1.0,0.0,1.0,0.0,0.0,0.0,1.0,0.0,1.0,0.0,0.0,0.0,0.0,0.0,0.0,0.0,0.0,0.0,50
BC98DF04521F,None,None,M,2000-04-11,None,iramesau0@gmail.com,None,Form,0.0,0.0,0.0,0.0,0.0,98DF04521F,2.0,0.0,1.0,1.0,0.0,0.0,0.0,0.0,0.0,0.0,0.0,0.0,0.0,0.0,0.0,0.0,0.0,0.0,0.0,0.0,0.0,0.0,0.0,21
BCFFEB182587,Anirak,Galeana Gil,F,1991-11-03,Monterrey,anirak.galeana.gil@hotmail.com,None,Facebook,2713606265387877.0,0.0,0.0,0.0,0.0,FFEB182587,0.0,0.0,0.0,0.0,0.0,0.0,0.0,0.0,0.0,0.0,0.0,0.0,0.0,0.0,0.0,0.0,0.0,0.0,0.0,0.0,0.0,0.0,0.0,29
C49A0295A2AB,None,None,M,2006-01-25,None,vegalourdes14@yahoo.com.mx,None,Form,0.0,0.0,0.0,0.0,0.0,9A0295A2AB,4.0,2.0,2.0,3.0,0.0,1.0,0.0,0.0,1.0,1.0,1.0,0.0,0.0,0.0,0.0,0.0,0.0,0.0,0.0,0.0,0.0,0.0,0.0,15
D016B47B69D4,Guadalupe,Leyva,F,1978-12-11,None,anayeli.1011@gmail.com,None,Facebook,1128639260806401.0,0.0,0.0,0.0,0.0,16B47B69D4,1.0,4.0,1.0,2.0,0.0,1.0,0.0,1.0,0.0,1.0,0.0,0.0,0.0,0.0,0.0,0.0,0.0,0.0,0.0,0.0,0.0,0.0,0.0,42
D461DABCBF4A,None,None,F,1979-01-12,None,evelazquez35@yahoo.es,None,Form,0.0,0.0,0.0,0.0,0.0,61DABCBF4A,3.0,4.0,3.0,2.0,3.0,2.0,2.0,0.0,1.0,2.0,0.0,0.0,0.0,0.0,0.0,1.0,0.0,0.0,0.0,0.0,0.0,0.0,0.0,42
D4A33D11A399,None,None,F,2001-06-24,None,fernanda_2083@yahoo.es,None,Form,0.0,0.0,0.0,0.0,0.0,A33D11A399,4.0,4.0,3.0,3.0,3.0,1.0,0.0,2.0,0.0,1.0,1.0,1.0,0.0,0.0,1.0,1.0,0.0,0.0,0.0,0.0,0.0,0.0,0.0,19
E4E1305EFEE8,Daian,Vega,F,2000-05-01,None,diansarahi268@gmail.com,None,Facebook,1189188998136087.0,0.0,0.0,0.0,0.0,E1305EFEE8,3.0,4.0,3.0,0.0,0.0,0.0,0.0,1.0,1.0,1.0,0.0,0.0,0.0,0.0,0.0,0.0,0.0,0.0,0.0,0.0,0.0,0.0,0.0,21
F018984F0477,None,None,None,1978-08-23,None,emiliocores@hotmail.com,None,Form,0.0,0.0,0.0,0.0,0.0,18984F0477,1.0,2.0,1.0,1.0,0.0,0.0,0.0,0.0,0.0,0.0,0.0,0.0,0.0,0.0,0.0,0.0,0.0,0.0,0.0,0.0,0.0,0.0,0.0,42
F0D7AA46DE1D,None,None,F,1975-08-23,None,alivega_s@hotmail.com,None,Form,0.0,0.0,0.0,0.0,0.0,D7AA46DE1D,0.0,0.0,0.0,0.0,0.0,0.0,0.0,0.0,0.0,0.0,0.0,0.0,0.0,0.0,0.0,0.0,0.0,0.0,0.0,0.0,0.0,0.0,0.0,45
F4F524D0AFF8,Noe,Angli,None,1978-12-23,Tampico,noeangli@hotmail.com,5569644947,Facebook,1.0216764185529394e+16,0.0,0.0,0.0,0.0,F524D0AFF8,3.0,4.0,3.0,1.0,2.0,0.0,1.0,0.0,0.0,0.0,0.0,0.0,0.0,0.0,0.0,0.0,0.0,0.0,0.0,0.0,0.0,0.0,0.0,42
F82D7C059CCD,None,None,M,1982-11-29,None,herrera.benjamin@gmail.com,None,Form,0.0,0.0,0.0,0.0,0.0,2D7C059CCD,2.0,1.0,0.0,0.0,0.0,0.0,0.0,0.0,0.0,0.0,0.0,0.0,0.0,0.0,0.0,0.0,0.0,0.0,0.0,0.0,0.0,0.0,0.0,38
F8FFC2E27E12,None,None,M,1977-10-03,None,freewordstar@hotmail.com,None,Form,0.0,0.0,0.0,0.0,0.0,FFC2E27E12,1.0,1.0,0.0,0.0,0.0,0.0,0.0,0.0,0.0,0.0,0.0,0.0,0.0,0.0,0.0,0.0,0.0,0.0,0.0,0.0,0.0,0.0,0.0,43
FC183C22AB68,None,None,M,1982-02-01,None,benguia82@outlook.com,None,Form,0.0,0.0,0.0,0.0,0.0,183C22AB68,1.0,4.0,2.0,0.0,1.0,0.0,1.0,1.0,0.0,0.0,0.0,0.0,0.0,0.0,0.0,0.0,0.0,0.0,0.0,0.0,0.0,0.0,0.0,39
