client_mac,first_name,last_name,gender,date_of_birth,location,email,mobile,source,facebook_id,twitter_id,instagram_id,linkedin_id,oneclick_id,client_mac10,Restaurante,Relojería / Joyería,Discos,Zona de exclusión,Pastelería,Lentes,Dulcería,Otros de farmacia,Libros,Tabacos,Novedades,Fotografía,Juguetes,Farmacia,Dermatología ,Caballeros,Parafarmacia,age
10C7534B91D4,None,None,M,2006-01-01,None,saavedragerardo105@gmail.com,None,Form,0.0,0.0,0.0,0.0,0.0,C7534B91D4,4.0,4.0,2.0,1.0,0.0,0.0,0.0,0.0,0.0,0.0,0.0,0.0,0.0,0.0,0.0,0.0,0.0,15
186590606DE9,None,None,M,1964-04-05,None,rosasjl@sanborns.com.mx,None,Form,0.0,0.0,0.0,0.0,0.0,6590606DE9,3.0,1.0,0.0,0.0,0.0,0.0,0.0,0.0,0.0,0.0,0.0,0.0,0.0,0.0,0.0,0.0,0.0,57
18703B68DC48,Luis,Hernandez,M,1994-07-02,Ciudad de México,lg_hm0207@hotmail.com,None,Facebook,3435249463155971.0,0.0,0.0,0.0,0.0,703B68DC48,2.0,0.0,0.0,0.0,0.0,0.0,0.0,0.0,0.0,0.0,0.0,0.0,0.0,0.0,0.0,0.0,0.0,26
1C7B238AC62A,None,None,M,1983-05-12,None,ghummy00@hotmail.com,None,Form,0.0,0.0,0.0,0.0,0.0,7B238AC62A,2.0,1.0,0.0,0.0,0.0,0.0,0.0,0.0,0.0,0.0,0.0,0.0,0.0,0.0,0.0,0.0,0.0,38
1CCCD67DFFD8,None,None,M,1969-07-25,None,luisjosefra@hotmail.com,None,Form,0.0,0.0,0.0,0.0,0.0,CCD67DFFD8,1.0,1.0,0.0,0.0,0.0,0.0,0.0,0.0,0.0,0.0,0.0,0.0,0.0,0.0,0.0,0.0,0.0,51
20326C66A8B8,None,None,F,1994-05-12,None,sweet_sol_m@hotmail.com,None,Form,0.0,0.0,0.0,0.0,0.0,326C66A8B8,3.0,0.0,0.0,0.0,0.0,0.0,0.0,0.0,0.0,0.0,0.0,0.0,0.0,0.0,0.0,0.0,0.0,27
20F47840F098,Juan Carlos,Mendoza Morales,M,1996-03-01,None,ianmendoza3105@gmail.com,None,Facebook,282681896464530.0,0.0,0.0,0.0,0.0,F47840F098,4.0,4.0,1.0,1.0,0.0,0.0,0.0,0.0,0.0,0.0,0.0,0.0,0.0,0.0,0.0,0.0,0.0,25
2446C8732EB8,Mar,Draco,F,1997-01-03,Ciudad de México,jessiestrella09_@hotmail.com,None,Facebook,2541956082536658.0,0.0,0.0,0.0,0.0,46C8732EB8,1.0,2.0,0.0,0.0,0.0,0.0,0.0,0.0,0.0,0.0,0.0,0.0,0.0,0.0,0.0,0.0,0.0,24
24DA339C1527,Cesar,Eduardo,M,1997-03-22,"Akishima-shi, Tokyo, Japan",camacho00@live.com,5542844555,Facebook,2397824243604638.0,0.0,0.0,0.0,0.0,DA339C1527,3.0,3.0,0.0,0.0,0.0,0.0,0.0,0.0,0.0,0.0,0.0,0.0,0.0,0.0,0.0,0.0,0.0,24
30074D55319E,None,None,F,2000-09-19,None,luzma_6419@hotmail.com,None,Form,0.0,0.0,0.0,0.0,0.0,074D55319E,0.0,2.0,0.0,0.0,0.0,0.0,0.0,0.0,0.0,0.0,0.0,0.0,0.0,0.0,0.0,0.0,0.0,20
3035ADB823CA,None,None,M,1968-01-08,None,paulinagustin@gmail.com,None,Form,0.0,0.0,0.0,0.0,0.0,35ADB823CA,3.0,2.0,0.0,0.0,0.0,0.0,0.0,0.0,0.0,0.0,0.0,0.0,0.0,0.0,0.0,0.0,0.0,53
347916A8406B,None,None,M,1986-11-22,None,ferckmirmidon@gmail.com,None,Form,0.0,0.0,0.0,0.0,0.0,7916A8406B,1.0,2.0,0.0,0.0,0.0,0.0,0.0,0.0,0.0,0.0,0.0,0.0,0.0,0.0,0.0,0.0,0.0,34
3847BCFAB639,Karveth,Reynos,F,1981-11-02,Ciudad de México,karla.y.veth.kmh@gmail.com,None,Facebook,2947577931919722.0,0.0,0.0,0.0,0.0,47BCFAB639,2.0,1.0,0.0,0.0,0.0,0.0,0.0,0.0,0.0,0.0,0.0,0.0,0.0,0.0,0.0,0.0,0.0,39
38539C86FF0F,None,None,M,1991-02-14,None,lizethtamayo0214@gmail.com,None,Form,0.0,0.0,0.0,0.0,0.0,539C86FF0F,3.0,3.0,0.0,0.0,0.0,0.0,0.0,0.0,0.0,0.0,0.0,0.0,0.0,0.0,0.0,0.0,0.0,30
38D40BB668C4,None,None,M,1984-11-11,None,jack_anje84@hotmail.com,None,Form,0.0,0.0,0.0,0.0,0.0,D40BB668C4,1.0,3.0,0.0,0.0,0.0,0.0,0.0,0.0,0.0,0.0,0.0,0.0,0.0,0.0,0.0,0.0,0.0,36
3CCD5D3530A4,Chaowen,Jiang,F,1986-12-23,"Mexico City, Mexico",elysia.jcw@gmail.com,None,Facebook,1.021815423974412e+16,0.0,0.0,0.0,0.0,CD5D3530A4,2.0,1.0,0.0,0.0,0.0,0.0,0.0,0.0,0.0,0.0,0.0,0.0,0.0,0.0,0.0,0.0,0.0,34
403F8C27B0AB,Rafael,Ponce,M,1983-12-09,None,rafaelpptrabajo@gmail.com,None,Facebook,1171326566649908.0,0.0,0.0,0.0,0.0,3F8C27B0AB,4.0,4.0,1.0,0.0,1.0,1.0,0.0,0.0,0.0,0.0,0.0,0.0,0.0,0.0,0.0,0.0,0.0,37
403F8C4DA3F3,None,None,M,1997-12-31,None,raymundomc75@gmail.com,None,Form,0.0,0.0,0.0,0.0,0.0,3F8C4DA3F3,3.0,2.0,0.0,0.0,0.0,0.0,0.0,0.0,0.0,0.0,0.0,0.0,0.0,0.0,0.0,0.0,0.0,23
404E369833C4,None,None,M,1992-06-15,None,astromantico1@gmail.com,None,Form,0.0,0.0,0.0,0.0,0.0,4E369833C4,3.0,2.0,1.0,0.0,0.0,0.0,0.0,0.0,0.0,0.0,0.0,0.0,0.0,0.0,0.0,0.0,0.0,28
409C282A6F84,Marichu,Rmos,F,1995-10-21,"Mexico City, Mexico",marichurabo@hotmail.com,None,Facebook,1270208696331370.0,0.0,0.0,0.0,0.0,9C282A6F84,4.0,4.0,0.0,1.0,0.0,0.0,0.0,0.0,0.0,0.0,0.0,0.0,0.0,0.0,0.0,0.0,0.0,25
40B837089E3C,Sergio,Colin Zarate,None,1988-02-24,None,seiyascz240288@gmail.com,None,Facebook,1033322796838542.0,0.0,0.0,0.0,0.0,B837089E3C,3.0,4.0,1.0,0.0,1.0,0.0,0.0,0.0,0.0,0.0,0.0,0.0,0.0,0.0,0.0,0.0,0.0,33
444ADB371196,None,None,M,2002-01-12,None,martinezob@asf.edu.mx,None,Form,0.0,0.0,0.0,0.0,0.0,4ADB371196,3.0,2.0,1.0,0.0,0.0,0.0,0.0,0.0,0.0,0.0,0.0,0.0,0.0,0.0,0.0,0.0,0.0,19
4455C4C2DACF,Ricky Luiss,Rokanlover,M,1992-06-15,Ciudad de México,pyro80@live.com.mx,None,Facebook,2949996581752983.0,0.0,0.0,0.0,0.0,55C4C2DACF,1.0,3.0,0.0,0.0,0.0,0.0,0.0,0.0,0.0,0.0,0.0,0.0,0.0,0.0,0.0,0.0,0.0,28
483FE9EB99CA,Miguel Angel,Silis,M,1986-06-27,None,miguelangelsilis03@gmail.com,None,Facebook,119076849641602.0,0.0,0.0,0.0,0.0,3FE9EB99CA,3.0,3.0,0.0,0.0,0.0,0.0,0.0,0.0,0.0,0.0,0.0,0.0,0.0,0.0,0.0,0.0,0.0,34
4888CA2CCF4F,Miguel,Nava,M,1965-09-16,None,mikinava1234@mail.com,None,Facebook,457885718476096.0,0.0,0.0,0.0,0.0,88CA2CCF4F,4.0,4.0,0.0,1.0,0.0,0.0,0.0,0.0,0.0,0.0,0.0,0.0,0.0,0.0,0.0,0.0,0.0,55
48C7965AB60F,None,None,F,2006-02-08,None,xuany83fogoneras@gmail.com,None,Form,0.0,0.0,0.0,0.0,0.0,C7965AB60F,1.0,1.0,0.0,0.0,0.0,0.0,0.0,0.0,0.0,0.0,0.0,0.0,0.0,0.0,0.0,0.0,0.0,15
508A0FFBA4C6,None,None,F,1982-06-29,None,marceloaguilarhdz@gmail.com,None,Form,0.0,0.0,0.0,0.0,0.0,8A0FFBA4C6,4.0,4.0,1.0,1.0,0.0,0.0,0.0,0.0,0.0,0.0,0.0,0.0,0.0,0.0,0.0,0.0,0.0,38
5427585581C4,None,None,M,1980-12-31,None,aybplazacarso@sanborns.net,None,Form,0.0,0.0,0.0,0.0,0.0,27585581C4,3.0,1.0,0.0,0.0,0.0,0.0,0.0,0.0,0.0,0.0,0.0,0.0,0.0,0.0,0.0,0.0,0.0,40
58D9C364ED52,None,None,M,1992-05-08,None,10392oscar@gmail.com,None,Form,0.0,0.0,0.0,0.0,0.0,D9C364ED52,3.0,3.0,0.0,0.0,0.0,0.0,0.0,0.0,0.0,0.0,0.0,0.0,0.0,0.0,0.0,0.0,0.0,29
601466C6EB55,Jose,Jr,None,2000-03-04,"Mexico City, Mexico",cirilo-alvarez.34@outlook.es,None,Facebook,2163068353965680.0,0.0,0.0,0.0,0.0,1466C6EB55,2.0,3.0,0.0,0.0,0.0,0.0,0.0,0.0,0.0,0.0,0.0,0.0,0.0,0.0,0.0,0.0,0.0,21
601D91292BF8,Rik,Hunter,None,1980-01-12,Ecatepec de Morelos,chapotina0381@gmail.com,5543183765,Facebook,1308865292610294.0,0.0,0.0,0.0,0.0,1D91292BF8,2.0,1.0,0.0,0.0,0.0,0.0,0.0,0.0,0.0,0.0,0.0,0.0,0.0,0.0,0.0,0.0,0.0,41
601D916DE9CC,None,None,M,2006-01-25,None,alponcho71@hotmail.com,None,Form,0.0,0.0,0.0,0.0,0.0,1D916DE9CC,1.0,2.0,0.0,0.0,0.0,0.0,0.0,0.0,0.0,0.0,0.0,0.0,0.0,0.0,0.0,0.0,0.0,15
601D91775BD2,None,None,M,1980-07-24,None,sfermoso@sears.com.mx,None,Form,0.0,0.0,0.0,0.0,0.0,1D91775BD2,3.0,1.0,0.0,0.0,0.0,0.0,0.0,0.0,0.0,0.0,0.0,0.0,0.0,0.0,0.0,0.0,0.0,40
601D91F7A3F9,Froylan,Ruiz Garcia,M,1972-08-20,Ciudad de México,froruga_1972@yahoo.com.mx,None,Facebook,2884492604946345.0,0.0,0.0,0.0,0.0,1D91F7A3F9,2.0,3.0,0.0,0.0,0.0,0.0,0.0,0.0,0.0,0.0,0.0,0.0,0.0,0.0,0.0,0.0,0.0,48
64C2DE7FBCE3,Lilian,Mayrin,F,2000-08-19,Ciudad de México,mayrinnnn@hotmail.com,None,Facebook,2522012241449985.0,0.0,0.0,0.0,0.0,C2DE7FBCE3,4.0,3.0,1.0,1.0,0.0,0.0,0.0,0.0,0.0,0.0,0.0,0.0,0.0,0.0,0.0,0.0,0.0,20
6C4D73C8BFE1,None,None,M,1970-08-10,None,havalenzuelag@gmail.com,None,Form,0.0,0.0,0.0,0.0,0.0,4D73C8BFE1,1.0,2.0,0.0,0.0,0.0,0.0,0.0,0.0,0.0,0.0,0.0,0.0,0.0,0.0,0.0,0.0,0.0,50
6C71D92FC290,None,None,F,2006-01-25,None,plazacarsot@sanborns.com,None,Form,0.0,0.0,0.0,0.0,0.0,71D92FC290,4.0,3.0,1.0,0.0,0.0,0.0,0.0,0.0,0.0,0.0,0.0,0.0,0.0,0.0,0.0,0.0,0.0,15
6CB7490579A2,None,None,F,1973-07-29,None,azucenadelcastillo111@gmail.com,None,Form,0.0,0.0,0.0,0.0,0.0,B7490579A2,4.0,4.0,1.0,0.0,0.0,0.0,0.0,0.0,0.0,0.0,0.0,0.0,0.0,0.0,0.0,0.0,0.0,47
745909BF46A7,Arlette,P,F,1997-07-02,"Mexico City, Mexico",tecktonik_n@hotmail.com,None,Facebook,2247554285312163.0,0.0,0.0,0.0,0.0,5909BF46A7,1.0,3.0,0.0,0.0,0.0,0.0,0.0,0.0,0.0,0.0,0.0,0.0,0.0,0.0,0.0,0.0,0.0,23
74C14F41E867,Oliver,Isunza,M,1981-03-07,Iztapalapa,dies_irae00@hotmail.com,None,Facebook,2783777484972631.0,0.0,0.0,0.0,0.0,C14F41E867,3.0,3.0,0.0,0.0,0.0,0.0,0.0,0.0,0.0,0.0,0.0,0.0,0.0,0.0,0.0,0.0,0.0,40
7C38AD32D019,Ernesto,Ocampos,M,1994-05-10,None,rantty1999@gmail.com,5581489338,Form,0.0,0.0,0.0,0.0,0.0,38AD32D019,2.0,1.0,0.0,0.0,0.0,0.0,0.0,0.0,0.0,0.0,0.0,0.0,0.0,0.0,0.0,0.0,0.0,27
7CA17716C5E3,None,None,M,2000-01-01,None,jmejia71@hotmail.com,None,Form,0.0,0.0,0.0,0.0,0.0,A17716C5E3,3.0,4.0,1.0,1.0,0.0,0.0,0.0,0.0,0.0,0.0,0.0,0.0,0.0,0.0,0.0,0.0,0.0,21
804E7046D3EA,None,None,M,1983-08-30,None,blackhoga@gmail.com,None,Form,0.0,0.0,0.0,0.0,0.0,4E7046D3EA,1.0,1.0,0.0,0.0,0.0,0.0,0.0,0.0,0.0,0.0,0.0,0.0,0.0,0.0,0.0,0.0,0.0,37
847637809620,None,None,M,1967-10-11,None,arqcourja@gmail.com,None,Form,0.0,0.0,0.0,0.0,0.0,7637809620,2.0,1.0,0.0,0.0,0.0,0.0,0.0,0.0,0.0,0.0,0.0,0.0,0.0,0.0,0.0,0.0,0.0,53
881196717513,None,None,M,1997-12-31,None,micatrejolopez@gmail.com,None,Form,0.0,0.0,0.0,0.0,0.0,1196717513,4.0,4.0,0.0,0.0,0.0,0.0,0.0,0.0,0.0,0.0,0.0,0.0,0.0,0.0,0.0,0.0,0.0,23
88299C3DAA0D,None,None,M,1992-02-12,None,valo_a@hotmail.com,None,Form,0.0,0.0,0.0,0.0,0.0,299C3DAA0D,4.0,4.0,0.0,0.0,0.0,0.0,0.0,0.0,0.0,0.0,0.0,0.0,0.0,0.0,0.0,0.0,0.0,29
88B4A64EDE9A,None,None,M,1968-01-14,None,rene.a.rip@gmail.com,None,Form,0.0,0.0,0.0,0.0,0.0,B4A64EDE9A,2.0,1.0,0.0,0.0,0.0,0.0,0.0,0.0,0.0,0.0,0.0,0.0,0.0,0.0,0.0,0.0,0.0,53
8C7967A21DA7,None,None,F,1979-06-27,None,alerdz2004l@gmail.com,None,Form,0.0,0.0,0.0,0.0,0.0,7967A21DA7,4.0,3.0,1.0,1.0,0.0,0.0,0.0,0.0,0.0,0.0,0.0,0.0,0.0,0.0,0.0,0.0,0.0,41
8C861E4F3D86,None,None,M,1989-08-09,None,lalo_baez69@hotmail.com,None,Form,0.0,0.0,0.0,0.0,0.0,861E4F3D86,4.0,4.0,0.0,1.0,0.0,0.0,0.0,0.0,0.0,0.0,0.0,0.0,0.0,0.0,0.0,0.0,0.0,31
8CE5C000C4CD,None,None,M,1995-08-02,None,cvaldes714@gmail.com,None,Form,0.0,0.0,0.0,0.0,0.0,E5C000C4CD,2.0,0.0,0.0,0.0,0.0,0.0,0.0,0.0,0.0,0.0,0.0,0.0,0.0,0.0,0.0,0.0,0.0,25
8CF11200AA14,Javier,Perez,M,1995-07-19,None,javierpcruz62@gmail.com,None,Facebook,126610222389211.0,0.0,0.0,0.0,0.0,F11200AA14,3.0,3.0,1.0,1.0,0.0,0.0,0.0,0.0,0.0,0.0,0.0,0.0,0.0,0.0,0.0,0.0,0.0,25
90324B1DFF97,None,None,F,2006-01-25,None,aguirrevalks@gmail.com,None,Form,0.0,0.0,0.0,0.0,0.0,324B1DFF97,4.0,3.0,1.0,0.0,0.0,0.0,0.0,0.0,0.0,0.0,0.0,0.0,0.0,0.0,0.0,0.0,0.0,15
90633BE80FB9,None,None,F,2006-01-25,None,brayan.mb61@gmail.com,None,Form,0.0,0.0,0.0,0.0,0.0,633BE80FB9,4.0,3.0,1.0,1.0,0.0,0.0,0.0,0.0,0.0,0.0,0.0,0.0,0.0,0.0,0.0,0.0,0.0,15
90735A59DD62,None,None,M,1978-10-11,None,oscar.olayo5@gmail.com,None,Form,0.0,0.0,0.0,0.0,0.0,735A59DD62,1.0,1.0,0.0,0.0,0.0,0.0,0.0,0.0,0.0,0.0,0.0,0.0,0.0,0.0,0.0,0.0,0.0,42
A4D931BE77AA,None,None,F,1994-10-01,None,hellofridis@hotmail.com,None,Form,0.0,0.0,0.0,0.0,0.0,D931BE77AA,3.0,2.0,0.0,0.0,0.0,0.0,0.0,0.0,0.0,0.0,0.0,0.0,0.0,0.0,0.0,0.0,0.0,26
A8346AC8753E,None,None,M,1999-02-15,None,brian_los13@hotmail.com,None,Form,0.0,0.0,0.0,0.0,0.0,346AC8753E,3.0,2.0,0.0,0.0,0.0,0.0,0.0,0.0,0.0,0.0,0.0,0.0,0.0,0.0,0.0,0.0,0.0,22
A8515BA400D7,Luis,Hernandez Lsa,None,1989-01-12,None,onetsanchez@gmail.com,None,Facebook,2253542058295761.0,0.0,0.0,0.0,0.0,515BA400D7,4.0,4.0,2.0,0.0,1.0,0.0,0.0,0.0,0.0,0.0,0.0,0.0,0.0,0.0,0.0,0.0,0.0,32
A8515BA42BDB,None,None,M,1984-04-18,None,solecito_cyr@hotmail.com,None,Form,0.0,0.0,0.0,0.0,0.0,515BA42BDB,1.0,1.0,0.0,0.0,0.0,0.0,0.0,0.0,0.0,0.0,0.0,0.0,0.0,0.0,0.0,0.0,0.0,37
A87D12F4E965,Josias Daniel,Martínez Castro,M,1999-03-05,"Mexico City, Mexico",josiasdanielmartinezcastro2@gmail.com,None,Facebook,146378259854265.0,0.0,0.0,0.0,0.0,7D12F4E965,1.0,2.0,0.0,0.0,0.0,0.0,0.0,0.0,0.0,0.0,0.0,0.0,0.0,0.0,0.0,0.0,0.0,22
A896750953CB,None,None,M,2006-01-25,None,moises.chepi@gmail.com,None,Form,0.0,0.0,0.0,0.0,0.0,96750953CB,3.0,2.0,0.0,0.0,0.0,0.0,0.0,0.0,0.0,0.0,0.0,0.0,0.0,0.0,0.0,0.0,0.0,15
A8967524C395,Guadalupe, BenÃ­tez,M,1888-11-12,None,elsa1211.ian@gmail.com,5569713363,Form,0.0,0.0,0.0,0.0,0.0,967524C395,2.0,0.0,0.0,0.0,0.0,0.0,0.0,0.0,0.0,0.0,0.0,0.0,0.0,0.0,0.0,0.0,0.0,32
A8B86E575383,Anita,Avendaño,F,1999-05-22,Ciudad de México,susigonzalez525@gmail.com,None,Facebook,240682024005509.0,0.0,0.0,0.0,0.0,B86E575383,4.0,4.0,2.0,1.0,1.0,0.0,0.0,0.0,0.0,0.0,0.0,0.0,0.0,0.0,0.0,0.0,0.0,21
A8DB0367088A,Edgar,Sanchez,M,1991-07-05,None,dyedgarch10@gmail.com,5526849900,Form,0.0,0.0,0.0,0.0,0.0,DB0367088A,4.0,3.0,1.0,0.0,0.0,0.0,0.0,0.0,0.0,0.0,0.0,0.0,0.0,0.0,0.0,0.0,0.0,29
AC1F748947A6,Kev,CR,M,1996-02-14,Ciudad de México,irvin_america15@hotmail.com,None,Facebook,1669398506551245.0,0.0,0.0,0.0,0.0,1F748947A6,4.0,3.0,1.0,0.0,0.0,0.0,0.0,0.0,0.0,0.0,0.0,0.0,0.0,0.0,0.0,0.0,0.0,25
ACF6F7E5E30F,None,None,M,1987-04-23,None,ferfueriv@hotmail.com,None,Form,0.0,0.0,0.0,0.0,0.0,F6F7E5E30F,3.0,4.0,1.0,1.0,0.0,0.0,0.0,0.0,0.0,0.0,0.0,0.0,0.0,0.0,0.0,0.0,0.0,34
B055086CA66B,None,None,M,2006-01-25,None,perezfernandezjosefina12@gmail.com,None,Form,0.0,0.0,0.0,0.0,0.0,55086CA66B,2.0,0.0,0.0,0.0,0.0,0.0,0.0,0.0,0.0,0.0,0.0,0.0,0.0,0.0,0.0,0.0,0.0,15
B0702D3225B1,None,None,F,1979-01-12,None,velazquez.lena@yahoo.com.mx,None,Form,0.0,0.0,0.0,0.0,0.0,702D3225B1,3.0,3.0,1.0,0.0,0.0,0.0,0.0,0.0,0.0,0.0,0.0,0.0,0.0,0.0,0.0,0.0,0.0,42
B0702D675A02,None,None,None,1986-02-08,None,ractrack25@me.com,None,Form,0.0,0.0,0.0,0.0,0.0,702D675A02,3.0,3.0,0.0,1.0,0.0,0.0,0.0,0.0,0.0,0.0,0.0,0.0,0.0,0.0,0.0,0.0,0.0,35
B0C19E5DD99B,None,None,M,1983-06-13,None,donovansamantha1@gmail.com,None,Form,0.0,0.0,0.0,0.0,0.0,C19E5DD99B,4.0,4.0,1.0,0.0,1.0,0.0,0.0,0.0,0.0,0.0,0.0,0.0,0.0,0.0,0.0,0.0,0.0,37
B4BFF62A2CC3,Maik,VazQuez,M,1988-09-06,Ciudad de México,miky_880906@hotmail.com,None,Facebook,2894140867310463.0,0.0,0.0,0.0,0.0,BFF62A2CC3,1.0,1.0,0.0,0.0,0.0,0.0,0.0,0.0,0.0,0.0,0.0,0.0,0.0,0.0,0.0,0.0,0.0,32
B4BFF6B6B457,Guadalupe Nubia Azul,Maya Garibay,F,1999-09-25,None,azulmaya41@gmail.com,5534318640,Form,0.0,0.0,0.0,0.0,0.0,BFF6B6B457,0.0,2.0,0.0,0.0,0.0,0.0,0.0,0.0,0.0,0.0,0.0,0.0,0.0,0.0,0.0,0.0,0.0,21
B4BFF6BB786D,Lupita,Lopez,F,1998-02-17,Ciudad de México,guadalupe.penaloza20@iems.edu.mx,None,Facebook,2910558332332589.0,0.0,0.0,0.0,0.0,BFF6BB786D,4.0,4.0,1.0,1.0,0.0,0.0,0.0,0.0,0.0,0.0,0.0,0.0,0.0,0.0,0.0,0.0,0.0,23
B853AC530ED0,Wendy,Torres Espinoza,F,1996-05-19,None,wendy_9919@hotmail.com,None,Facebook,2816018975147231.0,0.0,0.0,0.0,0.0,53AC530ED0,3.0,3.0,0.0,0.0,0.0,0.0,0.0,0.0,0.0,0.0,0.0,0.0,0.0,0.0,0.0,0.0,0.0,25
B8B2F87928F7,Casandra,Coronel,M,1996-09-04,"Tlalpan, Distrito Federal, Mexico",vampi_barby@hotmail.com,None,Facebook,1360182454168640.0,0.0,0.0,0.0,0.0,B2F87928F7,3.0,3.0,0.0,0.0,0.0,0.0,0.0,0.0,0.0,0.0,0.0,0.0,0.0,0.0,0.0,0.0,0.0,24
B8B2F8895D08,Cesar,Miranda,M,1999-12-05,Ciudad de México,c.swaggy@hotmail.com,None,Facebook,156265519039181.0,0.0,0.0,0.0,0.0,B2F8895D08,2.0,1.0,0.0,0.0,0.0,0.0,0.0,0.0,0.0,0.0,0.0,0.0,0.0,0.0,0.0,0.0,0.0,21
B8C3853B09BB,Jose,Espejo,M,1971-04-07,None,josenatividad451jneg@gmail.com,None,Facebook,502271673681529.0,0.0,0.0,0.0,0.0,C3853B09BB,3.0,3.0,1.0,1.0,0.0,0.0,0.0,0.0,0.0,0.0,0.0,0.0,0.0,0.0,0.0,0.0,0.0,50
BC4101172EBF,Jr.,Lopez Rodriguez,None,1954-07-01,Estado de México,jrgorila@yahoo.com.mx,None,Facebook,2407045506038400.0,0.0,0.0,0.0,0.0,4101172EBF,2.0,1.0,0.0,0.0,0.0,0.0,0.0,0.0,0.0,0.0,0.0,0.0,0.0,0.0,0.0,0.0,0.0,66
BC765E4F5BBB,None,None,M,1970-06-05,None,nicocruznapo@gmail.com,None,Form,0.0,0.0,0.0,0.0,0.0,765E4F5BBB,1.0,0.0,0.0,0.0,0.0,0.0,0.0,0.0,0.0,0.0,0.0,0.0,0.0,0.0,0.0,0.0,0.0,50
BCFED93BD806,None,None,F,2001-09-14,None,layevskareyes54@gmail.com,None,Form,0.0,0.0,0.0,0.0,0.0,FED93BD806,4.0,3.0,1.0,0.0,0.0,0.0,0.0,0.0,0.0,0.0,0.0,0.0,0.0,0.0,0.0,0.0,0.0,19
C08C710EFB02,None,None,M,2006-04-12,None,abimaelalonsonieto@gmail.com,None,Form,0.0,0.0,0.0,0.0,0.0,8C710EFB02,3.0,1.0,0.0,0.0,0.0,0.0,0.0,0.0,0.0,0.0,0.0,0.0,0.0,0.0,0.0,0.0,0.0,15
C08C71B4DA43,Aaron,Granados,M,1997-03-13,Ciudad de México,5583146624@gmail.com,None,Facebook,498937507717399.0,0.0,0.0,0.0,0.0,8C71B4DA43,3.0,4.0,1.0,1.0,0.0,0.0,0.0,0.0,0.0,0.0,0.0,0.0,0.0,0.0,0.0,0.0,0.0,24
C49A0295A2AB,None,None,M,2006-01-25,None,vegalourdes14@yahoo.com.mx,None,Form,0.0,0.0,0.0,0.0,0.0,9A0295A2AB,4.0,3.0,1.0,0.0,0.0,0.0,0.0,0.0,0.0,0.0,0.0,0.0,0.0,0.0,0.0,0.0,0.0,15
CC464EB7F2DA,None,None,F,1996-07-07,None,hbx@gmail.com,None,Form,0.0,0.0,0.0,0.0,0.0,464EB7F2DA,3.0,4.0,1.0,1.0,0.0,0.0,0.0,0.0,0.0,0.0,0.0,0.0,0.0,0.0,0.0,0.0,0.0,24
D00401BAEB8D,Karim,Ruiseco,M,2000-07-12,"Mexico City, Mexico",karimruiseco1937@gmail.com,None,Facebook,249224906052827.0,0.0,0.0,0.0,0.0,0401BAEB8D,2.0,2.0,0.0,0.0,0.0,0.0,0.0,0.0,0.0,0.0,0.0,0.0,0.0,0.0,0.0,0.0,0.0,20
D013FD24427D,Bernardo,Moreno,M,1984-04-03,Ciudad de México,luis-barcenas@outlook.com,None,Facebook,1200293633692694.0,0.0,0.0,0.0,0.0,13FD24427D,2.0,3.0,0.0,0.0,0.0,0.0,0.0,0.0,0.0,0.0,0.0,0.0,0.0,0.0,0.0,0.0,0.0,37
D016B47B69D4,Guadalupe,Leyva,F,1978-12-11,None,anayeli.1011@gmail.com,None,Facebook,1128639260806401.0,0.0,0.0,0.0,0.0,16B47B69D4,4.0,3.0,1.0,1.0,0.0,0.0,0.0,0.0,0.0,0.0,0.0,0.0,0.0,0.0,0.0,0.0,0.0,42
D02B20BA3925,None,None,M,1967-10-17,None,phcuisinier@gmail.com,None,Form,0.0,0.0,0.0,0.0,0.0,2B20BA3925,3.0,3.0,0.0,0.0,0.0,0.0,0.0,0.0,0.0,0.0,0.0,0.0,0.0,0.0,0.0,0.0,0.0,53
D461DABCBF4A,None,None,F,1979-01-12,None,evelazquez35@yahoo.es,None,Form,0.0,0.0,0.0,0.0,0.0,61DABCBF4A,3.0,3.0,0.0,0.0,0.0,0.0,0.0,0.0,0.0,0.0,0.0,0.0,0.0,0.0,0.0,0.0,0.0,42
D463C6412109,None,None,M,1997-03-23,None,lilianaescudero246@gmail.com,None,Form,0.0,0.0,0.0,0.0,0.0,63C6412109,4.0,3.0,2.0,1.0,0.0,0.0,0.0,0.0,0.0,0.0,0.0,0.0,0.0,0.0,0.0,0.0,0.0,24
D4C94B10FA90,None,None,M,1997-12-31,None,mondragona@sanborns.com,None,Form,0.0,0.0,0.0,0.0,0.0,C94B10FA90,3.0,3.0,0.0,0.0,0.0,0.0,0.0,0.0,0.0,0.0,0.0,0.0,0.0,0.0,0.0,0.0,0.0,23
D4C94BEC0D94,Luis Alberto,Corona Cabrera,M,1981-07-03,None,lcoronacabrera@hotmail.com,None,Facebook,1669782576387094.0,0.0,0.0,0.0,0.0,C94BEC0D94,0.0,2.0,0.0,0.0,0.0,0.0,0.0,0.0,0.0,0.0,0.0,0.0,0.0,0.0,0.0,0.0,0.0,39
D4C94BF60949,Jhony,Hernandez,M,1992-01-13,None,flakito_jeral@hotmail.com,None,Facebook,2359038677727391.0,0.0,0.0,0.0,0.0,C94BF60949,4.0,4.0,1.0,1.0,1.0,1.0,0.0,0.0,0.0,0.0,0.0,0.0,0.0,0.0,0.0,0.0,0.0,29
D8557517FAC7,None,None,M,1968-07-30,None,ofelia.czgz@gmail.com,None,Form,0.0,0.0,0.0,0.0,0.0,557517FAC7,1.0,1.0,0.0,0.0,0.0,0.0,0.0,0.0,0.0,0.0,0.0,0.0,0.0,0.0,0.0,0.0,0.0,52
D85DE2BA160D,None,None,M,1977-03-15,None,gtzronald@gmail.com,None,Form,0.0,0.0,0.0,0.0,0.0,5DE2BA160D,2.0,3.0,0.0,0.0,0.0,0.0,0.0,0.0,0.0,0.0,0.0,0.0,0.0,0.0,0.0,0.0,0.0,44
DC16B24B15C4,Gary,Arellano,M,1973-02-24,Naucalpan,garellano369@gmail.com,None,Facebook,1318385754983116.0,0.0,0.0,0.0,0.0,16B24B15C4,4.0,4.0,2.0,1.0,1.0,0.0,0.0,0.0,0.0,0.0,0.0,0.0,0.0,0.0,0.0,0.0,0.0,48
DC729BF79E91,Miguel Angel,Lozano Pichardo,M,1987-07-08,None,lozano_tsn@hotmail.com,None,Facebook,1.0221926721665254e+16,0.0,0.0,0.0,0.0,729BF79E91,2.0,2.0,0.0,0.0,0.0,0.0,0.0,0.0,0.0,0.0,0.0,0.0,0.0,0.0,0.0,0.0,0.0,33
DC74A8F91FC0,None,None,M,1981-09-28,None,brauoz.rodriguez@gmail.com,None,Form,0.0,0.0,0.0,0.0,0.0,74A8F91FC0,4.0,4.0,0.0,1.0,0.0,0.0,0.0,0.0,0.0,0.0,0.0,0.0,0.0,0.0,0.0,0.0,0.0,39
E0ACCB94FB64,None,None,M,1986-05-12,None,tadashisuzuki1986@gmail.com,None,Form,0.0,0.0,0.0,0.0,0.0,ACCB94FB64,3.0,3.0,1.0,0.0,0.0,0.0,0.0,0.0,0.0,0.0,0.0,0.0,0.0,0.0,0.0,0.0,0.0,35
E434934C06B2,None,None,F,1996-01-03,None,lramirez@sears.com.mx,None,Form,0.0,0.0,0.0,0.0,0.0,34934C06B2,1.0,1.0,0.0,0.0,0.0,0.0,0.0,0.0,0.0,0.0,0.0,0.0,0.0,0.0,0.0,0.0,0.0,25
F018984F0477,None,None,None,1978-08-23,None,emiliocores@hotmail.com,None,Form,0.0,0.0,0.0,0.0,0.0,18984F0477,2.0,1.0,0.0,0.0,0.0,0.0,0.0,0.0,0.0,0.0,0.0,0.0,0.0,0.0,0.0,0.0,0.0,42
F08A76083F1E,Jezz,Jime,F,1987-07-28,"Tlaxco, Tlaxcala, Mexico",ale_bebita07@hotmail.com,None,Facebook,1428099247327796.0,0.0,0.0,0.0,0.0,8A76083F1E,2.0,3.0,0.0,0.0,0.0,0.0,0.0,0.0,0.0,0.0,0.0,0.0,0.0,0.0,0.0,0.0,0.0,33
F0D7AA3B18CA,Mika,Likon,F,1971-01-22,Ciudad de México,mikapriest@hotmail.com,None,Facebook,3136984629698538.0,0.0,0.0,0.0,0.0,D7AA3B18CA,3.0,3.0,0.0,0.0,0.0,0.0,0.0,0.0,0.0,0.0,0.0,0.0,0.0,0.0,0.0,0.0,0.0,50
F0D7AA433DA6,Andres,Ixtepan,M,1989-11-28,"Naucalpan De Juárez, Mexico, Mexico",tetotaty211016@gmail.com,None,Facebook,3134863926536313.0,0.0,0.0,0.0,0.0,D7AA433DA6,4.0,4.0,1.0,1.0,0.0,0.0,0.0,0.0,0.0,0.0,0.0,0.0,0.0,0.0,0.0,0.0,0.0,31
F47DEFCA98F3,None,None,M,1997-12-31,None,omarbravo82_@hotmail.com,None,Form,0.0,0.0,0.0,0.0,0.0,7DEFCA98F3,0.0,3.0,0.0,0.0,0.0,0.0,0.0,0.0,0.0,0.0,0.0,0.0,0.0,0.0,0.0,0.0,0.0,23
F82D7C043FEE,None,None,F,1997-01-25,None,elizaldafm@gmail.com,None,Form,0.0,0.0,0.0,0.0,0.0,2D7C043FEE,4.0,4.0,2.0,0.0,0.0,0.0,0.0,0.0,0.0,0.0,0.0,0.0,0.0,0.0,0.0,0.0,0.0,24
FC183C22AB68,None,None,M,1982-02-01,None,benguia82@outlook.com,None,Form,0.0,0.0,0.0,0.0,0.0,183C22AB68,3.0,2.0,1.0,0.0,0.0,0.0,0.0,0.0,0.0,0.0,0.0,0.0,0.0,0.0,0.0,0.0,0.0,39
FC2D5E0593D2,None,None,M,1978-08-24,None,ajorgearzate@gimail.com,None,Form,0.0,0.0,0.0,0.0,0.0,2D5E0593D2,2.0,1.0,0.0,0.0,0.0,0.0,0.0,0.0,0.0,0.0,0.0,0.0,0.0,0.0,0.0,0.0,0.0,42
FC2D5EB96E07,Orlando,Aparicio,M,1983-12-10,Ciudad de México,itachirasingan@hotmail.com,None,Facebook,1519794668181132.0,0.0,0.0,0.0,0.0,2D5EB96E07,4.0,4.0,1.0,1.0,1.0,0.0,0.0,0.0,0.0,0.0,0.0,0.0,0.0,0.0,0.0,0.0,0.0,37
FC8743CC9CE6,Fabian,Ruiz Flores,M,1984-01-20,Naucalpan de Juárez,fchavez.fc790@gmail.com,None,Facebook,2526663440934353.0,0.0,0.0,0.0,0.0,8743CC9CE6,3.0,1.0,0.0,0.0,0.0,0.0,0.0,0.0,0.0,0.0,0.0,0.0,0.0,0.0,0.0,0.0,0.0,37
FCA6217C16A9,None,None,F,2006-01-25,None,ivettee.reynos2013h@gmail.com,None,Form,0.0,0.0,0.0,0.0,0.0,A6217C16A9,1.0,2.0,0.0,0.0,0.0,0.0,0.0,0.0,0.0,0.0,0.0,0.0,0.0,0.0,0.0,0.0,0.0,15
FCA62182BF43,None,None,F,2006-05-30,None,ferni15_pink@hotmail.com,None,Form,0.0,0.0,0.0,0.0,0.0,A62182BF43,3.0,0.0,0.0,0.0,0.0,0.0,0.0,0.0,0.0,0.0,0.0,0.0,0.0,0.0,0.0,0.0,0.0,14
FCAB90BCCBFB,None,None,F,2006-08-01,None,stefany.alanis@hotmail.com,None,Form,0.0,0.0,0.0,0.0,0.0,AB90BCCBFB,1.0,0.0,0.0,0.0,0.0,0.0,0.0,0.0,0.0,0.0,0.0,0.0,0.0,0.0,0.0,0.0,0.0,14
