,client_mac,first_name,last_name,gender,date_of_birth,location,email,mobile,source,facebook_id,twitter_id,instagram_id,linkedin_id,oneclick_id,client_mac10,Relojería / Joyería,Restaurante,Lentes,Discos,Zona de exclusión,Parafarmacia,Otros de farmacia,Libros,Pastelería,Dermatología ,Tabacos,Dulcería,Farmacia,Novedades,Juguetes,Fotografía,Caballeros,Pasillo juguetes,age
111,304B07B573F4,Leo,Hernandez,M,1990-09-15,None,chivasguapo90@gmail.com,None,Facebook,899643443822180.0,0.0,0.0,0.0,0.0,4B07B573F4,280.4481436738151,22023.018260439156,1403.2039252860418,117.70659928913788,279.9465222829449,390.1732965584423,132.17814126910102,330.9963628445962,106.85055163520008,95.24619371375901,40.12275551687956,92.69497893100629,33.058506047496195,7.625204567901368,54.470857614526786,17.088657490322802,53.7330052427827,8.438037596894384,30
112,304B07B67AAA,Pilas,Cortes,M,1991-09-12,None,pepec2293@gmail.com,None,Facebook,412434189645509.0,0.0,0.0,0.0,0.0,4B07B67AAA,75.83651802602893,2542.6966459624446,510.53523955854087,210.7469858510953,157.5719219394005,80.52787603553995,70.73334617533914,32.834066743574574,0.8666948681810952,32.78138902209328,1.242354606282235,36.934235142517366,0.28516777679321526,18.325795687261465,12.99594797669753,3.8492186476245,3.8156371699510605,0.42095881063462015,29
129,3412F9F5E2A4,Eduardo,Mgc,M,1990-06-23,None,julioarteaga92@gmail.com,None,Facebook,129407595047046.0,0.0,0.0,0.0,0.0,12F9F5E2A4,295.90247848764926,137.07753711609504,55.33868861748067,10.166638748893408,25.445170805184798,23.628076702701254,6.763573305356669,18.866419471982553,3.552715131392809,2.6543266380539423,0.4176131186696166,9.820551000732033,5.077951328038342,2.491461717866798,0.9864688755612481,0.22632680700854818,2.225260908297661,0.35874121903540945,30
208,1CB7963CAA86,Karen,Quiroz,F,1993-05-21,Ciudad de México,lucesita_2105@hotmail.com,None,Facebook,1.022111261495578e+16,0.0,0.0,0.0,0.0,B7963CAA86,8401.718073047086,4622.676828151526,2400.565053052505,278.670317725615,162.63595486282304,154.44628837947624,52.278508181984186,256.06586102169837,116.58103499117294,22.90953631847707,154.00244346177848,60.877395727289574,25.93698700426974,19.24483425367295,49.12897364871261,24.83465043996686,17.51754321471514,1.9097165172277288,28
213,1CCCD67DFFD8,None,None,M,1969-07-25,None,luisjosefra@hotmail.com,None,Form,0.0,0.0,0.0,0.0,0.0,CCD67DFFD8,507.60535788620814,2649.7858467591536,753.0872897283551,99.53475708106467,131.17265210479266,140.44896842947927,34.15670548669831,116.34943219674157,10.780075780263232,55.63222484045305,11.736192522088478,18.012200710535012,5.5176256448930925,16.86727490593308,1.6526409636192019,0.7036965324638778,8.763959236199067,0.19309919105804343,51
228,20F47840F098,Juan Carlos,Mendoza Morales,M,1996-03-01,None,ianmendoza3105@gmail.com,None,Facebook,282681896464530.0,0.0,0.0,0.0,0.0,F47840F098,3456.9194567889763,1077.0147727477286,769.4377001366026,451.8501314499985,144.3717782702516,126.65122353379984,135.4179874308837,68.00073006368959,25.35214387389439,52.41203046264702,87.69968374202415,39.00499966731689,2.8899489334088226,6.099078439581426,10.313894025153973,14.251990871670758,7.603301395180313,1.7091481671914757,25
235,2446C81FD7BF,None,None,M,1958-08-22,None,joseantoniogomez@live.com.mx,7775644350,Form,0.0,0.0,0.0,0.0,0.0,46C81FD7BF,2178.1768802195993,597.035298286021,168.22204851097246,171.10590063211723,156.7946781587417,39.951288433820956,58.28394512141789,84.75846489274669,43.54082464258493,48.38467574917036,50.831811229012004,27.782338988001705,4.212818002447727,6.434738821266231,13.16135306972333,13.52805461729601,7.23189551525632,1.5629851098035423,62
244,2446C88BCCFE,None,None,M,1985-01-29,None,dalbarez2901@gmail.com,None,Form,0.0,0.0,0.0,0.0,0.0,46C88BCCFE,9044.248680908928,2066.80587947009,1530.4946683287046,714.1693369380478,203.8839804520936,572.6503898276449,450.0392907666943,160.9638092496515,162.984468191127,80.73667520417206,3.6329363312966425,153.153189476097,63.92627144508369,42.75921909936348,8.334408849921589,38.42894711346626,32.34123526112497,1.4466130864933169,36
253,24DF6A139788,None,None,M,1989-11-28,None,tetotaty211016@gmail.com,None,Form,0.0,0.0,0.0,0.0,0.0,DF6A139788,10724.559031094554,12876.05344180034,2852.5950892436877,1089.999965950167,894.3854978497981,5.558868559821943,526.0746411411201,421.9189428673299,4.293565725109023,159.34815764076185,223.13180795595738,115.21299935410917,63.005408913906706,112.44751699997019,33.76469741460207,80.03058454225108,27.985184038910166,0.6345989076014652,31
269,2C0E3D22B408,Lucero,Ameyalli,F,1990-04-17,None,luciole-17@hotmail.com,None,Facebook,1.0220760985871764e+16,0.0,0.0,0.0,0.0,0E3D22B408,1041.918475815504,1896.4064324567216,58.90007762579732,21.14743693129699,120.21671239079014,71.42068326079733,117.52293278019019,60.52629925223208,37.784435386327175,23.34469036687474,1.0893837765875303,1.2413212769776687,2.747090851318533,4.183335834268485,11.70928818493085,2.6103151884044995,9.055778376820179,1.1753102441605583,31
282,30074D3CFB10,None,None,M,1988-10-21,None,enriqueolguin.27@gmail.com,None,Form,0.0,0.0,0.0,0.0,0.0,074D3CFB10,477.19018165553996,3433.5072511872504,1007.8331343500655,311.9626169967919,124.90905810955537,18.151944179636875,46.54772819652435,80.68927653424063,54.903505344829135,75.58416845829194,77.34278222962185,65.7332828967242,15.112514505817478,11.706243643519464,17.001786858563975,0.6340995764477028,11.996260134870871,0.19416514170796811,32
294,3035ADB823CA,None,None,M,1968-01-08,None,paulinagustin@gmail.com,None,Form,0.0,0.0,0.0,0.0,0.0,35ADB823CA,1401.995491272313,72.96231658561996,257.08818544795906,177.868246605385,98.52648760371521,105.27576711063132,29.614960703848165,7.32979747455357,40.898371026503206,7.839600063388416,20.14142974475787,22.53972441876536,12.341791215954759,2.1479950270150114,7.912246117968116,2.2513751564652043,4.923774324659652,1.3424401004972049,53
296,30459694EADD,Alin,Ibarra Ramírez,F,1993-08-30,"Cuauhtémoc, Distrito Federal, Mexico",air_peggy@hotmail.com,None,Facebook,1.0215465074928964e+16,0.0,0.0,0.0,0.0,459694EADD,1954.6970527344452,454.26960030084376,400.3776122328703,41.042924512784325,174.31844218362656,173.89764500403717,145.23374470220642,17.79879576816001,28.537473200394068,51.20189237623936,51.83397204058508,32.54988071840679,7.859906594179611,14.67577516902005,8.04823787327877,7.264034715292504,2.509424071953181,0.8835858016766569,27
308,403F8C3C3B21,Alejandro,Risso Yañez,M,1979-12-23,Ciudad de México,alexjandro25@hotmail.com,None,Facebook,1.0158074971617652e+16,0.0,0.0,0.0,0.0,3F8C3C3B21,1949.0982836148312,176.70734413522246,549.568480612635,16.191450083033754,7.621845673979838,101.44880813144911,41.22346263543035,18.951616286923567,3.2579445659602433,19.718714793047848,2.09842940749698,16.552691067261286,16.65885470199204,11.429612137100404,4.020899794227717,8.138214040437344,2.41264602340236,0.900702295568217,41
310,403F8C4DA3F3,None,None,M,1997-12-31,None,raymundomc75@gmail.com,None,Form,0.0,0.0,0.0,0.0,0.0,3F8C4DA3F3,980.8682606173782,570.3534819298034,381.8637933722535,82.27604972649242,9.443667292758594,82.27581513487421,68.25874312822131,19.287704680369426,8.958714157110373,32.267638855059126,15.051304201768302,12.780240790090495,13.671209186863683,3.6053074050722516,8.671607636725003,9.82102706294089,5.3162454887862,0.22918933343193265,23
315,404E3639EB23,None,None,M,2006-01-06,None,pereza@sanborns.con.mx,None,Form,0.0,0.0,0.0,0.0,0.0,4E3639EB23,1292.6618888959117,145.0230926968169,418.4082355987669,138.09495583130771,60.400041515831326,41.935923806764954,79.39640236752646,24.62438667239891,10.942514516534995,5.739557320812768,3.581832239686355,2.797781495757777,9.021295808456413,7.8884692458415975,8.589859509805274,8.435908753256747,4.1035434611957236,0.3543102633274013,15
320,409C28BB095A,None,None,M,1993-05-05,None,yovas05@hotmail.com,None,Form,0.0,0.0,0.0,0.0,0.0,9C28BB095A,954.9798436903553,109.22336176271936,178.03602167426718,92.85869147033476,55.01105112088211,28.368071915285476,10.25958380012757,9.650012968972257,8.209809634865943,17.974993850813174,13.230596041619794,1.993106050891801,7.142107498146755,7.616768872387933,5.1850432535361435,6.774016045124936,2.273928946535902,1.2129914031329752,28
365,48C7968283D5,None,None,M,1985-12-24,None,theshocco@hotmail.com,None,Form,0.0,0.0,0.0,0.0,0.0,C7968283D5,4410.285180713422,1693.289618927227,722.7620222705017,282.14249263231056,235.04031632150316,321.2769499155838,60.91628626166873,198.04230263555527,120.34637765844654,22.88180648959863,5.513975405796978,24.58316607652696,39.13221965949082,13.358746802944864,13.936557234418373,20.50755496302387,7.116060614327639,2.8683654176529187,35
391,4CD1A12E1398,None,None,M,1998-03-28,None,marck.allend01@gmail.com,None,Form,0.0,0.0,0.0,0.0,0.0,D1A12E1398,2654.9536811653606,373.5228468765236,295.37193626301524,1.6877210689980862,107.76451544048653,93.08301726046216,46.56501020373805,41.855624204791305,66.43227798301633,27.99519028082176,24.216225861835696,43.391781354996475,15.378524769138508,0.18790740752461926,5.074513410989117,0.13679945458861822,4.130402958356308,0.2520240353572515,23
402,509EA7CA4844,None,None,M,1973-02-24,None,garellano369@gmail.com,None,Form,0.0,0.0,0.0,0.0,0.0,9EA7CA4844,22492.720169183827,8524.415645673387,180.99372189060205,1494.9288830603653,934.070890088893,468.3896936425673,99.76998895093203,20.07746963919173,133.66988901908496,143.82356669369634,153.91284083137367,245.02267389061632,25.480661449891365,61.22945399834118,49.42807641135491,24.92034434713759,29.853998458844455,13.292032769889532,48
427,58D9C3B995AE,Xöch,Rodriguez,F,1996-04-05,Guadalajara (México),love_thara@hotmail.com,None,Facebook,1418330088335807.0,0.0,0.0,0.0,0.0,D9C3B995AE,16451.308291832105,4869.786167933569,1861.1443720286375,1328.23141392571,77.7319051996256,399.11976714089417,217.0017687195453,32.71150216953992,346.81857116882685,93.47411962152437,104.63185308031099,36.44823617457333,32.303251290976355,2.720195604239132,14.933979705390817,72.27343330707444,49.58496736127313,1.7762037361886351,25
453,601466C6EB55,Jose,Jr,None,2000-03-04,"Mexico City, Mexico",cirilo-alvarez.34@outlook.es,None,Facebook,2163068353965680.0,0.0,0.0,0.0,0.0,1466C6EB55,439.661926816887,3017.0585250861936,8.162106212232345,72.75941226414801,46.7240949607766,151.73017191715655,90.09208015152198,23.98153792276195,7.922011344860651,38.07346472380548,4.192868244207611,9.898117755751835,19.514935003301808,9.426993948986308,1.3480604577207114,0.31855221795185484,8.81888265752701,0.3162583142108695,21
458,601D917768D7,None,None,M,1976-02-19,None,apaulin@sears.com.mx,None,Form,0.0,0.0,0.0,0.0,0.0,1D917768D7,542.3489006774671,844.5504841200784,225.40220856147508,159.16846687471568,73.87329790232812,97.17793781127939,96.91780658190105,62.81769043262354,9.024980582823437,9.903001658267325,12.845066382924237,34.33099023784423,7.485644835072943,8.905541477225778,0.931928696571782,7.000652304151296,2.3142956505228733,1.0011052127271336,45
459,601D917769B2,None,None,M,1975-05-29,None,eortizecor@gmail.com,None,Form,0.0,0.0,0.0,0.0,0.0,1D917769B2,925.4303945152926,292.48585097276424,273.8918391105757,6.859378012856218,23.3786161876299,36.20187390625344,34.964863527060714,23.512840378221842,19.19363401686222,14.825868239134396,9.941491790096098,27.637579735688185,9.923524823259076,2.1192319694137294,3.278948772534443,5.219297897402136,0.9441028720781514,1.1906632728772129,46
460,601D91777288,None,None,M,2006-01-25,None,calderongrkde@gmail.com,None,Form,0.0,0.0,0.0,0.0,0.0,1D91777288,2399.3835121246793,681.9671673783495,177.09287681741037,116.77037461564449,43.780540219936505,4.9851566972466985,101.98573470606111,102.91453176036435,11.98815997609343,9.235739821737829,21.527147731009293,8.378168266835525,11.90289560156973,3.163863651519896,1.3623117382602687,6.45548591342653,10.23087429052016,0.8754586893339041,15
475,60BEB507B488,None,None,M,1997-01-25,None,rfitmix@gmail.com,None,Form,0.0,0.0,0.0,0.0,0.0,BEB507B488,4448.210575998199,207.58524147405691,1160.5707311092744,303.7850914140022,196.63797897524856,220.19894970618765,236.48261580357962,126.56734486919261,40.14867009173156,84.50455586616717,37.46555679048832,8.59813240830057,28.836071109113423,9.423080916308887,12.510867984590115,3.760988471810768,12.059910372064413,1.6536366396856421,24
504,6C71D92FC290,None,None,F,2006-01-25,None,plazacarsot@sanborns.com,None,Form,0.0,0.0,0.0,0.0,0.0,71D92FC290,697.7362920388499,1125.5713710666219,377.8873758545081,87.05866975994334,96.58101576171352,101.52196010928338,59.248693299087,21.740769860828962,1.9975435953653744,7.761464510325077,2.602226590421273,38.33239214932787,12.377166171364458,14.563260637400484,10.278520616768839,1.5064135572950144,1.6260164273187518,0.6088479935761276,15
509,703A512EDC7B,None,None,M,1985-07-05,None,luisfdo2018@gmail.com,None,Form,0.0,0.0,0.0,0.0,0.0,3A512EDC7B,2107.7423957527294,3697.168935029684,235.9407112115466,184.29616021431244,64.29942870753152,158.49610237316875,17.667343369301484,82.1220932903513,102.06677899598432,76.51511562695217,78.55256792135401,69.03735565529024,28.469451712190217,15.705991176588244,19.79670802199062,3.0473605427797157,2.0455244348199026,0.029975963421598816,35
522,74428B79E97A,None,None,M,1975-07-08,None,gmarzaroli@icloud.com,None,Form,0.0,0.0,0.0,0.0,0.0,428B79E97A,400.2397171130781,170.40232335263704,19.581844262262894,73.7856185824612,51.037384299528355,53.89428586155354,16.326633736228075,21.332856777201954,18.693127819413185,10.805539836337527,7.625105625462615,10.77813344005363,6.611787095109264,1.5760430944780512,2.802936616995027,2.889140238343207,3.4362913655856016,0.18123088327084358,45
528,74C14F41E867,Oliver,Isunza,M,1981-03-07,Iztapalapa,dies_irae00@hotmail.com,None,Facebook,2783777484972631.0,0.0,0.0,0.0,0.0,C14F41E867,1667.5661132440987,896.1379117293076,326.4248001843829,190.50203773665785,194.9140733112874,149.13783199055584,81.39147716578871,81.14971055687731,59.1430302716212,43.41863306626832,14.176265727827221,46.341300599941796,0.4909731485140568,6.454854350273015,0.5554819383655126,5.953963247088373,9.57722558294233,0.6643161482009012,40
563,804E7046D3EA,None,None,M,1983-08-30,None,blackhoga@gmail.com,None,Form,0.0,0.0,0.0,0.0,0.0,4E7046D3EA,12661.773736197663,16690.4740775455,680.9572576073995,962.3720810879142,208.99098583595935,565.7593070403105,398.7550072035418,717.3711197233966,402.28308589311666,1.2897556721512344,20.705424897383512,318.68317057748794,7.444642461024103,105.57783991953514,52.911658311721,54.98361774297291,52.16384586658315,8.503386416343739,37
590,88797E4771D6,None,None,M,2000-01-01,None,eduardoguerrazavala@gmail.com,None,Form,0.0,0.0,0.0,0.0,0.0,797E4771D6,1497.8805862611198,1819.5661884940516,248.87007780694768,157.00523733579388,182.1935672650043,96.57547053885637,96.54090569160428,15.735106491451626,56.32961787882318,51.346255980968444,29.41841568065931,5.838104102367915,7.572387864796628,10.746556575011155,0.9833738865176604,15.455861337290818,2.4278151715995144,2.514471637133787,21
600,88B4A64EDE9A,None,None,M,1968-01-14,None,rene.a.rip@gmail.com,None,Form,0.0,0.0,0.0,0.0,0.0,B4A64EDE9A,16.662034539725656,1171.170978773006,29.755763408859682,62.7673720365812,69.24591229809857,85.81685943392107,38.32585019071195,16.542058277443704,17.66774336048508,14.161299225278409,17.102428564806935,15.386031595531376,3.1744362407540936,6.609168453560949,1.128409245513817,4.305075046414236,1.0511392209391073,1.127440088368475,53
601,88B4A64F5994,None,None,M,1997-12-04,None,os526488@gmail.com,None,Form,0.0,0.0,0.0,0.0,0.0,B4A64F5994,1853.662247884773,1587.2870264915325,415.2215569390751,301.96409325111017,11.875645483046455,176.75710283298073,50.75229433339004,43.44538636429791,10.451399227844341,43.15275086928385,17.835757835103895,39.61198230286096,24.2487215714425,19.207909555924857,14.106514187499897,3.4064536484649275,2.099330300693788,1.9138269206744012,23
630,8CB84A000892,None,None,M,1986-01-27,None,cda_djinn@hotmail.com,None,Form,0.0,0.0,0.0,0.0,0.0,B84A000892,624.2433099695518,541.5475846999905,334.15258581887616,148.57541698547152,46.154954446478385,19.9157819336905,72.12675124893049,27.63953336647372,16.311746156561934,26.355755251270033,29.70000349290108,11.468601833692292,0.6738914858974563,2.113775614070759,8.085496972645508,1.648003738147613,2.1786783538966645,0.10812863145355588,35
649,90633BAFFF53,Vero,Velazquez,F,1991-01-15,Ciudad de México,verovelazquez184@gmail.com,None,Facebook,1484643725042820.0,0.0,0.0,0.0,0.0,633BAFFF53,9471.269004137352,10873.472073740002,2252.005789506283,1411.0179640524038,498.8213646549896,583.4401491008156,376.5967896846962,304.06060934273955,22.014343662082297,225.21163931585798,124.645815354109,148.47838067056415,31.723455332438025,50.76094962455464,31.251413779450747,8.545875964597403,36.48855276593159,3.195829311142502,30
667,90B686886269,Vergil,Sparda,None,1988-11-20,"Mexico City, Mexico",carnivorusjesus@hotmail.com,5558507143,Facebook,1.0216902285847564e+16,0.0,0.0,0.0,0.0,B686886269,1185.5951988853876,1533.9546336202611,205.87435058354595,9.492429530476882,22.007738258784535,0.08271521218952552,59.65324123581344,47.6720751701685,52.55705125705728,5.583296898787863,25.108174465169096,1.4857580195582805,9.359298121883212,11.65837904149462,8.381503755777425,8.743832016024236,8.380817803899898,1.409506123720633,32
712,9CAD97B2923F,None,None,M,2006-01-25,None,vallealfonso77@gmail.com,None,Form,0.0,0.0,0.0,0.0,0.0,AD97B2923F,4517.922000351129,12520.733982110449,2774.54459109024,781.0031023653221,471.3218617255567,258.71483356446544,487.34541711338903,15.656385416503529,130.70817117930724,83.48241069099912,75.74194286591246,163.7719253853674,64.04706969933802,92.6925469536736,63.99215566416516,64.2252438751484,18.975742293423462,0.12061765560790542,15
757,A8346AC8753E,None,None,M,1999-02-15,None,brian_los13@hotmail.com,None,Form,0.0,0.0,0.0,0.0,0.0,346AC8753E,1239.2705847226905,3013.3670210315645,198.3353525248751,128.4052762194017,259.19265204268737,247.2529424408559,168.42572538062814,67.3748357220571,25.328709886314265,6.824959995705344,30.85332280476091,69.29287872595725,6.138008474451507,9.22917722091946,19.807354832751262,19.641663021038458,1.15500683051976,3.104528122822322,22
761,A8515BA42BDB,None,None,M,1984-04-18,None,solecito_cyr@hotmail.com,None,Form,0.0,0.0,0.0,0.0,0.0,515BA42BDB,264.5346384294612,1342.8580501051358,246.02255918232356,103.87132040179239,99.50319126338964,19.792112056383374,31.511790584277204,17.24929054676374,29.744758999141865,30.74050473387874,23.725744582921088,4.913364475624573,7.477049311625367,9.643091635997147,1.4244997118611538,0.7451520995752798,1.977552692673317,1.2653291871736798,37
765,A86DAA08CE4C,None,None,F,1994-02-11,None,mapicasco@gmail.com,None,Form,0.0,0.0,0.0,0.0,0.0,6DAA08CE4C,16931.830042615868,2996.449537719777,1961.7950389449832,305.5352027307899,693.6406093400407,739.9319601508,89.52491976166614,484.70062019177203,115.11630722795327,263.35024811686594,47.12051759819522,231.00799580429575,22.093311502966326,71.92730763648825,63.14854792489854,64.58794324898946,9.541327325540053,8.698562158109832,27
768,A887B3E4EF0A,None,None,None,1987-09-03,None,amateco87@gmail.com,None,Form,0.0,0.0,0.0,0.0,0.0,87B3E4EF0A,291.4567522143528,552.111516357692,125.87633831889691,67.53622345240915,27.670327875900092,41.68084940834099,53.29926871164235,9.776182574554198,8.500812828486945,19.99981508378523,12.693000853667645,5.720352884609316,5.651357840094881,5.0970513138554,0.9156089852807584,0.5135262134721518,0.15515054583507948,0.3458645371237538,33
770,A8967524C395,Guadalupe, BenÃ­tez,M,1888-11-12,None,elsa1211.ian@gmail.com,5569713363,Form,0.0,0.0,0.0,0.0,0.0,967524C395,564.2965093250273,2666.9243711425843,272.00793921696595,26.35953664691807,79.14343762904402,14.888934013224972,38.73452706830413,35.867337590684315,33.07102453728434,12.911910994229954,32.82474671657096,53.924224840425154,6.674003086779619,20.000409431635337,14.509731099219012,1.0541396312402584,1.1680140511716597,1.6392029786907258,32
784,A8B86E575383,Anita,Avendaño,F,1999-05-22,Ciudad de México,susigonzalez525@gmail.com,None,Facebook,240682024005509.0,0.0,0.0,0.0,0.0,B86E575383,7824.576616766978,14691.34754413215,1081.5350057769701,656.885440970067,960.6355582174516,441.00612216455585,629.813915845123,59.31340022870209,305.10471632101587,236.13265556666408,42.40061530144224,253.42639080995963,53.71616159176581,11.235168470079083,11.72963067446246,38.7324186432669,24.17004149096703,11.238597028373997,22
790,A8DB0367088A,Edgar,Sanchez,M,1991-07-05,None,dyedgarch10@gmail.com,5526849900,Form,0.0,0.0,0.0,0.0,0.0,DB0367088A,1127.92433670473,17950.65217305629,1752.740768003712,445.59957247540905,694.8965861912317,4.001782279614399,360.4325423360074,18.352391941438448,256.22094590082725,159.8807239537515,201.65408392733895,18.090680546348814,65.69934360003174,39.29652737284899,36.20776490497805,20.66769151909456,2.912136532402764,7.769948753949277,29
795,AC1F748947A6,Kev,CR,M,1996-02-14,Ciudad de México,irvin_america15@hotmail.com,None,Facebook,1669398506551245.0,0.0,0.0,0.0,0.0,1F748947A6,2887.645116807019,2081.26779468072,434.5226030173834,370.795621904025,267.67003140198887,108.6765200863178,104.02796491930032,72.88542127733425,53.90197910003656,77.19520340959009,32.32291930242916,3.8566124960163526,9.854577986863985,12.350852705024172,0.2157755170855903,11.455826103606078,16.74381804574631,1.6113612395154235,25
806,ACEE9E6114A0,None,None,M,2006-01-25,None,jesusdotor692@gmail.com,None,Form,0.0,0.0,0.0,0.0,0.0,EE9E6114A0,19562.83430440364,1565.545517688596,2178.8690094645544,1335.7096258200233,972.0626150940961,604.2832915970611,698.9995601922514,161.64499976319257,315.7969737647991,101.61762628673088,283.5958297635514,11.325840831065701,13.367515441942533,70.55817919051792,35.0926310762687,58.630193696333706,26.9988400299739,3.0674458954053896,15
809,ACF6F7E5E30F,None,None,M,1987-04-23,None,ferfueriv@hotmail.com,None,Form,0.0,0.0,0.0,0.0,0.0,F6F7E5E30F,179.75268848270588,3213.2749033768487,640.6574210301261,150.63395650290795,207.5652154167761,84.42220709999815,82.91902859156309,34.4844069922311,76.21468945067016,9.79016130501847,29.729492915758378,60.56833984571258,24.427885332942022,23.643709038277482,13.070390704653411,1.0539974865977828,8.888320365447722,1.9031860617663863,34
812,B019C6A9ED66,None,None,F,1987-11-30,None,mariana_santillan@hotmail.com,None,Form,0.0,0.0,0.0,0.0,0.0,19C6A9ED66,817.172454505729,1094.3892860351345,53.12627503257994,122.50488830753854,35.568003433140724,122.22889115785081,4.2530614868609975,69.24815905019636,34.0848769981439,18.653373845502326,17.824898217355848,7.673994190126237,9.199144871747782,13.548506650784777,5.927468589933089,8.065348834635019,4.966249850625277,1.5651189421152036,33
830,B0E5ED69E336,None,None,M,1983-02-18,None,charlienava.l18@gmail.com,None,Form,0.0,0.0,0.0,0.0,0.0,E5ED69E336,9507.180654116662,11601.682860152368,614.483362002104,48.49274253451348,311.9514526465152,236.06633905850495,392.2279792126649,524.2115199626676,161.65502713584164,62.809579382616334,130.75300927095975,228.82909364376079,17.129744904006202,93.53385050797596,41.02469288455516,30.56434314338695,39.76694172012289,6.636807720766979,38
855,B85D0A745062,None,None,M,2005-07-23,None,aleckgz@gmail.com,None,Form,0.0,0.0,0.0,0.0,0.0,5D0A745062,6228.137796703215,4279.076801208013,2065.786125275491,751.1895293052562,348.7471530187092,334.85525026048634,175.73105013190317,53.2552454937877,164.61839061679942,11.294828488434765,139.07578457431904,156.46571706538148,16.866674931987095,35.61085170270543,0.7320233312270107,8.063981109734703,4.930530495407681,0.5622662871412525,15
874,B8B2F87928F7,Cassandra,Coronel,F,1995-09-04,"Tlalpan, Distrito Federal, Mexico",vampi_barby@hotmail.com,None,Facebook,898901863630037.0,0.0,0.0,0.0,0.0,B2F87928F7,364.156513341318,463.96182920300186,141.17737451568578,33.47262896629077,22.679301304686884,9.569158194565519,16.365619478550304,40.7373159023059,10.152949708651526,17.857031144775725,14.342941283553584,20.655085789255278,1.723693535849964,2.011160988062668,1.621068939126559,0.8901373908467626,0.35875559645377775,0.26743471701944255,25
886,BC765E4F5BBB,None,None,M,1970-06-05,None,nicocruznapo@gmail.com,None,Form,0.0,0.0,0.0,0.0,0.0,765E4F5BBB,279.86642785612366,81.40900105124808,101.90640075897672,21.671381851725712,26.504356511850347,34.583498117406556,24.598919124625347,20.950376112020756,12.493738971785119,8.535816600829373,12.45744686677131,4.255874774078282,3.200852945415797,5.080680748013496,3.279275942526074,3.5597096403797104,2.3916499839414276,0.2545921422824118,50
891,BC98DF2C64CA,Alf,Gutierrez,M,1969-02-14,Ciudad de México,alfgutmel@hotmail.com,None,Facebook,2499135620215940.0,0.0,0.0,0.0,0.0,98DF2C64CA,2338.699152043378,619.9982736695013,84.31121367933089,73.97069555799408,43.97255737829205,77.66729818486306,36.14542935926564,76.59446379329569,48.197303938796686,7.296369755528996,33.207534689449055,34.41168176699096,11.29669003819625,10.191852820101923,6.155165682026805,0.8286853344059173,0.08802926838300207,0.9676030401989415,52
901,BCFFEB19EF91,Zenon,Castro Rosas,M,1968-04-12,Ciudad de México,conecarz@yahoo.com.mx,None,Facebook,2170939059672460.0,0.0,0.0,0.0,0.0,FFEB19EF91,4398.458990668898,289.5019955011787,580.3761606519971,165.5006383646823,124.19367233258515,30.97842614000868,202.42048795616014,149.76280591109588,21.99535623190669,14.156971111658311,36.470654024175055,21.137918983581486,31.413723896550106,6.675727227648848,0.844655347619378,3.7545309201424253,0.5277755551099349,2.8295091750017622,53
937,C0B658075DA7,None,None,M,1957-12-28,None,eduardo.castillo@magnatempus.com,None,Form,0.0,0.0,0.0,0.0,0.0,B658075DA7,14.46823380192227,609.9113149201675,176.4271552183198,91.04673010331268,56.091180414112785,31.056446905823776,35.03871241812451,32.76326795479721,23.036173920849507,2.1623203207949424,9.127312314947135,8.948419435312493,0.6498585431583432,0.43684069492884725,3.4773615112924436,0.15205591240452235,0.34894190674069014,0.8576737029903224,63
940,C0D3C0169A49,None,None,M,1974-09-17,None,arq_mendoza@yahoo.com.mx,None,Form,0.0,0.0,0.0,0.0,0.0,D3C0169A49,3725.0618570594083,66.65239575111352,531.0007714043372,221.5265172942227,9.740237835133684,68.26018787477406,138.8611097485245,118.26156583509832,21.909154229143542,11.756803210224401,32.623781519858106,35.4254952164217,12.500318062136845,13.421273621388083,11.369610212439913,1.5014938308400565,7.157533862055567,2.9698934328789934,46
961,C8FF284FE391,None,None,M,2006-01-25,None,coronaf@sanborns.com.mx,None,Form,0.0,0.0,0.0,0.0,0.0,FF284FE391,2185.2983138392206,2780.2182489226666,905.6570921027741,193.51186431529362,90.62385074197307,235.61799560148475,174.3410663539274,93.44615300135096,70.8239892798394,65.05280513947167,52.16755002250654,13.083393899140848,16.824581138152542,4.9809121619771775,5.37893479111961,21.696926091834246,13.595671765558558,3.6806508317096878,15
991,D013FD24427D,Bernardo,Moreno,M,1984-04-03,Ciudad de México,luis-barcenas@outlook.com,None,Facebook,1200293633692694.0,0.0,0.0,0.0,0.0,13FD24427D,261.35730306637413,1184.4978021625977,282.6505551607358,117.14739992056418,119.18820475408315,47.52016606255148,15.105416495593767,68.99231500640511,15.115790125728838,10.677092152507141,21.509026208689157,11.615300132988494,7.8022914501602125,0.9549038690944557,9.77304258356967,9.030708170866014,0.7379264974906999,1.3247561800001477,37
993,D016B4503D24,David,Vaz,M,1983-04-28,"Mexico City, Mexico",pirritokds@hotmail.com,None,Facebook,2204979779522286.0,0.0,0.0,0.0,0.0,16B4503D24,3145.6881010645902,3401.111508301872,621.9585188782537,245.59159654627456,306.86002706105995,343.85473918585814,6.6322469202198615,176.16185439186833,50.617052275940054,39.2682134126179,48.96248528819248,85.66207211457828,29.77283011944324,0.722245186299021,26.840870465355515,11.01907892342994,15.457428811139408,3.8191310530091602,38
1022,D461DABCBF4A,None,None,F,1979-01-12,None,evelazquez35@yahoo.es,None,Form,0.0,0.0,0.0,0.0,0.0,61DABCBF4A,1563.204759466589,902.1714162634026,383.9943888057737,218.73549491203613,139.32092205872857,37.06897562124458,56.540214902627945,42.41292181757102,12.35255659916608,45.06613716784776,44.312302254178654,32.05672021543731,14.305080361801494,13.431482764616984,2.500145513945472,1.4585886937708679,1.6862330351922286,0.381659546070324,42
1028,D463C62F068D,Checko,Chacón,M,1992-05-31,Ciudad de México,0,None,Facebook,3980003595374128.0,0.0,0.0,0.0,0.0,63C62F068D,989.3071261505963,1026.6529980981898,27.204683138272475,89.01814939521914,18.147246086636127,4.457687829682887,90.28380334088183,77.03102253765945,21.267569726796424,33.467966437276864,18.76360165924126,33.05927710482195,9.22473611744357,12.66765872889154,1.360678358546333,4.526465629171036,6.827069221997615,0.7322604386753561,28
1039,D4C94B10FA90,None,None,M,1997-12-31,None,mondragona@sanborns.com,None,Form,0.0,0.0,0.0,0.0,0.0,C94B10FA90,1203.5091859474987,2263.3582371690727,514.7902578302775,73.85847706224514,176.25169192196435,21.216047809616263,58.77943001554209,2.2233647332590807,7.6083345737649575,59.358393010332065,49.11353036590681,60.71688583405383,2.328595321106516,14.01917259708307,13.856945971846455,14.659155608746364,0.9189564414744095,0.4333377862090194,23
1041,D4C94B18D89E,Alejandro,Roque,M,1987-09-23,None,aroque309@gmail.com,5578437250,Form,0.0,0.0,0.0,0.0,0.0,C94B18D89E,10709.2565895517,390.6065409442254,11.728115287665322,526.3881185587372,207.68583682104025,250.02061617225115,138.6247571011402,243.13516333078368,82.45479221904108,97.47941498607504,62.406076876050236,130.70540636202372,14.459206228677505,48.727866778219195,40.57909015058698,18.631455073888798,15.85927550317465,5.251678054719295,33
1042,D4C94B19308B,None,None,M,1998-08-14,None,ricardo345@gmail.com,None,Form,0.0,0.0,0.0,0.0,0.0,C94B19308B,44.598578642082146,1124.334364987214,137.64971366338997,136.64637479908868,11.710154153162794,67.03395417009206,1.7759341867944782,30.028185567015502,10.391830562572343,5.019838549943196,3.7176900611135353,4.047922753502828,5.03402861726703,0.34990623258831705,5.448420105317685,3.0142025207167022,1.1252116203841958,0.07368880775410765,22
1054,D4C94BF60949,Jhony,Hernandez,M,1992-01-13,None,flakito_jeral@hotmail.com,None,Facebook,2359038677727391.0,0.0,0.0,0.0,0.0,C94BF60949,12126.821997123796,14607.908383179833,2134.3262349933484,1293.1591450176709,833.2907526901561,1076.0840914247178,605.5201517614263,493.05659377623704,180.07718812551582,274.7000504465423,162.5157914597051,179.9104236704237,120.42890066958141,36.79732940241991,12.28117278260236,52.42890121044193,24.70738991286275,8.985502352727071,29
1059,D81C7972229D,None,None,M,1980-12-26,None,klonmichmir@hotmail.com,None,Form,0.0,0.0,0.0,0.0,0.0,1C7972229D,272.3894361727983,484.25514055981944,193.69608569929744,18.20324647568818,46.910061617988354,16.960326837323596,10.232193083623295,10.055493227155267,13.569958096513833,7.091306345069993,9.289195443845397,11.024622771173771,0.9984950315465576,5.156846387878497,1.9789601625822513,3.6642293380950783,2.4921553048115084,0.03224744478924717,40
1067,DC16B24B61D7,Israel ,Rodríguez ,M,1975-11-03,None,enlace_direct@yahoo.com.mx,None,Form,0.0,0.0,0.0,0.0,0.0,16B24B61D7,22.288416015559697,488.2905482807396,246.25560744616308,28.073873521492683,53.9049438480262,27.84594568227748,37.8510411487407,34.568167448284264,23.127123570624,16.432569560192434,11.76210522570059,1.2040475273291946,0.6224133422477631,5.778751272604519,5.241229609998053,1.1355633030403063,2.1368380591207474,0.4808151378587922,45
1073,DC56E7DDD492,Esther,None,M,1958-11-17,None,esthergon@hotmail.com,5584262392,Form,0.0,0.0,0.0,0.0,0.0,56E7DDD492,845.7067666892227,1120.6084623533388,61.9845048075958,72.25557888234886,105.15214968033817,1.289133757967544,57.48096682912526,11.1002502876188,6.046520886671104,6.305574619931247,24.762142261123106,6.063327815947315,13.396931200264252,2.9350178793120802,4.257501127630565,4.871558179399718,0.9989549007849958,0.7846578413792634,62
1077,DC74A8F91FC0,None,None,M,1981-09-28,None,brauoz.rodriguez@gmail.com,None,Form,0.0,0.0,0.0,0.0,0.0,74A8F91FC0,16791.43344656304,373.42237495310656,1587.4220689722988,1237.4812144023024,258.49538467542874,653.6885883036185,160.46194708021093,365.9593946132366,138.30630132950765,225.57843235242237,80.2483415697943,119.82060172134369,53.26517840717968,7.658228938422482,45.35641843774555,49.50086293814502,45.92106911848578,3.980145623709352,39
1081,DCBFE92D48D7,Gregorio,Alvarez Aguilar,M,1971-09-29,Ciudad de México,galvarez2909@hotmail.com,None,Facebook,3496900450382132.0,0.0,0.0,0.0,0.0,BFE92D48D7,1576.1365530266123,600.0624737815784,221.21544528781268,2.4255814099704045,50.332681005888546,29.813294362869403,97.56209857242939,14.991051254616027,36.81144818154991,2.326179387028516,16.457598132267655,0.7012294725588004,2.245637984204942,0.8008553373235145,10.980325072300488,8.921958708990726,2.035483927482716,0.1801050945152513,49
1107,E419C1402348,Miguel,Martinez,M,1988-09-29,Ciudad de México,michel_nm_88_33@hotmail.com,None,Facebook,2620194958064497.0,0.0,0.0,0.0,0.0,19C1402348,144.63801330107208,649.8432720047202,63.724047830742144,32.604735948805846,31.256809492510566,64.48334152927748,4.277966562554614,15.126898447679014,23.75699788583521,15.166868345433924,16.87020773088762,1.9392842851327703,0.6387217510959042,4.568747186618904,0.9297813076441027,2.2545093579954663,0.4449545371080879,0.4748424948860331,32
1108,E419C141BE99,Estefanía,Ramírez,F,2000-11-25,Ciudad de México,251100pedagogia@gmail.com,None,Facebook,835704596854306.0,0.0,0.0,0.0,0.0,19C141BE99,20077.4794626737,5598.220532409292,3189.076467911248,257.08803222951855,1062.8520225725204,948.9146240135367,32.56449827588375,547.6213527223346,24.16607843074816,87.5243891809593,287.7565836888245,105.95847068280897,0.3565449803117771,27.6407623686015,55.326739552186645,18.285562136120436,10.485812194698303,5.682063976704573,20
1122,E4E1305EFEE8,Daian,Vega,F,2000-05-01,None,diansarahi268@gmail.com,None,Facebook,1189188998136087.0,0.0,0.0,0.0,0.0,E1305EFEE8,415.95116290417985,20945.69505729541,679.6449391317881,77.22832202659679,303.69911930777045,192.50267390050266,243.39713602566175,38.70979707630139,265.29546439906727,253.1280970145963,127.13723152091508,165.9922340358589,15.524128971317367,71.82108251613299,19.331021949536172,63.66055060830068,35.973469698092025,2.308511617968898,21
1126,E8508BE37923,None,None,M,1972-02-01,None,breme537@gmail.com,None,Form,0.0,0.0,0.0,0.0,0.0,508BE37923,1771.3771889309057,133.0448508592813,486.5473085729666,226.02533764374752,134.61981417322895,149.9958170415339,95.27619408545458,74.1741113276146,48.38575681417611,14.285844698575378,36.75192489522893,34.46129694913291,15.833395056063992,11.197609488797996,2.161641951237984,2.9676167192612635,9.066931103971482,0.8273596888215021,49
1131,EC9BF3609021,None,None,M,1976-11-12,None,benjaminpaz76@hotmail.com,None,Form,0.0,0.0,0.0,0.0,0.0,9BF3609021,2046.2563463969998,839.6029656440382,179.3721480453841,260.4430841255276,190.38445459525826,64.95900627969269,69.83807561582132,2.3835954561176775,59.69417909168657,29.598005914301595,34.626918927173776,32.485423890096165,12.106274156686457,5.857849893730401,11.854290291016957,1.8476874728048527,7.4254060421300085,2.2642881615335466,44
1133,F018984F0477,None,None,None,1978-08-23,None,emiliocores@hotmail.com,None,Form,0.0,0.0,0.0,0.0,0.0,18984F0477,2550.1296062468573,4764.889047572961,145.75185176893814,496.54666973690854,227.5580356858693,50.736251480318785,220.24885926697522,140.170087626389,82.3575105070747,73.3807477122333,84.98183489354732,30.13952081568949,33.7185221946861,14.632686791686284,15.552602649335912,27.334513990363465,6.723545489569107,0.14810557059588142,42
1148,F0D7AA860637,Axel,Gonzalez,M,1989-08-15,Nueva York,kali_chingon@hotmail.com,None,Facebook,3934680549879092.0,0.0,0.0,0.0,0.0,D7AA860637,6357.992628220869,10035.86598303126,1455.5487031408165,832.9576951925575,706.996907674985,264.80199547510085,103.40189508191133,105.7074891520486,49.60018901758442,36.59894180648123,202.27606360984606,155.40608655909895,50.62931924646486,50.14433340454926,60.55834390723966,49.068646233747366,12.619727444340988,2.825051801099731,31
1161,F460E22C9436,None,None,M,1988-02-15,None,martinezpa@gruposanborns.onmicrosoft.com,None,Form,0.0,0.0,0.0,0.0,0.0,60E22C9436,378.86826666272685,61.45890833235967,64.03630079305206,57.38062856631155,12.138368046049502,4.829879234283994,38.69033242514652,26.996653516811403,4.661347104121674,3.373850607018019,14.277077446477161,12.138309527091778,0.8812117085124873,3.4423999929177076,2.310373877424196,3.8261532054817846,1.3011757835466113,0.3887631706670962,33
1163,F47DEFCA98F3,None,None,M,1997-12-31,None,omarbravo82_@hotmail.com,None,Form,0.0,0.0,0.0,0.0,0.0,7DEFCA98F3,1777.4997510691226,329.0493177925285,501.11298509922756,52.21568547921302,80.35480317741654,75.4937372955535,101.67601313027642,6.386468150044179,41.903924273960726,18.993500573291094,45.70155660813384,4.072144539542358,9.746764224301367,2.208877555666404,4.675288175537172,9.399716224345614,8.116449706891949,0.39301692494748114,23
1168,F4BF80BFC206,None,None,None,1983-03-08,None,frey2206@hotmail.com,None,Form,0.0,0.0,0.0,0.0,0.0,BF80BFC206,1513.9645959494976,5735.328300895632,466.6944507329906,448.88402063310514,303.2078045138532,39.654815303283144,42.32973840246562,207.02676447043754,76.02244759556939,77.13594303108589,104.92346206904455,83.2514992668187,45.04075513251908,38.69937270168833,14.638784998660935,25.433044071800175,6.284157402153377,4.4800428293974015,38
1177,F81F32F580E0,Erik,Mariles,M,1988-06-11,None,erickmariles03@gmail.com,5546124595,Form,0.0,0.0,0.0,0.0,0.0,1F32F580E0,1043.1508188624225,1157.3242515053396,194.59234346251642,105.32705781620344,47.431111374921855,44.972910226341945,4.145831975463531,49.014424917558095,13.91045287447926,37.50569914978687,24.97277297575631,27.89844788254485,5.81312775179938,1.4935137431759438,10.136060748046695,9.006451792985919,1.6011290944939607,1.7035938461630273,32
1193,FC183C22AB68,None,None,M,1982-02-01,None,benguia82@outlook.com,None,Form,0.0,0.0,0.0,0.0,0.0,183C22AB68,7848.992951422091,1413.1138176376992,372.0244787059097,531.4700629546562,223.56178155117095,447.60817670302634,223.22293702964106,63.25722400635283,88.26309717175116,93.12055360569703,73.08943549734371,27.018526882147704,7.63171032700472,8.35359732537275,34.400273201157006,17.524318540362557,10.337347662873917,4.009709775743761,39
1199,FC2D5EB96E07,Orlando,Aparicio,M,1983-12-10,Ciudad de México,itachirasingan@hotmail.com,None,Facebook,1519794668181132.0,0.0,0.0,0.0,0.0,2D5EB96E07,4816.026420979426,18058.003380900584,1839.7835717893856,452.71887700664007,720.5525112331173,203.29030540583017,33.95952483734275,411.91486696803224,327.8552849361759,199.3342288020866,59.046206260309084,162.02599229810986,81.39394134939421,77.86926171991088,1.781081959041013,15.145950844199021,37.73469031584216,4.563902394573615,37
1201,FC8743CC9CE6,Fabian,Ruiz Flores,M,1984-01-20,Naucalpan de Juárez,fchavez.fc790@gmail.com,None,Facebook,2526663440934353.0,0.0,0.0,0.0,0.0,8743CC9CE6,3150.7054222593033,6810.4434637862505,1900.0780059574226,329.8232557840471,439.457819072925,110.11800390218602,105.1735176952105,233.40975569506,114.62556175490936,77.93018649695219,153.2447211291288,109.42484591508928,12.933329844843911,4.702286779095566,42.45887658929579,10.058457644661035,4.244653539393359,3.1678361542263125,37
1203,FC94357D2C96,None,None,M,1979-01-25,None,plazacarso@sanborns.net,None,Form,0.0,0.0,0.0,0.0,0.0,94357D2C96,8583.284034115328,8723.87268175389,1820.4857825173042,83.4104748671019,666.0032821027245,680.8299704954692,221.9341167942567,16.13179885969134,189.86460783803366,76.18658460132461,74.18178892977808,199.517346001846,79.17940908832377,36.16422286358792,42.094179081442974,39.64391094365638,31.38504554832396,3.8307635979215955,42
