,client_mac,first_name,last_name,gender,date_of_birth,location,email,mobile,source,facebook_id,twitter_id,instagram_id,linkedin_id,oneclick_id,client_mac10,Restaurante,Relojería / Joyería,Tabacos,Discos,Lentes,Otros de farmacia,Zona de exclusión,Fotografía,Dermatología ,Libros,Caballeros,Dulcería,Novedades,Pastelería,Parafarmacia,Pantallas,Juguetes,Farmacia,Celulares,Videojuegos,Tarjetas,Computo pasillo,Pasillo juguetes,age
119,10E9534EDBD1,None,None,F,1974-01-22,None,jorge.barrera32@yahoo.com,None,Form,0.0,0.0,0.0,0.0,0.0,E9534EDBD1,2590.7862178218115,1652.4449916415206,40.77314567539085,117.40391437242157,34.39998079914653,133.03969862170368,40.47225810680524,42.63214625408077,66.89304762629344,83.545573392702,21.226850713166098,56.390573017640804,61.796415012749236,28.69706175742997,26.763338947198296,18.97804976945679,23.20985052464085,19.029780773235206,9.421615407134142,10.14129843409638,1.0804387410417693,0.6434812624562154,0.23027132788034121,47
144,1C7B238AC62A,None,None,M,1983-05-12,None,ghummy00@hotmail.com,None,Form,0.0,0.0,0.0,0.0,0.0,7B238AC62A,2221.5582892325497,276.8667117803964,71.98071924227553,41.54968868309387,32.288129783216846,156.8894023444024,118.05389992237343,85.3046185226462,82.19265134357248,29.599279481830276,6.823042017111731,11.032873476974478,13.21141913153409,34.26252682399314,3.312360798398819,12.821760494171302,4.998818464254879,2.2303606850027733,3.4735390751877646,6.295210900341057,0.9531238243882415,0.045189244925621805,0.25638472735851664,38
148,1CCCD67DFFD8,None,None,M,1969-07-25,None,luisjosefra@hotmail.com,None,Form,0.0,0.0,0.0,0.0,0.0,CCD67DFFD8,1043.727733207646,2339.0939813106934,558.4025772491372,157.34257672013288,26.59058858473093,200.35314382334644,123.238630106971,61.77880259518383,29.924104109203768,77.86844860993226,76.32036165759428,9.126785950101588,37.99752919274469,52.02835457349882,3.119914601871193,15.266278969636904,24.072212487843437,0.42324662456416967,11.452976924362021,7.544100884689483,0.48247287598213956,0.5239548044132472,0.32122413571890523,51
151,202D07D553B7,Hugo ,Camacho,M,1976-04-01,None,keen.garza@gmail.com,5564802375,Form,0.0,0.0,0.0,0.0,0.0,2D07D553B7,1043.2589806401631,654.7647502986503,317.11069767722864,72.83929646148155,64.57637284813262,70.98129725103713,75.93755598502428,21.11326652387612,12.159300896859847,10.586256975396969,35.05336006988914,5.809463033643074,25.97942504518704,36.42047810164223,18.53145757559573,14.020349749627302,7.855746151400279,14.095329049161906,3.86808741909989,5.6924052197775135,0.05153288277735431,0.12123828235999057,0.17335186198854463,45
159,20F47840F098,Juan Carlos,Mendoza Morales,M,1996-03-01,None,ianmendoza3105@gmail.com,None,Facebook,282681896464530.0,0.0,0.0,0.0,0.0,F47840F098,4924.191777482036,4858.110002081948,1126.7960439204696,352.0011944159493,443.5204048595926,59.54189286286029,243.93944343760757,246.79118917276588,240.9640360337662,205.82484705884943,136.70182491492054,67.90258088539902,133.81978423209952,64.08196013218291,20.953844299201695,58.29982329003362,33.11918192891155,35.88283557345129,5.079343151227116,0.8984556332667,0.5408229296611962,0.660681954847627,0.37802974895455593,25
178,2446C88BCCFE,None,None,M,1985-01-29,None,dalbarez2901@gmail.com,None,Form,0.0,0.0,0.0,0.0,0.0,46C88BCCFE,2528.382229035088,7531.372478811367,534.6521457844584,317.73071174090734,60.12561273385557,444.89170832840324,331.0753145674667,230.26651999574338,126.66057467662408,52.229026874847044,116.40922499455596,45.827304704563716,39.5523586872559,98.56038049514129,16.210558739421742,47.265225684102404,26.045268692898723,37.975867779269436,7.49232389984323,12.734861889122365,0.9493758992570897,1.164060573488512,0.4268654123184111,36
192,2833347970F2,Cristian,Lucas,M,1994-05-05,None,rtr@hotmail.com,None,Form,0.0,0.0,0.0,0.0,0.0,33347970F2,358.69711227619507,1595.6044501546592,307.61811083145847,100.60097509913179,138.72806285852522,37.24995488276719,139.64211661650066,75.46848660205823,47.28426090241418,41.081263931736835,51.18539519034074,44.92880340183581,38.734391268369805,10.732496745387408,11.74743688807038,8.54313776454774,7.576425401054914,15.908513423537421,0.4049036455664775,4.801784579803239,0.17471234872689403,0.22259583161187713,0.06460935570081089,27
209,2CAE2B5274AA,None,None,F,1967-07-21,None,mvaldezlopez@prodigy.net.mx,None,Form,0.0,0.0,0.0,0.0,0.0,AE2B5274AA,360.23080408197075,690.5695397872739,299.4573958598752,7.7453103469629925,69.16902501090146,3.7836844055390433,45.81967215091983,5.311171865792104,56.24013774779764,36.68161771514533,11.024342679861693,33.80822804286299,1.5035109310243375,9.303994454840394,10.948443957635112,2.357155365455538,7.96582201484476,2.6145141973100428,4.476817738214405,3.7637372266410947,0.690771395585001,0.16656009530745164,0.3677429282391364,53
214,30074D55319E,None,None,F,2000-09-19,None,luzma_6419@hotmail.com,None,Form,0.0,0.0,0.0,0.0,0.0,074D55319E,453.7247793699426,3693.447038606247,152.54869852429567,154.81120610575044,108.86190102308046,209.8264433138163,227.04225985127306,158.4367774051467,113.11956520855426,3.5797649051312015,81.11620245780934,61.88840165903142,38.09609657432793,47.07301106505314,23.945099393317257,33.86244980774987,24.775361895894367,3.270220958797564,10.01983723250115,0.3119007627078452,1.5924767539673435,0.8485919196984885,0.801915205907284,20
220,30074D8C9C2F,None,None,M,2006-01-01,None,dmgalonso@gmail.com,None,Form,0.0,0.0,0.0,0.0,0.0,074D8C9C2F,2413.9873791803407,1693.4469104529117,575.4869759731384,509.4522900044665,73.09059542965804,84.04772646084405,234.81482448193938,96.12117771431416,131.66019939636612,40.31580129483519,70.32219189156169,62.88883888605024,59.6251457142499,62.354129775852954,32.31910934627221,19.977867270438026,15.303678239628198,25.743541738096248,1.2849873330462354,8.730083491761732,1.5767695317131403,1.3735873948014685,0.07618899771380862,15
228,304B0748F2F4,None,None,M,2006-09-06,None,luismanueli0691@gmail.com,None,Form,0.0,0.0,0.0,0.0,0.0,4B0748F2F4,537.0505185503688,137.58869260833737,40.50213192997646,22.901364327505327,25.984406018122748,38.3438226315742,50.614787551560134,33.07808038467571,13.918331225323172,19.44528274218767,16.07964511543224,12.511032055638337,2.0772891254398087,16.04617643044171,7.996433687800575,9.42065211958878,7.144772195992011,2.8284508229936454,1.6461190455215504,0.12343665045295825,0.4360451619669166,0.2291854226287735,0.03334419647100783,14
250,3412F9F5E2A4,Eduardo,Mgc,M,1990-06-23,None,julioarteaga92@gmail.com,None,Facebook,129407595047046.0,0.0,0.0,0.0,0.0,12F9F5E2A4,5309.201566828751,5234.296673852651,127.33540492237914,773.2252047071031,292.042999469745,15.759681023388081,38.67299367340359,202.50531287947427,207.69476674501524,71.28475857042945,92.3915390074078,160.68732685319083,84.7643084651952,89.93298466384606,13.464616635483981,47.06218312482577,9.854364398870427,9.763325460619216,24.706451247006576,8.295470725626963,0.5667307716196827,2.4708281377954457,1.0205078361708624,30
278,38D40BB668C4,None,None,M,1984-11-11,None,jack_anje84@hotmail.com,None,Form,0.0,0.0,0.0,0.0,0.0,D40BB668C4,18929.10239810815,3564.038111255168,2441.8727154453095,1823.0545886305247,653.1111509413947,859.7119797760657,554.1198656991559,36.309186782195034,223.83006831448537,205.4884316283547,311.6502773329595,109.13652016107933,327.98209737692457,71.46670119002327,68.76630459472979,4.326360589237086,46.51983880752793,57.10889280540556,49.82039063420036,6.853453948961359,1.081947905965507,2.1105058734071367,3.538212198783481,36
295,403F8C3C3B21,Alejandro,Risso Yañez,M,1979-12-23,Ciudad de México,alexjandro25@hotmail.com,None,Facebook,1.0158074971617652e+16,0.0,0.0,0.0,0.0,3F8C3C3B21,532.4188054675558,2047.9126772997358,46.39961282080926,231.30640424308177,0.6142213354768808,36.402586032936604,122.83959249803429,32.01181726248967,94.77896451423511,56.676544601211184,49.19709700896467,28.95184023116711,30.063187936686763,31.16591801530905,20.86460259846536,20.822389423029666,4.555463651691792,6.332411003757172,4.7624389124135655,0.8202967318143326,0.7937936594186777,0.30629829448297685,0.003036457233861414,41
298,403F8C615E45,None,None,F,1978-01-12,None,amadolores260@gmail.com,None,Form,0.0,0.0,0.0,0.0,0.0,3F8C615E45,457.39601686469086,768.9422308644417,148.46428810282555,113.91378114458014,7.221351237691042,50.142954958825875,36.60063343061131,47.955444375072766,4.458812331466012,17.469959725451304,8.91486697273533,33.35495102552543,23.959653289198812,21.585819195184868,5.427149051156719,6.307639974344244,5.737650327490921,1.344160282727143,1.3277938146487738,2.780063358547718,0.4791989345684089,0.21430692511110008,0.0012738131042372197,43
300,404E366D495F,Moises,Garcia,M,1967-12-15,Ciudad de México,moymgc@hotmail.com,None,Facebook,4024256500933295.0,0.0,0.0,0.0,0.0,4E366D495F,14277.575365075878,5503.914525789953,969.6265441381777,153.54070887696014,29.631643240202756,576.5459178432847,286.1451919803951,501.9168319761453,183.17286374393655,110.4355409601485,26.760498238614666,121.73101197881732,89.17777282568315,184.92459563685608,1.4325644172013723,7.517775994410336,26.13437238868635,40.028511517220146,20.508949539605858,23.130189637525504,4.291779426801274,3.1148120712762077,2.7420327022178426,53
305,40B89AF330A3,None,None,M,1997-12-31,None,garciaj@sanborns.com,None,Form,0.0,0.0,0.0,0.0,0.0,B89AF330A3,5702.790351087368,3895.7126515920922,162.07806079629398,640.8958359681857,182.75169070123417,211.01613018768595,319.1934708654414,228.5579698383554,6.128720443275782,153.75374519935067,152.14564184345434,47.22785924048576,103.28651220377823,33.47528726816634,22.872138030715885,12.857996259492163,12.500874517482401,22.31425347634947,24.834245807405495,12.218378335504196,1.765222655233688,0.7051878725839218,1.9177758100673719,23
329,444ADB371196,None,None,M,2002-01-12,None,martinezob@asf.edu.mx,None,Form,0.0,0.0,0.0,0.0,0.0,4ADB371196,3422.2998474104656,8121.709788450551,420.1809383118183,324.8817438198357,104.03020281632715,320.20159155675555,33.21206325945816,104.81815509848386,101.48468095915352,140.8423270593274,188.23119751218795,130.10213458766358,163.21080364833523,158.09180170571472,56.95543770139737,62.612488972424686,52.684726383782284,15.76882480409756,18.400335868907632,19.365804596157968,2.5692884417151434,2.3332745401631785,1.01254249527503,19
331,4455C4C2DACF,Ricky Luiss,Rokanlover,M,1992-06-15,Ciudad de México,pyro80@live.com.mx,None,Facebook,2949996581752983.0,0.0,0.0,0.0,0.0,55C4C2DACF,1655.8675716295954,2405.964101352317,347.22423379300784,76.3743423456416,50.19020688376451,18.015807350361968,68.99748707671779,70.14566940315505,4.976262359355313,22.689887404694748,66.9362253455477,1.248865957309178,23.73045291802079,7.487449624690085,33.09842422003101,29.963546901498677,2.4561107421737276,11.310079767650198,11.228731164062374,4.562025164893992,1.3305186376644516,0.7984550179226759,0.40354493992462787,28
341,449160C9FFD5,None,None,F,1992-12-17,None,perla.clarissa@hotmail.com,None,Form,0.0,0.0,0.0,0.0,0.0,9160C9FFD5,8756.234428706992,410.7185815615092,809.1880269688432,166.99119716619524,101.69511892949815,429.5733702076616,446.17305242098575,122.0029229476366,21.84895218621604,91.0404015096304,127.06636543840949,111.02352102903562,127.25038801187904,126.24363327023988,30.183127770786527,0.7953210462154849,28.372492399954794,13.756818440529562,10.76398584524356,5.901574295958114,1.7428439028079075,1.5217608817585997,0.9121150620139797,28
356,4888CA2CCF4F,Miguel,Nava,M,1965-09-16,None,mikinava1234@mail.com,None,Facebook,457885718476096.0,0.0,0.0,0.0,0.0,88CA2CCF4F,1913.2021583740673,1882.511501495002,453.86590070687413,232.514608049548,117.82630343542156,166.22754953702278,57.67929303498375,80.84926547575873,26.787700071125272,12.659299791764905,36.5089878703672,17.241805797116932,0.2738190714325723,13.7114591336086,20.646710421773015,27.05096328343579,5.754717388379674,0.9388660860451147,1.8678172334065892,0.15125190356906107,1.5328213294584319,0.9510717262493317,0.24612878358847182,55
362,48C7965BFC35,Angel,Mayoral,M,1993-02-05,None,angelchuy_1985@hotmail.com,None,Facebook,2186781984704589.0,0.0,0.0,0.0,0.0,C7965BFC35,21549.903863323296,781.9264483691746,2707.3662872021473,922.9621724644835,370.1335807708515,207.43910955745554,48.8131176441136,60.41004255239086,79.53968786208064,110.77516407327919,65.45449513327063,131.8399543755192,188.2244937058755,165.7314767046473,25.242971824077802,123.96076763211178,0.21909381822144053,15.171994525235693,3.4572629289483094,31.58253278119415,5.609634536780544,4.662142735686258,0.5737054791597235,28
363,48C7968283D5,None,None,M,1985-12-24,None,theshocco@hotmail.com,None,Form,0.0,0.0,0.0,0.0,0.0,C7968283D5,6698.5709620844955,10517.662524505233,2617.971327223163,592.8618294089245,811.3753422133211,472.71072954358425,703.6765028526486,470.71724099063,473.49984711087865,152.60196609458174,190.70681191626693,67.33419131569826,14.93379926718205,116.55708832600413,129.91531949883773,28.36490215894413,114.69633065274137,25.81157817121068,35.22016994504259,27.43424456375269,3.408014379774269,2.4300192735397417,0.5392585035505054,35
374,4C6641A9C235,Luis Enrique,Arzate Valdivia,M,1976-05-04,Cuernavaca,arzate_valdivia@hotmail.com,None,Facebook,2138530819625669.0,0.0,0.0,0.0,0.0,6641A9C235,2694.296586163894,10614.840437955452,1771.668315306531,1128.4320007717968,481.6721944740978,731.9025145529691,541.6949261364441,192.14423232358325,116.57502106767188,271.6710724086329,148.0842939609033,202.36138049361222,149.47827548277903,1.541636448011155,19.21740441175434,14.931535514966829,76.77341341681301,78.41812277880496,18.207274527703753,33.20639152458878,0.1796495921977842,0.10408884924937206,0.5992318375437198,45
395,509EA7CA4844,None,None,M,1973-02-24,None,garellano369@gmail.com,None,Form,0.0,0.0,0.0,0.0,0.0,9EA7CA4844,23852.57109438102,4145.676414133904,1559.959599043728,657.6164463863502,526.7139159729027,830.1945745944589,1063.2794544034973,288.1518346566758,224.97053950797473,238.5531883510079,91.42682583463979,12.90611717051566,244.99262876347288,250.7425563186241,135.89264943521266,109.37157136094616,48.92766605166496,24.105236352720997,54.80566054129395,47.916937597345125,2.2137761649869097,3.567374494818464,0.44393848224143,48
417,5820596A8C35,None,None,M,1995-02-16,None,luis.rmz.ipn@gmail.com,None,Form,0.0,0.0,0.0,0.0,0.0,20596A8C35,5821.69582536801,11748.466606575545,1602.765828893396,239.17621421139216,84.88187660525453,604.5061456239164,484.8881783701265,42.143898486823815,300.34508285002465,195.4691441408855,17.296292415744624,146.01362938142833,108.40868303383475,168.4580298068878,60.90979702365966,53.13249776388312,92.50390939416967,26.62645412846424,8.300836201918754,15.70129217176649,1.326467416600828,2.524888822398064,0.45842131387012963,26
424,58D9C364ED52,None,None,M,1992-05-08,None,10392oscar@gmail.com,None,Form,0.0,0.0,0.0,0.0,0.0,D9C364ED52,2472.824456361343,8111.301093459677,485.8583917447087,329.6207064056139,18.057762591360923,184.33198007869706,472.2843599557793,10.250008133762865,234.46664571073774,144.10529202993317,4.787498993915839,0.5060359686054271,103.91581658107778,137.2307794435225,7.674019523564698,20.315529311771186,44.366034546115806,5.704329092817842,3.1416152731895344,0.668916682264871,0.34087767017296366,1.1321178137809458,0.11573262758946812,29
425,58D9C39DC757,None,None,M,1995-12-05,None,jesuse-flores@outlook.com,None,Form,0.0,0.0,0.0,0.0,0.0,D9C39DC757,12367.73832521132,522.0480365630257,1470.194390715189,1178.539447701721,254.59757746895173,190.40645154998415,303.9354537469151,34.528394535306134,237.0891093608135,37.30515857324884,219.2201330351644,198.0413159657035,18.878301088597727,178.05199689244597,40.01765846437266,44.816160329910815,34.881521926509016,52.32365666378045,21.853386420958643,5.876744220639062,1.6657200231096392,3.005988600032742,1.985070942300015,25
427,58D9C3B995AE,Xöch,Rodriguez,F,1996-04-05,Guadalajara (México),love_thara@hotmail.com,None,Facebook,1418330088335807.0,0.0,0.0,0.0,0.0,D9C3B995AE,18022.907740416274,3563.3723150367464,1191.779726016959,307.7753288402494,3.8470307084343345,297.86544086394605,229.44020157001697,174.70888041862545,64.14740800103323,78.28387482734706,38.641253843404016,21.77856662327812,103.21394288874762,130.4768079093695,11.56338584011261,30.069193672252677,13.471810428568427,24.665384274905104,10.69175295056023,28.17377173833261,5.979628441786096,2.7742688631520878,0.3722858259050843,25
428,58D9C3B9B6CE,None,None,M,1977-12-23,None,vicdecadente77@gmail.com,None,Form,0.0,0.0,0.0,0.0,0.0,D9C3B9B6CE,693.5575790547911,3576.879733000153,104.86291017014919,70.55709491618144,140.89047450201346,87.94584487474278,153.68056072853423,2.4382818265744546,101.32012740132421,20.562291875975678,30.826183847544616,77.11797196126881,60.16321334166133,11.72203398562673,34.99738555553984,8.398318959367128,24.84844333961354,6.07354613106577,6.476107394650369,8.077648103275493,1.148487717922579,0.04186422272625016,0.4138970892956539,43
431,58E6BA515A16,None,None,M,1964-09-10,None,rreyes@sears.com.mx,None,Form,0.0,0.0,0.0,0.0,0.0,E6BA515A16,2288.839479273032,353.2130189160291,265.53949168667697,248.854227600248,31.757058255836608,64.04478324483777,49.114502858083085,119.80448253467168,39.29842553991036,74.43756146955187,52.887628986867654,43.36207350240599,21.11332990664266,16.74758243778844,2.1562684175216007,19.553245161689595,3.4441312280895118,17.77210490581813,0.7810544413260891,6.785787964503199,0.5339213332464794,0.34286647569085055,0.6169738595318613,56
451,601466893202,None,None,M,1987-09-01,None,dj_leon097@hotmail.com,None,Form,0.0,0.0,0.0,0.0,0.0,1466893202,1233.1727323619268,2870.0074862366337,826.2744337726187,305.1433602123613,173.78445195388804,143.31143965178902,248.79394515586466,97.83867193747845,139.03460587805233,26.00557226548365,36.51751163565593,79.36171183014146,68.61666689594688,66.09409709155794,40.65003174844121,27.310654315154512,7.709653079678175,4.065813823195443,3.1416376029578923,3.6076228009940943,0.3282803696778196,0.034020119760038166,1.1955992607411938,33
454,601466F3D78F,Omar,Valdiviezo Antonio,M,1987-01-01,None,valdi.rami@gmail.com,5562013391,Form,0.0,0.0,0.0,0.0,0.0,1466F3D78F,17945.818241795467,6066.232420046592,1298.5503340860969,210.7003661647761,1111.1069733002216,236.46852635764935,887.9288499358353,200.22234271880143,218.58752624906822,196.98419334946647,87.55192344700741,14.344616224964447,33.88996061203056,171.1985162714721,30.714907688041187,90.02531785614428,73.9860483285057,88.4992265642245,30.521312382565142,3.040900894743895,5.874567244415947,1.0376336807015645,3.715294801208357,34
460,601D913C9189,Miguel,Leon,M,1992-05-21,None,miguelleon9037@gmail.com,5541384937,Form,0.0,0.0,0.0,0.0,0.0,1D913C9189,43.28152720444391,1149.8848055907101,0.7392475427188051,1.5461072289676145,82.07037793212115,45.46900305836544,69.76532735481985,2.916713439766439,5.964941356362225,26.417619352911842,8.536022849158163,0.8709731674110055,0.5836843487191632,7.003599651130541,5.68535509786877,8.36736104896363,0.9246504704558458,0.687601321156313,4.382499757091594,2.6359174777257692,0.16325776328406885,0.06753709267312824,0.035869893174554995,29
466,601D916E2D58,None,None,M,2006-01-25,None,saulmedinagil18@gmail.com,None,Form,0.0,0.0,0.0,0.0,0.0,1D916E2D58,737.2188692712853,172.98457650118502,255.44449861427793,128.38725588906692,52.66446062304194,0.55440658583331,73.77152900406668,30.934071283535925,1.0871145774943232,10.29141007279422,21.650338399944847,7.722062857955011,12.76011661070783,16.24403445027447,12.67199392223499,0.9886735476927051,4.449967512815442,6.775765482758011,2.005766179788365,0.18408229353680602,0.05133899173614694,0.05500915108340836,0.10265817689087421,15
467,601D91775BD2,None,None,M,1980-07-24,None,sfermoso@sears.com.mx,None,Form,0.0,0.0,0.0,0.0,0.0,1D91775BD2,105.67309950160733,2204.956405365575,515.5963307963193,233.44469978928925,49.178750867411075,107.55500858828223,113.18061485624222,102.84750551974729,17.914040316543336,60.13375435179616,3.4216017335745867,52.841505507274626,46.69694888412336,1.9337444096774656,10.866780562156022,1.229422943364878,15.95691830384751,14.623618048603253,4.74626563877995,7.252856200029433,0.33839763611081697,0.14742087578981286,0.4643093038564752,40
468,601D91776AD8,None,None,M,1997-12-31,None,espinosaca23@gmail.com,None,Form,0.0,0.0,0.0,0.0,0.0,1D91776AD8,176.62738784396916,1121.6815715592606,236.711257204794,119.57559069250055,64.80643885903926,69.0883967659634,48.60117387751604,37.1788996726698,40.072564548598095,0.5395681026104233,34.60300755629697,37.92244071842664,18.881911017746894,19.050880548481192,8.722722527264876,6.1408833735696025,9.31179070670498,9.296774736907961,1.1321187313739962,2.617284191889613,0.7249370250189731,0.5796284042551821,0.13277133514185155,23
469,601D91776D6F,None,None,M,1965-05-25,None,zamoram@sanborns.com.mx,None,Form,0.0,0.0,0.0,0.0,0.0,1D91776D6F,481.6334546194184,114.14422344538805,96.51878854977811,38.90293079290347,19.97464580775472,59.69119121458922,57.139906647078234,10.566882481643871,0.023726268170772544,7.078719566740881,22.821707198431383,10.834860685000306,6.739910446189338,9.725112174710373,1.1400507393027068,4.1328996918813905,7.486123916712839,6.4369688998598305,2.198930977946119,0.3800982624729969,0.17491836515155706,0.14126968454935598,0.11267956432625,56
477,601D91F639D6,None,None,M,1997-12-31,None,yoloodin@gmail.com,None,Form,0.0,0.0,0.0,0.0,0.0,1D91F639D6,772.6959699945875,486.1653154012951,200.74781352697303,18.188893582268253,23.918392049067023,38.972685896625066,83.67233534047675,5.65881777352113,23.607867812988665,3.561891350798749,21.749933377444822,8.273860765880396,31.551405840892098,29.615330132272515,6.368156700971627,0.9237740077391624,8.722985025661435,7.555773012056895,0.38593140028308376,3.56265342911234,0.047998193920197205,0.00452149580994799,0.04769388935455732,23
479,601D91F7BD7E,None,None,M,1965-01-01,None,zarcoacosta@hotmail.com,None,Form,0.0,0.0,0.0,0.0,0.0,1D91F7BD7E,300.1471589825061,128.28756876848132,47.9631526866716,31.040673961566196,53.91642876427139,31.51309436856421,8.523875712625452,17.690931128970146,16.842566858072587,11.871740149160756,16.49857005453411,8.819878976168368,8.195964783425476,12.766402602566545,1.7211586695707246,3.9033803534630604,5.816234463346834,0.049849279905455866,0.9881052033315042,0.7763512686234185,0.3529734127222317,0.23700195008072408,0.07693760137182781,56
483,6030D44B0296,None,None,F,1989-04-18,None,cherrie_01_08_09@hotmail.com,None,Form,0.0,0.0,0.0,0.0,0.0,30D44B0296,470.25129074284933,2984.5338224369566,321.69790843286864,237.20056491539233,101.45415977259127,173.3658762640285,81.91024744432262,58.163247672090776,72.31912344396616,15.41818021832343,36.20659558092809,18.200251319983106,60.924551383287465,41.69899452893179,14.71246131929357,0.19415398338004708,7.586256137815558,12.473911467012307,7.002020141337522,7.680720328712521,0.25826535229817427,0.8751056011288767,0.8722915125026104,32
485,60720BD94FD5,Jesús Cuauhtémoc,Hernández Benavidez,M,1970-08-19,Ecatepec de Morelos,jesuscuauhtemochernandezbenavi@gmail.com,None,Facebook,140582414026195.0,0.0,0.0,0.0,0.0,720BD94FD5,4833.613521897111,3089.08718517399,1003.2948593811313,448.17589200551976,211.23467663710275,153.94379534724916,328.2601139163925,222.2804195831345,211.30966335841194,11.824938085516678,48.882941928968194,13.364563352935749,125.90984055403504,10.467815987972836,8.888627205577096,32.99483404207281,48.122089950753164,32.69991246085356,5.8187139397844705,12.55415165711057,2.4897436708561047,1.9668166206061954,0.8148832429126568,50
486,608373092E32,Michelle,Vargas S,None,1975-03-16,"Mexico City, Mexico",michelle.salim@gmail.com,None,Facebook,2177958585596958.0,0.0,0.0,0.0,0.0,8373092E32,1431.0847798809402,5402.514271012699,672.8154236837063,621.8903962342441,205.07589482355667,285.48700857908636,282.46542346207383,146.3100828995995,227.37509741661134,148.11501759419372,110.04315600218946,116.38413093124741,0.6489171151353671,22.872005030487195,54.12744346615297,17.919438507600937,5.183787138986773,8.371954131601512,3.04962513583448,18.190649325351725,1.8814797168215796,0.9784802139929302,1.2155376978864818,46
490,60AB6784A47E,Isidro,Hernandez Bautista,M,1979-05-15,None,iheba79@yahoo.com.mx,5522583672,Form,0.0,0.0,0.0,0.0,0.0,AB6784A47E,2368.323164469837,212.35279091994596,183.09878345772412,322.75905347836164,15.507128198762848,43.75802924728185,84.57218209877065,91.98053705525108,38.84706544614308,45.03894304733515,10.87682648529983,52.69203308397724,28.165182883160796,33.25595681238485,26.27078001136585,5.054131515602765,1.42446550107326,15.992665315507313,8.644374304980666,7.354790916616038,1.1448491274117845,0.17302942970319787,0.7132371935026565,42
492,60BEB507B488,None,None,M,1997-01-25,None,rfitmix@gmail.com,None,Form,0.0,0.0,0.0,0.0,0.0,BEB507B488,2809.957408340086,871.2444379110452,245.54726723721686,47.48183401213735,221.81129398254993,121.73014667709022,23.561273994415252,103.80753673303711,7.470284164446445,37.247130674139314,50.81118528912641,42.59246306985068,7.285883378785587,42.54493005116852,30.730461775041228,9.985031162861317,9.975932366322679,16.769391816366387,7.4574016329632435,4.959442850898861,0.2607208155115701,0.5427958339039105,0.22574623103629604,24
497,6470336CD624,None,None,M,1997-12-31,None,didiballeza@gmail.com,None,Form,0.0,0.0,0.0,0.0,0.0,70336CD624,1365.1400854055294,1331.3247556812555,319.7726115259466,188.74540154048594,17.76954215900201,81.36628838901541,76.72326619305045,43.66039651375937,3.201737311533069,28.262714065052744,23.56513555302181,6.472439742202743,37.092361451211964,8.012831719240353,13.180438657380337,12.873495135343589,16.03543668662337,7.302598979207948,4.897273561023563,6.026943081813319,0.9503477359655651,0.4863623936826573,0.1375365186528103,23
498,647033A0E28E,None,None,F,1986-12-26,None,estefania8686@gmail.com,None,Form,0.0,0.0,0.0,0.0,0.0,7033A0E28E,500.96157186106547,206.44862017194689,157.29938585634588,30.055022976995122,8.058390743909506,4.221650359897938,15.171128323950798,21.318502630647938,7.94315072348049,10.37946826073698,23.396132369722594,23.568406667134553,20.143255339458154,19.107141599791664,2.993314048032823,2.512096610999958,2.8288305759132255,1.4560028913040648,0.23069613063251695,1.3626132948467766,0.10966885304208256,0.3579718673116554,0.07697784283275046,34
501,64C2DE7FBCE3,Lilian,Mayrin,F,2000-08-19,Ciudad de México,mayrinnnn@hotmail.com,None,Facebook,2522012241449985.0,0.0,0.0,0.0,0.0,C2DE7FBCE3,12403.572607742692,8603.362594040596,2849.6531003002738,966.915894755602,745.3255023241667,650.0767291258621,713.907599192907,123.13927322783036,478.92800068472474,90.03071408172647,272.3600033044319,299.8935049906441,79.53414107280526,107.79365156131287,27.393913139479874,6.089257588966267,66.34706754311193,55.88525226704987,16.64205309487404,38.81190955762614,1.0726631648793916,5.1861730981445895,4.0783941402944945,20
509,6C4008BE83D6,Jose,Hernandez,M,1971-02-13,Ciudad de México,chefjoseha@gmail.com,None,Facebook,2647918788820638.0,0.0,0.0,0.0,0.0,4008BE83D6,984.1867986448615,5715.568180082374,571.7524378052219,581.9597363065529,67.95595208248709,217.5311596537076,330.8972770231404,145.27989045601686,214.97401362035606,74.67003697988562,91.87832645395329,14.023078511069139,110.67534396158996,102.28539097989166,26.859063688924532,42.63560857917095,37.436298111088085,36.01561941118508,15.313965773804155,7.844344495280183,1.1974107924160011,2.0403132001625677,0.01975338685823466,50
530,745909BF46A7,Arlette,P,F,1997-07-02,"Mexico City, Mexico",tecktonik_n@hotmail.com,None,Facebook,2247554285312163.0,0.0,0.0,0.0,0.0,5909BF46A7,10225.810184544043,3262.4464005108243,478.98522330769646,353.8571658129138,638.2136853501332,499.9671055732239,376.7119223908423,300.1191394819018,104.65112044351888,251.66928062774124,106.47710098238807,88.45325512327955,16.161532214354708,6.297283486545608,30.515775682013018,37.34849882307845,29.091754236317318,58.956263426119655,6.350402143588381,24.43421536424013,3.134520497221335,1.1293055703414048,0.21886440767366866,23
537,74C14F41E867,Oliver,Isunza,M,1981-03-07,Iztapalapa,dies_irae00@hotmail.com,None,Facebook,2783777484972631.0,0.0,0.0,0.0,0.0,C14F41E867,6525.0888715943165,16057.89003233448,3152.4087230041796,925.2814620497275,387.20015201387054,573.1899731966912,596.7948299132703,269.1449127293164,26.950250745658938,404.45225077121245,199.17224811643283,362.3502479634576,347.4203238707715,144.58394559569618,154.0254479803318,41.201585987655925,62.6722000854398,8.048557113032397,19.694743252219876,9.854055560345076,0.4621528247207271,1.0577378416831598,0.05529545549208943,40
538,78009EE0FF52,None,None,F,1993-10-12,None,jerry.cominicacion.actuve@gmail.com,None,Form,0.0,0.0,0.0,0.0,0.0,009EE0FF52,465.2499129757374,415.3598190077033,126.94106223502422,119.02882877625797,23.953520208033016,15.322498205017201,1.2124907097142477,24.82891158000277,6.688064473192388,15.24558492727072,10.342883835829687,6.648615257726238,19.935870114155655,5.660789349632801,2.3945959397990695,8.417594097985045,1.5583029250681966,7.310365978714837,3.3472992931360506,2.1808804771988313,0.018778784590520542,0.25124429375442286,0.1020865544556758,27
552,7C942A948DAC,None,None,M,1963-08-01,None,talebnaim@hotmail.com,None,Form,0.0,0.0,0.0,0.0,0.0,942A948DAC,843.1234622276311,418.30651964913113,143.44286310826305,99.84142758666279,7.008457450026661,71.47423010291043,95.1835333562431,10.495259747249209,15.554831424051342,28.755050230195053,20.999311738327563,19.19040693841231,21.95682113699008,10.260453240272266,7.789990709757436,7.201210403076095,5.415518726776245,2.3189859205505976,1.4117332990551585,1.2801144419826682,0.21969276843655855,0.3409913270028047,0.4291344669964031,57
553,7CA17716C5E3,None,None,M,2000-01-01,None,jmejia71@hotmail.com,None,Form,0.0,0.0,0.0,0.0,0.0,A17716C5E3,1900.1109679606843,7414.8530366395535,547.694668676404,143.3933475921987,459.5714208550296,76.9927506565198,46.4083075084919,138.6314025370683,58.87314714405276,81.85319438654527,125.58707754403578,141.86913896021161,100.96295154427553,99.45025949284104,0.5500083133064432,46.87974379657983,42.61253397655203,32.529816454930696,21.03168562152352,8.789917642115727,2.909405393769907,1.8036994232326216,1.6415178800797534,21
556,7CA177FCFE00,None,None,F,1971-04-29,None,poncegomez999@gmail.com,5512442301,Form,0.0,0.0,0.0,0.0,0.0,A177FCFE00,372.38349116665773,1685.9923514016882,323.13888783788406,256.4224330390724,13.343781191875872,115.59513951173756,76.06375799015774,34.09639872865951,35.39895060763938,59.91800146246882,8.481721680400803,45.63715705166348,40.37217555859626,28.73419237946239,19.142482833400983,14.23339358550981,17.779187045338354,12.808921257255237,6.046169554672639,4.974988402394842,0.17188725407142755,0.08363302572553165,0.18089743366780048,50
566,804E7046D3EA,None,None,M,1983-08-30,None,blackhoga@gmail.com,None,Form,0.0,0.0,0.0,0.0,0.0,4E7046D3EA,20847.316592166073,113.25495488449374,2253.9056204886797,1170.8344735176458,587.1564585988178,814.565039600445,432.5443721079348,584.5718158740191,440.2429480240087,19.25844146485184,115.82584486644186,280.8180583562961,112.61078476373545,254.76629917567058,104.13673188900725,15.539618025627664,40.58817411137158,89.76117548285396,35.21959152947685,40.36488534628891,7.383610803674438,2.524058027925692,1.8104508946699458,37
567,804E7054EDDE,None,None,M,2006-01-16,None,dominic1985.2@gmail.com,None,Form,0.0,0.0,0.0,0.0,0.0,4E7054EDDE,893.5461341514477,26.8868087018041,194.65405779179966,78.86704632038807,80.17742414923379,36.81689588498595,62.19379323922617,16.63768002957124,11.404016107107461,26.854566864942473,14.559039154221342,19.427463233795358,19.877292806301426,2.286393225642946,1.3029221584152988,0.9070450584479424,10.615550204380218,6.3037421328427525,3.1360197766751816,3.7145944927752264,0.4255144082465259,0.2753829743731593,0.13061713337563263,15
589,88074BF9F09C,None,None,F,1997-12-31,None,aybcuautitlan@sanborns.net,None,Form,0.0,0.0,0.0,0.0,0.0,074BF9F09C,1029.0235967773945,1049.111625351872,304.06830763973664,145.52091092515414,80.35814287355392,53.57490999432221,9.932316292261563,18.684570964082543,57.45657619903205,14.844152236660882,44.370657092135104,15.729611556226805,20.543428853033337,17.729052306415664,16.97842424958721,8.693192800802963,8.245845704649161,5.792798523503677,3.1962943011668354,1.496960684771075,0.21155868453163595,0.2991962167072292,0.13786977239848877,23
591,88299CB7600D,None,None,M,1997-12-31,None,macg2007.miguel@gmail.com,None,Form,0.0,0.0,0.0,0.0,0.0,299CB7600D,1646.2799574588466,1410.0659141773212,584.9161752133405,356.41631257719774,59.25864603398837,97.68372716198009,196.79737407845695,134.25067884230867,42.700472081479155,27.63486966771972,1.3342981873102402,54.39687288558931,24.438109440216675,7.37798018414939,1.4685669346814318,21.45759924875118,14.545470200270643,18.843759577910475,1.827273405801452,4.640227011358417,1.533952057666798,0.661044540669317,0.47071903298476964,23
607,889E33E14A9A,None,None,M,1975-01-15,None,parrapilarparra@gmail.com,None,Form,0.0,0.0,0.0,0.0,0.0,9E33E14A9A,13476.973142057675,1011.0126459244253,441.6720120071556,9.476807055430182,87.23361918697226,562.5073211029141,281.89253524430626,110.5108416205231,97.11876255718302,64.26061846079027,105.90008406823604,3.457179335062838,193.74268245689566,180.168576546514,49.041970086054,31.459258402155413,42.196873382311544,6.800171220747571,33.22243326335808,11.433742085470795,2.2195154786131592,2.902721602227768,0.7964868549763078,46
612,88B4A64F5994,None,None,M,1997-12-04,None,os526488@gmail.com,None,Form,0.0,0.0,0.0,0.0,0.0,B4A64F5994,4856.363894742885,6755.646740545669,1540.9884176676608,329.8834511923886,372.06183253343784,316.36422826653353,249.85866552362825,258.9051587657639,249.41657217389962,183.55854342169198,59.76927209787327,206.57536545107416,83.59011501941791,92.16894963869966,23.193744415311702,47.04798447768157,30.250801228425306,14.909638425966119,25.717678521851028,3.4900436506456733,4.204948773189904,2.828362116793232,1.2055913495128947,23
614,88B4A6757F47,None,None,F,1985-01-26,None,karoline8526@hotmail.com,None,Form,0.0,0.0,0.0,0.0,0.0,B4A6757F47,1982.135891770741,1006.336439865081,14.419310462557359,402.2980772039074,192.70436686851073,57.93189047351864,99.01530350690766,86.57913681174547,74.3719279618007,56.09559395256195,1.2077002603220366,63.455276740850856,61.668893834479576,60.04530157108324,9.77171732525404,28.274056605900164,23.07483091087176,9.600689015898967,3.6261267864827307,4.6617587340237305,0.3586331246366574,0.5609231433007043,0.8061530695626897,36
625,8C861E4F3D86,None,None,M,1989-08-09,None,lalo_baez69@hotmail.com,None,Form,0.0,0.0,0.0,0.0,0.0,861E4F3D86,1090.5993027667237,6403.312449684192,423.02426162668024,857.1352250936303,428.3573823798983,123.45058773387285,417.20757339968833,274.97016231082523,131.6548189003804,117.84907757253998,16.605843408109717,79.57489877302312,42.292946274462295,47.63359434416363,52.4461249371605,21.571003175307762,22.363787831467974,0.8822965534083465,7.834237949719781,4.569667295494999,1.728514351806041,1.703214802495041,1.233028834948776,31
681,8CF11256F6D8,Rafel,Ponce,M,1978-12-11,None,rafa_sanborns@hotmail.com,None,Facebook,1716195768531936.0,0.0,0.0,0.0,0.0,F11256F6D8,19861.16253248879,4247.395905359415,407.1309022299338,1863.1375307774044,645.9369025601529,174.38124120309809,841.0835517093246,306.63316533799815,560.8608064041179,229.20909090531717,177.96902570773386,49.52544614469232,291.61763038191526,8.594253222270389,41.19783843244529,99.6844701167555,4.324723190059931,84.64753531394788,6.672616434555344,45.15220639241318,4.271860884037058,1.2854844299711672,3.1252803736462664,42
777,90633B50810F,None,None,M,1980-06-03,None,sacney@hotmail.com,None,Form,0.0,0.0,0.0,0.0,0.0,633B50810F,1232.3473808038564,2826.3800873663863,332.14798941802445,166.06586705789377,18.637115181741084,212.2616435357487,30.01204547672532,37.57488224333081,83.97541162155736,46.3746253330176,70.24552648350084,52.36995312130063,24.968647107694675,56.02150508212929,21.793089282758974,4.0138380635879125,18.10740088493331,17.874017256329964,8.751090075080139,3.9058495840905567,0.8463550364490801,0.24253279321522048,0.08314719064970594,40
778,90633BF9743D,Arvízu,LS,F,1996-10-14,Ciudad de México,nayellicd9.1410@gmail.com,None,Facebook,2409561065924539.0,0.0,0.0,0.0,0.0,633BF9743D,9678.239640721917,813.9034372918526,596.6776990443082,385.07953962953934,457.66129760706724,246.5045432346465,48.58027758624301,218.78991971290932,58.533746914374156,108.22349741235918,57.99332171225217,0.11203732830267574,80.99282032488597,130.40942982979843,49.83604727686411,16.54655261298307,57.1305416272977,34.9699789823552,19.676824051991815,22.02415739621703,3.1694189308166383,0.13050632949775343,0.8147644415211516,24
781,90735A4B05CD,Michell,Martinez,F,1999-03-14,"Mexico City, Mexico",jenmmr03@gmail.com,None,Facebook,926972307694715.0,0.0,0.0,0.0,0.0,735A4B05CD,68.0848768169958,345.58834439234346,19.66314935284463,24.25429269795613,19.699967160674422,40.25989216361044,41.66897280907264,5.050656895674237,23.944658333485776,0.16164748137428175,16.985852030199787,12.87938009879554,5.828822099174511,4.017464159990925,3.2056590940336016,4.481236405102529,3.2286482090497826,4.3066531040176645,1.0482828880757868,0.4629870882518234,0.07587817421541654,0.025279721795755897,0.07739882326498954,22
786,90735A5A2660,None,None,M,1969-02-15,None,pachecodiazjorge@hotmail.com,None,Form,0.0,0.0,0.0,0.0,0.0,735A5A2660,3828.3514386365364,1290.9656370312446,106.50987070667557,188.01627608454905,245.60595161900616,83.1477510356338,211.15698864490065,43.5466644267142,9.854586427522804,104.88643155496827,57.355942735934974,74.5110152499269,93.25306727772895,10.527559116707188,43.3891347744611,0.3768407545920325,30.102627091904097,16.10706317771673,11.962478945923118,7.464313162269904,0.30107224956236917,1.0020636109281804,0.6052256845959177,52
802,90E17BC41629,None,None,M,2000-08-08,None,dg8822912@gmail.com,None,Form,0.0,0.0,0.0,0.0,0.0,E17BC41629,161.3872292201684,567.437273198076,22.67348015124745,12.111186840141041,37.76533800945911,54.81118012611797,10.090006387447046,20.515306651230862,38.65643883545016,17.74797680572717,23.265762809168255,6.197512176487963,13.93557613962136,8.589995064540298,8.006160454725999,2.67987062240052,6.182360554044565,1.6791277392763875,1.433767770188494,2.3902291250415764,0.2727994456086084,0.08756071091730945,0.08386116291329065,20
833,9C2A83E1C4B4,None,None,M,1996-09-03,None,eduardoazul53@gmail.com,None,Form,0.0,0.0,0.0,0.0,0.0,2A83E1C4B4,712.5921461731627,50.4827256184512,134.04505849566644,22.336883916936596,34.28656711270885,48.464914989579924,38.56346602538651,41.22257021877988,7.740175015598921,21.812644356919918,22.4267506802414,1.9004962683240973,20.42385228985511,14.957288174623864,7.30106377642561,2.561379797074578,2.3081224402915144,0.307309126510584,1.8992152459986598,0.6479069954195887,0.49831593029119065,0.1982338993288284,0.022913452423564486,24
863,A407B66516C2,None,None,M,1997-12-31,None,garciaj@sanborns.com,None,Form,0.0,0.0,0.0,0.0,0.0,07B66516C2,7852.908780677723,5799.65052261571,128.7286710996871,609.9826766337229,102.29819680099529,424.3767862479948,62.51607930656356,28.37712091676867,195.51802938891475,122.94336712242944,119.95369331471665,4.199038688459801,112.3554804647733,70.97435091054741,67.40937094945248,20.6240416567088,2.5297474253199534,49.170581050929165,26.83918958234537,19.564715340714503,0.678814856332067,2.628980432138532,1.7717645170517056,23
869,A483E79A517B,None,None,F,1997-12-31,None,terealonsodl@gmail.com,None,Form,0.0,0.0,0.0,0.0,0.0,83E79A517B,2536.256191055088,245.31905484545504,106.22852429878367,27.550255866198093,87.90883382952137,146.8454848498405,155.04209009773737,99.27596652962198,48.421164066622744,64.992179341197,56.83580131350947,53.082103497742814,29.286924682341922,48.285534428184896,0.0819758225798881,25.063166161956467,21.65609622095491,17.96208290397198,4.225997627274271,0.8423450692109297,1.3617490806879504,0.17292431299502825,0.3035540985232275,23
880,A4FC770D5535,julio cesar,Morales Trinidad ,M,1977-07-05,None,juliomoralestrinidad@gmail.com,5523335661,Form,0.0,0.0,0.0,0.0,0.0,FC770D5535,5900.7320322357255,10817.05416953396,625.8777260966049,950.6844296614341,20.754026094092914,616.6024399330818,162.5518996572212,472.72999415434606,317.0469453276212,190.27066448503763,106.49592609150803,169.69448174948963,106.51004038650818,152.62879771752355,20.65489782471804,97.55643564935008,76.26371345198534,28.868350603207936,10.99067725262972,11.049179198601347,3.284124646007272,0.054816602043559405,1.6442316472990952,43
881,A4FC770D69A1,None,None,M,1997-12-31,None,dani95712@gmail.com,None,Form,0.0,0.0,0.0,0.0,0.0,FC770D69A1,3678.9361244116258,11352.15548519529,2119.428131668145,1348.8689159919056,684.1968992557205,373.172141325831,380.2735240487786,535.3609199052564,167.84849048749405,268.8104892168309,236.52050089881843,291.50698190296004,132.31203626053193,52.158078513821096,119.26257590540588,90.87697722998354,74.12099373867134,88.24670755301482,35.32725398226392,37.740641315558335,0.8835087972882226,0.8265799724697284,1.1660424223319996,23
886,A8515BA400D7,Luis,Hernandez Lsa,None,1989-01-12,None,onetsanchez@gmail.com,None,Facebook,2253542058295761.0,0.0,0.0,0.0,0.0,515BA400D7,7548.6825517099405,6592.777725180624,1013.5170749543386,1194.210254926689,714.60468393908,379.18098894437,122.67146401249963,388.6778677673795,47.079211954089544,159.66247509416579,142.57090329284694,189.07086372926975,159.19052911513162,209.52202178729857,19.25650037088371,86.55629524341545,17.163986046939392,40.78855658898441,17.822825917314006,14.659098469999144,1.3033889501373335,0.09265007101360759,2.938081933594354,32
887,A8515BD3FBD3,Apolinar,Felipe,None,1982-09-10,Ciudad de México,felipeapolinar0@gmail.com,None,Facebook,2399930433630863.0,0.0,0.0,0.0,0.0,515BD3FBD3,990.1430886487085,3427.9402031456148,725.3240466747762,478.7001448518629,58.414670931731564,101.51584231159016,20.855208919266268,68.18733854329197,141.20834257689322,4.032158028795312,68.13325965801359,1.730113515381485,30.464346780592347,63.7499178236292,1.3865514385803228,33.06583011555104,17.510322835527713,21.61657765376358,1.1362147396718916,2.367543594384693,1.2723202374837326,1.3665373082425523,0.8794196666483645,38
895,A8967524C395,Guadalupe, BenÃ­tez,M,1888-11-12,None,elsa1211.ian@gmail.com,5569713363,Form,0.0,0.0,0.0,0.0,0.0,967524C395,4524.674957153338,8324.7265115599,1708.5727090215098,905.2603901633511,670.944306767983,472.78247650530847,512.1565388048944,32.61141835256107,277.35095554987726,135.14688859719206,116.3008263207913,36.77604420634333,102.17206822918298,97.96155376687365,41.159578287647804,89.3155904347827,0.8345129385522305,68.72748641979861,0.2679524173743575,28.819183569918305,3.358515428619735,1.2818082190750142,0.797727285124586,32
912,A8DB03BD568D,None,None,M,1976-10-29,None,cva080911@gmail.com,None,Form,0.0,0.0,0.0,0.0,0.0,DB03BD568D,872.6833144113649,119.08348113335657,51.60058999039621,36.51885522777319,18.218281846733632,56.796214360618784,1.4048420964754025,34.655760070508734,19.742769926118523,13.430956668985681,7.671340568206727,18.36365501680468,18.609379714375212,20.586924356750494,8.827400781581412,8.281352529612933,4.614897443069761,3.8239723563077668,2.744016141490347,0.4707368039581422,0.38489381528720956,0.432262688223608,0.05410205199947243,44
918,AC3743028EB3,None,None,M,1985-10-30,None,willipereztorres2015@gmail.com,None,Form,0.0,0.0,0.0,0.0,0.0,3743028EB3,9200.944109850718,5934.725506063516,1339.3869909831662,260.6133531209852,98.26075043526914,504.3434212912887,91.30339024061956,248.60711686981148,324.02062104163684,95.76666672111716,183.11488429533432,199.05284669164212,6.682100215083876,183.8940252075812,0.36268635472093624,55.719459275731985,22.82258768190655,61.84964130933423,9.092903446394816,20.84089468693714,4.099144013078479,3.1819630864914283,0.31493711763255516,35
925,AC92329B196C,Erika,MarGo,F,1981-03-13,Ciudad de México,erikagoche@hotmail.com,None,Facebook,1785019591639374.0,0.0,0.0,0.0,0.0,92329B196C,1214.8420951672001,853.6502995777739,354.9049551320967,105.80334661757261,54.700417538792294,3.83787509502519,5.691424715721428,58.993201638594655,56.456749352107366,12.846757492702404,14.51144140443011,16.43439033678878,47.585960589050316,17.520722881263996,21.11008936802524,18.877846675233375,6.375688277225845,11.118210018152219,0.12469682755459825,0.2732769588936923,0.7737400832272836,0.2790289135109985,0.2877853390570208,40
928,ACF6F7BF0360,Octavio,Valle Sanchez,M,1969-08-09,None,tavo3374@hotmail.com,5574033631,Facebook,2757110857659029.0,0.0,0.0,0.0,0.0,F6F7BF0360,999.9015468695584,30.729044189250146,12.523232149689049,92.01188063489862,31.068855556439992,60.40291749536914,8.19022681865245,49.98393915316195,35.641504198533276,20.769322914222407,1.942797987127317,0.1823944020988784,11.338521523161395,19.619456958281383,5.9306642173564565,10.001297492774148,6.29183431261594,4.445384328131891,4.116040864793042,3.0674266594619057,0.25538204164162565,0.3906619151274913,0.19566731765313522,51
938,B06FE0CB0C44,Jazmin,Espindola,F,1987-10-20,Ciudad de México,jazpe20@hotmail.com,None,Facebook,2548358361936720.0,0.0,0.0,0.0,0.0,6FE0CB0C44,390.9584788417165,122.26560064527779,171.18181055666136,72.27289648717192,55.311768060461645,42.378919909417405,14.024375758821485,31.107173100946554,35.755686045757216,18.142996821937338,5.417271941714833,8.029079232999617,19.734995418081176,11.82288082453227,7.368799317284017,9.07413914581742,6.016115457035296,1.3422573599952417,3.0129718877702527,0.3315583504488791,0.16303088599054857,0.047698435319998775,0.2394955148413108,33
939,B0702D3225B1,None,None,F,1979-01-12,None,velazquez.lena@yahoo.com.mx,None,Form,0.0,0.0,0.0,0.0,0.0,702D3225B1,182.34911647899114,827.7933271546963,144.0773308357492,141.45576799785812,25.72219661921972,91.88736343599965,68.59525408116178,41.54615725913397,21.026064793376655,24.922704807588584,20.67413274458599,25.140742256910446,3.636285368368024,26.818342871543813,7.156953350025782,0.6117534008691564,10.487614825839115,6.61575002491356,0.7621973770312875,0.8829755114969678,0.4935946279808714,0.14925518511888108,0.19511899154124934,42
952,B41C3064AA44,Pedro,Sandoval,M,1930-09-07,Ciudad de México,xuizi@live.com.mx,None,Facebook,2624585847808597.0,0.0,0.0,0.0,0.0,1C3064AA44,571.9292238024668,523.619517533473,87.9769942834044,13.041828398538266,67.58713580029723,78.76056610613475,59.964133261215764,3.566539117404199,21.975917318717766,5.916265745982546,25.556739188111827,0.414941510662258,16.769767679472157,11.398597983137094,10.942659882730574,5.157399552668482,4.361041468787124,5.432211839370393,3.7228879473800154,0.6926531167586051,0.5909182973147562,0.3184436092628091,0.3036165567092056,90
955,B4BFF62A2CC3,Maik,VazQuez,M,1988-09-06,Ciudad de México,miky_880906@hotmail.com,None,Facebook,2894140867310463.0,0.0,0.0,0.0,0.0,BFF62A2CC3,344.26579882584014,144.85075096807398,169.207690040792,37.4126189782972,65.78269642705807,15.993657778781877,45.252050220456475,14.198967856845107,9.728526175754778,13.310994205227205,11.209346003597899,14.493925736883218,16.3860441790549,4.742459620425623,4.971682715369756,7.265431334596901,6.622794381050115,2.410579632042226,1.5309829490023041,0.04974620105634729,0.07630269214278176,0.05806069699986037,0.17889238065122304,32
959,B4BFF6BB786D,Lupita,Lopez,F,1998-02-17,Ciudad de México,guadalupe.penaloza20@iems.edu.mx,None,Facebook,2910558332332589.0,0.0,0.0,0.0,0.0,BFF6BB786D,19911.200212204156,3423.8242006944783,2673.7456698946144,1261.799405735424,526.0411681595865,702.1570365516864,469.99642222587914,23.696378225951246,531.2943208101592,25.16983018644156,169.7272208949359,97.62536940190907,269.77818052675127,307.3540191079454,38.11440601477633,127.18288607493459,1.455044283242859,71.07032309706335,11.57798326263458,43.91680828779623,5.130332225280088,1.2283800643379643,2.914402070006251,23
961,B4C0F52A3DF2,Octavio,Miranda,M,1981-03-22,None,octavio_aries8@hotmail.com,None,Facebook,174932370242416.0,0.0,0.0,0.0,0.0,C0F52A3DF2,1872.7624811833352,312.68813521166106,80.60988812094878,107.24810111957062,124.59756821809727,71.43444899088665,26.548698269328177,96.65902918113358,77.95724702106247,27.502144240454083,17.726408710489427,15.632219906254958,7.147397732277714,42.85759451666524,2.7646667944163585,16.901199623171863,2.102850895798448,15.810132047763673,4.109032492571825,5.642803195233798,0.43287830050130344,0.49173814510200675,0.373336083275786,40
969,B85D0A745062,None,None,M,2005-07-23,None,aleckgz@gmail.com,None,Form,0.0,0.0,0.0,0.0,0.0,5D0A745062,4585.976637978481,2556.035853653627,671.442703698897,290.731759630185,56.824899747355886,82.66294341036297,102.25007982321888,123.61354431533198,133.7199653414514,69.05936696522983,126.4088715899892,91.10460862661468,122.69074938747062,7.1290263422629705,13.018339811021072,35.21665603436299,42.99179014448911,33.31887993344965,5.259216914615219,8.82317627082722,2.1695718702509934,1.1013909437353926,1.4499675667685357,15
992,BC98DF048276,None,None,M,1982-05-20,None,barbypiolina69@gmail.com,None,Form,0.0,0.0,0.0,0.0,0.0,98DF048276,687.1711193846565,16.71581499065791,102.4703407080001,85.58214561421757,21.328533746678875,8.227344573601735,3.0370790755576267,19.7341758924336,14.091128193219784,11.883634395420406,21.993361808828343,3.7213017772345873,9.343088628667715,13.240426818090004,3.4424211503558415,0.46999262173041,5.639670170140463,5.381216230304663,3.6774474909943717,1.4157979587276313,0.17246540642680108,0.013955786899397329,0.2475375771556038,39
1003,BCFFEB19EF91,Zenon,Castro Rosas,M,1968-04-12,Ciudad de México,conecarz@yahoo.com.mx,None,Facebook,2170939059672460.0,0.0,0.0,0.0,0.0,FFEB19EF91,485.60719142220285,2200.670635897884,441.68531313305107,206.80315896125379,25.22419392502451,62.33450944045441,133.8412428172963,109.94623911003356,83.10054122601771,35.42951194926964,45.25197257078846,22.001157139250395,19.893104380624315,8.815913653814208,11.988214372471967,9.680820192489682,3.822192101169568,0.8348458354381804,8.5684718380992,0.35786530651784976,0.1997867101912496,0.25292512605584777,0.6901928906005836,53
1015,BCFFEB8AD1D2,None,None,M,1972-06-28,None,pooly1936@hotmail.com,None,Form,0.0,0.0,0.0,0.0,0.0,FFEB8AD1D2,434.8631517531994,90.56352130423711,30.172573168133766,0.4134476324840245,29.926990516713616,22.18094440794927,21.559882182081214,8.837715178930287,14.95110265029174,10.30457622945393,17.81900489895194,3.1374915153196214,14.56614433760246,12.833253113340385,4.743331439210657,7.787921855190835,1.7009460556432496,5.232063762971985,2.012902407358577,0.09262057359919766,0.19114953742854612,0.024294081536848262,0.08497139837123736,48
1018,BCFFEBC9B7F1,Carlos,Gonzalez Godinez,M,1961-03-28,Ciudad de México,0,None,Facebook,511490179758745.0,0.0,0.0,0.0,0.0,FFEBC9B7F1,336.2682114624929,324.9213919321726,9.973469501909896,112.79047154935448,46.77128986784698,45.21477899795764,35.28349896176866,16.774324810099177,26.605455152338074,1.9082646533600702,14.992101115397634,17.170888306359924,6.948198297830322,13.471347136113778,2.180439805571426,9.632768014323043,1.2510743484775855,2.075519812443848,0.2883287736885744,0.3019923578312712,0.058608892214568276,0.06455341467719893,0.05302283577014281,60
1038,C08C71A25BA5,None,None,F,2006-08-22,None,riveropalmaevangelina@gmail.com,None,Form,0.0,0.0,0.0,0.0,0.0,8C71A25BA5,3982.7843175073613,1032.276735900575,832.6408290118195,93.40181112081214,306.88962950165336,105.13796150501479,93.5937672812973,134.28142177572548,25.657917682475478,106.32095124871461,101.43099640612947,96.28925648366607,13.509507756941469,62.50573169078585,46.26972320671847,37.76264196403752,10.223704375461311,22.381303468372625,13.724434208681167,12.34507377950555,0.6077088873060194,0.9123525178962181,1.0522227190496338,14
1040,C08C71AC831C,None,None,M,1964-07-28,None,josealonsocamacho35@gmail.com,5515047421,Form,0.0,0.0,0.0,0.0,0.0,8C71AC831C,16512.550871232514,4932.16338351962,1004.4027543567645,71.24279035840979,622.1804128542959,822.4142094417737,383.8131165640253,468.05069701402107,411.94847154762465,124.90443223392904,38.79945521344889,80.69928147921706,56.249503976248874,203.75823930272657,141.21752445739145,126.08345825482003,18.016751938432947,31.51977134413919,35.36166244753069,22.820395984795347,0.6065074017143663,1.845923085003522,2.35038599155187,56
1042,C08C71B1E3FC,None,None,M,2006-01-25,None,etorres@sears.com.mx,None,Form,0.0,0.0,0.0,0.0,0.0,8C71B1E3FC,1634.568016735265,312.59869372920014,166.00846982745568,19.795049459373715,44.076333528048536,14.065111374527744,29.9246249011703,14.606261591727574,30.58775963851814,20.615102928072073,38.44918465755675,36.279069962591116,5.840765791361312,25.113426519544877,8.967438714294603,12.86388531298123,11.480258295839116,13.034046730527145,0.7196702387906001,4.7854377489182625,0.14624122491577335,0.03920950337291602,0.4359415859471314,15
1043,C08C71D4F5A1,بابلو انطونيو,ألفارادو هيرنانديز,M,1994-11-10,Ciudad de México,pablo.alvarado.94@hotmail.com,None,Facebook,1099261527111645.0,0.0,0.0,0.0,0.0,8C71D4F5A1,7840.57072812238,672.5240610134598,1232.7869102712073,58.27168934329349,328.5592569758425,304.5407698650794,14.900186355178397,14.23569061675825,203.4274362949705,132.16187073615896,35.50184219474759,10.045845916611967,60.102261403943636,128.3972244736661,22.56872120428609,22.80505624300983,17.565015482023053,39.12956398557822,4.760246467337812,2.345453230720575,0.9998363546742607,2.1992570716940483,0.6010763773764052,26
1051,C0D3C0169A49,None,None,M,1974-09-17,None,arq_mendoza@yahoo.com.mx,None,Form,0.0,0.0,0.0,0.0,0.0,D3C0169A49,244.59611590089025,231.14009144651035,62.094938938802855,80.71438942612475,25.325298361969203,27.289395314310166,1.2329613853638348,11.299830940488308,30.639449929718367,16.324652140676204,10.142852059693443,7.228407030286763,13.172516158230897,14.11591611319239,9.016762363190056,2.8165679995320385,2.3620403580867846,0.9753400350469548,2.854866382712549,0.020318113328784883,0.1838773490602496,0.2954847763801477,0.15792747640459406,46
1056,C486E95DBDCC,Paola,Mtz,F,1997-11-13,Ciudad de México,pequepao1999@hotmail.com,None,Facebook,3394705333936994.0,0.0,0.0,0.0,0.0,86E95DBDCC,295.20020232069345,548.2298803191792,194.1044439394161,107.8099378713211,18.380489493042663,31.858314737822603,37.90984799327929,2.679602513061442,38.992936533823304,30.836053503746594,10.106598418110789,23.771219853138017,8.879937298608152,0.1909472059746524,0.2117390533275876,5.5906439897979165,9.665967853323673,5.772649429159605,3.2489328064854233,1.1030290373177927,0.010915055201276124,0.41827103883623673,0.027439735332781566,23
1075,C8FF284FE391,None,None,M,2006-01-25,None,coronaf@sanborns.com.mx,None,Form,0.0,0.0,0.0,0.0,0.0,FF284FE391,6424.82047115814,5131.817044230964,969.7288291414471,863.082593776531,686.9695478732758,222.9807091129044,440.1607338006587,221.38482722983971,322.5858844751244,126.9731253944977,209.03144462101181,98.93210030221083,161.6072270226352,179.4462950139652,1.432912062716315,5.553835660626488,58.84369452417346,1.0117730570486094,28.318304509168645,20.93768505379659,0.20758801502477642,3.0400157108651213,0.13335825337662086,15
1080,CC464E395CBE,None,None,F,1977-08-19,None,coronalilia34@gmail.com,None,Form,0.0,0.0,0.0,0.0,0.0,464E395CBE,6004.229920121208,8030.932784269347,327.59643125237284,688.3189769695692,29.922533422108625,86.37194006124194,173.51046921987992,166.18291449240192,153.48438994427417,43.193960068229394,183.0679506364561,5.868736965442753,48.22454321090605,40.008193916479826,41.788903090727146,4.3690425949484695,44.69568502332103,1.0555064709648856,11.13980003498252,11.227048774406093,1.324111376880629,1.228564829802259,0.25759325404897143,43
1081,CC464EBC5FFA,Jhon,Hernandez,M,1992-01-13,None,Juanruelas1329@gmail.com,None,Facebook,881416209010540.0,0.0,0.0,0.0,0.0,464EBC5FFA,11705.91814648104,1302.316184316971,789.9801466650881,984.5372872497563,110.22573062071692,348.98974098423395,256.6917934530233,297.20389078835103,34.35174161624641,179.75656842851086,49.01310762943361,17.011254162714007,47.64997408978105,1.1435785317329645,17.69728901406894,62.14845728132243,31.424316284805382,9.09978860777113,30.289894581511344,13.142331883412602,2.572633067610276,0.9279373639083054,0.9082068979891829,29
1086,CC660A478516,None,None,M,2006-09-25,None,paraderociudadazteca@sanborns.net,None,Form,0.0,0.0,0.0,0.0,0.0,660A478516,1312.024247537384,3437.91137015745,162.0148565817426,504.3188455682514,308.0764989066303,130.57401867775533,283.92775933871275,151.35426284990479,14.186585667581122,16.099657017078236,22.282552531281954,37.567366629192655,67.2605468474553,76.02319166894218,21.48495868926165,42.737764913036074,2.5385396715471877,29.498195315815746,11.12876899883834,9.104902662736109,0.025402255451198015,1.0242042775847866,0.8355032363673928,14
1104,D00401F0EFE4,None,None,M,1995-09-17,None,alexis.estopier17@gmail.com,None,Form,0.0,0.0,0.0,0.0,0.0,0401F0EFE4,1212.344289278321,884.5002480068919,81.381158260588,156.7111030349831,150.15585826291425,83.61202721339968,2.8608086522542484,37.063325215681694,1.9838007317250943,16.445613503129202,16.387705268509624,45.46439589798699,4.153501021475178,23.329419281321044,8.655314270106292,20.938018212989206,17.813999049117612,11.199185733523581,7.0643671327884485,3.6562994235681225,1.025878774367021,0.6513416360015415,0.6023421383572458,25
1108,D05BA83F18F6,None,None,F,1997-12-20,None,veronicabal@hotmail.com,None,Form,0.0,0.0,0.0,0.0,0.0,5BA83F18F6,6032.888038072083,8512.302677544272,902.6840631235603,52.46957973765335,170.46241606385925,548.4035721207177,422.72810659585184,348.5334842666222,280.16831442529036,39.81001072954559,138.94035076371838,39.57087259082935,16.52074497654718,97.63391249560922,21.06488856196278,30.408029087893155,56.44935933390708,53.907119939154576,35.837590772648184,0.8791973755762147,2.54609846785135,2.976064280892473,1.8155086739531747,23
1132,D463C6412109,None,None,M,1997-03-23,None,lilianaescudero246@gmail.com,None,Form,0.0,0.0,0.0,0.0,0.0,63C6412109,530.5926772836115,4191.947753473793,726.5758110466827,528.3752764302353,319.4728453442728,114.12215865919852,100.2724448133733,94.9958428108215,45.41864005338985,17.417583722846175,55.413108284868514,29.55565847333856,3.4735164689290086,60.348840603383785,26.623810458051388,35.17560273737066,18.744029914108907,1.1279963825518922,10.08092442742672,10.756598358808166,1.703665810191177,0.6031511594857561,1.2020632832587832,24
1138,D4C94B10FA90,None,None,M,1997-12-31,None,mondragona@sanborns.com,None,Form,0.0,0.0,0.0,0.0,0.0,C94B10FA90,205.41892920973376,158.51970428644813,20.737966468891315,78.49517053706367,34.10050789949948,23.48582502090043,20.61587309448375,13.620749760593002,19.008796169957883,14.183679141252766,4.030431993304933,6.432483319835182,13.866198301260724,13.360589474450018,0.4933415652798483,6.480025958397482,1.309498713970693,4.900954063565084,2.351388273696165,0.3232786237997257,0.047225892565370416,0.0936098345331704,0.12377239651746302,23
1141,D4C94B1ABE2F,None,None,M,2006-01-25,None,jguel2705@gmail.com,None,Form,0.0,0.0,0.0,0.0,0.0,C94B1ABE2F,316.36127775459147,99.28982027174818,129.14125670254785,7.065158903638683,19.22542922303359,28.125927023058637,24.079507662851345,6.615212685675154,25.79476808262044,12.907884481502801,3.2511228008500916,1.179521287012586,9.04150901049765,0.9141750672615304,0.14511200300063773,1.2271308373310001,4.647542467644607,1.3637664019562383,2.181971802323118,1.9024178351041419,0.18367799988557654,0.18984879336070024,0.1659609025040349,15
1150,D81C79786C10,Isaac,Quiroz Zent,M,1994-12-06,"Mexico City, Mexico",chaca_keper@hotmail.com,None,Facebook,2508313532512008.0,0.0,0.0,0.0,0.0,1C79786C10,61.67154634330262,1123.3447560049633,213.3241977055704,118.25462210672,47.235484544704924,13.039447251504651,36.99302781051896,14.270833732376214,20.515317757454905,19.521454218242184,3.8254615022843743,20.781854414066135,10.208078771560011,27.79021391853108,0.9579230689712388,10.89420140655758,3.809533620929791,0.006828204138572591,3.3308157519116444,2.257028062091094,0.4752511964112252,0.0853036079897064,0.40681899919998166,26
1152,D85DE2BA160D,None,None,M,1977-03-15,None,gtzronald@gmail.com,None,Form,0.0,0.0,0.0,0.0,0.0,5DE2BA160D,7080.518004405483,3966.842985967667,812.2126132671484,723.4794020769474,284.99018924205166,94.65702123373674,243.49097360840307,86.9334642360133,27.601442914330867,45.42387480482051,153.20343393268212,2.269511172051401,153.75857824488853,22.05979029184003,60.59247020048568,24.399542870690112,64.75170654526752,18.1850454705412,24.304144636887337,14.176624875526091,2.2620157029257992,2.8240788265375514,2.0630854730736634,44
1158,D8F2CA3A12B3,None,None,M,1980-12-28,None,publisya@gmail.com,None,Form,0.0,0.0,0.0,0.0,0.0,F2CA3A12B3,17176.324417331292,1180.0169601361245,242.2296408428357,1508.9874661811584,791.4654857116888,385.74905392565097,205.1478549239504,212.48566851285892,266.094113653018,150.7147131550482,71.41165636842507,145.95716034496394,17.704159079570882,36.4452323102366,99.43840083452888,18.16080044681344,77.5300843348465,77.75065201337124,12.16391342182248,6.736667885681927,5.790148411065462,3.8477787784072106,2.847971396642433,40
1163,DC0B34EB3EEB,None,None,M,1974-04-20,None,luis_ssandoval@hotmail.com,None,Form,0.0,0.0,0.0,0.0,0.0,0B34EB3EEB,6714.078602149143,7028.713214147608,695.078021159216,906.8535344242046,566.9203104505241,74.1664602423634,452.36551291130473,377.4437186397599,175.17957456389345,226.60139954246023,2.6895201072288963,173.19526359362905,153.3378806631113,173.35615482748418,42.5741687978432,62.49063575004517,33.261954750307886,65.46913023523896,7.370283177584333,4.631803182163277,1.3240578397165303,0.5333460856685593,2.3654527595012915,47
1171,DC729BF7294D,None,None,F,1963-09-21,None,rrc849@hotmail.com,None,Form,0.0,0.0,0.0,0.0,0.0,729BF7294D,94.69848199595202,273.331745497323,130.55727487828224,55.319747660178614,25.949026059928688,9.531704403378829,32.019292857261995,0.7699298138503597,1.2704950988797101,10.92691627193665,6.3590039070387325,3.6633027192285725,8.848305279819213,12.652953623036726,1.8213318579961644,0.4426256511826087,5.495106855708929,1.015059032968001,0.11330733728767926,0.8925835280685038,0.09482487491009693,0.2202596601822252,0.006721135600562559,57
1176,DC74A8F91FC0,None,None,M,1981-09-28,None,brauoz.rodriguez@gmail.com,None,Form,0.0,0.0,0.0,0.0,0.0,74A8F91FC0,4312.591962992232,10360.286974471712,1155.9232245847422,1205.468103832703,371.84484249852386,142.07682566169757,288.4003066613545,242.8574193876918,349.83891391875926,152.93223670793415,61.352519230167125,78.99345644097289,34.72030527937105,50.70083861444385,44.124598779800735,60.30809768389731,25.551874268743827,16.140391251468373,22.62133696016368,23.146680559147022,2.00721613414975,1.3727359043829341,0.7391381759443887,39
1183,DCCF96D6C4B8,Grande,Grande,M,1991-01-23,None,magp_grande@hotmail.com,None,Facebook,2248406325410972.0,0.0,0.0,0.0,0.0,CF96D6C4B8,1243.5367120520762,489.55485960730977,224.59927047947193,171.4064821944144,51.96700137705636,15.868960814907492,64.61816350514137,41.36093271322404,18.27892635589899,13.996807959505855,34.14339065037326,3.419220264729583,31.07583783111021,28.859657949751057,9.495054226205754,16.494155518838586,7.853867984448032,1.6237809562456773,2.0251874727750026,3.3089009334807367,0.6241981989734047,0.6916421487459786,0.19698880531576013,30
1198,E062675C2CF9,Felix,Hernandez,M,1989-10-10,None,t.h.e.spy@hotmail.com,None,Facebook,792750851076145.0,0.0,0.0,0.0,0.0,62675C2CF9,87.22165676885908,1130.3978780577104,252.7243352596168,207.79282665529828,15.607365385749228,105.82278339455188,82.92640053159911,46.80235652567386,40.489139776114015,37.233605881477914,22.622182723245825,7.6931880506011545,18.3157917839242,1.247531088157996,17.741421095835584,16.732399778423797,0.7289240301526771,7.516252399076757,3.439303075638408,3.3467160475161246,0.8645801839670428,0.3819919953595597,0.35136951145060663,31
1207,E419C141BE99,Estefanía,Ramírez,F,2000-11-25,Ciudad de México,251100pedagogia@gmail.com,None,Facebook,835704596854306.0,0.0,0.0,0.0,0.0,19C141BE99,1190.244214041128,4683.216685226928,728.1421074568827,57.715545811053794,34.780983673443856,108.12702853444387,15.612061457572507,112.88820688305361,68.5351844119364,12.006023397323773,57.3548844296838,85.85195786455363,44.20640601961581,67.2646529538649,11.84739374596584,5.354227557149532,19.88308571272698,16.376767466761496,1.175225345058974,13.481856060584867,0.9261416188403292,1.3995091853258594,0.6098511461026055,20
1216,E4E1305EFEE8,Daian,Vega,F,2000-05-01,None,diansarahi268@gmail.com,None,Facebook,1189188998136087.0,0.0,0.0,0.0,0.0,E1305EFEE8,2095.8390881253617,10490.601814143725,1712.1283794392411,649.4523663411921,182.1422978303164,311.56000990362395,210.94394561893338,303.8261811164566,271.1332654596523,100.03472670346754,197.37472836471184,185.9165895997785,69.0522307763811,128.74791670013437,86.9665217246228,57.25941397299238,11.423754039956876,12.090125285527773,20.009330641310946,28.938487927676263,3.11722711322349,2.2979096100002043,2.1436895617097167,21
1217,E4FDA1B7FA75,None,None,M,2006-01-25,None,medinarj79@hotmail.com,None,Form,0.0,0.0,0.0,0.0,0.0,FDA1B7FA75,169.03929818450612,3531.9429994664583,309.2237015287156,172.22948936586877,230.66681568102652,213.39500490167546,12.916421094172625,79.06657835460574,13.900393059470348,1.3713324121770443,64.67572545400996,72.67204141696202,23.84531488888372,8.921757849952286,32.054097172000404,3.0959383230400053,27.789091741329198,9.990187477886364,8.542190818279536,8.633282381124616,1.238852408479468,0.6226307204615656,0.16685529891558235,15
1220,E8508BE37923,None,None,M,1972-02-01,None,breme537@gmail.com,None,Form,0.0,0.0,0.0,0.0,0.0,508BE37923,4943.76134535105,948.1854500331177,206.1931797182186,379.7749874778369,352.9521912397569,188.65368143486808,197.18996340757315,25.881415406249616,74.81174970286044,47.239859688868265,98.89566970095542,22.599492940440186,48.215523187994876,3.8748062220529573,44.34418532121952,37.48378354987691,2.326026272132356,12.667597518566685,4.858410592167506,2.203851955997707,2.4415588051223716,1.792402105036943,0.6528683680369953,49
1231,F018984F0477,None,None,None,1978-08-23,None,emiliocores@hotmail.com,None,Form,0.0,0.0,0.0,0.0,0.0,18984F0477,713.3257776937021,43.92502688444498,270.62902705585924,92.80496990953623,74.01484207344912,52.046533655757365,68.89091193365147,20.135116648521635,47.67922500989489,30.39193106781846,4.343885197023977,14.939357865816534,10.21168821011296,11.130571309539226,0.025291809658050977,4.008196814533132,2.3801598650208065,4.148754977477722,4.503797959173347,3.834768043315848,0.09008674218013234,0.19820309412029885,0.34187617939287374,42
1248,F0D7AA473B4A,None,None,M,1991-06-17,None,gianlinarezg@hotmail.com,None,Form,0.0,0.0,0.0,0.0,0.0,D7AA473B4A,1969.186975652426,14.737130533582604,54.47381475290648,4.420676756737219,32.81605927613387,15.227605145437643,66.27014757342401,47.5874233051166,18.09713042793489,29.24716153388949,31.06010038113572,38.06866259740193,18.619723853845976,7.55716881624176,2.1486665284432025,0.9541941649273356,4.641738868863109,0.9360132522146324,1.4921041282364846,0.38438449924209245,0.6951680766214973,0.34066706692704957,0.03728280831069123,29
1254,F460E22C9436,None,None,M,1988-02-15,None,martinezpa@gruposanborns.onmicrosoft.com,None,Form,0.0,0.0,0.0,0.0,0.0,60E22C9436,1199.1977443845365,1148.9614241305514,339.0187065876606,215.69925819717866,0.42438366987745557,52.4214297915569,144.90100126110778,89.42722799583422,18.53348866697519,47.12008564125248,50.36536975114145,34.843377953311986,9.875431784073315,13.316118314602045,2.8024531319170816,17.03159652768604,4.542067166129041,5.928717447265064,1.621142277504146,5.875681708211565,0.9045452721519207,0.8570888473974392,0.33165949207819767,33
1258,F4BF8025CFF3,Cesar,Gutierrez,M,1971-02-18,Ciudad de México,gutierrezmolgadocesar@gmail.com,None,Facebook,104159104469548.0,0.0,0.0,0.0,0.0,BF8025CFF3,8089.758216077422,6454.7303107894395,1276.6971701169307,161.57476401263162,778.459376493823,311.80431176646806,327.13258975726217,44.61697226978736,344.2287677802683,195.14737665696092,84.2073075577445,171.8646863562786,178.01799444030627,179.3294956945168,92.28737199320747,56.786858156729096,37.770845121588444,39.95603727455591,34.20147183197499,21.10297647788618,1.611265732827946,2.37234766371619,2.3414859776674626,50
1259,F4BF804885C4,None,None,F,1998-01-09,None,lunablanca2006@hotmail.com,None,Form,0.0,0.0,0.0,0.0,0.0,BF804885C4,3415.225443569527,77.72352880771213,454.13673009518595,44.352858174137786,172.74553808546176,119.10474623179364,158.04815447355153,139.9385571432267,73.75185624577244,19.955428001309585,22.559811086384112,13.006726078321789,29.00990950172086,31.743881115052613,16.451004625181188,19.057268389111396,23.451829177031794,14.723469355181711,8.009019734009152,1.6094162584555167,0.9349500742850064,1.0482894351397354,0.41158434244481096,23
1270,F82D7C043FEE,None,None,F,1997-01-25,None,elizaldafm@gmail.com,None,Form,0.0,0.0,0.0,0.0,0.0,2D7C043FEE,856.3763125714128,3657.9444356315807,659.1732265797409,477.12420593691195,299.49413959084643,223.45928953099371,22.298083205130975,160.26310781900682,19.228673139578348,7.633693782910461,85.34253436479811,82.69901171056094,5.720542224072761,8.266663865422519,28.091647747070216,12.186163411837976,6.393172570808556,6.781933978314897,7.992800269775504,9.544402250332341,1.8993107562003972,1.1656972833628858,0.920951779329108,24
1285,F8DA0C4FE717,None,None,M,1974-04-20,None,luis_ssandoval@hotmail.com,None,Form,0.0,0.0,0.0,0.0,0.0,DA0C4FE717,1600.6678944427733,4898.709694839553,568.9591325001369,243.99795849935919,73.16340583039448,343.52867369032487,261.3600253670627,26.79682872946395,133.70644894905305,139.59570012545157,117.58033479093166,83.67687051196899,52.57592382354085,75.64090676337409,13.141085535384244,2.525739586819642,25.62054666548783,20.879543693044575,1.2723091706978942,11.451077741700535,1.537864856715172,0.13396440057353484,0.47806948618806905,47
1293,FC2D5EB96E07,Orlando,Aparicio,M,1983-12-10,Ciudad de México,itachirasingan@hotmail.com,None,Facebook,1519794668181132.0,0.0,0.0,0.0,0.0,2D5EB96E07,5350.823329588401,9546.97577758337,1889.532010028712,490.57870139734706,389.7257047212634,42.79982703736151,475.30264177474993,90.17866451356177,261.3796619298916,218.12882536580778,86.34637152911571,135.18589721672475,152.51214241172622,46.58234020087376,22.145439570282985,86.99673634022083,27.990875620050105,74.1084912700703,25.93186573171136,9.619237714202054,5.048436108619971,1.1946750694484003,0.9123472764844154,37
1300,FC8743CC9CE6,Fabian,Ruiz Flores,M,1984-01-20,Naucalpan de Juárez,fchavez.fc790@gmail.com,None,Facebook,2526663440934353.0,0.0,0.0,0.0,0.0,8743CC9CE6,9461.25834086174,4171.605040433486,753.8204979404525,1100.2323349962717,10.106784701702429,609.408988057665,118.160932124199,241.2380346080739,88.13808240850857,110.29273434239613,208.59971016422705,33.37312333913905,101.01229926747136,118.3833996327408,84.47340820908174,95.63770537257166,20.50594495858122,48.17520756903903,31.27656027648813,10.675308044575903,0.9307299198521486,3.2459222400927987,2.448910531643248,37
1319,FCA621C20D7F,Miguel,Vazquez Juarez,M,1968-09-09,None,vazquezmiguel68@gmail.com,None,Facebook,2093207014058440.0,0.0,0.0,0.0,0.0,A621C20D7F,4034.061193603437,283.9258034708481,256.0813872241032,54.79039182095677,88.72363914318258,204.54479587252746,175.84784932391094,18.747316555609927,16.844056262498267,61.728638532006755,89.33911015342542,22.078943945440987,75.25859726801556,7.0508218681803845,35.561767935677686,0.7487796727902887,30.399838683013968,18.04480617742683,1.466960540405795,4.86450126872434,1.1982165702696708,0.9784056764067806,0.7141784311409657,52
