,client_mac,first_name,last_name,gender,date_of_birth,location,email,mobile,source,facebook_id,twitter_id,instagram_id,linkedin_id,oneclick_id,client_mac10,Restaurante,Relojería / Joyería,Libros,Zona de exclusión,Discos,Lentes,Parafarmacia,Fotografía,age
116,10C7534B91D4,None,None,M,2006-01-01,None,saavedragerardo105@gmail.com,None,Form,0.0,0.0,0.0,0.0,0.0,C7534B91D4,14005.809765381984,9880.521524225118,530.2377198104826,172.82021721764258,33.13354658619942,66.6281612483434,36.624348937444765,10.224716592786988,15
130,1496E5128665,Gerardo,Gonzalez Saucedo,M,1969-01-14,"Mexico City, Mexico",balugordis@hotmail.com,None,Facebook,1026008614257187.0,0.0,0.0,0.0,0.0,96E5128665,598.8889284398196,774.9131946164513,29.810779712725317,21.424747452104558,10.069775519515694,7.8446826147772555,0.8358873203427241,1.212004324263665,52
158,1CB7963CAA86,Karen,Quiroz,F,1993-05-21,Ciudad de México,lucesita_2105@hotmail.com,None,Facebook,1.022111261495578e+16,0.0,0.0,0.0,0.0,B7963CAA86,1671.3038877074098,7955.2830758687005,576.3831348096865,174.91673261546282,272.4408817563527,9.75107105905327,36.39690755586115,3.5243086274758495,28
163,202D072B40AE,None,None,M,1991-01-02,None,yoniantoniomartinez@gmail.com,None,Form,0.0,0.0,0.0,0.0,0.0,2D072B40AE,206.84952804063238,2021.931859876995,218.16238839442764,9.598106323234694,0.6273416384073962,20.14345674541495,1.3144395016731918,4.372879479214759,30
165,20326CCD069A,None,None,F,2006-01-25,None,elizabethfragosomagdaleno@mail.com,None,Form,0.0,0.0,0.0,0.0,0.0,326CCD069A,1319.315428860254,620.4752692717982,74.45400999270299,23.573060485422587,7.52545407724105,8.505183808492825,0.3783133226596921,0.7732801814279796,15
186,2446C8186672,Guillermo,Anaya,None,1972-06-28,None,pooly1936@hotmail.com,None,Facebook,2079386772082787.0,0.0,0.0,0.0,0.0,46C8186672,350.9037354117126,545.9498080352349,31.437790656865012,18.847987375141898,0.08358759593201216,7.594596019710078,0.29845525443779586,0.8840396509657974,48
218,2CAE2B5274AA,None,None,F,1967-07-21,None,mvaldezlopez@prodigy.net.mx,None,Form,0.0,0.0,0.0,0.0,0.0,AE2B5274AA,844.9236596494017,2279.442511565861,1.727592442340259,57.93574697477857,81.44763943941226,49.88680005626832,1.845363885329543,1.7906859866085543,53
222,30074D3CFB10,None,None,M,1988-10-21,None,enriqueolguin.27@gmail.com,None,Form,0.0,0.0,0.0,0.0,0.0,074D3CFB10,1165.8792037087062,3913.0441153206457,523.4214265623914,178.75325087685889,13.641985208536767,95.96221315827235,17.659078914896693,10.638726249691707,32
229,30074D73CB3A,None,None,F,1975-01-26,None,elyluna2008@gmail.com,None,Form,0.0,0.0,0.0,0.0,0.0,074D73CB3A,4038.984573234824,2883.8654975371,73.99677787245881,93.72754774363436,16.658561385981418,15.695226834325059,1.0990749297021283,4.972740461973996,46
236,30459694EADD,Alin,Ibarra Ramírez,F,1993-08-30,"Cuauhtémoc, Distrito Federal, Mexico",air_peggy@hotmail.com,None,Facebook,1.0215465074928964e+16,0.0,0.0,0.0,0.0,459694EADD,292.65392162987314,1222.775018424611,71.63785893599311,4.169907555221656,13.616290057261299,14.48899043034022,0.04268960180490093,2.6153233648946914,27
241,304B075475A8,None,None,M,1992-05-11,None,irvingazpes@live.com.mx,None,Form,0.0,0.0,0.0,0.0,0.0,4B075475A8,439.3259495836505,285.2480949676107,33.964768653910106,7.70155256059987,5.12527271721103,7.547461053931284,0.9625202947698868,0.12438016831657385,29
244,304B0779A777,None,None,F,2006-01-25,None,ralvarezf1@hotmail.com,None,Form,0.0,0.0,0.0,0.0,0.0,4B0779A777,4215.376881589503,222.67072398333292,83.33254230390143,81.39061316919339,95.12632194890094,51.89335576839333,14.870369556060327,10.33919168071391,15
253,306A854F9414,Isza,Santana,M,1993-08-25,Ciudad de México,akolatronic-93@hotmail.com,None,Facebook,2742337625842262.0,0.0,0.0,0.0,0.0,6A854F9414,381.9201685145995,364.337514505642,95.13545437288441,28.870439956025532,33.93416697174065,9.312407043684052,2.252006931132917,0.23784170429095677,27
254,306A856238A8,None,None,M,2006-01-25,None,jauregui.rubio@hotmail.com,None,Form,0.0,0.0,0.0,0.0,0.0,6A856238A8,72.20789212767824,1171.3014917832731,85.73157354581143,19.026286976252685,17.113907015234908,1.4110521585847047,5.328394891834503,3.8794015013305554,15
262,306A85B65952,None,None,M,2006-01-25,None,ah079907@gmail.com,None,Form,0.0,0.0,0.0,0.0,0.0,6A85B65952,514.7571177115959,376.55535459441126,32.98796844775795,22.59238585903751,9.866004007324879,12.70111825288198,2.8598686614276985,0.6801824655628942,15
264,30A1FAFDF106,Eduardo,Basilio,F,1997-11-09,Ciudad de México,eduard.bp@hotmail.com,None,Facebook,2872170559570318.0,0.0,0.0,0.0,0.0,A1FAFDF106,11.592426303677657,998.5078747329553,368.79820044096067,157.53031474078492,93.747524125401,97.8776781079397,1.525185682111848,2.4207958661686693,23
284,38378B028856,Cat,Mix,M,1915-07-08,Ciudad de México,gabriel-mejia@live.com.mx,None,Facebook,2939373189503390.0,0.0,0.0,0.0,0.0,378B028856,168.36139253363623,1929.0917652018697,46.561278194168025,243.0097609432775,64.38119376285422,20.74497941371988,18.17142088225632,0.6782090682178374,5
290,38539C86FF0F,None,None,M,1991-02-14,None,lizethtamayo0214@gmail.com,None,Form,0.0,0.0,0.0,0.0,0.0,539C86FF0F,2684.9850656142517,2027.392932606642,279.6414925434281,35.82178027652204,65.18224096757663,24.53568736568281,2.021870764806155,6.418929861090291,30
314,403F8C3C3B21,Alejandro,Risso Yañez,M,1979-12-23,Ciudad de México,alexjandro25@hotmail.com,None,Facebook,1.0158074971617652e+16,0.0,0.0,0.0,0.0,3F8C3C3B21,5180.67052629718,3203.555453785057,302.0301934539579,14.236374857384627,95.26762213590752,7.847888358111116,15.92862012526302,11.463320987139502,41
317,403F8C58189E,None,None,F,2000-01-01,None,dvjnoe654@gmail.com,None,Form,0.0,0.0,0.0,0.0,0.0,3F8C58189E,4035.323968163886,292.3678391095021,238.05402840738182,71.43653101982171,8.689977196838502,5.630943855222894,4.314130739667202,0.1825815076796306,21
322,404E3639EB23,None,None,M,2006-01-06,None,pereza@sanborns.con.mx,None,Form,0.0,0.0,0.0,0.0,0.0,4E3639EB23,102.70845078757513,6561.1755763546125,2848.52246360557,1513.5684453288552,1450.7348734505956,562.25877501401,192.47388778514878,17.557527673630403,15
325,404E369833C4,None,None,M,1992-06-15,None,astromantico1@gmail.com,None,Form,0.0,0.0,0.0,0.0,0.0,4E369833C4,13708.642813649989,1341.4278631911325,298.8899350782745,38.44146694165856,110.46906233573803,97.20837036871865,29.646641575379682,1.2738468591085899,28
330,409C282A6F84,Marichu,Rmos,F,1995-10-21,"Mexico City, Mexico",marichurabo@hotmail.com,None,Facebook,1270208696331370.0,0.0,0.0,0.0,0.0,9C282A6F84,7946.3774992458975,17223.087803596558,3079.0679101653395,913.0125824743951,498.86207455685354,99.34831513042002,62.335154431895866,65.90866039864669,25
332,40B837089E3C,Sergio,Colin Zarate,None,1988-02-24,None,seiyascz240288@gmail.com,None,Facebook,1033322796838542.0,0.0,0.0,0.0,0.0,B837089E3C,1867.2932811500327,965.5335980045419,32.56414949235737,6.606716613992803,1.0672467867961986,18.177908685143894,3.8035200511003384,2.9535792160349197,33
344,44001030E247,Ãngel,GarcÃa Moreno Navarrete,M,1959-10-21,"CuauhtÃ©moc, Distrito Federal, Mexico",afangefel1959@yahoo.com.mx,5561135015,Facebook,1165641480171691.0,0.0,0.0,0.0,0.0,001030E247,3773.669162179485,1992.4287837986226,104.27221140472908,28.429145670530207,40.40141678349308,23.960309896888685,6.706575193228323,2.1323950730214767,61
350,444ADB371196,None,None,M,2002-01-12,None,martinezob@asf.edu.mx,None,Form,0.0,0.0,0.0,0.0,0.0,4ADB371196,5398.120961633035,1625.9509301109163,128.60850938946908,16.57027388364987,41.20674921515755,2.2415949811354725,2.4140528321111017,7.886927954526173,19
352,4455C4C2DACF,Ricky Luiss,Rokanlover,M,1992-06-15,Ciudad de México,pyro80@live.com.mx,None,Facebook,2949996581752983.0,0.0,0.0,0.0,0.0,55C4C2DACF,1803.5231508882348,1700.5288997416471,140.82041900845348,34.692267168455906,0.2120944427857476,18.68955306572363,4.461591599886207,4.072024084812693,28
356,44916074C312,None,None,M,1997-12-20,None,oscarisaac15@hotmail.com,None,Form,0.0,0.0,0.0,0.0,0.0,916074C312,2041.9190087052239,1005.1100586523845,42.938204509173595,2.6796428518732047,9.421445467793953,18.174254914470932,1.1078350888643838,2.649549810215062,23
367,483FE9EB99CA,Miguel Angel,Silis,M,1986-06-27,None,miguelangelsilis03@gmail.com,None,Facebook,119076849641602.0,0.0,0.0,0.0,0.0,3FE9EB99CA,4148.167077844736,2596.0535389489355,2274.9946678949364,574.3141539229574,116.4014398074825,40.33185715060205,57.007303575754854,49.729960854596506,34
369,4888CA2CCF4F,Miguel,Nava,M,1965-09-16,None,mikinava1234@mail.com,None,Facebook,457885718476096.0,0.0,0.0,0.0,0.0,88CA2CCF4F,11400.611430998206,3866.234517532401,425.43000074447025,117.17705856334484,54.99851937982475,25.160045104865446,13.533276973154152,8.855150703736072,55
378,48C796EE400E,None,None,F,1993-05-01,None,mff.j2506@gmail.com,None,Form,0.0,0.0,0.0,0.0,0.0,C796EE400E,1942.2367861164362,3837.012453546163,833.4670616569791,256.09731049755237,159.6700525608017,142.0738850700206,6.233280336269464,19.209170215777114,28
402,508A0FFBA4C6,None,None,F,1982-06-29,None,marceloaguilarhdz@gmail.com,None,Form,0.0,0.0,0.0,0.0,0.0,8A0FFBA4C6,13481.253922502043,8615.268017851175,360.16675577059976,73.15342193414443,0.5341804087777462,47.892655264967104,5.836544776315711,15.894501491975333,38
403,509EA7CA4844,None,None,M,1973-02-24,None,garellano369@gmail.com,None,Form,0.0,0.0,0.0,0.0,0.0,9EA7CA4844,27522.972443466682,5586.028169318826,557.058486396742,872.3840689439357,636.0978941956203,583.1575143115414,84.84684428284696,89.45457908379865,48
409,5427585581C4,None,None,M,1980-12-31,None,aybplazacarso@sanborns.net,None,Form,0.0,0.0,0.0,0.0,0.0,27585581C4,518.3163207125831,3700.8903606343483,211.49044942073158,142.55909377424786,58.896116393530214,53.3810777011755,11.537850778213452,10.928730585170221,40
426,58D9C364ED52,None,None,M,1992-05-08,None,10392oscar@gmail.com,None,Form,0.0,0.0,0.0,0.0,0.0,D9C364ED52,9280.715807696042,2370.374934198927,809.4003498944176,130.11928703532743,214.49088877217292,26.768462204267465,27.445733928190897,7.684536270653183,29
448,601466C6EB55,Jose,Jr,None,2000-03-04,"Mexico City, Mexico",cirilo-alvarez.34@outlook.es,None,Facebook,2163068353965680.0,0.0,0.0,0.0,0.0,1466C6EB55,255.72012885412698,738.7593250372202,102.60057394412296,3.1036637961018547,10.283683115133009,18.000812439770936,3.2822456387678267,1.2495671747563186,21
462,601D91C702D5,Ricardo,Perez,M,1969-09-20,None,ricardoperezh.2069@gmail.com,None,Facebook,154442066045960.0,0.0,0.0,0.0,0.0,1D91C702D5,429.242286853956,299.4537325121955,21.741836833388824,24.685709054178833,6.772754153270119,8.32798717961962,0.16697223415898232,1.608721179232016,51
490,64C2DE7FBCE3,Lilian,Mayrin,F,2000-08-19,Ciudad de México,mayrinnnn@hotmail.com,None,Facebook,2522012241449985.0,0.0,0.0,0.0,0.0,C2DE7FBCE3,11912.666924003084,8461.709449517359,2197.975280433859,349.19540446812437,165.03232443055722,51.35658661593566,98.72110645086134,29.342924080220765,20
495,68A03ECBE0DF,None,None,M,1992-07-07,None,santiagorashid@gmail.com,None,Form,0.0,0.0,0.0,0.0,0.0,A03ECBE0DF,259.1729656223751,1276.7218883730209,89.89430323188532,24.729363262665466,62.1328580384322,16.66929055569808,6.894113997427236,1.7852169184957531,28
505,6CB7490579A2,None,None,F,1973-07-29,None,azucenadelcastillo111@gmail.com,None,Form,0.0,0.0,0.0,0.0,0.0,B7490579A2,8094.622181816187,2070.578809227983,63.614880841589155,7.263079722578974,25.94075488404939,84.14588675967214,6.543864950651056,6.290541797290365,47
525,74C14F41E867,Oliver,Isunza,M,1981-03-07,Iztapalapa,dies_irae00@hotmail.com,None,Facebook,2783777484972631.0,0.0,0.0,0.0,0.0,C14F41E867,1905.7512657771185,4097.840063087585,281.3607688458983,118.87857017214887,82.41743630203597,21.72121393440785,5.676127954212204,10.354553926594603,40
529,784F4343A594,None,None,M,1975-05-27,None,severinedhauthuille@gmail.com,None,Form,0.0,0.0,0.0,0.0,0.0,4F4343A594,1923.6382168334226,419.70570448058726,56.615192268941215,30.5833925359114,26.077491879981064,0.2489529234221923,2.1850257134053273,0.9460233643286633,46
535,78886D8A8187,Christopher,Gonzalez Avila,M,1994-02-16,None,glezavi222@icloud.com,None,Form,0.0,0.0,0.0,0.0,0.0,886D8A8187,1508.779334127619,129.93431490478815,52.56010805117618,33.1275344065099,16.743148482085186,14.851902042865804,3.2078512337229874,0.7958067512331064,27
567,8058F8D4E478,Jesus,Meneses,M,1999-06-30,Ciudad de México,jb-elmejor@hotmail.com,None,Facebook,2341406849301551.0,0.0,0.0,0.0,0.0,58F8D4E478,2756.980629271979,563.9757838764034,200.56840824530724,16.89097821101475,36.88416237565531,21.08788142307775,0.4269631294518675,5.185193467110134,21
581,881196717513,None,None,M,1997-12-31,None,micatrejolopez@gmail.com,None,Form,0.0,0.0,0.0,0.0,0.0,1196717513,4934.0338292672095,6415.205935490959,13.873639166039954,154.91545205537955,55.42672969344262,109.27365416816416,14.850651473770865,9.420108685035018,23
585,88299C3DAA0D,None,None,M,1992-02-12,None,valo_a@hotmail.com,None,Form,0.0,0.0,0.0,0.0,0.0,299C3DAA0D,15703.606663032704,6976.044926565712,117.40521585859753,242.35598738025544,253.74005935261076,192.92268495709493,2.477726471432368,19.446736381594196,29
620,8C7967A21DA7,None,None,F,1979-06-27,None,alerdz2004l@gmail.com,None,Form,0.0,0.0,0.0,0.0,0.0,7967A21DA7,7639.391334061827,13183.797896922433,886.3535821821549,453.63593551317916,121.30349756881121,160.60974466678306,11.445338943143694,27.462670141676465,41
633,8CB84A000892,None,None,M,1986-01-27,None,cda_djinn@hotmail.com,None,Form,0.0,0.0,0.0,0.0,0.0,B84A000892,525.2695144508975,427.6267159555636,24.558398083980673,10.369118906218398,0.6334175115985422,9.361323033471324,0.8199554380246984,0.3615566202450889,35
641,8CF11200AA14,Javier,Perez,M,1995-07-19,None,javierpcruz62@gmail.com,None,Facebook,126610222389211.0,0.0,0.0,0.0,0.0,F11200AA14,8414.347276869159,4748.372017737256,312.2840390814678,16.77071861086066,117.59009233657667,83.45287035102562,6.146382208909647,4.036602804749477,25
653,90633BE80FB9,None,None,F,2006-01-25,None,brayan.mb61@gmail.com,None,Form,0.0,0.0,0.0,0.0,0.0,633BE80FB9,16377.842657638143,3427.8949943912794,290.3481729351479,178.14520846337712,143.20441954416935,126.03056119039766,23.22976945479815,13.30421638268718,15
671,908D6CC57931,None,None,F,2000-02-18,None,judith_18j_@hotmail.com,None,Form,0.0,0.0,0.0,0.0,0.0,8D6CC57931,501.11402317513995,69.08771667843857,46.73502005749981,7.66010249826984,8.40123946226072,10.394816474987044,1.8649008474716735,0.7421808059323359,21
673,90B686886269,Vergil,Sparda,None,1988-11-20,"Mexico City, Mexico",carnivorusjesus@hotmail.com,5558507143,Facebook,1.0216902285847564e+16,0.0,0.0,0.0,0.0,B686886269,652.9643076436098,535.3107174177359,15.218032917017469,14.758599171233373,6.5965334103342546,15.62547306883247,1.1844814409411204,0.3418549302956623,32
708,9C5CF9DD2FD8,None,None,M,1989-09-08,None,christianrodlop@hotmail.com,None,Form,0.0,0.0,0.0,0.0,0.0,5CF9DD2FD8,3071.0635473157167,4255.590614192743,96.18897670416278,84.22587740209381,60.21810536013264,74.70304859906403,0.678463580659361,5.331366845429477,31
733,A4933FE0DE07,None,None,M,1993-02-18,None,jesus_oribe@hotmail.com,None,Form,0.0,0.0,0.0,0.0,0.0,933FE0DE07,985.1897983544828,178.21181167364745,23.32608962991907,13.582020893536779,4.046935173067842,1.9962432936262928,0.864884949425353,0.7822160322943418,28
736,A4D931BE77AA,None,None,F,1994-10-01,None,hellofridis@hotmail.com,None,Form,0.0,0.0,0.0,0.0,0.0,D931BE77AA,6596.546243562343,4285.780081382077,348.27028219173957,20.61262213284347,44.34161643942671,89.66283437029357,1.6195546182466218,11.166765303028733,26
744,A8346A24E39A,Akally,Lopez,M,1996-08-15,Ciudad de México,nomer_dhb@hotmail.com,None,Facebook,2523303891054112.0,0.0,0.0,0.0,0.0,346A24E39A,2573.51520996604,5012.315068848571,155.1331837959077,101.11033335629072,102.71291618579968,106.31133453309943,11.577306030010517,3.324647284281325,24
756,A8515BA400D7,Luis,Hernandez Lsa,None,1989-01-12,None,onetsanchez@gmail.com,None,Facebook,2253542058295761.0,0.0,0.0,0.0,0.0,515BA400D7,7353.03414010254,16186.572178177137,1356.125689638029,147.17728014388283,379.70586866425526,216.31404681518626,15.29862862314098,9.772167835825982,32
757,A8515BA42BDB,None,None,M,1984-04-18,None,solecito_cyr@hotmail.com,None,Form,0.0,0.0,0.0,0.0,0.0,515BA42BDB,966.6950513290276,1280.851663407181,23.207677440399927,51.53312134072324,75.18449983433136,20.851455458909708,6.295443090266462,9.38108809916094,37
762,A887B3A872F0,None,None,F,2006-08-14,None,noracarlos82@gmail.com,None,Form,0.0,0.0,0.0,0.0,0.0,87B3A872F0,365.15217258276317,297.65992894379275,41.15304659832527,14.214238731949806,6.093027325561359,4.523604168014223,1.1704453927845246,0.03353625680901178,14
770,A8B86E575383,Anita,Avendaño,F,1999-05-22,Ciudad de México,susigonzalez525@gmail.com,None,Facebook,240682024005509.0,0.0,0.0,0.0,0.0,B86E575383,5771.836467322687,14283.742615429657,1235.226077749396,570.3830114936152,381.1910887366346,197.13992736164104,17.561897157821797,5.918914748551304,22
778,A8E5440BA403,None,None,M,1991-12-24,None,jesusgarcia0705@gmail.com,None,Form,0.0,0.0,0.0,0.0,0.0,E5440BA403,972.1012552695788,3418.1599383039807,186.0927511258807,110.89893823821397,23.441554384667914,59.85811259533666,8.179880021956027,4.267570060385743,29
784,AC1F748947A6,Kev,CR,M,1996-02-14,Ciudad de México,irvin_america15@hotmail.com,None,Facebook,1669398506551245.0,0.0,0.0,0.0,0.0,1F748947A6,9109.446716019855,4500.744777696496,116.56361944325444,147.8691559766762,13.987254229457436,22.80613045603057,11.169890843684183,5.412455334546792,25
790,AC577562CA90,Karla,Lopez,F,1997-02-19,Estado de México,cherry115@live.com.mx,None,Facebook,3018313298253445.0,0.0,0.0,0.0,0.0,577562CA90,342.33281050167005,459.0124142439499,54.92683153593261,11.485921028737323,16.926622364116174,3.205254601239282,0.7008179165460152,0.40932780780848477,24
800,ACF6F7E5E30F,None,None,M,1987-04-23,None,ferfueriv@hotmail.com,None,Form,0.0,0.0,0.0,0.0,0.0,F6F7E5E30F,5102.80661464063,7036.738536875998,850.9994423524989,216.18179499909917,74.69625684328517,123.49715405442338,15.202480668403703,13.877719565660778,34
811,B06FE0A72EA6,None,None,F,1997-11-29,None,karenzurita88@gmail.com,None,Form,0.0,0.0,0.0,0.0,0.0,6FE0A72EA6,3579.8857056476772,687.2846477784569,127.49206094831966,14.203217046429826,10.55584031411063,33.26544743200096,6.235316420304535,1.0777644126998365,23
812,B06FE0A73DC6,None,None,M,2000-01-01,None,alexurbanom@gmail.com,None,Form,0.0,0.0,0.0,0.0,0.0,6FE0A73DC6,834.418181778881,793.8613429014082,45.92431907427904,4.00940132304347,19.0614102195259,9.078034499270203,0.20910041597559295,1.438209787616432,21
828,B4BFF62A2CC3,Maik,VazQuez,M,1988-09-06,Ciudad de México,miky_880906@hotmail.com,None,Facebook,2894140867310463.0,0.0,0.0,0.0,0.0,BFF62A2CC3,3942.8589968399942,1035.141605394251,69.01450272579015,98.80758939723118,51.99712872188968,15.281789499927973,8.374044439146623,7.524342981769296,32
831,B4C4FC556F6F,Yosem,Guerra,M,1978-05-30,Ciudad de México,yosemrangel@hotmail.com,None,Facebook,1.0156620156736804e+16,0.0,0.0,0.0,0.0,C4FC556F6F,550.0788469276554,239.17609456801893,129.89416485077302,9.101692659248537,27.41608392657949,23.775607426960836,1.6104600847153914,2.9470495560486247,42
842,B85D0A745062,None,None,M,2005-07-23,None,aleckgz@gmail.com,None,Form,0.0,0.0,0.0,0.0,0.0,5D0A745062,1332.7322991719836,902.321044720152,1.749210180919091,30.039631288604003,19.576426181367662,5.478631995973122,1.7525399282210756,0.350216532778761,15
889,BCFFEB8CF7AF,None,None,F,1994-12-30,None,fabiolaosorio30@gmail.com,None,Form,0.0,0.0,0.0,0.0,0.0,FFEB8CF7AF,229.95698822033927,338.6349027347485,15.354192795611205,14.575880994305232,9.286453493630145,7.281341565013449,0.5592508019772,0.3509893943750107,26
906,C08C71B1E3FC,None,None,M,2006-01-25,None,etorres@sears.com.mx,None,Form,0.0,0.0,0.0,0.0,0.0,8C71B1E3FC,1917.6547588933472,631.0629106083918,80.02224646251028,40.622432550970125,29.197968687260857,1.4427009303268399,3.849684240191864,2.1472976270009627,15
907,C08C71B4DA43,Aaron,Granados,M,1997-03-13,Ciudad de México,5583146624@gmail.com,None,Facebook,498937507717399.0,0.0,0.0,0.0,0.0,8C71B4DA43,7789.023034504973,9070.627067286645,253.00128841989894,153.43705697142636,113.63367425254155,131.59289862382334,28.1421585579822,2.542821382711791,24
909,C08C71FC8D2E,None,None,M,1999-07-08,None,vms.awm.reagle7285phoenix@gmail.com,None,Form,0.0,0.0,0.0,0.0,0.0,8C71FC8D2E,658.5706740345977,352.26747240099496,29.73841499565102,9.68161267988615,4.046289804392085,0.6478683324876335,0.11139420080296426,0.93627355118758,21
937,CC464E395CBE,None,None,F,1977-08-19,None,coronalilia34@gmail.com,None,Form,0.0,0.0,0.0,0.0,0.0,464E395CBE,16123.610337497917,5828.459979390627,550.4274092044747,238.32480405617954,32.16991961494573,142.13188369265777,14.501999762823564,1.3736667803745382,43
939,CC464EB7F2DA,None,None,F,1996-07-07,None,hbx@gmail.com,None,Form,0.0,0.0,0.0,0.0,0.0,464EB7F2DA,10835.29982414987,7522.472626695901,776.5193735112207,333.21877540210903,54.65694842707302,48.213819310785944,29.505937261125265,4.112695241910317,24
947,CC61E598DC80,Mike,Zeq,M,1979-02-21,"San Antonio, Texas",fenixxtreme@hotmail.com,None,Facebook,1.0217485033490794e+16,0.0,0.0,0.0,0.0,61E598DC80,1795.9449586898738,2231.198880391709,227.028134320323,14.39514087436853,104.60008978737122,28.51963411051841,8.918341631665996,0.3948201941704187,42
950,CC660AC25962,None,None,M,1976-06-16,None,maldonadof@sanborns.com.mx,None,Form,0.0,0.0,0.0,0.0,0.0,660AC25962,7095.713284866194,7810.419852895073,508.0422474548476,25.016608223851787,68.98418301926954,134.8093219563557,3.861259462903474,17.153242121503865,44
962,D0040168BEA6,None,None,F,1980-08-21,None,kestivali08@gmail.com,None,Form,0.0,0.0,0.0,0.0,0.0,040168BEA6,1502.125740962366,660.8849555647032,162.11116736651755,28.647630591646244,20.644898628720163,16.61974003392738,5.3118637830077935,0.6540030691119292,40
970,D016B4503D24,David,Vaz,M,1983-04-28,"Mexico City, Mexico",pirritokds@hotmail.com,None,Facebook,2204979779522286.0,0.0,0.0,0.0,0.0,16B4503D24,4647.504830811943,8930.057631003456,1005.1083323236644,139.2863813010209,65.00257606473001,117.65392149794091,34.8306716824058,27.555655314839207,38
972,D016B47B69D4,Guadalupe,Leyva,F,1978-12-11,None,anayeli.1011@gmail.com,None,Facebook,1128639260806401.0,0.0,0.0,0.0,0.0,16B47B69D4,14972.23652914185,5803.7045906575195,706.0789208510496,36.62542111006419,154.11930261626,113.9237007993954,55.96556266428903,17.345972159569545,42
978,D05BA83F18F6,None,None,F,1997-12-20,None,veronicabal@hotmail.com,None,Form,0.0,0.0,0.0,0.0,0.0,5BA83F18F6,8810.669180998208,1397.0578106490664,208.64623961031808,227.05599291090044,15.373656467462428,42.49792482683336,14.515146896280257,0.18404764093203405,23
983,D07714AD542D,None,None,M,2006-01-25,None,martinezmarcelino45@gmail.com,None,Form,0.0,0.0,0.0,0.0,0.0,7714AD542D,1259.1359911928378,157.61725100708463,64.98181790181924,13.386247476129617,4.002732048833748,6.244508588301325,1.112984507635834,0.5184672773582815,15
1005,D461DABCBF4A,None,None,F,1979-01-12,None,evelazquez35@yahoo.es,None,Form,0.0,0.0,0.0,0.0,0.0,61DABCBF4A,2895.3067211962266,7681.050085066519,510.26160629874124,69.33757880024571,25.4617832510139,8.446960735496411,24.226720893774676,9.908543757982887,42
1008,D463C6412109,None,None,M,1997-03-23,None,lilianaescudero246@gmail.com,None,Form,0.0,0.0,0.0,0.0,0.0,63C6412109,24384.657406269103,9436.796487106987,643.1677763164969,373.58384504183135,322.8792470709499,64.09640612286053,0.19119043560560903,33.62764163616336,24
1016,D4C94B10FA90,None,None,M,1997-12-31,None,mondragona@sanborns.com,None,Form,0.0,0.0,0.0,0.0,0.0,C94B10FA90,1633.668862641181,500.37217073328105,73.33324128620515,5.211878145130219,14.293431604237474,10.197920889328326,1.2433584424077986,1.679136258228332,23
1028,D4C94BEC0D94,Luis Alberto,Corona Cabrera,M,1981-07-03,None,lcoronacabrera@hotmail.com,None,Facebook,1669782576387094.0,0.0,0.0,0.0,0.0,C94BEC0D94,291.96894687599286,615.0500770754195,0.401127057216295,15.606442239865284,15.445526432236656,1.6269693232032865,2.0510391492463933,0.8498718468194618,39
1031,D4C94BF60949,Jhony,Hernandez,M,1992-01-13,None,flakito_jeral@hotmail.com,None,Facebook,2359038677727391.0,0.0,0.0,0.0,0.0,C94BF60949,10490.419798219995,308.7525461525017,705.3858526367876,875.4139147494991,147.59579982538102,104.89472977414448,7.417433052635671,48.119925589055825,29
1038,D85DE2BA160D,None,None,M,1977-03-15,None,gtzronald@gmail.com,None,Form,0.0,0.0,0.0,0.0,0.0,5DE2BA160D,1932.3010843665477,3933.626991631088,161.56287802697764,27.286205626237383,75.20618635103479,68.12545425455254,12.440693187028481,2.4505065565353323,44
1058,DC74A8F91FC0,None,None,M,1981-09-28,None,brauoz.rodriguez@gmail.com,None,Form,0.0,0.0,0.0,0.0,0.0,74A8F91FC0,10157.929408919848,10615.698508062187,122.83055921689456,401.3821246587634,283.7514858419945,171.33578717543963,15.753463189220088,28.31866293565197,39
1098,E048D3590CDD,Ernesto,Lopez,M,1966-06-30,None,0,None,Facebook,114989033564057.0,0.0,0.0,0.0,0.0,48D3590CDD,22942.48911514146,7259.14533168213,631.5049461736074,353.9175402309295,784.2802984697953,516.3077124204691,22.063642895785918,27.291412985823474,54
1102,E05F45B2F11E,Álvaro,González Martínez de Lecea,None,1979-08-28,None,aglecea@hotmail.com,659052727,Facebook,2727704290621051.0,0.0,0.0,0.0,0.0,5F45B2F11E,3433.841190084434,1554.3440066136593,45.255713938221085,62.77141778970851,39.54910598052805,5.6677080303907665,4.734315723669767,3.8365418393884743,41
1103,E062675C2CF9,Felix,Hernandez,M,1989-10-10,None,t.h.e.spy@hotmail.com,None,Facebook,792750851076145.0,0.0,0.0,0.0,0.0,62675C2CF9,4863.419208345406,813.8894948140014,66.82822425626988,105.50385769735443,67.86555917814289,14.63865091500887,0.35509745445755964,6.4999073393587254,31
1104,E0ACCB94FB64,None,None,M,1986-05-12,None,tadashisuzuki1986@gmail.com,None,Form,0.0,0.0,0.0,0.0,0.0,ACCB94FB64,6804.717932201977,411.8432121342448,21.926926610471643,11.393113265806118,14.197041008425469,87.9813327926563,1.9118907633489872,6.028551223071052,35
1111,E419C141BE99,Estefanía,Ramírez,F,2000-11-25,Ciudad de México,251100pedagogia@gmail.com,None,Facebook,835704596854306.0,0.0,0.0,0.0,0.0,19C141BE99,1646.379519401248,337.6553650467247,78.42792824079241,9.21396253647881,10.254347588235241,10.703242601479074,1.33599230294704,0.029642282094766256,20
1114,E434934C06B2,None,None,F,1996-01-03,None,lramirez@sears.com.mx,None,Form,0.0,0.0,0.0,0.0,0.0,34934C06B2,1209.850413622783,1017.130489009893,57.66711693693826,9.354518461102053,17.30658727359533,14.415174498672418,0.8229439416358247,0.452756255380091,25
1125,E8508BE37923,None,None,M,1972-02-01,None,breme537@gmail.com,None,Form,0.0,0.0,0.0,0.0,0.0,508BE37923,1303.8406174465608,976.6825748721993,451.7135686803409,281.59336565337844,158.80055589026486,77.02801313962489,14.782724763350464,7.558579554279799,49
1131,EC5623BAA8FA,Ignacio,Hernández Hernández,M,1990-08-06,Ciudad de México,hernandezhernandezignacio57@gmail.com,None,Facebook,204507117611951.0,0.0,0.0,0.0,0.0,5623BAA8FA,1040.6248009474596,996.6317254467057,58.42790848780283,35.20740015810539,29.127885608713097,12.554276175798297,1.6100131690070398,0.8159900064083065,30
1140,F018984F0477,None,None,None,1978-08-23,None,emiliocores@hotmail.com,None,Form,0.0,0.0,0.0,0.0,0.0,18984F0477,380.02841940252256,1560.7029984174494,130.56090323532035,35.69687364935189,5.477528227795821,2.108943481819658,3.0277737250161216,1.3965598607239045,42
1151,F0D7AA433DA6,Andres,Ixtepan,M,1989-11-28,"Naucalpan De Juárez, Mexico, Mexico",tetotaty211016@gmail.com,None,Facebook,3134863926536313.0,0.0,0.0,0.0,0.0,D7AA433DA6,17036.3888924694,10864.46151733254,1267.7738844455864,165.94646399619555,215.06360535054606,114.31654079449468,31.580782485459494,27.468313125780185,31
1160,F40616E2825B,Rod,RT,M,1995-04-28,Ciudad de México,dragonnegrorod@hotmail.com,None,Facebook,3124987750892711.0,0.0,0.0,0.0,0.0,0616E2825B,2456.8234086266307,1039.3246560553125,107.34641084087777,29.109810794290112,3.844910528363467,12.622768231504079,2.5901188163970295,1.3379161066236926,26
1170,F4BF80BFC206,None,None,None,1983-03-08,None,frey2206@hotmail.com,None,Form,0.0,0.0,0.0,0.0,0.0,BF80BFC206,7744.1748457510175,4562.656560934418,290.9727894035186,139.58775050916088,50.21485323685538,21.322223095467624,20.84021781494801,24.23075925461446,38
1184,F82D7C043FEE,None,None,F,1997-01-25,None,elizaldafm@gmail.com,None,Form,0.0,0.0,0.0,0.0,0.0,2D7C043FEE,31954.470730990663,7376.4813916292815,1112.379813413433,233.65124818454916,311.5269296836862,251.97693462298702,4.039001590292591,2.473949885114685,24
1199,F8C39EC41CD3,None,None,M,1998-11-02,None,robsanbeltran@gmail.com,None,Form,0.0,0.0,0.0,0.0,0.0,C39EC41CD3,793.6399479971506,524.3351046790377,40.00695803464136,26.912248454002395,6.7980238908068555,18.559074338994836,0.7485455960311088,3.00009700933523,22
1208,FC183C22AB68,None,None,M,1982-02-01,None,benguia82@outlook.com,None,Form,0.0,0.0,0.0,0.0,0.0,183C22AB68,5972.785491598745,2794.531166036483,349.44353128491804,94.24469000222282,18.4164216558884,57.32907155186745,4.523672582921115,1.7259552869550632,39
1214,FC2D5EB96E07,Orlando,Aparicio,M,1983-12-10,Ciudad de México,itachirasingan@hotmail.com,None,Facebook,1519794668181132.0,0.0,0.0,0.0,0.0,2D5EB96E07,8581.371572039436,14336.92934679418,1360.4166311049582,459.9834565623423,101.17089611766254,41.037824652335786,31.85726523049603,5.233007498591685,37
1217,FC8743CC9CE6,Fabian,Ruiz Flores,M,1984-01-20,Naucalpan de Juárez,fchavez.fc790@gmail.com,None,Facebook,2526663440934353.0,0.0,0.0,0.0,0.0,8743CC9CE6,18611.460397731895,1121.320247736396,607.0533406963671,53.60081960088409,273.84828532444163,83.58665013591246,15.38902910335652,10.741229670752832,37
1219,FC94357D2C96,None,None,M,1979-01-25,None,plazacarso@sanborns.net,None,Form,0.0,0.0,0.0,0.0,0.0,94357D2C96,28981.124872722085,7149.399374593259,709.9043689787784,93.2543534135995,221.1039700537942,70.99845869731864,37.61729986898083,5.597301672181541,42
