,client_mac,first_name,last_name,gender,date_of_birth,location,email,mobile,source,facebook_id,twitter_id,instagram_id,linkedin_id,oneclick_id,client_mac10,Restaurante,Relojería / Joyería,Zona de exclusión,Discos,Lentes,Libros,Otros de farmacia,Pastelería,Dulcería,Tabacos,Parafarmacia,Dermatología ,Novedades,Juguetes,Fotografía,Caballeros,Farmacia,Pasillo juguetes,Tarjetas,Celulares,Computo ,age
121,10C7534B91D4,None,None,M,2006-01-01,None,saavedragerardo105@gmail.com,None,Form,0.0,0.0,0.0,0.0,0.0,C7534B91D4,127.62364022573651,327.3745826555491,34.46234722684928,21.36513328112091,13.561463206666437,45.48492727768251,17.371992876550472,21.315147364095886,4.689360293120124,3.3810968846172544,8.99107080653486,6.652942883142259,7.377690160188027,6.895079725205045,5.447819615787248,4.113959374129712,1.157876748011467,0.6731406152676285,0.5408058938787919,0.4017738100772837,0.11814907578917493,15
139,1801F1776F30,None,None,F,2006-01-25,None,annita91constanza@gmail.com,None,Form,0.0,0.0,0.0,0.0,0.0,01F1776F30,929.9179135634374,1254.1929277573097,60.997476287712644,26.02521347766363,28.52391013685145,10.488204771336305,88.25642470042114,19.849832167431316,7.693051874493425,20.74489029415905,9.397165134935486,25.38938624531237,28.87946929785477,20.127726973607533,14.596798171873102,4.488836558056739,1.6192616994976066,2.2335050908661565,0.3926184407425289,0.34655301870554106,0.838834337732828,15
145,186590606DE9,None,None,M,1964-04-05,None,rosasjl@sanborns.com.mx,None,Form,0.0,0.0,0.0,0.0,0.0,6590606DE9,131.941783266099,565.4236862922758,79.24413416082409,81.20952742354541,51.44775252000645,41.609124910055925,43.422329878936075,2.603511102919248,15.009901912000135,24.571778413402612,6.334908628203448,12.774260994868913,12.150921831044592,8.061607638181384,5.149852912071561,3.894475222152688,0.3297736468648065,1.3584865630389313,1.0007055035508128,0.3373350149575882,0.1241421650007466,57
154,1CB7963CAA86,Karen,Quiroz,F,1993-05-21,Ciudad de México,lucesita_2105@hotmail.com,None,Facebook,1.022111261495578e+16,0.0,0.0,0.0,0.0,B7963CAA86,22800.356568249503,951.6509262170172,609.096013363339,261.83162572550367,105.41404895642752,869.7804106884463,196.01854478977413,230.24541037321833,151.1189776010293,196.81729451898784,34.141911999653544,26.95484697541816,97.65884761853819,127.55591371751879,144.69637043089148,31.678164562184655,0.3784371238115499,3.8234300659073073,3.7462437806050786,8.804825525820968,6.231187716402293,28
158,1CCCD67DFFD8,None,None,M,1969-07-25,None,luisjosefra@hotmail.com,None,Form,0.0,0.0,0.0,0.0,0.0,CCD67DFFD8,2052.8279943011594,285.23152616424653,0.8819283550911032,0.3755102817599187,156.5885290615434,4.46183173996843,72.67801459315594,17.360943791686534,27.97044287750189,44.152122611223525,26.472765978127462,0.8678045149549165,13.057017128212124,0.9287269908343745,8.300625059619836,5.1306081596368855,4.310702213510064,3.477668684730475,0.6761245611231792,0.30239279502668687,0.946720136886696,51
159,1CCCD6D4A894,Luis,Barragan,M,1988-04-09,Estado de México,dkluis_509@hotmail.com,None,Facebook,2348964175171846.0,0.0,0.0,0.0,0.0,CCD6D4A894,825.0777820774915,401.8245810168794,92.94357871617741,49.32761905232392,34.644485254866424,79.07686440916365,6.649276656752695,24.991162699479098,22.189807623650896,7.945903222538747,17.71598045866267,7.9827321405034795,6.62704348398256,7.227449195269791,12.106314967042398,9.69915389846423,1.7384174218125075,0.6515105587037069,0.7003808239246331,0.7095231851411505,0.17043313716935438,33
173,20A60C2B69DD,Trebor,Mal Bicho,M,1993-01-16,Azcapotzalco,soy_el_mago_zador@hotmail.com,None,Facebook,2978743708808018.0,0.0,0.0,0.0,0.0,A60C2B69DD,508.1161426662722,364.84546040037856,52.37436798079321,15.47122212936106,25.121627163496985,25.34351023154592,17.11393231236057,31.282864094180578,11.341149426832736,10.735951300292767,22.536628362519366,10.8991213724807,12.581162257895766,0.9270594142511214,5.263449246721246,2.194243305170129,0.9924266241192867,0.21939526270106655,0.9194010976598345,0.41038573674985634,0.31049961421720046,28
178,20F47840F098,Juan Carlos,Mendoza Morales,M,1996-03-01,None,ianmendoza3105@gmail.com,None,Facebook,282681896464530.0,0.0,0.0,0.0,0.0,F47840F098,2621.928231534231,6587.5479970773895,267.145435486819,101.43467380098691,473.62354551756107,292.35641626362445,12.886314896197762,11.79493198472777,108.26351060047367,81.82275758561009,141.59840670709144,41.100178828017874,78.44860552819179,4.67416819942163,3.9296628595239476,44.377786555553634,2.7635244371951417,6.01369608988359,2.038564900492237,4.248403240393961,0.003187906613938446,25
186,2446C81FD7BF,None,None,M,1958-08-22,None,joseantoniogomez@live.com.mx,7775644350,Form,0.0,0.0,0.0,0.0,0.0,46C81FD7BF,2307.179940768753,348.61500722793045,47.34956320574993,118.37098174528863,134.22751610734377,136.96047663106478,103.91743354911173,55.86754639780417,38.63472820329161,32.523184114995075,36.170014461167135,7.174501128351494,15.879960464897096,29.686008759976033,12.958434632211304,9.933671940983103,1.4504865356111125,4.252863576590159,2.2536799184204934,0.6581600430508086,0.9358405874081612,62
208,2833347970F2,Cristian,Lucas,M,1994-05-05,None,rtr@hotmail.com,None,Form,0.0,0.0,0.0,0.0,0.0,33347970F2,1314.636941114642,481.8612669736132,6.012124799896382,40.382871116419544,21.608053303247186,87.0622272013004,27.73092137055472,17.936535842210176,6.279995465354463,13.981142077980875,9.647424395359748,7.700952620723098,14.131826734002738,12.725260386291598,9.406507491072432,12.008330714571878,3.8363835200450724,0.3502098106633383,1.3143552779119954,0.5730250235060904,0.8136447606326094,27
220,2C336189AAAF,None,None,M,1995-01-19,None,moni17gutierrezibarra@gamil.com,None,Form,0.0,0.0,0.0,0.0,0.0,336189AAAF,806.3592524951817,41.054816904006735,4.699689749094701,79.12665317064108,53.29799161168515,7.943491906132884,29.04797798117343,2.9610920862608103,22.06031828888181,18.829903978523383,23.552896508300552,9.623933194054665,11.833038739188552,10.884054431598269,0.5788374598414799,4.780755563946405,1.795010147657159,0.4764200305636612,0.05440525535604098,0.5671633282621137,0.4722971696489075,26
229,30074D3CFB10,None,None,M,1988-10-21,None,enriqueolguin.27@gmail.com,None,Form,0.0,0.0,0.0,0.0,0.0,074D3CFB10,3010.813162586747,2226.03160104362,336.48009143094185,13.952512668384696,52.80540534749181,153.13191956994282,141.26803442424864,132.52882269063676,91.09163713763813,79.89143076545376,76.90719245503608,64.41503009170951,46.1982411036116,18.85144127156342,4.243283020660569,40.642661629707135,7.896639891674187,3.4393464064680126,0.4415148369012982,0.9852941202924579,1.9847375072702476,32
231,30074D55319E,None,None,F,2000-09-19,None,luzma_6419@hotmail.com,None,Form,0.0,0.0,0.0,0.0,0.0,074D55319E,462.19405830624214,1297.0248188275914,37.12680541723798,79.53308859993648,52.564789524263276,23.783759545673064,25.87541869176595,56.275608655420925,11.95716139410094,7.5921113267287526,35.27756699977325,29.57796000982717,17.26781377119186,7.167548279436401,14.828759036813752,4.305221932938897,2.903161445917223,0.057916235721262276,0.6411229012349067,0.3279393975398295,0.7173697006452582,20
236,30074DC13DE2,None,None,M,1985-01-21,None,juanmen12@yahoo.com,None,Form,0.0,0.0,0.0,0.0,0.0,074DC13DE2,296.4093961278438,427.2723012761817,21.482880146946098,67.5385493947628,31.332475625044175,11.37443968420577,10.561990627759837,15.962141662277913,8.435662943472561,6.11695543123006,15.19712486409232,10.265263572298885,4.514203483852652,8.02297583590365,1.3386363708726177,4.710438010279064,0.6350217411819071,1.3663418569881,0.5299530501423885,0.5422529330487009,0.3909953616151183,36
240,3010E45DDDE4,Juan Manuel,Aramburo Gonzalez,M,1946-03-16,None,jmag16@hotmail.com,None,Facebook,2393548134278985.0,0.0,0.0,0.0,0.0,10E45DDDE4,1600.7984770958058,3602.296457527004,328.8409713526753,340.79206226494597,253.69901911237093,122.32793762524103,95.7862086756333,101.69392734228784,31.907898746416745,93.90478916102866,66.89295318323597,69.159527573501,25.792240851279114,40.745355185446954,40.58730205342138,13.527835400188792,10.654302242732863,0.33107490976348647,0.09916831641343406,2.867405465320326,1.2950859152885523,75
246,304B07B67AAA,Pilas,Cortes,M,1991-09-12,None,pepec2293@gmail.com,None,Facebook,412434189645509.0,0.0,0.0,0.0,0.0,4B07B67AAA,1557.9635954983357,862.5767933901318,53.315301575657756,91.32887389110823,154.68913275520183,30.61156263060285,64.78840038402976,48.923444427894424,10.332807004272796,26.26925527216339,8.336598987273886,28.60064105152321,23.71654363088174,19.133976660344835,20.57131669966004,7.118816672980977,2.1304581423130236,1.5964166862517881,1.2344565757919657,1.2001773070647794,0.5614307565156569,29
289,38539C8AB262,None,None,M,1953-03-08,None,jorgemlozano@msn.com,None,Form,0.0,0.0,0.0,0.0,0.0,539C8AB262,254.01117630864405,531.1499436405269,33.10533200793294,59.21516031089704,9.385388085193334,29.48890962925202,33.95642114664148,10.036586097320482,16.807581475434848,11.449206630091442,21.17943495484084,17.058198020501134,1.676305180947015,10.264801073371967,7.518149397266809,9.429843186678918,2.0390052473487494,0.49236199378091394,0.2235911082639282,0.08685747171060335,0.42574703335446384,68
298,3880DFC74898,None,None,M,2006-01-02,None,macariafa@hotmail.com,None,Form,0.0,0.0,0.0,0.0,0.0,80DFC74898,61.05929888391532,3290.628433217274,120.74763583767587,40.53572792524908,167.03160973845,24.76422093292717,29.303530733782267,80.44791517427599,58.65929327499385,28.78769470646266,49.59151810007035,8.308942727757948,23.340821686612077,17.639188766684736,4.012211878922845,28.808416517420966,1.5834997933277295,0.3268853368018032,2.5927867923222134,1.457159463199734,0.37320851187484044,15
312,3CCD36B284E3,None,None,M,2006-01-25,None,momstps1303@gmail.com,None,Form,0.0,0.0,0.0,0.0,0.0,CD36B284E3,343.2718097161977,138.34318084610376,50.520916642288846,44.90124233090525,39.138652378206025,9.025601870965303,12.150519363799285,26.074381195528733,16.346683688074286,6.594312823169935,6.055888000400762,4.867880459586018,3.4045328011417926,1.8822370067462761,0.17192378089147048,6.289281502153483,0.6909781060301228,0.5976985323636954,0.14721398326034968,0.4539965747978992,0.07106839738895478,15
318,403F8C25E817,None,None,M,1995-07-03,None,luisgerardo.hdz@hotmail.com,None,Form,0.0,0.0,0.0,0.0,0.0,3F8C25E817,14589.307473368695,10099.52109510197,954.516773585716,297.41136276758004,883.4085811529209,109.93267316855115,151.487802009607,213.29911915167673,315.74649796322524,322.210362418918,275.0512074570719,281.981401556081,33.51789296850793,52.269393593992085,150.23198913932526,108.58210627094095,2.564635764120292,25.047754029301526,13.704649180303608,9.636024861162918,0.5712044903270038,25
319,403F8C3C3B21,Alejandro,Risso Yañez,M,1979-12-23,Ciudad de México,alexjandro25@hotmail.com,None,Facebook,1.0158074971617652e+16,0.0,0.0,0.0,0.0,3F8C3C3B21,1078.7072779553664,1936.6279498982226,121.37452238629186,16.570196841245473,176.81001029274537,55.90119968634515,47.75414907082207,23.716118126131153,25.18116798366023,62.57686272765444,6.425920608321686,37.480524662275386,35.610655442558816,7.369543635363352,10.84612664608935,21.715254417473748,0.20553841485003566,4.143400643153638,1.0469904072547687,1.6450536548376393,0.2915364993369702,41
322,403F8C3FA1B5,None,None,M,1984-10-08,None,albor.antoniojose89@gmail.com,None,Form,0.0,0.0,0.0,0.0,0.0,3F8C3FA1B5,4956.715444884902,4373.785772387072,188.02331609882373,21.639570697836763,161.8200517393297,176.26400267301563,201.09756661603427,1.594913714640822,18.981129036235842,151.93364931501512,32.49361741188453,0.09909736165346318,70.88629052901979,44.47521967714736,49.04572909947788,46.67760578605706,7.4667859020687315,8.74350748200425,5.480301424102511,3.296272946907519,1.4801552167692038,36
326,403F8C4DA3F3,None,None,M,1997-12-31,None,raymundomc75@gmail.com,None,Form,0.0,0.0,0.0,0.0,0.0,3F8C4DA3F3,729.9989000764821,104.5002674527325,75.32929995613193,83.33882059808182,0.45537300978196854,59.10390700360264,1.4290022158901434,28.70653506416297,27.198664593692737,10.490984661407975,1.6718228482545954,7.943714844163283,13.300924188293111,5.042668227108052,7.793501059343612,10.259575477023686,0.935110741119777,0.5163166113148719,0.43365498146105225,0.46248400714116517,0.08847238280996346,23
331,404E3639EB23,None,None,M,2006-01-06,None,pereza@sanborns.con.mx,None,Form,0.0,0.0,0.0,0.0,0.0,4E3639EB23,1539.1480081492782,237.14666021045085,118.82598607591952,91.38150365278547,73.25141844472145,77.94685559977934,9.930384735501942,28.411474939588665,37.09066621195896,18.288140260258583,33.68442185992439,1.6225291159349449,1.2973171747009742,5.613610228081666,0.9738952780644367,0.19653385530795128,1.9393196831359318,1.4625061118910718,0.4693125216393487,0.5934626837333595,0.7259932073436399,15
348,4418FD331D13,None,None,M,1972-12-24,None,romerovf@msn.com,None,Form,0.0,0.0,0.0,0.0,0.0,18FD331D13,277.73473054117125,203.30567050979943,23.45473146580911,35.667774698593895,14.5931275060073,32.11412353362827,1.1938656532865528,19.26297158958445,13.268766412536795,5.811771809493666,16.296244529672112,1.8315330949808861,0.3575368142536729,3.8817974477085286,7.4949785021694675,2.870270038934193,0.8869459403976673,0.9687658920121991,0.38827701496713196,0.4724528288501615,0.14366417614334953,48
379,48C796807165,None,None,None,1973-01-01,None,enriko9@yahoo.com.mx,None,Form,0.0,0.0,0.0,0.0,0.0,C796807165,86.57104736032365,445.5228324746047,37.8864884891498,42.419089448701236,28.97332371275448,29.511760058711275,30.59037263168352,23.865448009874395,8.795902142803318,15.374617777275033,0.7109334174177337,9.380728879135718,2.7186193022238063,2.7216209173243504,4.137455898202271,6.542019166711693,1.1660395371784262,0.32408694675081856,0.5230899455470999,0.0767946653826436,0.18772921824405917,48
416,549963F35917,None,None,M,1980-12-31,None,rodri041082@outlook.com,None,Form,0.0,0.0,0.0,0.0,0.0,9963F35917,892.8291504141934,439.2765121646606,33.73367433252366,0.02350864202264402,89.49703974861879,56.85477737827077,37.551242347235416,27.403041639200726,37.62079908569935,16.322367890740342,33.00507845838272,3.1138081376944875,12.662595922629352,17.6798608929471,10.883372257880643,9.782839943455267,0.6415528541755047,1.9326369727887458,1.3717907834888106,0.6977137518365344,0.11663638155537767,40
426,587F57F2418B,Sheila,Ram,M,2001-11-02,Bogotá,montoyaariel@gmail.com,5547834492,Facebook,936562233349723.0,0.0,0.0,0.0,0.0,7F57F2418B,27813.701351410873,361.6235612277098,1455.4768250791215,1226.5917493455543,609.0166104649736,176.28714052218803,306.36599395044493,364.3721461497168,334.0875570162585,150.9920259364214,349.6213368097866,296.87487439021095,126.33294954070467,67.83928880485814,15.027409275851651,138.72513940943,7.488707767579427,9.405398220407841,9.716674160999027,5.903256381405219,4.550004135509439,19
431,58D9C364ED52,None,None,M,1992-05-08,None,10392oscar@gmail.com,None,Form,0.0,0.0,0.0,0.0,0.0,D9C364ED52,3135.5766428334296,558.6217014325445,153.58099835798896,200.4840279936161,171.30425696474384,32.71607250576667,100.27950246279002,88.9747956373272,55.1124704027178,9.838127504829034,73.35228012074091,41.399793628343986,46.83838382705345,8.212977713482868,12.884646120615596,9.532596781673513,0.43048786384880117,4.206363297865948,1.0771218955017405,0.4140446312786814,1.1627080238415068,29
432,58D9C367FCEC,Victor,Boss,M,1967-06-16,None,vicbrother6@gmail.com,None,Facebook,2378320835752552.0,0.0,0.0,0.0,0.0,D9C367FCEC,927.1463638992938,16.290129973526085,91.56212431631427,30.513442100511348,9.17557482716171,73.34310981733034,41.23114757595511,36.69104580551369,25.411363093207697,25.4461687357998,4.804827758083293,0.035863558941034004,1.9826050765099021,0.13619613833903352,6.8953101365459375,7.1928998792023275,0.9620409609484959,1.8250480602310815,0.8296363943706186,0.2499218486023923,0.27518004361270754,53
442,5CA86A0E1EAA,Ela,Schweigsam,M,1993-03-16,Atizapán de Zaragoza,ela_badboy@hotmail.com,None,Facebook,2405651012835248.0,0.0,0.0,0.0,0.0,A86A0E1EAA,1827.794445859309,1764.030332717372,272.10575605706083,159.69848560992205,89.47682078465625,42.63976293945154,73.05398204168456,60.74691431581666,48.015180439968375,12.537322662812386,28.05322024083721,21.588300379475506,22.77476223731989,5.318666678356868,18.31839384704919,21.14740128466566,3.364940915082932,4.350392353275768,0.42376637331336864,0.23981869436020078,0.3213335682102341,28
450,6014667C6F5E,None,None,M,1978-02-15,None,pedrolg78cu@gmail.com,None,Form,0.0,0.0,0.0,0.0,0.0,14667C6F5E,9.836960594492291,698.2520175943484,15.213490591038186,68.50175052776349,5.333538511608041,30.194531378933707,25.753524803236886,15.037701635041262,5.22737005871029,20.302977948232805,17.681527791532726,0.6213594236793828,9.100656387913816,9.547875034953954,5.056080234344619,2.690698543392662,1.8572639900341033,0.6122981675232888,0.6067436827589426,0.34344259128742044,0.22819050917372952,43
455,601466C6EB55,Jose,Jr,None,2000-03-04,"Mexico City, Mexico",cirilo-alvarez.34@outlook.es,None,Facebook,2163068353965680.0,0.0,0.0,0.0,0.0,1466C6EB55,675.9385484623349,4409.618957654172,239.5868953697324,134.18943862316692,233.9630114860216,12.876645107376634,120.85836919947116,131.92589060286207,8.389719391700226,81.58084152385184,6.3021203303360895,53.44881436519102,7.24388203476189,26.181554012291237,20.399642885237775,20.823408951375423,5.123949540418797,3.372052279173501,3.7610140045784783,2.2638305052331127,1.1514136707114675,21
457,601466F3D78F,Omar,Valdiviezo Antonio,M,1987-01-01,None,valdi.rami@gmail.com,5562013391,Form,0.0,0.0,0.0,0.0,0.0,1466F3D78F,6485.638792319632,19555.32996725821,57.59728328064965,830.2629965993115,703.8580040425188,645.292627853441,613.9574444191604,409.32095025366414,11.963711955644813,312.17440016353703,157.60189485557936,3.239570977117101,200.28132700630556,8.144950617786527,45.36055427909662,4.902105605938653,7.20617798028657,13.206665147923744,5.069827035378794,9.511606846786538,7.079141502027567,34
471,601D91775BD2,None,None,M,1980-07-24,None,sfermoso@sears.com.mx,None,Form,0.0,0.0,0.0,0.0,0.0,1D91775BD2,51.08581446061231,1026.5160979338436,34.39705553486472,92.00302355885965,83.21408145474015,16.715455256444777,7.6508098508476206,31.646086341445226,18.429072179361714,25.85063191932836,10.93398176267296,7.8997460938031,16.44589741797021,11.476976526497321,8.433999279188196,5.180372767233162,1.5092038750397647,1.5683403382660743,0.6930302209331246,0.8195277502552032,0.5307954777924062,40
472,601D91776AD8,None,None,M,1997-12-31,None,espinosaca23@gmail.com,None,Form,0.0,0.0,0.0,0.0,0.0,1D91776AD8,440.35038739644216,129.83003245819825,21.41323013665335,50.26924429595068,29.619019144644543,29.471258643706783,12.688073475812383,3.993971516508673,9.832449316898012,6.504571467428138,15.269304669953648,0.625506184888803,10.622113173617697,7.914081940475274,1.9975047530005117,1.9086672564507563,0.6355470603807253,1.0223177164502688,0.5224957009611855,0.45332093477732216,0.056902756800779386,23
487,60720BD94FD5,Jesús Cuauhtémoc,Hernández Benavidez,M,1970-08-19,Ecatepec de Morelos,jesuscuauhtemochernandezbenavi@gmail.com,None,Facebook,140582414026195.0,0.0,0.0,0.0,0.0,720BD94FD5,37.15059075117509,443.3620644975528,10.17724953107284,16.473441014371488,46.35098128027051,42.169253708340335,3.790233577860881,1.4015842514192483,9.53358503414179,3.5123332506873948,10.189357100855096,0.07299062526001977,4.356811160073336,5.369880903171752,3.30996899778708,2.6518215624999,1.6086492455415504,0.6191508752069357,0.38577100491956107,0.18372293632605888,0.3305586914663154,50
499,64C2DE7FBCE3,Lilian,Mayrin,F,2000-08-19,Ciudad de México,mayrinnnn@hotmail.com,None,Facebook,2522012241449985.0,0.0,0.0,0.0,0.0,C2DE7FBCE3,3495.4790330054775,4779.8194996477105,509.14373745806483,309.2794565123689,143.90973163779375,171.32776354769004,105.53202281259121,172.3270519662916,68.63059340394027,89.29201404480642,32.53498088649564,85.89543788216811,74.69228049176421,71.12844849493804,62.86866746794285,57.664999391357576,9.738814897235056,0.08738856476751256,4.932076693418779,3.5127176946540057,1.2032834985215495,20
519,6CB7490579A2,None,None,F,1973-07-29,None,azucenadelcastillo111@gmail.com,None,Form,0.0,0.0,0.0,0.0,0.0,B7490579A2,15967.692490141091,2536.6785833093268,742.5737790872705,75.23702552275125,713.6732169071657,715.7996095801371,6.172511840226128,249.6208937332535,142.06375914983823,45.66753347350012,54.721996406332806,155.5881526422961,19.56865181927394,138.6085915911701,23.925349417934545,75.66066040562131,21.018538693755772,12.39443654976141,5.486129594282371,6.870113353928151,4.977976781084116,47
526,703A518D9148,None,None,M,1979-05-16,None,gerodri@yahoo.com.mx,None,Form,0.0,0.0,0.0,0.0,0.0,3A518D9148,4686.883747389226,9186.617707618607,708.9851816421011,164.58000511602432,362.9762993791153,499.8034556871528,319.71437481547184,143.16441864180413,116.5867829456509,78.85661118515198,156.23950961270364,113.72534257203735,45.63297323886321,84.88332980304772,81.1727999826659,29.223231534730203,13.005796758986014,1.9416126195437635,8.852459568170692,3.5470692340205585,0.6072906549208155,42
545,74C14F41E867,Oliver,Isunza,M,1981-03-07,Iztapalapa,dies_irae00@hotmail.com,None,Facebook,2783777484972631.0,0.0,0.0,0.0,0.0,C14F41E867,801.5870538701877,5654.817084442338,425.5987957194418,190.93523593233857,171.817415475036,242.87177372494003,146.01695451072845,100.154177939955,87.87775967567445,25.732915056004927,126.49382763538915,38.02982627384636,55.48361613423238,24.541268546137253,20.265457794676593,9.661831460090879,8.298177187950554,5.197556687608569,4.551733812232497,2.2693862753843583,0.7981518458069647,40
560,7C38AD32D019,Ernesto,Ocampos,M,1994-05-10,None,rantty1999@gmail.com,5581489338,Form,0.0,0.0,0.0,0.0,0.0,38AD32D019,20429.750234094474,8566.858494667988,780.4585877313671,228.38422019771147,738.0203323701103,856.3562114257198,528.3728702429802,5.125736009804516,181.2593326729061,292.7488192164896,276.8494232361624,114.402513822044,115.15787613875354,39.049013115831876,39.426451248764366,11.406941621166942,16.201580309109133,1.881030955100956,14.562657712607125,1.6037884434069973,5.123884767502099,27
593,847637809620,None,None,M,1967-10-11,None,arqcourja@gmail.com,None,Form,0.0,0.0,0.0,0.0,0.0,7637809620,12.782581234104097,503.6869352940755,14.45139650821924,13.91852999729647,46.738471263988814,23.253875310459723,4.2043989587134645,23.01304593537289,5.8133016927093015,5.2001852606162755,2.9005206138541944,7.534002880898062,4.943237298769378,7.280136864480896,0.1805458357628632,4.290728320022622,0.5540415168106947,0.09268779774595158,0.6795312214095122,0.135461950263607,0.3463842444263333,53
603,84C7EA93722D,R,López Mejía,M,1984-09-17,Ciudad de México,r.carloslopezmejia@gmail.com,None,Facebook,1106981316154481.0,0.0,0.0,0.0,0.0,C7EA93722D,928.4464372129468,4132.421099058619,285.69342009971626,284.61257414790583,267.17533076571664,127.5577771253386,25.310913282922797,58.72735914487253,43.51350605375391,78.84646863356762,44.4512594047983,73.47502030863878,44.88308916930289,33.16280308637227,9.055991375887341,23.630939198035517,6.677089937166615,3.0038907944480733,0.5876016393931365,0.7629915131062515,1.004438047490387,36
604,881196717513,None,None,M,1997-12-31,None,micatrejolopez@gmail.com,None,Form,0.0,0.0,0.0,0.0,0.0,1196717513,4119.639291578024,13165.304682822803,870.6993138852318,240.92055337339562,249.51519497570246,241.61038892821358,46.36512139430471,322.8047649764418,219.73434489846514,95.57144286337673,132.81438184907424,12.967199014599782,66.36933312844346,16.386297449373235,97.40119635975712,88.46511297898354,3.2085034055260486,6.546558517435822,2.216452388826745,5.324373067987952,2.13549214403448,23
607,88365FE34799,None,None,M,1979-08-06,None,eduarvega1706@gmail.com,None,Form,0.0,0.0,0.0,0.0,0.0,365FE34799,627.661600187913,1163.259480716243,16.1187919581325,125.40699854586869,53.50802886707268,82.35444252822701,5.962230599074023,45.9146821091503,30.482623843943465,39.42254250906448,31.524388476922336,17.438221383885377,17.078835957745177,19.568578173688724,13.041289589880268,6.948170457720735,2.1296709638068663,1.3471841160651148,0.9005024892249259,0.3729631506175449,0.5587733757537795,41
609,88403BD69B9D,Sol,Cajero,F,1992-05-26,Ciudad de México,marisollcajero@gmail.com,5564464228,Facebook,2932876183442421.0,0.0,0.0,0.0,0.0,403BD69B9D,221.8595175101092,637.9937161454019,12.481741621392453,24.02396475052532,54.48851992037797,18.820004467459555,42.460513176357914,34.02644417045605,17.108046730030452,2.9020421839012993,17.41693425291969,15.218026112119027,11.068379270931857,11.194735712054008,7.5763085942075525,2.299356734748239,1.9535991827798957,1.4994327609841271,0.8679061851228085,0.49836328930593266,0.24244722881514327,28
616,88797E4771D6,None,None,M,2000-01-01,None,eduardoguerrazavala@gmail.com,None,Form,0.0,0.0,0.0,0.0,0.0,797E4771D6,2348.303414121402,3387.1663907678303,154.63704100808863,264.21615796773773,81.46732887276987,5.371626748707896,146.4953204645806,50.197920690045,55.524946171204235,0.5453639026504233,57.478250870385985,25.57586879142229,50.8493713887966,33.770297110732166,44.42152855129558,3.1014048840373514,3.345652476516591,5.615236315918478,1.3119034688473823,1.860247409415839,0.7447280176132252,21
637,8C7967A21DA7,None,None,F,1979-06-27,None,alerdz2004l@gmail.com,None,Form,0.0,0.0,0.0,0.0,0.0,7967A21DA7,11688.900681111676,7970.820982172805,107.21594186652544,318.7132320221541,384.02700713364777,83.32142354311134,451.97811835449005,395.74395202657865,263.4920098009427,80.71661955936855,31.82617901578311,201.81208198330748,90.06432002052298,99.98187442251114,70.0232580061656,7.882798881529878,2.957898116066643,0.04072881627885139,1.1486923691595272,2.338417054776321,0.99378372260226,41
643,8C861E4F3D86,None,None,M,1989-08-09,None,lalo_baez69@hotmail.com,None,Form,0.0,0.0,0.0,0.0,0.0,861E4F3D86,11810.970004448265,7356.514880513396,921.9318071280488,313.189705738522,726.876981750581,36.33440028971546,492.9870012993941,303.9590556612306,204.38136096512378,136.14154611316076,165.0343510524749,14.780074094563375,37.61236185129957,90.03395378921029,56.50402020594859,49.06651720475714,18.304915520729175,8.86663489276743,2.0125837450062347,2.2939681208456872,2.2038756149631484,31
657,8CE5C022A36B,None,None,M,1990-04-01,None,angel182spd@hotmail.com,None,Form,0.0,0.0,0.0,0.0,0.0,E5C022A36B,131.78238290039047,395.8626006197969,61.155042056248675,50.509435314795795,21.025168237080536,1.6706385564196389,16.72347961939201,23.0821421358811,17.905832358810706,17.27742413624763,7.482306312402056,0.8401851945886775,0.05589591128132959,4.889110683563202,7.99617172738434,6.356555856064547,1.8990483220573697,0.5277532030728302,0.41242094699523346,0.3509714529368737,0.19543445459024328,31
662,8CF112A8AC22,None,None,M,2006-01-23,None,sears@ravisa.com,None,Form,0.0,0.0,0.0,0.0,0.0,F112A8AC22,337.3141448463403,364.3480349106919,63.29664876175461,70.35984368716305,63.43083782539285,40.09301662462341,35.743044987472736,6.990417965591245,18.32993178314516,18.46741974893832,13.861021662054759,3.1304620846070907,3.4869369872800644,5.655323904167611,4.9716639485747525,7.026459602868675,2.218054137057522,1.5109418879840124,0.9150439536827213,0.4567340661194497,0.3940166244898538,15
665,90324B1DFF97,None,None,F,2006-01-25,None,aguirrevalks@gmail.com,None,Form,0.0,0.0,0.0,0.0,0.0,324B1DFF97,9414.817733323705,8585.097784984178,820.2974465408108,142.54103693120638,547.1289420514403,354.262518452586,299.1613496220445,46.864925122051986,308.92423470322154,86.50694888013592,51.21646141592273,40.55175985578806,17.60450952809379,63.52007283261883,19.511957142558206,62.30080148169065,21.45328834156454,14.821471183188015,4.855021008188336,6.12042498069642,2.441311618313348,15
672,90633BE80FB9,None,None,F,2006-01-25,None,brayan.mb61@gmail.com,None,Form,0.0,0.0,0.0,0.0,0.0,633BE80FB9,2901.924263638048,15500.597600251524,64.05440041520205,807.415639222283,281.03307435088317,179.1993242653963,420.9942803199582,372.42321031455884,304.1735756379164,158.34883992676913,23.763056174822292,100.3542558232023,60.58121308746699,47.12245194161258,60.69132030673731,117.05125899502048,26.078410356217066,2.9553541811328587,11.024165734625985,2.1460919185401988,5.068213138083561,15
696,942790986155,None,None,M,1997-12-31,None,parraenrique705@gmail.com,None,Form,0.0,0.0,0.0,0.0,0.0,2790986155,292.4368307295636,261.3670903440586,14.589006325346693,38.95988329677672,1.0382354987278004,21.259501798453744,6.87733246438526,18.237232625560726,15.841539006650317,1.7602140075492612,13.509902687243823,12.971763126766968,7.782057164221009,6.5891463140518765,1.1594303204268328,7.426544743332947,1.0226433052343884,0.3597777102378691,0.4187226269382389,0.23431066977981133,0.1588352346936258,23
707,94DBC9B0B1FE,None,None,M,1997-12-31,None,juancarlosmendezramirez_@hotmail.com,None,Form,0.0,0.0,0.0,0.0,0.0,DBC9B0B1FE,5657.272848929133,17783.728169976956,453.47278967236434,807.8083605337519,576.8889275594431,175.6467939927297,301.19642890704415,34.74464258075333,382.18833499300626,148.63935877871668,171.38328612693556,135.38208715795457,177.38077200691873,111.06936744695027,75.69953506821949,100.51865334028744,0.6791933903099997,16.660955296182806,0.6395005523281182,6.5101086225964595,3.489885067418779,23
727,9CE06388FF84,None,None,F,1969-01-01,None,claus-hernandez@hotmail.com,None,Form,0.0,0.0,0.0,0.0,0.0,E06388FF84,187.61014869102448,3017.0884349751045,67.67892361291734,95.00061461836052,58.75857303367835,32.39140718773649,77.73632485920163,24.460906848033595,26.065369969461358,39.82003967724073,56.56296833510607,14.050563573227604,4.660373179250996,23.37144775633772,12.949398698940659,22.11563780999445,5.712016624165017,4.173832334912948,1.5725008019475677,0.849497950384732,0.3710194629728407,52
728,9CE65E1E72B9,None,None,None,2006-01-01,None,mayradiaz13@hotmail.com,None,Form,0.0,0.0,0.0,0.0,0.0,E65E1E72B9,1354.3379688664172,434.57527461479606,38.52731735921454,7.8385625808137025,79.73989793542532,57.67962664981625,31.051216017632406,10.91755813529926,0.8149913641242525,9.129647502201347,31.060727567553503,10.523094002252616,3.212691540396601,16.813753030120452,8.018616994770081,1.1057710575802395,2.7857746000193586,1.5998629816133219,0.6220288606997637,0.8820357308369459,0.7635826084174656,15
773,A8515BA400D7,Luis,Hernandez Lsa,None,1989-01-12,None,onetsanchez@gmail.com,None,Facebook,2253542058295761.0,0.0,0.0,0.0,0.0,515BA400D7,18201.982915293785,5143.521267793178,512.9771605575684,566.2135573888387,994.6718887367159,595.3553458099855,51.52275463079362,18.467425265570185,94.69787980289986,119.083989817345,4.457564786165498,130.8758453206379,141.1683927100356,130.19438445680504,2.162588949513907,77.33441030545693,26.69769457612564,5.151337031462201,5.329188865957546,1.4425746536659843,5.691833247491976,32
781,A87D128D7B1A,Uriel,Arenas,M,1997-12-22,"Sydney, Australia",kimuriel_arenas@hotmail.com,None,Facebook,1721497201328916.0,0.0,0.0,0.0,0.0,7D128D7B1A,614.0936414436641,140.61524411983413,70.5660772418229,74.17961543872208,48.95576392594754,57.523113503338365,24.639196778855005,31.237526434240774,23.25222946470441,0.6435513808915708,20.362862032750847,6.936275683631597,8.791854604482833,12.22299700393911,9.301610782758393,1.5938591695386302,2.2812839435538956,0.5692954673390793,0.803874078379629,0.29631234566885095,0.1338151559366156,23
786,A887B3EC7223,Gabriela,Morales,F,1991-02-20,None,gabymotales@gmail.com,5578512488,Facebook,2522005298120559.0,0.0,0.0,0.0,0.0,87B3EC7223,914.8419217063847,33.74867029965769,99.47279358539947,93.56086634013901,73.91306342286853,48.429758643823625,47.09132025687806,5.988473962632549,6.892026173513254,28.529673727887626,22.457787064341993,16.15441542557054,15.309679172716226,10.103396382107498,7.8815105771281155,1.1409972823013963,0.9719170256405877,0.06847144744712072,1.1486280198588217,0.06693642779939568,0.22769305590391395,30
799,A8B86E575383,Anita,Avendaño,F,1999-05-22,Ciudad de México,susigonzalez525@gmail.com,None,Facebook,240682024005509.0,0.0,0.0,0.0,0.0,B86E575383,3454.423546611206,13127.04107872316,876.1105874410997,274.6172624372901,506.3647213910447,88.41819676497319,421.76980608121363,375.0611606884603,261.86161419312486,260.0393380333687,195.6497518017907,47.94175822597048,127.9196655672217,45.23775535639961,63.531409305140436,55.161207425484655,7.041325694529971,17.285997539438235,9.867802191669504,2.995880745676929,4.660133781737831,22
807,A8E5440BA403,None,None,M,1991-12-24,None,jesusgarcia0705@gmail.com,None,Form,0.0,0.0,0.0,0.0,0.0,E5440BA403,438.2513359373089,544.6765391994066,38.50185592056472,42.5773465531124,12.361021443503056,31.452729541622706,34.50315479430355,8.410903657864793,3.811301163751843,13.928392399909276,16.775725541179142,11.241403937426226,1.5567500211716179,3.7778071128278086,3.728020261162192,5.435859463225806,0.5110246338888396,0.9783896555173635,0.983549208915937,0.27539933570046116,0.2614902176368116,29
817,AC3743028EB3,None,None,M,1985-10-30,None,willipereztorres2015@gmail.com,None,Form,0.0,0.0,0.0,0.0,0.0,3743028EB3,600.2706402834445,30664.38109604168,668.1981574036394,867.0529338710785,994.6040546603998,775.4423427483775,187.752273146909,528.5207531766673,351.73636271878314,303.7024658314572,383.35814618914134,282.6661319815951,179.20495093816328,123.24884171204305,128.34502143356937,186.04826345501033,42.30404201168242,18.292598425721696,8.30784438235135,1.5746142725919459,3.9884653156929186,35
818,AC37430D2E0E,None,None,M,1980-03-29,None,magk-33@hotmail.com,None,Form,0.0,0.0,0.0,0.0,0.0,37430D2E0E,33.664075246979515,519.5533182431641,15.73906920328562,12.48319717813626,43.1250032837343,49.010524223172496,28.916487841893893,18.79984271299236,8.922573433077323,11.04522243526324,17.97450260230937,0.5733467590069657,1.7422977178795012,2.6291057840151613,8.010237435183981,1.1341375420376678,1.275462712712311,1.2133281704833974,0.4270866117122186,0.41547515444057354,0.3457057085199475,41
826,ACF6F7E5E30F,None,None,M,1987-04-23,None,ferfueriv@hotmail.com,None,Form,0.0,0.0,0.0,0.0,0.0,F6F7E5E30F,3676.5420753160747,5009.652283425962,217.56655076548768,393.426284657132,389.2162774537165,32.30790152727486,75.17128801725543,148.22375282818567,138.614609470466,78.38851412539859,64.63606501721932,58.44267951061989,17.025689018198644,17.389275484663095,11.265635414027223,29.207933810748695,13.32028349013927,5.3986521566080485,0.840232625516886,1.322444567166243,2.041571318139002,34
832,B055086CA66B,None,None,M,2006-01-25,None,perezfernandezjosefina12@gmail.com,None,Form,0.0,0.0,0.0,0.0,0.0,55086CA66B,3048.0544977027816,5058.046808535323,484.9026009292346,421.8494854036007,95.9630243851253,103.78631591143785,136.76333846529997,60.63444633843407,43.72906522482984,19.62755776655361,1.0856540668221564,1.4940261778183468,26.963197663897816,52.52215269151326,57.64464450065972,14.038350383608813,5.495898034049461,9.547309056596887,4.551251927040902,2.871050916397311,0.42932391897441563,15
838,B0702D3225B1,None,None,F,1979-01-12,None,velazquez.lena@yahoo.com.mx,None,Form,0.0,0.0,0.0,0.0,0.0,702D3225B1,17345.88410893046,23127.744702943735,1491.493689291962,1211.4384874679624,1503.5617267704686,746.8548829159702,588.1739364695771,145.20397894838464,253.61724134234584,168.48131331656964,264.060698290959,253.98787493466065,151.52997159061064,58.79090419007801,81.091063987515,25.9111043248935,11.085706061880973,19.1581339011765,2.617284512155352,12.48441510743894,10.828774701211248,42
850,B0E5ED69E336,None,None,M,1983-02-18,None,charlienava.l18@gmail.com,None,Form,0.0,0.0,0.0,0.0,0.0,E5ED69E336,5363.097917764779,12191.583521428993,516.2603149931463,602.3472504234073,705.9617264829259,645.0925842984326,383.77536445272267,295.97747156431575,303.3631977423707,37.777649179170204,21.99266211837118,91.21136843838511,132.40312311758004,129.4898690202119,105.79503261249809,35.39436664634257,9.310281335610677,14.331113716205095,7.623849762499617,6.776427903032078,5.434906999008466,38
862,B4BFF62A2CC3,Maik,VazQuez,M,1988-09-06,Ciudad de México,miky_880906@hotmail.com,None,Facebook,2894140867310463.0,0.0,0.0,0.0,0.0,BFF62A2CC3,406.6072138866498,1026.0875185408609,58.28732453728345,64.68169539972784,83.12463029030313,84.23385810138431,43.86555254428997,54.024177251426586,31.964035089603257,19.46461224650848,23.15601969451779,24.515079215582617,1.8696889952399136,2.1495902844388692,6.477981715680949,4.872174501153597,0.42021378598293924,0.7412890936985898,0.5413205811260802,0.1953286800667399,0.7206955644747781,32
872,B85D0A745062,None,None,M,2005-07-23,None,aleckgz@gmail.com,None,Form,0.0,0.0,0.0,0.0,0.0,5D0A745062,3464.988760675289,6906.348306512824,321.36475727962926,111.359718170576,449.6615161922643,178.05285960711316,275.68566813733776,108.77401298550525,148.59160287442984,157.39960686318966,158.12655680915,65.90901288589966,12.652879290169217,61.77675020258521,6.722388110656381,12.763373216440712,8.178873641437391,6.589555105948554,4.606691129727467,0.7843451747124208,2.6627651351156794,15
924,C08C71064893,Sandra,Jiménez Herrejón,F,1911-04-15,Ciudad de México,sandra_izchel@hotmail.com,None,Facebook,1.0157404117011896e+16,0.0,0.0,0.0,0.0,8C71064893,535.3625693812405,882.3552130702418,0.4658792485830016,13.532446453010524,101.04257567756359,77.71438594319196,59.853979204784686,31.299588118419774,8.568693041253015,2.681795040531932,7.58568242672205,23.237281667299804,19.07218709058356,14.679362962368046,4.030649989807066,15.159939333068428,3.3467267771919853,2.411946082796185,1.080478425970584,0.9410506649381847,0.5775694004334732,10
928,C08C7122DF4C,Axel,Belmont,M,1978-06-15,None,abelmont75@gmail.com,5545995596,Form,0.0,0.0,0.0,0.0,0.0,8C7122DF4C,999.6135297285864,3705.484813605628,318.5445888428661,4.33131279059852,225.48172724562286,177.2031310580325,62.88456433115538,99.01138635685085,76.59666686711957,52.83238670478092,16.092655788862153,17.44520867691981,1.2002930068335476,35.671207832741075,28.88344306436206,9.877668540406278,0.6950379420495112,3.062514231835542,1.6843815823942785,1.511721400677609,0.8917604016761056,42
938,C08C71B4DA43,Aaron,Granados,M,1997-03-13,Ciudad de México,5583146624@gmail.com,None,Facebook,498937507717399.0,0.0,0.0,0.0,0.0,8C71B4DA43,10035.717822570527,8147.986140653568,413.3833730219153,94.24024506606784,452.71582906909623,558.1687203088941,275.63773647378343,129.01091900776436,166.57097279528884,192.06492274998075,17.99965143122954,87.6333026651611,76.50880925275897,91.65398572648336,57.03963574455942,40.84620327151988,29.83494380129257,5.192792944027769,3.2586901012825975,4.669777275648721,1.8655260691483893,24
939,C08C71D4F5A1,بابلو انطونيو,ألفارادو هيرنانديز,M,1994-11-10,Ciudad de México,pablo.alvarado.94@hotmail.com,None,Facebook,1099261527111645.0,0.0,0.0,0.0,0.0,8C71D4F5A1,5204.681100315457,2741.857642561527,284.87758401978317,272.0356758478899,199.53414202968355,241.66673097071364,77.45874152981077,43.621257825830696,122.3169417974995,2.2019353538878157,19.27494246623732,51.5086464221155,59.80241945007132,3.9786194089612783,28.114196685967748,53.30700427760242,12.057034715872838,5.232887286833205,4.233831232834695,0.5839134332154838,1.654752368204133,26
943,C08C71FBB4D6,Dweencx,CG,F,1999-02-04,Estado de México,wen-rosa@hotmail.com,None,Facebook,2547066292217666.0,0.0,0.0,0.0,0.0,8C71FBB4D6,730.5608670661732,271.2869678527811,100.18089602313353,52.99939708129755,12.774908011058494,72.23458264218331,45.856201872817714,11.323913147295759,29.494537258702014,18.37064841256456,14.485588408579416,7.790301670916893,17.76325435854387,12.231773763280266,8.957343918844613,1.0324873705977478,0.03233949971003024,1.119292143708351,0.07682089984043401,0.0973349339883721,0.3305436639825311,22
945,C0B658075DA7,None,None,M,1957-12-28,None,eduardo.castillo@magnatempus.com,None,Form,0.0,0.0,0.0,0.0,0.0,B658075DA7,372.59856217250643,441.1189791671803,81.59668564485301,78.58070717343038,42.942378063674965,65.23416420834126,44.9507613386213,20.342746298802812,30.497646357902422,16.422548790443763,0.6015102029562504,11.424312787293049,8.846756873564669,6.296113878900324,0.9090831767865261,11.51031685426038,1.6270939584842106,1.2291243810898866,0.2306518386276733,0.015782274643976996,0.024074557635958567,63
957,C49A0295A2AB,None,None,M,2006-01-25,None,vegalourdes14@yahoo.com.mx,None,Form,0.0,0.0,0.0,0.0,0.0,9A0295A2AB,7288.145123682352,16861.48676125179,41.55833165661482,767.4502485878065,792.4279927111996,387.925811675911,99.09320836131818,7.16919777072726,216.9648285965051,89.14151977691537,82.93488652285906,64.92635044702156,123.68746626076438,129.04494108774668,74.18673663754409,64.07719484840291,26.878215585696836,4.084451057958559,7.478045266557273,5.707024523655784,5.631663690662916,15
968,C8FF284FE391,None,None,M,2006-01-25,None,coronaf@sanborns.com.mx,None,Form,0.0,0.0,0.0,0.0,0.0,FF284FE391,4808.741216277716,14796.38641110482,1008.6766744498616,259.6204789518849,740.1217050338013,198.26000851297795,518.2564241068495,124.2504529581964,226.4390409061738,163.3517615874128,112.86266931373517,111.71176295180297,99.57626267859017,82.65784608883536,49.96949282826058,27.949021022976808,22.859613653516444,18.521402760642424,2.8924700354723085,0.4992541550120695,1.396030621462274,15
973,CC61E51C20F4,None,None,M,1979-02-08,None,pepe.villalva1@gmail.com,None,Form,0.0,0.0,0.0,0.0,0.0,61E51C20F4,156.83315503133215,1368.272192232836,56.59577877567226,61.074267425644415,84.27373782638426,16.286910157401554,53.851103019259675,7.445571284682749,21.650422506822498,24.074792659761034,12.663220473990288,5.056459768860288,9.798464508938181,8.059401346279236,7.932498648210327,6.690526843645638,1.6415855265897248,1.814174543521851,0.5312919224408807,0.7070501348117457,0.7473953629146222,42
1002,D00401BAEB8D,Karim,Ruiseco,M,2000-07-12,"Mexico City, Mexico",karimruiseco1937@gmail.com,None,Facebook,249224906052827.0,0.0,0.0,0.0,0.0,0401BAEB8D,3241.211560800303,711.8890294814145,245.39493778813147,16.070514461256344,114.15269397533645,53.358213283829166,95.15935495056921,98.03386152567575,51.29113971333315,36.75512609840693,1.6190134053217597,29.725664765939385,39.739602203575394,3.572077069870924,21.146295464785695,32.42805134528043,3.5985968910506627,0.26663106323280455,0.44154588615348034,1.4202400687819958,0.7258497577529814,20
1010,D016B4503D24,David,Vaz,M,1983-04-28,"Mexico City, Mexico",pirritokds@hotmail.com,None,Facebook,2204979779522286.0,0.0,0.0,0.0,0.0,16B4503D24,4767.992789308414,3878.527797542749,390.83249830966923,64.45965809768829,334.64862236143597,34.02833246943314,51.73721806723608,7.999132729277863,45.016859321023865,22.523134830479957,43.55534410426427,71.99848523536726,35.01462846977844,34.16679212958292,22.00621261672786,51.61832306676365,4.6321713360093355,6.980660686854221,4.680522665795503,1.2230101932388822,0.35780645821096907,38
1026,D07714AD542D,None,None,M,2006-01-25,None,martinezmarcelino45@gmail.com,None,Form,0.0,0.0,0.0,0.0,0.0,7714AD542D,1155.934973880177,230.95656169290513,1.4354776147506303,41.06432340868204,90.82982803263067,74.32514133891428,44.62675859617413,4.467481715741512,36.6252671611406,7.116966995661566,17.92301931462995,9.28417374854045,20.90011987887645,0.7435336233105189,2.7298856979172945,0.7857861748444238,1.2625310539294645,2.1427043530217817,0.8344992819873409,0.7314626687832531,0.2795037673811773,15
1049,D4389CD31CB8,Alexis,Valencia,M,2000-05-13,Ciudad de México,soelum@hotmail.com,None,Facebook,121906379193741.0,0.0,0.0,0.0,0.0,389CD31CB8,266.0182090291139,549.8075833801033,63.440864288499974,53.63471144135044,64.13727180388042,74.88752483065991,47.837462387864875,29.184857024824357,9.610384232937724,8.559297021151325,5.803900468185685,7.129146650796989,8.733171953332086,4.277265342850521,5.177941849176249,11.051710743735153,1.5386232218620464,1.8432926149604791,0.7851992440401462,0.38776676503513724,0.1538157056397044,21
1051,D461DABCBF4A,None,None,F,1979-01-12,None,evelazquez35@yahoo.es,None,Form,0.0,0.0,0.0,0.0,0.0,61DABCBF4A,1073.0159306528012,1689.8498468253622,52.49943157632993,177.82703276772736,12.480654281715276,136.1785183789066,11.849757346067806,49.83706970148906,24.51019807505457,0.4428195661400973,1.3055202172692593,31.946281485299465,2.7920728764754967,3.895878686415162,16.2094031782668,22.087108306728947,5.297794666942874,1.9066137776424583,2.4021906579573713,0.5813450609208166,0.08453191448637057,42
1056,D463C6412109,None,None,M,1997-03-23,None,lilianaescudero246@gmail.com,None,Form,0.0,0.0,0.0,0.0,0.0,63C6412109,26169.05935679845,4294.412583713074,1468.0584129170343,362.2581232190035,707.8654208768723,10.389311112725592,742.8895756886086,622.1045378801805,296.1529368942982,333.8845979655251,110.09412997391287,322.3895645609644,51.97371317414561,97.00185571390331,20.529759740587536,24.162421516547017,20.42578014086542,27.101089290416375,14.242677736825474,1.2865627808618239,2.717588305195818,24
1065,D4A33D11A399,None,None,F,2001-06-24,None,fernanda_2083@yahoo.es,None,Form,0.0,0.0,0.0,0.0,0.0,A33D11A399,6912.742914338308,2998.97483202529,213.8625439790583,280.4066399276723,134.39178718679634,48.91349725628577,164.27438282211972,26.574041764413444,83.71323960319948,99.05194202514889,94.99432374925964,55.78797505739773,59.969909321118074,71.58618523956983,38.0930603546623,13.306603945485517,15.99891849301039,10.625333335905074,3.5043914880560223,1.192470391755989,3.035007695486691,19
1076,D4C94B682EE5,Alfredo,Alvarez,M,1981-07-31,None,amoraa@iverika.net,None,Facebook,1072569309758878.0,0.0,0.0,0.0,0.0,C94B682EE5,1953.8343539912291,22.10434123283418,63.5824115412917,83.3324120313998,39.09250139205436,40.33817406077775,69.09105035799725,32.4048707313229,16.309953077682295,43.46333716243166,33.275340715260576,11.612107845268328,12.014464674094425,11.64642414332339,12.997825213386502,7.50454243643328,3.9691766139115354,0.43555857958982014,1.132658096897778,0.547785331144279,0.3107107716697439,39
1082,D4C94BEC0D94,Luis Alberto,Corona Cabrera,M,1981-07-03,None,lcoronacabrera@hotmail.com,None,Facebook,1669782576387094.0,0.0,0.0,0.0,0.0,C94BEC0D94,392.3369525215482,138.40146407124314,22.09295390496118,33.225926124647465,34.06500875584224,18.258194528032934,7.675069515267178,15.251348877565496,21.948292417076743,2.6952217820693805,16.96317556438946,13.913681613710386,10.315115168217064,7.8496251865275575,4.1753968753158786,7.193161941278948,0.9146568245525919,0.5707581298247923,0.7527798918011037,0.047335074662387226,0.353881231466117,39
1085,D4C94BF60949,Jhony,Hernandez,M,1992-01-13,None,flakito_jeral@hotmail.com,None,Facebook,2359038677727391.0,0.0,0.0,0.0,0.0,C94BF60949,575.6673587628763,370.92428235654523,77.39109680965247,34.814787248735804,32.40151949058678,75.38925424868361,3.7573932653256197,37.25784942722958,24.487676226132077,20.437065143877604,18.486692568682365,19.326819329047712,10.6426099449205,7.879483512384809,3.5879104039520655,10.440019987666426,0.7427002059173516,0.692657314263322,0.5565386792665924,0.08097527210085635,0.035309802152439465,29
1090,D855755DB5EF,None,None,None,1978-11-06,None,sosarich@live.com.mx,None,Form,0.0,0.0,0.0,0.0,0.0,55755DB5EF,1999.4460054466997,312.7867378602818,103.73294135092608,35.9515577417639,70.90385765110507,130.9577203707538,49.86175766277769,8.028966768262425,29.468993259188768,43.03060902601256,19.33370889420563,23.16014446245213,4.344514862683448,18.96759789068575,14.032461494888741,21.461844716459666,1.173661164145954,1.7274198663017377,0.21858329077298444,0.8712853112120613,0.5396309084195345,42
1103,DC74A8F91FC0,None,None,M,1981-09-28,None,brauoz.rodriguez@gmail.com,None,Form,0.0,0.0,0.0,0.0,0.0,74A8F91FC0,15891.677368116156,8010.389011219871,753.0458636310185,691.559359831116,732.9014698522335,694.8782160199321,181.86619635113354,273.4033284075352,346.40161836148104,218.85965735807696,137.34101276704416,248.806174812509,155.23155223137684,69.03990168105663,118.75290772142297,75.67523182297296,28.510135531542808,9.828881435428086,12.205507607193129,5.228922791750862,4.397682449162712,39
1107,DCBFE92D48D7,Gregorio,Alvarez Aguilar,M,1971-09-29,Ciudad de México,galvarez2909@hotmail.com,None,Facebook,3496900450382132.0,0.0,0.0,0.0,0.0,BFE92D48D7,3252.4729365977573,501.67083499311775,139.3197974604376,167.60621244128512,112.56433931503241,146.2433283660388,42.72590967485166,27.551289570644617,68.7713940859614,58.44552452533716,25.11825698357117,45.59446415586594,46.48936218102147,22.92178787211641,7.280342723717868,11.383029195569147,2.797479219795167,3.044795784793422,0.6512871074542967,2.098146150649535,1.2494815949811047,49
1116,E048D3590CDD,Ernesto,Lopez,M,1966-06-30,None,0,None,Facebook,114989033564057.0,0.0,0.0,0.0,0.0,48D3590CDD,6549.690279545148,5897.213346922005,154.6037391800209,155.3801239085135,16.171515111089683,501.8057541465082,164.95890779481684,26.024517094308948,105.43039821587412,168.0358323566262,88.69362073187753,79.08337303076165,65.06683882813843,28.663081502864916,35.30298507726983,9.25834088390321,14.806317020806599,3.881965749526643,1.6547369168241644,3.334022393275219,2.940303589836254,54
1118,E062675C6DF6,None,None,M,1979-05-16,None,gearrolo@gmail.com,None,Form,0.0,0.0,0.0,0.0,0.0,62675C6DF6,15257.450994053612,1576.5814350843475,573.319310966931,419.98379851264883,427.3566339967134,182.48874026224703,306.6569160225585,248.3378473813958,91.3480434015221,161.2160113773998,106.63304649363107,52.81262295653273,154.91915124383272,81.16093471138855,12.65147513914739,73.32499820753324,5.45838200713884,3.5004533852314554,6.682420096443171,0.7207999458343745,2.3959847539132073,42
1122,E098618C3791,None,None,M,1986-10-13,None,miltonhulk2008@gmail.com,None,Form,0.0,0.0,0.0,0.0,0.0,98618C3791,509.44855301781024,430.9521139231359,12.921195663134203,67.90468146137448,74.23996278736301,11.793383587878516,40.382483359404496,21.00332528999459,5.962290706934038,4.422591465035665,9.10140739164262,13.121752096045752,16.360710419083972,8.066678681739505,10.99900059545292,6.978327052343761,2.5846491829005065,0.9368580190981106,0.16614799965874685,0.506592082761404,0.14729521720752756,34
1125,E0C0D118049C,None,None,M,2006-01-12,None,yhgyjvg@live.com,None,Form,0.0,0.0,0.0,0.0,0.0,C0D118049C,447.15248545814615,435.43455531212214,8.024949055401423,21.084135988450967,0.17800390619114473,42.169277442407406,32.44025032998065,0.277842581482597,14.490370533858444,23.407732022879383,7.345081656067843,5.943859093649871,10.486941030794085,0.43068745825595484,8.351793005369357,7.512649604774264,0.6762067486316579,0.2890506272941341,0.6134868492202606,0.3028170119903421,0.38782428303201,15
1127,E0DCFF01B04B,None,None,M,2006-01-25,None,rbautistacsmpo@gmaio.com,None,Form,0.0,0.0,0.0,0.0,0.0,DCFF01B04B,2115.9533052065717,3086.9534416734823,295.9599403224968,84.44160975790201,228.78761371666297,58.65550415715664,20.31791464079744,85.35827774829336,101.2846909767314,21.038726988987825,55.829800318151804,56.16715773150286,0.6818867121527253,11.57279903957352,39.66827143572871,18.419743693787833,5.123665206335453,2.0741696306121535,3.782547326020079,0.22939680949033903,0.6995369075628524,15
1142,E4A7C5EC7640,None,None,F,2006-01-25,None,sanchez.d.karla.m@gmail.com,None,Form,0.0,0.0,0.0,0.0,0.0,A7C5EC7640,1560.298652805149,2887.90108389027,109.4984986135294,69.84139819555932,49.21851939557388,95.24300553858845,42.19133843718336,5.582159254245689,30.311980348369428,11.566435501958011,3.948527768654528,17.328661911870203,26.563880499992706,2.0427574660449057,32.358488310723146,17.028043536866033,3.9643274978671914,4.920675782135548,1.0698333903763588,1.1634528719799624,0.9582789830620309,15
1149,E8508BE37923,None,None,M,1972-02-01,None,breme537@gmail.com,None,Form,0.0,0.0,0.0,0.0,0.0,508BE37923,500.8807708352287,708.0075345314197,58.14884453640788,22.006917223138316,43.19862283988339,83.11260221796316,15.325316009309391,46.039032439175514,22.33205501309688,14.396621948885898,4.988750995325537,11.648139786737763,5.357529044540934,12.475760034652126,9.815839313203826,8.716499035421464,1.8878438991847775,0.9882128670006892,1.0307778178736193,0.4158740222288085,0.22645558932179663,49
1166,F018984F0477,None,None,None,1978-08-23,None,emiliocores@hotmail.com,None,Form,0.0,0.0,0.0,0.0,0.0,18984F0477,1039.086262370369,1943.1052215379168,89.59383519725401,140.8365207226587,116.96477447124484,151.22993222897924,57.5050666793074,80.40063038980446,8.478005025349574,25.03836174317527,45.084559356785945,10.524284368082682,22.92067000080695,15.345248663300271,23.880971603674602,12.821792796714275,1.748851016601245,0.713391220507621,1.443139594608133,1.150922123996574,1.1275588888618189,42
1193,F47190812C60,Miriam,Espinoza,None,1984-01-02,None,miryespinoza976@gmail.com,None,Facebook,939455429754161.0,0.0,0.0,0.0,0.0,7190812C60,2023.9132329885344,179.10610050575238,19.691107906222722,118.23476864560321,32.069625783592066,133.49945897320416,3.0044888399824563,64.75629415471042,19.226526017403827,21.47293851052145,3.059815039421998,35.22033085667373,5.176704655836062,5.8321356016207675,13.945138687680238,1.741528662322023,5.153636440326336,0.7209347194622765,1.0173966129359477,0.7230667576239981,0.4347696405688936,37
1199,F4BF80BFC206,None,None,None,1983-03-08,None,frey2206@hotmail.com,None,Form,0.0,0.0,0.0,0.0,0.0,BF80BFC206,226.69804363777845,1713.116578306878,94.56607542686027,123.82261933219829,115.68329312431774,89.74035780165003,53.945669861470144,17.217128036656916,20.769748380146304,8.950736087294986,36.44777340692702,29.88111504046554,3.9660022314249113,13.592952970587142,14.546951013507176,18.205568573423513,0.8776751465698611,2.0793901680991715,1.609858977337332,1.1741045555447758,0.1083579208614059,38
1202,F4CB5258BE44,Mary,De Villegas,F,1964-03-01,None,0,None,Facebook,763675480834196.0,0.0,0.0,0.0,0.0,CB5258BE44,68.71497442338472,849.2300952048698,62.434937669172434,46.78730464746317,64.17155556647256,78.7340298845202,34.198567154255656,32.35111788286799,2.1474256570043138,15.87271448700048,20.742201688188477,1.5742948191519939,14.256739644948132,2.2533364450278888,1.5049410099791618,7.906228886607383,1.169873227870344,0.2216753145956339,0.6980344648643361,0.6056281050617908,0.42432381669412855,57
1223,F82D7C9D9B39,None,None,M,1972-01-25,None,eduardo.chacon@expressa.mx,None,Form,0.0,0.0,0.0,0.0,0.0,2D7C9D9B39,5.697445684911103,1479.3054060372301,78.97568478218018,92.40552458883143,82.49842731166171,91.2569008250053,3.4955558975158576,41.512896397564774,32.5891713052133,22.306216483409234,1.97589907409136,5.93226022284882,4.886650137014974,3.722610372260112,9.0018949825965,0.1409257989995335,0.15676971120714756,1.7456034738196826,0.11216231392243987,0.7441063379844284,0.537888261730928,49
1246,FC183C22AB68,None,None,M,1982-02-01,None,benguia82@outlook.com,None,Form,0.0,0.0,0.0,0.0,0.0,183C22AB68,2690.263711612402,3219.4584394875747,235.9557082115525,177.39886064097723,148.1140259792713,54.73837130839628,166.20144740471605,8.602366921870976,7.738703906277185,107.1226798411085,97.9270485706131,65.66861671712589,0.282513631466645,14.63878992598289,20.606246266414754,36.51370209836556,1.9819754729998782,3.009005399188416,3.2110772540697345,1.4020037706007986,1.1647055790242533,39
1254,FC420383146B,None,None,M,1966-06-21,None,arkangeldivano666@gmail.com,None,Form,0.0,0.0,0.0,0.0,0.0,420383146B,42.83782937837189,1044.7738795099747,32.700628075455676,64.97585666217175,61.87178990629981,57.95405341131727,33.9809653042533,0.48019648258029896,23.9077854922879,5.3167154908480825,4.5942395390344055,12.858374443239189,14.740098230020395,10.280792440630913,8.210297789282155,9.57377042019491,1.4291841228437459,0.1691505962749373,0.7347250965123856,0.3335670896615199,0.27610051874459884,54
1256,FC8743CE0FED,None,None,M,2006-01-25,None,j.abrah@hotmaul.com,None,Form,0.0,0.0,0.0,0.0,0.0,8743CE0FED,830.1223452094338,661.7198361782339,100.8166133310507,129.64411878854452,119.44640701460614,82.39481585111987,13.530782636727002,53.077508369627985,29.927054720444467,39.105954062072264,20.28659510576331,0.42321215696614894,25.413337854110413,7.749836401162809,9.218069120210764,16.485446201403988,1.265894788884458,0.30911855192052895,1.1691243602528383,0.7302269879601848,0.16370230950410594,15
