,client_mac,first_name,last_name,gender,date_of_birth,location,email,mobile,source,facebook_id,twitter_id,instagram_id,linkedin_id,oneclick_id,client_mac10,Restaurante,Relojería / Joyería,Discos,Zona de exclusión,Lentes,Libros,Tabacos,Otros de farmacia,Pastelería,Dulcería,Parafarmacia,Juguetes,Novedades,Dermatología ,Farmacia,Fotografía,Caballeros,Pantallas,Pasillo juguetes,Computo pasillo,age
0,B0E5ED69E336,None,None,M,1983-02-18,None,charlienava.l18@gmail.com,None,Form,0.0,0.0,0.0,0.0,0.0,E5ED69E336,19205.808196070982,1330.8631923247483,825.4042924247229,86.03836617227124,957.8512050783581,322.82032892622647,405.37819655622866,257.4535449536731,239.19587665290027,223.50796681378554,161.5056613656532,11.644459274783019,127.07591188224124,99.9654271719797,17.752529128395807,14.592466957793183,34.14679930098674,5.19363410243015,1.7910028663797388,4.01094197546157,38
2,D02B20DBAEF8,BeTo,Vazquez,M,1994-02-08,Phoenix,albert020894com@hotmail.com,None,Facebook,3061463280560047.0,0.0,0.0,0.0,0.0,2B20DBAEF8,509.14388939168373,177.66735510525697,32.494850610735185,12.406684215814142,38.87497817440326,48.81765846014276,36.38591935753177,21.632938010916234,22.49164251719198,2.645997752884066,15.14946467853774,1.0183558108231627,5.586534932390278,4.311993703062201,5.056970116405891,4.055172972308071,1.9476042308348493,0.06255919408915896,0.21706761024043447,0.032363154748320265,27
10,8CF11200AA14,Javier,Perez,M,1995-07-19,None,javierpcruz62@gmail.com,None,Facebook,126610222389211.0,0.0,0.0,0.0,0.0,F11200AA14,13369.41303114711,14091.427667015789,345.5693184084824,365.8673030494273,1134.4097113526561,338.8520168003258,341.2438470952299,556.0629441883788,168.54445491639098,51.48181029991614,234.46751021623555,12.694042774183034,95.09533365366684,6.661487832816332,56.57924294473781,106.86312537802559,55.908446407016896,5.687458201413489,0.12337241258811796,2.047875905610251,25
34,601466F3D78F,Omar,Valdiviezo Antonio,M,1987-01-01,None,valdi.rami@gmail.com,5562013391,Form,0.0,0.0,0.0,0.0,0.0,1466F3D78F,1941.0552984250294,730.3145838883319,23.1405636907788,81.96288111546937,74.28645688302382,14.318247690334658,25.290361453642813,4.872647633225241,29.299746779471736,21.40434233366446,22.914213846509334,6.8668567297759955,5.097951804761675,8.12827846610786,13.818387509025442,11.176675908540345,0.0958050595200537,0.49552582320313154,1.116562365802723,0.34461259378201115,34
42,7CA17716C5E3,None,None,M,2000-01-01,None,jmejia71@hotmail.com,None,Form,0.0,0.0,0.0,0.0,0.0,A17716C5E3,2353.8351788977548,292.96548064045805,48.68276589061935,27.384137909090388,145.12844113715144,5.443257917424503,19.824950287875048,39.291653264294325,64.36608937895781,19.98619483678763,44.138127947520445,25.08236483385536,6.668873940583371,3.167317475736662,4.88716944518262,0.5266365961792051,2.3102300120863273,0.18140402989077012,0.009659206219532715,0.12006635233304254,21
54,F4BF80BFC206,None,None,None,1983-03-08,None,frey2206@hotmail.com,None,Form,0.0,0.0,0.0,0.0,0.0,BF80BFC206,21351.439667841532,3062.0079626004294,1115.585851980907,602.2282283566881,255.1786762737169,437.5488758431248,505.66471634596894,142.51990871434387,336.76019392695525,301.01548543209265,161.95122486441795,166.7270740944175,148.94445352665412,19.575277350791822,19.77038855646736,12.259910478596304,25.740185776332744,3.397579134580288,3.559109822620082,2.1252290793630055,38
56,8CF11256F6D8,Rafel,Ponce,M,1978-12-11,None,rafa_sanborns@hotmail.com,None,Facebook,1716195768531936.0,0.0,0.0,0.0,0.0,F11256F6D8,15256.263870911476,8148.1195446599895,1247.3658009028024,376.80985488839883,472.43753754845557,646.7318605914999,57.42240835901974,237.2122985871413,18.886092694727125,351.6105917871395,298.7850142344709,90.29206710887198,107.03426347815798,59.15557867735522,26.005619617824262,51.62901076811896,27.563410876855617,4.671349424036929,5.130532691509229,2.8732921921441714,42
75,D463C6412109,None,None,M,1997-03-23,None,lilianaescudero246@gmail.com,None,Form,0.0,0.0,0.0,0.0,0.0,63C6412109,13558.07017481085,16605.297539535015,1214.5887697393948,1039.542838670172,1053.6570956587675,583.3808197835971,631.5228694032675,607.6551588909765,207.61823988857554,70.32266021695074,265.8173708175151,187.18438795344085,89.60704696088774,7.103169099786444,123.93846151559083,90.07361377992729,19.314169528004175,7.206552779187406,1.0681496409922124,1.0309113270990327,24
79,F0D7AA3B18CA,Mika,Likon,F,1971-01-22,Ciudad de México,mikapriest@hotmail.com,None,Facebook,3136984629698538.0,0.0,0.0,0.0,0.0,D7AA3B18CA,13868.001093863733,6109.51079733545,988.6579182639591,868.254959789666,804.1104761983887,422.39997097513003,584.3972282268314,93.28175649746899,390.76747205386727,183.60943102584775,196.85530037721358,62.26436745108158,130.43252841824105,88.47205346189855,91.29189860772968,35.71777953757757,1.5959092264987143,5.341409540176055,6.261984721173638,1.7756644280724512,50
81,38D40BB668C4,None,None,M,1984-11-11,None,jack_anje84@hotmail.com,None,Form,0.0,0.0,0.0,0.0,0.0,D40BB668C4,7689.220991979982,19863.557361411087,1155.1906995718612,1086.5595495413434,605.9655025461369,807.8326353809124,131.8208329127116,130.56449118064563,117.8886260159516,93.90589902567353,220.00137586013378,15.843605073625692,145.99019544379777,95.69925100715419,122.72055017250985,93.17022303956924,2.8451320370711453,2.3042315272544944,3.9072686517335513,4.011577620840122,36
83,AC3743028EB3,None,None,M,1985-10-30,None,willipereztorres2015@gmail.com,None,Form,0.0,0.0,0.0,0.0,0.0,3743028EB3,22709.994725019926,12429.363439066918,1478.0446746758853,665.5098019512367,938.9887181615239,577.0669164200264,291.874573506765,111.56946527597992,265.1580663236873,190.58036948762702,239.58168442121465,223.96014880328374,22.132115276205838,152.1996902770696,91.50504414248685,101.31530528185425,21.655834138503607,7.863248776448567,1.0732969100825853,5.5628820832763175,35
89,D461DABCBF4A,None,None,F,1979-01-12,None,evelazquez35@yahoo.es,None,Form,0.0,0.0,0.0,0.0,0.0,61DABCBF4A,30495.639863527085,13398.742806897879,1475.0260932876017,2067.751426873889,1721.029054068955,727.3530620918435,984.9040982528892,21.164988504486004,552.8345690105675,409.08312397810994,411.2430141981592,60.68523264214723,65.20586641557878,81.18296910986471,124.99890077849419,80.7340644655994,38.86785740436506,6.448309424923874,2.124525251127504,4.980173816438339,42
100,202D072B40AE,None,None,M,1991-01-02,None,yoniantoniomartinez@gmail.com,None,Form,0.0,0.0,0.0,0.0,0.0,2D072B40AE,6784.12922043124,15989.905525882357,1319.79970732949,1295.6216281163051,634.5546671943316,37.70421373057316,606.0082336092444,361.32547700046564,129.7364809205588,301.03845031524764,292.443297595307,52.06804927661316,15.658013402508463,86.84890195962608,84.92169023692557,57.686778500815606,0.36269218878108056,3.1311302385925166,7.473303403548473,2.5825386674622908,30
108,F82D7C043FEE,None,None,F,1997-01-25,None,elizaldafm@gmail.com,None,Form,0.0,0.0,0.0,0.0,0.0,2D7C043FEE,29822.78675030957,37749.28225725768,3361.5952107689727,1649.0991035139964,2552.0843927677065,1688.6413345685855,858.5388612510169,778.1504627328578,584.290443463155,169.84488417992327,664.7618373723624,85.29908798789027,108.02508804508925,190.3573379473517,23.6678020992961,152.48574950356576,127.02607188885803,19.205187511676524,11.326000082831367,3.53213674761042,24
118,74C14F41E867,Oliver,Isunza,M,1981-03-07,Iztapalapa,dies_irae00@hotmail.com,None,Facebook,2783777484972631.0,0.0,0.0,0.0,0.0,C14F41E867,13729.527832817863,8133.0819790132755,1257.1264463990235,630.9524351153212,711.4274473192737,527.2553093876511,45.91437385976459,149.56088220665322,48.33712686263332,80.60656384451623,246.64538420736196,87.4340472162236,116.1799378841734,101.00993295479287,9.474142313988635,52.140084226372096,42.62043161492237,3.402479199026883,0.16725969552206735,4.135903861642352,40
123,18EE6993903E,None,None,M,1983-09-10,None,ola.k.ase.fs63@gmail.com,None,Form,0.0,0.0,0.0,0.0,0.0,EE6993903E,59143.97186995008,16498.126973117436,3128.785002682547,2092.0608629458948,655.1457609640565,69.06054514986367,1014.1175995234552,1312.6784584306397,109.5569291354871,283.1000375240411,591.961225018349,391.32947539348305,128.23179925741735,266.0461314456828,280.6271796156141,209.40796358888352,59.55071102238622,20.298577180810984,5.666917842492619,6.275980211412291,37
130,58D9C364ED52,None,None,M,1992-05-08,None,10392oscar@gmail.com,None,Form,0.0,0.0,0.0,0.0,0.0,D9C364ED52,913.4264566837351,491.0565229370247,52.89627564092957,62.3315303818331,74.76655994691873,29.174946457272576,18.148281907896816,23.055517695433263,8.062761998920049,6.432843981538612,1.7999305513870698,18.167830390434858,7.462695603225912,5.647353956257913,1.1269186271308378,1.5050677380226087,3.529564103537787,0.018742229630896307,0.03685727610999499,0.35334189276024164,29
150,54BAD693A102,None,None,M,2006-01-25,None,sanbornscafecarso@rappi.com,None,Form,0.0,0.0,0.0,0.0,0.0,BAD693A102,26651.474222685065,14781.052700973309,550.4514214726389,516.9011595522404,1020.4951721525846,272.10195788348534,522.0221143955523,164.4937186028494,99.2485192986239,44.6760377792612,344.45624444094915,74.18867435455415,171.52213910240218,84.69332756097732,36.418578466704595,43.117721286265244,3.2722361812807907,4.763435201605911,8.188890350302337,3.461728259340493,15
154,FCA62182BF43,None,None,F,2006-05-30,None,ferni15_pink@hotmail.com,None,Form,0.0,0.0,0.0,0.0,0.0,A62182BF43,19024.85670186269,13373.410132999536,125.57929284945598,19.496048550923245,588.3837828470278,359.8600745930648,91.44850353341353,272.09481635245277,226.64394412344348,202.53043423671923,205.60939207970296,87.0967652978543,82.06089810848077,128.14409682442283,34.78963304868192,109.74867783241997,58.93692821136813,7.759722522152715,1.2731600473366174,2.2769940788474625,14
172,44D79170E4C1,Oscar,López,M,1995-02-08,"Cuauhtémoc, Distrito Federal, Mexico",oscarchivas_619@hotmail.com,None,Facebook,3615390245199391.0,0.0,0.0,0.0,0.0,D79170E4C1,7148.330685617818,11130.012911916523,1132.9667805085219,683.1637340431917,99.18018891353111,676.9956815998504,2.3474098144753053,37.09594114856967,355.8471625992632,296.82997823054615,117.35193157953552,2.276547747702869,88.99709080287481,70.33233171989284,71.67192190613214,12.85193926936393,25.023471279624857,1.8985758819116676,2.80885546282767,1.016859957850041,26
180,FC94357D2C96,None,None,M,1979-01-25,None,plazacarso@sanborns.net,None,Form,0.0,0.0,0.0,0.0,0.0,94357D2C96,25874.859499004382,10424.746740904484,977.7598945013951,368.8452809893519,553.3997217095127,382.65053382757077,560.7728901987683,74.54717753059181,327.9726657043773,284.15873096994454,231.49871515571184,16.408101091872098,119.65075013483,161.9909558116486,115.9040402666197,106.54533893578852,22.109103277953754,7.268448753212803,2.1226589528479405,2.7887522791357413,42
196,5427585581C4,None,None,M,1980-12-31,None,aybplazacarso@sanborns.net,None,Form,0.0,0.0,0.0,0.0,0.0,27585581C4,29321.271071764142,42429.55103550517,1831.7661778734755,2699.4858804832875,2963.9951441405888,884.0600029137929,1500.9468927192033,938.0892076531202,1212.2242677585696,753.8795388588766,423.1998325283248,112.57350004826128,42.954797422363285,338.7020947608673,38.87611891391205,28.33604653061977,20.432764801924346,21.716546957642223,19.369005812488936,2.570072553386206,40
197,E062675C6DF6,None,None,M,1979-05-16,None,gearrolo@gmail.com,None,Form,0.0,0.0,0.0,0.0,0.0,62675C6DF6,10899.445416544677,20253.146899441646,504.82464284251176,1015.8342624298704,171.52206027197246,897.1393568505458,509.2763205979579,340.3386171759099,95.76991513901221,74.85929475131014,108.11813499582219,40.08715606244774,25.12482931780156,147.2496922409123,84.37043709676225,97.13334037217146,33.13688170023209,4.6895147220684334,7.302667032833589,0.6305604135266664,42
206,B8B2F87928F7,Casandra,Coronel,M,1996-09-04,"Tlalpan, Distrito Federal, Mexico",vampi_barby@hotmail.com,None,Facebook,1360182454168640.0,0.0,0.0,0.0,0.0,B2F87928F7,4302.5138566837895,4292.176985978038,266.31903071829595,55.01077182595195,351.73331599711327,116.03862612959823,80.86478328048895,37.257335581742694,164.0104562794694,72.32576329365763,19.53481169012058,55.0012255481232,57.406586409770334,29.93379229100651,31.098788592525562,25.9310986908731,19.32483297574304,2.172547100515297,1.233697289581299,1.1116936435958404,24
224,A4C3F05D9D5A,None,None,M,1987-02-05,None,diego_guerrero07@msn.com,None,Form,0.0,0.0,0.0,0.0,0.0,C3F05D9D5A,25419.391792199138,31367.58174214614,1065.1793434862157,478.6002467174232,2063.5643000775635,311.6444514385213,53.26355419973641,606.0290902729937,873.9515390243075,434.3423852897846,63.191032723380125,52.18884497554941,343.82487467695046,247.38933493374176,132.42717030904745,96.23710918529504,38.10727087337049,0.5795700226387733,3.476134461880699,1.0302129863391865,34
229,D4A33D11A399,None,None,F,2001-06-24,None,fernanda_2083@yahoo.es,None,Form,0.0,0.0,0.0,0.0,0.0,A33D11A399,31960.480510187204,44466.367582004495,2710.089717750818,1527.649709357379,267.5168058398829,1792.2454936791403,335.2448975206989,220.4443490335422,207.36776962758023,619.0931748807732,714.5620023158783,329.3896627220008,304.307274506108,162.3520396565096,29.45703354198912,140.32372656233593,58.70566088743923,11.97687148433932,8.810069124880975,8.615649316981937,19
235,703A518D9148,None,None,M,1979-05-16,None,gerodri@yahoo.com.mx,None,Form,0.0,0.0,0.0,0.0,0.0,3A518D9148,23969.22332539917,1097.3606036101826,1349.816487131271,21.965374454012732,845.7293886819024,103.90714073802563,417.6651549552455,18.882810765461763,236.36118748952384,42.419616105006696,171.0469607544347,22.00054035783051,109.88852446478546,48.5173717232083,92.01194557823466,41.994937799170714,43.1321516552656,0.4299269371332042,0.4464936468802053,3.2000577532543426,42
264,B0C19EE59F3F,None,None,M,2006-04-15,None,javibulls150497@gmail.com,None,Form,0.0,0.0,0.0,0.0,0.0,C19EE59F3F,319.17295743001716,227.71908564014865,17.88765929758746,63.74422700410841,16.507193773974787,22.09730605010383,18.385967511912558,7.4477671177545135,19.611863012224504,4.0432832863129216,14.96690464883374,7.675783234577745,7.72963532255938,0.9415618895620866,0.21916594951231919,2.5529491931056545,1.7992003486105248,0.18412879968866208,0.10822788492198544,0.2051326044831027,15
297,B0702D3225B1,None,None,F,1979-01-12,None,velazquez.lena@yahoo.com.mx,None,Form,0.0,0.0,0.0,0.0,0.0,702D3225B1,38598.14730139903,14260.374581640293,1829.6071074103065,1779.381726684604,1416.333368076389,1250.8926430848544,1009.437002037792,986.46039886365,617.9441553796707,738.235044105845,348.29948300499603,121.882123916205,284.7495223569879,18.613278865593603,177.82845115273048,162.47885780077485,42.77095975056242,9.88537643926567,15.621522506118387,0.05709552432895906,42
415,BC765E4F5BBB,None,None,M,1970-06-05,None,nicocruznapo@gmail.com,None,Form,0.0,0.0,0.0,0.0,0.0,765E4F5BBB,9260.170397648057,2260.4592957530867,191.7702147691226,117.0690676506681,270.4531285417677,360.7428860582603,243.77277151026712,151.6145223423398,76.26945150184153,166.04582480098125,146.76223979687396,39.35558349757175,42.56462368478983,36.4945985229856,42.77693182416531,41.93462680100996,22.545497188705575,1.7977240423891043,1.9007762266132833,1.4998378385044524,50
488,A0CC2B8C7F37,None,None,F,1984-03-27,None,elizetedecampos@gmail.com,None,Form,0.0,0.0,0.0,0.0,0.0,CC2B8C7F37,253.07332135499792,772.3401516764112,48.554632171056646,40.47689188148422,47.650192821520186,2.730947508275319,36.74301300157667,29.616602535379613,27.16752374641713,7.434516376925512,22.13345393901925,0.03476146847756515,10.109042254785273,4.505528190995296,2.7093474721684783,4.946232081549876,3.2757673875977935,0.06785123207556548,0.3980044918111392,0.03221840747508578,37
504,F018984F0477,None,None,None,1978-08-23,None,emiliocores@hotmail.com,None,Form,0.0,0.0,0.0,0.0,0.0,18984F0477,219.7398344508309,2847.3276503261122,9.23349819813003,220.25108983027994,10.902457957438651,50.86715522382376,54.97398377025989,86.75740693154594,28.02884419301407,28.356306568020177,47.677699645658564,22.72241621269285,21.643874097490546,7.668362898608346,16.932859368618796,13.357526086838325,8.489644876096767,0.4739316105654149,1.2679711145674946,0.3274866394076792,42
511,88299CF32821,None,None,M,1997-03-08,None,madrigalmart20@gmail.com,None,Form,0.0,0.0,0.0,0.0,0.0,299CF32821,142.53294060384124,403.61946440718094,18.577804614711773,18.23003382515153,42.78583303509626,37.394347579184966,23.15646318201348,6.154994377182562,22.84368969458469,0.7477377930015958,10.370248907435084,0.6565653682827071,3.9783859620706994,0.1451613952033138,1.0581342595377066,4.802750263939328,1.548064325979256,0.06430949057564232,0.19062673280714393,0.14244418222007038,24
538,48C7968F45A1,None,None,M,2006-01-25,None,ah079907@gmail.com,None,Form,0.0,0.0,0.0,0.0,0.0,C7968F45A1,589.620787375657,1704.4539904546732,68.33031347955057,193.1979585137178,9.52763400362118,117.68606392881806,42.9948925235611,21.95033582712678,51.54723192836462,35.43491791878268,19.965730941473456,27.130733129538374,23.33824481499398,17.731800088349573,6.848871190250927,14.37835268469066,7.704414563537788,0.7313227194633914,0.036269372211841656,0.3901345416157836,15
631,FC183C22AB68,None,None,M,1982-02-01,None,benguia82@outlook.com,None,Form,0.0,0.0,0.0,0.0,0.0,183C22AB68,9642.725725065999,4.253823573692903,386.78143739613324,470.51139556324244,67.9094492444888,221.81471827353292,235.58735142836025,58.40961715417346,123.40917138262472,57.41311658281918,91.60922503156719,53.48472214431218,71.68891256125039,36.07385115361651,26.0663521479265,20.640154814464125,13.266604855876729,2.8165158919626587,0.9796440182332993,1.5582117157243462,39
637,B49D0B98244D,None,None,M,1969-10-09,None,hernandez.torres.alvaro@gmail.com,None,Form,0.0,0.0,0.0,0.0,0.0,9D0B98244D,6934.8244950171265,11911.064783066733,680.5927467111122,56.68986365506312,79.75281993370885,346.3716220800893,113.45814010902056,223.15446810289725,353.8407800287407,122.2993290355851,238.85060861992986,11.076416345834117,30.36983984516525,48.34824965139901,47.75467697383293,49.52056753449462,29.48917138965283,3.4127986504827383,2.9974565971237874,3.1311666520131705,51
639,4888CA2CCF4F,Miguel,Nava,M,1965-09-16,None,mikinava1234@mail.com,None,Facebook,457885718476096.0,0.0,0.0,0.0,0.0,88CA2CCF4F,5481.481764922505,5214.887195534662,193.03113146264533,327.2170065113302,184.29194608921838,56.87993870785071,245.94228308918994,117.31849799194626,92.81881650286253,36.44054989706497,36.957698391086026,86.55809262965059,21.689039648742057,10.490399950685987,14.054544141904106,22.16416405330668,1.6446376042518227,0.8780071821797278,2.083697204667161,0.17058848425052636,55
652,C0B65843AE18,None,None,F,1994-11-28,None,lola2573@gmail.com,None,Form,0.0,0.0,0.0,0.0,0.0,B65843AE18,1721.2466541069057,286.20719397244864,41.07112499240787,44.634698241021,112.12289680069865,46.618567859425774,32.366402926680856,49.792526888404765,22.335397451054863,16.041663470340573,6.488386453813255,23.281237475497853,4.626889781532261,4.341259296856695,10.342143499276107,5.048709438730727,2.85748670337934,0.8625194447821833,0.5715035106886392,0.142737686053933,26
663,304B072BCBF2,Jonathan,Castañeda,M,1996-04-11,Miami,zimeko94@gmail.com,None,Facebook,3293706880662043.0,0.0,0.0,0.0,0.0,4B072BCBF2,5542.028175453264,870.3611952185257,266.679078504682,368.084104542368,157.72400124299108,50.73946452489759,123.88984243020872,62.83262974499974,99.40511447077905,4.7443916844940714,72.61805657380134,42.757201762784874,45.54466354164565,27.858125217903822,34.37730914090399,11.94185982322874,3.3105195294239556,2.078909429500817,0.3305013304228401,0.6948558331742226,25
679,88BFE4C7FA5D,Jhonan,Hernandez,M,1997-04-11,Miami,jonan_557@hotmail.com,None,Facebook,3025014344210125.0,0.0,0.0,0.0,0.0,BFE4C7FA5D,237.36857577981706,2974.334015583825,71.10789101565837,130.48449176554627,132.84237687678743,156.99156091087607,16.266570734645658,73.89165082327878,56.93734824127613,74.44669678897641,2.092281920589242,11.789770940592147,14.339700006052489,7.460126737138558,19.200701809202243,11.569678458255076,9.428379566366747,0.6796950351331427,0.09631326888050586,0.672173737102023,24
680,8C7967A21DA7,None,None,F,1979-06-27,None,alerdz2004l@gmail.com,None,Form,0.0,0.0,0.0,0.0,0.0,7967A21DA7,15868.35776871142,2621.745788502752,1022.8875961428217,513.5535729170927,577.6364009680223,245.14275811471572,361.4156012682173,320.6586590997353,222.38865962351753,4.835652391150381,187.54698219474534,142.68892221475917,31.92028485569248,47.37588623398552,12.637306596828905,39.72261966337056,23.317002364012886,6.315148718594157,2.616416822958691,3.236972595605735,41
686,60720BD94FD5,Jesús Cuauhtémoc,Hernández Benavidez,M,1970-08-19,Ecatepec de Morelos,jesuscuauhtemochernandezbenavi@gmail.com,None,Facebook,140582414026195.0,0.0,0.0,0.0,0.0,720BD94FD5,32994.53475927202,5820.428347166224,709.0455220077132,693.749198651606,728.9685054224819,219.27573158874134,548.2709171008928,315.81439728362943,40.21931735678176,321.38448380313866,300.94198575747504,150.6026526134163,13.32974537652201,134.5749620480241,63.71634216706376,95.00515700942027,74.384836787873,8.752112442193555,4.7725720482621075,4.228454096519733,50
690,6CB7490579A2,None,None,F,1973-07-29,None,azucenadelcastillo111@gmail.com,None,Form,0.0,0.0,0.0,0.0,0.0,B7490579A2,972.3161892179194,66.62929951589796,37.973560151911705,39.665205863773174,62.977661691721615,2.503858613657611,24.88774586638268,13.075632958468326,5.34693175913356,6.081105403480565,13.943740078812995,6.539786450237495,0.9081300462509937,1.719668796127145,3.7904002169236457,3.0096838682089255,3.9755213495555353,0.5855986555711558,0.014308316678583516,0.055971179287050914,47
691,90633BE80FB9,None,None,F,2006-01-25,None,brayan.mb61@gmail.com,None,Form,0.0,0.0,0.0,0.0,0.0,633BE80FB9,16706.18309042925,1268.032441745799,360.0501234954,817.7550747681895,42.414943420545995,610.1146273656761,134.48467761964332,147.1178119614867,361.95431588739746,180.02632647805186,145.39583654984725,71.02119502108145,64.39101746571538,47.131787973381535,39.63645320236481,70.23058194415208,40.15866749504109,1.1453970326048293,0.49686158927688034,1.2587685550952616,15
695,804E7046D3EA,None,None,M,1983-08-30,None,blackhoga@gmail.com,None,Form,0.0,0.0,0.0,0.0,0.0,4E7046D3EA,21527.696888216415,8535.20364934092,58.393774970118486,477.3423652966035,219.6336106915179,75.38269041607793,182.4977293994087,168.07508032337404,184.72934100276453,163.75250685317013,256.2828689037922,181.64250866743203,97.42566369835481,89.19344154245135,67.5945827862694,35.366041108647295,5.353200597514785,4.023261143407814,5.6856660818268505,0.7251289599387718,37
696,D02B20CCC024,None,None,M,1991-06-15,None,contato@galbajunior.com,None,Form,0.0,0.0,0.0,0.0,0.0,2B20CCC024,1227.939591460422,847.0625427138581,94.61134112738873,155.84585364440682,113.92109424224638,2.04391188862035,3.392798769813739,40.822231639537826,16.665295278704896,11.586440816954498,18.68123504400378,3.8621191670710915,1.8522873656547885,3.8875666410243706,8.291132645714619,6.003009612431287,6.77511331758972,0.682625399554335,0.6119960327835631,0.4618131922198209,29
697,C08C71B4DA43,Aaron,Granados,M,1997-03-13,Ciudad de México,5583146624@gmail.com,None,Facebook,498937507717399.0,0.0,0.0,0.0,0.0,8C71B4DA43,5712.449170824715,11760.738455023755,1030.437929057795,782.16752510087,327.3853962129545,299.35050672980833,373.83443083017784,60.92913463447665,194.5560018504254,31.126162270465205,63.21800391357317,131.4688119270259,1.6193313451507465,60.557532718948444,78.99658637590886,62.28646016858248,9.918299367135843,1.9189492417116807,4.055247746757741,1.9860646597671545,24
706,7CA177FCD828,None,None,M,2006-01-25,None,elizabethcebrero24@gmail.com,None,Form,0.0,0.0,0.0,0.0,0.0,A177FCD828,25315.722185540166,76.58177121723958,333.5091406809157,1326.1435277259575,966.7148415043533,737.8678711882048,53.090217698128534,95.59086084594425,477.2702498547061,288.7157275643979,39.24221710945411,109.11181051957605,6.175762479874809,63.87624166957034,49.752708603795966,64.1739363720643,45.869492388810535,2.3714745629512635,2.2344336851589244,0.985528788733013,15
714,B4BFF6BB786D,Lupita,Lopez,F,1998-02-17,Ciudad de México,guadalupe.penaloza20@iems.edu.mx,None,Facebook,2910558332332589.0,0.0,0.0,0.0,0.0,BFF6BB786D,11160.483281392224,6925.342636687334,529.123084124946,547.0875982333662,738.8544064186704,295.1036086258118,227.27044278862414,201.9753497638631,347.6964498771603,230.29635406266945,15.078674765273142,69.31709824843269,36.77695155070112,12.961263161992022,12.788872826316156,24.744224855972483,3.1691795648295105,6.122058152836793,5.718003613381493,2.0904612855894404,23
720,A8967524C395,Guadalupe, BenÃ­tez,M,1888-11-12,None,elsa1211.ian@gmail.com,5569713363,Form,0.0,0.0,0.0,0.0,0.0,967524C395,4723.6027382500015,9589.033709248939,524.8358870299616,74.2821381096489,295.0888380705959,74.38329018810269,343.4218840440121,39.05994359738925,60.47340979583532,156.82531702232424,20.86393387849044,19.453767822143433,76.73187633363408,33.361472531120484,10.481640232792268,42.08682780900792,11.382976582841447,2.5394810026771477,3.8456577409215873,0.2452107095616274,32
721,403F8C25E817,None,None,M,1995-07-03,None,luisgerardo.hdz@hotmail.com,None,Form,0.0,0.0,0.0,0.0,0.0,3F8C25E817,12224.789128773818,23182.095748132724,1016.5561078439084,124.69095394806503,1189.684152044107,168.04497662843136,681.5838359392052,228.17409702370594,280.0894611536248,421.27543171014946,31.98131079107285,135.3989533880237,90.00705776525797,95.87394403689133,16.50213590937924,81.60132706290246,38.88272666848299,10.307889685364055,5.114087315272179,5.346674179611936,25
726,508A0FFBA4C6,None,None,F,1982-06-29,None,marceloaguilarhdz@gmail.com,None,Form,0.0,0.0,0.0,0.0,0.0,8A0FFBA4C6,12032.592953123376,3684.443563516329,51.718277301633805,608.1310259574166,459.61200230566817,404.7980487408029,190.76413499550569,321.9697395895892,320.1168934215234,134.8411769011044,26.247320868774587,41.103966889260086,43.773030578480956,48.82755009502997,19.481076538514785,25.657082350139948,18.630423829734674,4.59991728292633,4.314437649844457,0.37737806434853177,38
734,D016B47B69D4,Guadalupe,Leyva,F,1978-12-11,None,anayeli.1011@gmail.com,None,Facebook,1128639260806401.0,0.0,0.0,0.0,0.0,16B47B69D4,5890.837702553765,13186.572839691753,171.68774064522597,63.73006110502578,724.3586808028866,617.5545137282363,74.18975181770914,85.94507462473278,12.277228742716826,261.09890831394085,85.31522670027684,110.05041714684019,54.95712350375163,57.78813189604216,69.71907615438953,3.314367827629358,25.12716733392913,5.497452605090109,3.5530329471618676,0.42550185889845016,42
741,C08C71D4F5A1,بابلو انطونيو,ألفارادو هيرنانديز,M,1994-11-10,Ciudad de México,pablo.alvarado.94@hotmail.com,None,Facebook,1099261527111645.0,0.0,0.0,0.0,0.0,8C71D4F5A1,22303.2026789965,4005.0279122440984,1087.8917325996842,558.2286171675333,885.7233087955234,364.6021159142261,214.6660840165911,115.50000085516814,143.07730674860878,132.19189542207323,82.49086195277485,60.38069909953878,88.6785084208561,47.96226546239656,50.84510065419906,13.94376356009195,9.056840711353354,3.9946514862630043,4.581644126094837,3.954011766427757,26
744,A8515BA400D7,Luis,Hernandez Lsa,None,1989-01-12,None,onetsanchez@gmail.com,None,Facebook,2253542058295761.0,0.0,0.0,0.0,0.0,515BA400D7,3388.0622437064217,7034.077609775835,5.793914930336539,380.2442602502058,109.90260119097069,146.91050042014055,233.97408353401266,1.0097002499743326,71.0554958264518,100.35589275574642,49.84953416310875,4.6308563879198115,73.56742270789067,29.237363951727215,44.828652046999366,43.3334478536369,21.89673101562598,2.8110121379783943,2.6597894446254955,1.7988876503889062,32
750,B8C3853B09BB,Jose,Espejo,M,1971-04-07,None,josenatividad451jneg@gmail.com,None,Facebook,502271673681529.0,0.0,0.0,0.0,0.0,C3853B09BB,10455.103934746658,189.49112443056802,130.4413092576552,161.2262110820154,432.52638582654555,17.83942522557919,274.6055420490762,26.32872841242329,195.5700328083425,44.54209074201744,88.38537044678277,51.81223680273866,2.956058202724676,24.217130276453677,14.577469292752516,28.743489262948614,25.489983018657878,2.8875337481893584,2.48066114890538,0.7752832189680318,50
759,889E33E14A9A,None,None,M,1975-01-15,None,parrapilarparra@gmail.com,None,Form,0.0,0.0,0.0,0.0,0.0,9E33E14A9A,5843.97898830285,2916.3737405526504,131.7474449421849,213.60273425521544,87.12873200691016,157.29858670638396,123.65029981924552,117.7561491441043,119.5286696626885,38.79644160058721,81.5502819430802,25.500284623608103,43.02696815675461,14.442904448135243,22.437283521243298,12.333039860932281,2.647561690416346,2.5613361956510206,2.098818017581536,0.5397345497780108,46
765,E048D3590CDD,Ernesto,Lopez,M,1966-06-30,None,0,None,Facebook,114989033564057.0,0.0,0.0,0.0,0.0,48D3590CDD,175.17020566067302,288.65382932076574,19.355551238213337,34.59926864995707,28.45484206977252,31.28802218033454,27.74708410689723,7.666459332464006,11.370591616081715,9.567560736355583,1.8758832125130591,3.350807925975971,1.9322437792136296,0.5885325217827387,3.529588571717581,2.441394638272233,2.0451469602830814,0.08990060906775948,0.2659028796901307,0.007183989968979403,54
772,403F8C615E45,None,None,F,1978-01-12,None,amadolores260@gmail.com,None,Form,0.0,0.0,0.0,0.0,0.0,3F8C615E45,221.28096466075186,530.3135143214465,50.967100805898156,33.8088750321075,27.342082535806114,45.66122418291853,14.43748014647464,18.029266191979513,16.634988660893015,20.58271026440412,18.270576459269723,5.775958883501739,10.95208024289298,6.881628489279542,3.830031250205631,1.566997400073019,2.9112779593102145,0.41384226971295174,0.2895064159613024,0.04989382711270492,43
776,601D91776D6F,None,None,M,1965-05-25,None,zamoram@sanborns.com.mx,None,Form,0.0,0.0,0.0,0.0,0.0,1D91776D6F,721.1439408757135,1371.4393878674625,124.3723728807939,140.56920917928394,87.93261824431968,100.47350054741561,43.92992077842611,63.55185434312678,37.987065806163905,47.27847481110403,4.952997314543011,24.950406993488013,9.453992550877425,14.21522735435023,12.52239596065202,3.591665757951223,0.6673660002621365,0.3031649645319914,0.6465870586906727,0.017850710842052274,56
778,4455C4C2DACF,Ricky Luiss,Rokanlover,M,1992-06-15,Ciudad de México,pyro80@live.com.mx,None,Facebook,2949996581752983.0,0.0,0.0,0.0,0.0,55C4C2DACF,1273.1799858714314,7054.5254861396015,71.82790161555116,183.60754905275886,369.4624129695589,282.81354919795587,127.00561597854805,139.3558229694082,34.83824821234797,143.1616411867668,109.63278322557711,61.01768340082427,52.11792415413706,34.35066952053953,31.23354895931398,31.113284996700365,22.52635583728135,2.035290222797615,2.93032149684857,1.263924992054278,28
785,304596DC2D27,Danni,Rosas,None,1990-02-24,"Mexico City, Mexico",zann_soad_24@hotmail.com,None,Facebook,2436079133069411.0,0.0,0.0,0.0,0.0,4596DC2D27,429.0536815334867,84.21678450219083,6.063853657385648,6.474462113743364,21.74041586635251,16.137744370168022,2.8079029649553218,10.986669055196954,1.0865963942101156,6.206873723297347,2.9733330096272246,5.633106326322792,0.005947771019443484,1.350158775074572,4.244525492990973,1.322937488497031,1.2050081203387804,0.08629581857109285,0.23536364085329647,0.16833937571807384,31
792,703A512EA44B,None,None,M,1997-12-31,None,kevinbibrush77@gmail.com,None,Form,0.0,0.0,0.0,0.0,0.0,3A512EA44B,10978.783738321681,2999.286354492681,577.4382447932883,597.1034252472955,637.9238595791372,515.7394989884524,277.5058233634876,111.2145388116254,292.8128657446081,167.76972559202926,52.61636803530271,12.138029526620416,63.51207721132676,54.23982507449272,52.46006522792733,12.767783465062884,19.156484969973633,3.5970483547114447,3.3897395139010538,2.5445036863921087,23
794,90735A0A9089,None,None,M,2006-01-11,None,valevale191@hotmail.com,None,Form,0.0,0.0,0.0,0.0,0.0,735A0A9089,701.7714511637352,3926.5639646957547,316.2440035424569,152.08273304182407,145.60955453683405,137.87820489834638,31.339517567938692,15.171627337197652,16.442076320488976,4.634925534628316,7.976157565364746,15.739771485427779,0.24999181064038545,29.784475642395773,22.41731095769849,7.36583616115003,9.846639543330122,1.7991317465766936,0.9559509308935256,0.12667551731791304,15
799,D05BA83F18F6,None,None,F,1997-12-20,None,veronicabal@hotmail.com,None,Form,0.0,0.0,0.0,0.0,0.0,5BA83F18F6,1002.8397135081419,5371.854470584681,296.438616155632,120.80268579205405,351.2707444259251,261.24449495215015,141.62183112046316,92.09377039785898,2.9200104533402342,53.28478024531736,45.98334445887934,24.81010689457822,22.158726047720798,15.469999384865249,5.632223637760414,18.86027988069277,4.242113725064198,1.519140713252405,1.653444657489426,0.29950296413332034,23
800,2039567D35AF,None,None,None,1974-03-03,None,plu_25@hotmail.com,None,Form,0.0,0.0,0.0,0.0,0.0,39567D35AF,18787.963555617593,10188.252843640206,1267.4764846862843,568.3879003137503,804.4197646721344,694.8106926449194,293.6357843438858,25.373890405236963,404.3379851058943,347.0514429500391,327.1482648536764,135.8206466557511,181.438489958199,85.97442117785694,115.90477836698837,13.956635343057593,57.65973902296244,3.290063342596738,7.039484599275794,0.05713229968286366,47
811,48C7968283D5,None,None,M,1985-12-24,None,theshocco@hotmail.com,None,Form,0.0,0.0,0.0,0.0,0.0,C7968283D5,22126.987286570107,754.7228967919676,1154.5761401196753,453.46525370908887,85.52984008817248,721.4193535728909,605.2693246676612,30.894530345741025,441.03111324524,333.8759074324891,285.97925683815964,53.14139945560899,123.89991166189203,119.3161245785673,59.826841319107366,49.760462334119325,5.3122985031952314,0.2370706365958131,4.8868962929197,1.8680918368034638,35
812,304B07B5FCA7,Tonatiuh,Rios,M,1997-04-16,"Mexico City, Mexico",skyline16tr@live.com,None,Facebook,953661678134411.0,0.0,0.0,0.0,0.0,4B07B5FCA7,24084.049403898163,2845.4365432446666,994.0254606689857,804.5950089053872,300.3314901502365,345.3349276001794,252.35796617877276,339.7598808175688,438.4473710219644,289.1999930890056,184.04888346170276,174.83444657429416,187.81765978752557,40.47956843896863,59.637853566226575,69.6802904563548,15.89841968931159,3.810351425216541,2.533956449899009,0.7205245755705246,24
818,7C38AD32D019,Ernesto,Ocampos,M,1994-05-10,None,rantty1999@gmail.com,5581489338,Form,0.0,0.0,0.0,0.0,0.0,38AD32D019,17012.736175794354,4951.146945660512,1025.1194518060925,1150.1991039118302,339.774890368258,395.00458224740277,187.66162450260583,240.30074466834068,401.894825700562,300.4668561810914,28.555146059157156,111.47845408391767,15.692181738204122,105.66174360641683,93.96746458753181,22.119386120588693,2.5911009612003713,3.904600663996711,2.5659772180983507,1.1587441198298314,27
831,647033C3C184,None,None,M,1988-01-25,None,redjose89@gmail.com,None,Form,0.0,0.0,0.0,0.0,0.0,7033C3C184,27109.419326160943,2999.866517901355,337.99756446265275,586.9518238500032,140.07690687739495,133.726985472269,18.77670523643226,73.42961451909227,285.0994074696426,415.96298260347834,64.740912233658,202.56301798518567,140.47332149673787,111.17481128446848,33.69635914801847,5.986198125249118,21.767545068638523,1.5180915482170947,6.915850379183746,2.856058177390691,33
834,201811261CB1,Calixto,Hernández,M,1977-10-14,None,0,None,Facebook,146925806954430.0,0.0,0.0,0.0,0.0,1811261CB1,3805.2679902786995,2596.204378287105,368.84490288910695,245.92178697873274,165.5858249977759,33.65499820971621,168.72231542713973,119.50720939044241,127.57755349742834,119.50487503951581,46.37421255225125,29.718182386234137,24.169437048905387,0.7486818705894817,6.329621162471955,24.146764428347712,6.340873167352287,0.6227163345071421,0.8509655905481226,0.9067104631311216,43
835,90633BCB02C9,None,None,M,1985-12-24,None,pikkiperechocho@gmail.com,None,Form,0.0,0.0,0.0,0.0,0.0,633BCB02C9,7409.79666220942,13317.154274477143,1134.5314832834504,496.62528079676486,574.0504058376006,616.6818312501802,476.78220077305775,233.4254455485768,216.93848697857698,51.16841125850091,114.640675935229,116.01761157957783,30.808785594201883,4.798911059808253,13.63661973807005,6.6246054183860705,33.02177845812092,5.243038273106032,3.3278600105130494,0.7256315197134483,35
837,304B0748995E,None,None,F,2006-01-25,None,fariasavilamariaclara@gmail.com,None,Form,0.0,0.0,0.0,0.0,0.0,4B0748995E,22146.04424364224,4059.3303591253443,359.2511969720862,938.5659270186183,44.83099898604127,164.41977592005628,161.11434117795568,67.77917883129047,510.18158493448084,174.00279149325317,339.49492854943423,134.9690599307768,42.35848350875472,32.12154200755429,9.386624834611021,64.34925835082628,47.22285998448528,5.082750763489085,3.7478880875300367,4.746205881167138,15
839,2446C8732EB8,Mar,Draco,F,1997-01-03,Ciudad de México,jessiestrella09_@hotmail.com,None,Facebook,2541956082536658.0,0.0,0.0,0.0,0.0,46C8732EB8,11724.459281518348,11368.74012921109,598.5751073759583,994.0107971274044,584.7941262084446,423.3510718519406,309.9490927996535,217.850208510801,44.17644116835559,105.35417466961039,246.98379511069416,146.12145059691173,8.50219695185429,105.58499593513251,9.003687321257697,12.803229075414007,16.772138763392768,5.23280770977924,6.306800747059087,2.4284673468977496,24
840,5C51884FE369,None,None,M,2006-12-31,None,maldonadohugo149@gmail.com,None,Form,0.0,0.0,0.0,0.0,0.0,51884FE369,1764.6803819026036,3893.547682079795,10.581690422848778,264.94901771561024,97.81899206201535,67.63346259021658,99.47414247068092,29.217656992000403,70.32781065082784,73.42634216506703,91.50061447638117,39.49689741576036,19.83209644207865,35.78680841027668,7.844029025711948,0.9902966201828297,8.144229195718628,1.1405108301955984,2.022658414562513,0.5846801174664462,14
847,A407B6E12354,Mirian,Palomino,F,1984-12-02,Azcapotzalco,yakam_382@hotmail.com,None,Facebook,1.0219014607507744e+16,0.0,0.0,0.0,0.0,07B6E12354,14244.406840306629,13875.509603501856,1269.6921511001258,434.0989621917081,247.6827800973359,723.2129320456594,206.71912012111002,492.98239580729853,22.4025959432363,283.23343097520683,191.122746494775,128.3863229939298,0.2874319211058413,42.244512221091334,6.537887113358499,19.917210368756102,54.29668978000695,1.0344319157154738,5.001765261507714,1.2301898395882982,36
854,844167BC79AE,None,None,M,1999-01-25,None,darvader_200@hotmail.com,None,Form,0.0,0.0,0.0,0.0,0.0,4167BC79AE,12197.612020498247,5834.221785086322,905.492771843581,617.9116263373693,832.8697262750313,44.24898604356533,416.036662772776,111.73392591898684,223.00564261112692,26.39352753048461,44.73890041844473,132.45677201760438,48.981138089831994,43.267754089262645,63.903709749792654,3.208920003901739,31.029112226142292,3.1821921570268668,5.669905247151382,2.0349210833439124,22
855,4C910C0B2558,None,None,M,1989-09-15,None,cesram8905@gmail.com,None,Form,0.0,0.0,0.0,0.0,0.0,910C0B2558,4816.050940058488,14613.60962413446,1187.2089964180645,824.1949615427129,175.798600215669,449.9185773347917,167.3852459921641,316.03594408859595,319.913991956332,172.82893655941987,147.03244708524585,139.62966000997255,144.84154508475424,67.93142620330308,30.472877204947864,41.56608876250452,31.874533923776934,0.13028463714978403,0.7810760356595923,1.7942427519930415,31
860,B853AC530ED0,Wendy,Torres Espinoza,F,1996-05-19,None,wendy_9919@hotmail.com,None,Facebook,2816018975147231.0,0.0,0.0,0.0,0.0,53AC530ED0,305.9241307637501,1083.1478498057822,9.039248445638856,51.62236726220911,97.23838748469159,26.03692584015078,51.00223392550009,46.9653805093984,16.303420329880858,14.857855170774283,3.6903815898899377,12.86518266424253,5.459641944817823,10.608391169110126,1.8584253031080762,5.43137361799071,3.9681386817021855,0.6188898071661725,0.33029421313291213,0.031481471064474624,25
861,304B07B573F4,Leo,Hernandez,M,1990-09-15,None,chivasguapo90@gmail.com,None,Facebook,899643443822180.0,0.0,0.0,0.0,0.0,4B07B573F4,9024.99219075099,12724.70997549957,815.3220378607793,810.6437385403993,579.3998345174489,471.11703065318915,407.4612132676438,268.3160431590465,241.71343611281634,95.20331694828583,39.93495168623483,164.33455781904328,26.471685561520417,27.817785240601886,103.14953278160655,75.09551562587185,24.41370125436395,6.287229701392203,3.441236839993964,2.174986179192724,30
870,90324B1DFF97,None,None,F,2006-01-25,None,aguirrevalks@gmail.com,None,Form,0.0,0.0,0.0,0.0,0.0,324B1DFF97,16442.878458408868,9875.240411175408,922.715716524632,925.5167115901423,22.22905228262396,874.1229860598784,164.15629234353756,427.1840807134719,209.62479165594416,292.17288084998836,31.278184562299298,146.15986856130598,113.70664870965948,3.0029999808090215,97.76246302577158,15.00792846315042,50.85888236443036,4.04343885564187,0.8584516283158068,3.479752244129913,15
873,804A14904E98,Chaps,Hernandez,None,1990-07-04,Ciudad de México,jafet_guapisimo@hotmail.com,None,Facebook,2613815202000411.0,0.0,0.0,0.0,0.0,4A14904E98,16994.78960982946,8891.45397851882,1188.6480085244725,1019.7715007331107,320.97472518619816,750.7061443048824,612.9515513786941,390.47026660773855,88.60021205609786,229.34486520500013,243.9550909308663,117.21943291157196,11.448443956387683,44.96348654517752,35.103318310886024,96.1475348345602,29.91292526163928,7.478113762759505,4.538309922558647,1.5224812191090065,30
882,285AEBB2F322,None,None,M,1970-06-20,None,valverdeperezvicente@hotmail.com,None,Form,0.0,0.0,0.0,0.0,0.0,5AEBB2F322,17964.233388488,8758.985279082966,1221.4896977489145,21.254137813534744,292.1560778548499,830.9945876894097,472.285030626996,286.1363180175213,231.46539931727546,84.9592704984702,279.67934724213694,117.04253673278745,120.89240307666326,26.525580048006038,24.488803613888674,14.529323128027041,39.77282910598957,6.074630734334877,0.5333905515028153,1.501968628722544,50
892,C0A600C8D953,None,None,M,1983-07-27,None,alejandrowuau2707@gmail.com,None,Form,0.0,0.0,0.0,0.0,0.0,A600C8D953,21618.77944695519,3649.235840205802,1197.8310435111046,1065.962254069525,989.3989065625876,863.0104505933774,330.68309977468317,56.470346700168605,95.22872804179119,90.87767417883572,338.28797909848083,164.57382858950598,13.565041964152455,27.36278964045873,113.2267135055816,77.53610502781999,29.46304117634822,4.9568130047562375,2.38314595183007,1.166751448010208,37
908,BCFED93BD806,None,None,F,2001-09-14,None,layevskareyes54@gmail.com,None,Form,0.0,0.0,0.0,0.0,0.0,FED93BD806,1099.3677972909359,4411.3225862774225,286.7737939937227,343.87223180675,81.78806831481603,9.745304538679159,0.658632083162551,2.110924145751298,67.37642721772289,31.046849559201384,88.64627635666764,1.9624137444505387,23.623570285608952,19.59502977064041,15.578794243427973,27.320179331416536,3.4153830501742455,1.7689687014082858,0.8087285120691508,1.2180407759700584,19
909,745909BF46A7,Arlette,P,F,1997-07-02,"Mexico City, Mexico",tecktonik_n@hotmail.com,None,Facebook,2247554285312163.0,0.0,0.0,0.0,0.0,5909BF46A7,13899.187188802824,12656.243161937171,98.84271195082408,1044.5390616533343,774.4439836825564,305.4460197768018,92.08698412829443,132.32871764626955,471.3526371348663,170.18316803899594,76.17234074597208,2.2596819041734753,158.89989577211807,23.12079985158726,72.37742499708968,34.663375256484635,11.49055300841764,3.1297315576800466,1.1389292758801681,2.0936328786619476,23
925,BC98DF048276,None,None,M,1982-05-20,None,barbypiolina69@gmail.com,None,Form,0.0,0.0,0.0,0.0,0.0,98DF048276,752.7741312506288,770.5053319362056,95.76479109583522,30.508392975586933,13.876785320868647,71.53427685836648,47.216226496495885,13.31096143763877,8.608394395019689,14.375061212684194,3.2041825341136123,18.08447269261256,13.570251179793871,12.365520471710363,4.952215126302148,8.41410533429267,5.528901241969242,0.6483442247838851,0.4048051637298988,0.35284905136134376,39
926,58D9C3B995AE,Xöch,Rodriguez,F,1996-04-05,Guadalajara (México),love_thara@hotmail.com,None,Facebook,1418330088335807.0,0.0,0.0,0.0,0.0,D9C3B995AE,7886.003109949065,15336.868923758297,227.64460235943633,698.9345024705649,529.7376121590605,28.293409398804332,202.33130557778443,350.1675889490719,190.0922428415606,298.2484648373164,5.31957733387909,155.7864856554724,64.38106686097233,94.48037941883405,53.8079651553861,6.651146296988127,44.78439132618929,4.815626941618617,4.815031432825878,1.8365672768672465,25
927,FC8743CC9CE6,Fabian,Ruiz Flores,M,1984-01-20,Naucalpan de Juárez,fchavez.fc790@gmail.com,None,Facebook,2526663440934353.0,0.0,0.0,0.0,0.0,8743CC9CE6,16897.6124767519,8220.577457974166,1107.4607709690397,86.41159700758072,845.5713540830593,351.71617212811407,220.83097150659654,279.2544654902967,285.49994205084136,292.3483289820678,299.7478233273104,126.34462703224823,39.45583403072971,47.64675259923135,14.747116705234937,35.651239019007726,35.0099495716414,4.554181935377084,1.5623086957305599,0.9966301398205053,37
936,B44BD2B73DD7,None,None,M,1974-09-15,None,mariaelenacun@gmail.com,None,Form,0.0,0.0,0.0,0.0,0.0,4BD2B73DD7,1821.9508644768148,1197.5537950111113,105.24469556345022,42.19849919456544,106.61332802006861,118.84908689291863,0.6596676526492147,54.95347938554677,37.59094987874139,0.011717085841104171,17.66812409034498,0.8083199307271435,27.363209957959345,21.595107130660963,14.386966578276374,8.190376011883057,3.9088212764497627,1.2380356325777762,1.1654768283000596,0.0494794011123161,46
937,AC075F6A48CB,None,None,M,1985-12-21,None,alejhandro90@gmail.com,None,Form,0.0,0.0,0.0,0.0,0.0,075F6A48CB,4644.914560784725,8176.896681626525,829.0145966085674,195.89367071680888,136.11554399770165,174.0525655837055,18.54706213321591,278.91461106672455,196.64359086288323,110.97049253102398,13.484250500152143,41.20892410957814,92.21363379888403,70.97642847690013,20.51449454784473,47.37103977870521,23.203466147417757,2.8613866879058243,2.8370118444368306,1.3659881962951925,35
938,B41C3065E8E2,None,None,M,2005-10-10,None,siete@gmail.com,None,Form,0.0,0.0,0.0,0.0,0.0,1C3065E8E2,447.8389178208213,129.07806205935364,69.85433178959028,40.4598253209406,30.42175024633975,11.892440205826428,15.532933056510952,4.827777315950939,11.44246329018002,16.307616086277097,0.6778855529377493,2.319296479833118,8.95717918212421,1.8937722019547212,3.4113185680342184,0.23345413569901668,2.2543842495101725,0.4171227144147018,0.10044308899029032,0.07902663471069188,15
941,3CCD5DB06F85,Chio,Rosales,F,1978-01-12,Ciudad de México,rociorl.12@hotmail.com,None,Facebook,3039649199412418.0,0.0,0.0,0.0,0.0,CD5DB06F85,16128.742626685049,7942.830170913773,200.6966364631199,620.457268670182,271.2342011203217,558.4226086216864,110.33922604373934,211.6471651178724,214.5959705618376,293.93415308211036,118.44009363613252,61.04905633690165,131.9410415969655,46.09445666843513,85.80513361177306,53.25729775167055,17.773658525756765,1.1481323343557797,3.43791980626401,2.1531824520508733,43
948,FCA62178D3A5,Maricruz,Pérez Montero,F,1976-05-03,Estado de México,cachorrosexy@yahoo.com.mx,None,Facebook,3111719062386461.0,0.0,0.0,0.0,0.0,A62178D3A5,4428.86851406796,9308.860827004151,372.79127670922463,529.349102816451,520.2560649117894,235.83996899135732,132.61507824081323,67.33986940594355,292.0600433248062,109.56894035427223,52.67022704199744,7.811596456360372,55.996409270133796,6.073229685434013,20.389274359861343,9.556384821159973,10.822619478852125,4.797119788179162,0.38209292638746023,0.9513603448622193,45
957,20F47840F098,Juan Carlos,Mendoza Morales,M,1996-03-01,None,ianmendoza3105@gmail.com,None,Facebook,282681896464530.0,0.0,0.0,0.0,0.0,F47840F098,418.2185415284648,2345.0708041591356,42.908695995254575,131.12122241068826,54.972635211922764,88.63931165126532,83.40684550612221,78.33437780896435,35.57901335463336,8.007803240137592,32.79886735964602,13.88871356630613,26.90788761221856,5.120226451052502,10.460038310653644,10.419073006643046,1.9301581635158314,0.16663706898867267,0.7405652103942106,0.308582383993215,25
958,601466A358F2,Saul,Salinas,M,1977-02-01,"Argüello, Cordoba, Argentina",conduit09@gmail.com,None,Facebook,1364334473757668.0,0.0,0.0,0.0,0.0,1466A358F2,438.36428199314526,425.3167014998524,70.17426819747553,69.59889119456753,6.217528997411463,17.47876570283094,23.44379146738533,22.523779893792774,28.894713780384343,19.53117873291324,24.41775258367487,5.766211455671489,10.075671377990634,5.980172695256538,2.2138829512856377,0.4077523251002371,1.6774655692981155,0.509617955567773,0.26522020674810387,0.14235141964800338,44
970,C49A0295A2AB,None,None,M,2006-01-25,None,vegalourdes14@yahoo.com.mx,None,Form,0.0,0.0,0.0,0.0,0.0,9A0295A2AB,17922.66821101798,581.5399874377199,665.0052369456887,215.88356852532098,616.2359423674677,18.980960890391213,385.32443148484043,253.20687750196362,329.40626568941514,87.48692471683617,151.41964825534458,31.995990773391682,112.72920160689839,59.86341726937049,48.86114821351519,52.33331005921528,3.896356477482298,5.6742285040198155,3.763187979859835,1.7251042832835428,15
987,60F189556FFC,None,None,M,1968-06-18,None,artlpz18@hotmail.com,None,Form,0.0,0.0,0.0,0.0,0.0,F189556FFC,1049.1198330748714,343.80779300542434,125.43788161491452,3.1325911677938834,99.23760736625546,26.06154315678565,41.08182179333163,35.121369891761304,43.778838906587154,25.868620703550967,0.4067420884891009,19.799566851218422,9.655195920929017,5.553244553433149,12.397238787962525,4.527260058618378,1.6545727972110904,0.8381952324285072,0.2724696104526591,0.24761341798099543,52
996,E4A7C5EC7640,None,None,F,2006-01-25,None,sanchez.d.karla.m@gmail.com,None,Form,0.0,0.0,0.0,0.0,0.0,A7C5EC7640,15295.800252478904,3924.139668655487,960.5962653793656,301.68728112821566,178.5565657210572,95.95810309021051,495.220559770414,334.1632936993134,24.371734699003973,179.3513140322137,56.532659212874115,94.32354644981403,80.64221569234658,78.48138792717234,65.63761468266935,49.26670668718596,15.609977617812879,0.4940210956156597,2.3916050915609595,2.7752268887626763,15
1003,4040A79BBC73,Alondra,Luna,F,2002-03-08,None,alondrafrancisco78@gmail.com,None,Facebook,557557011789253.0,0.0,0.0,0.0,0.0,40A79BBC73,5855.97612596607,2733.574854111761,267.1493980461685,496.3633086930299,204.53514701668553,17.033015176683822,50.04288144984168,154.7944593299047,115.69635848533632,139.38003203112743,61.93346147482781,80.30098585660551,67.58803286747533,0.6298308714359175,18.80814580997082,37.122095309549344,22.97473611646042,3.3000751236505077,1.4231042376058822,1.3739520258110514,19
1021,802BF905D7DD,None,None,F,1989-10-16,None,quimicoperativosup@sanborns.com.mx,None,Form,0.0,0.0,0.0,0.0,0.0,2BF905D7DD,2731.6802137442264,5791.221082566615,396.73896911958485,256.32404095946487,107.57076192345629,172.36829576163083,222.083452473219,41.03530927965949,44.624541695055136,30.708432206924353,113.12632893123313,10.21192773735565,56.494485508506216,7.744817855941255,4.471759520879045,11.363373213234325,13.04206239560516,3.202897777252941,1.8915854901948748,0.09566183996223994,31
1028,9427908B213C,Karen,Diaz,F,1997-01-31,Cidade do México,karenivetted@gmail.com,None,Facebook,849824932125330.0,0.0,0.0,0.0,0.0,27908B213C,3040.679614282418,1461.6307261670486,135.65754068716544,153.5662879116085,217.06291089035497,141.8435567818208,40.02980023689918,83.5902524029005,92.24095912652079,55.70212353858369,73.99573037064214,38.174499630984364,9.976012869153665,28.557989938594858,28.164673456198255,10.249512678624422,7.8966817963387115,0.3351245460916059,0.1328101297136436,0.5131925583392285,24
1036,344DF750870D,None,None,M,1996-03-01,None,ianmendoza3105@gmail.com,None,Form,0.0,0.0,0.0,0.0,0.0,4DF750870D,3066.4691025444113,10467.627795696162,891.3250709811102,506.48814864892796,59.84217786527293,107.34608990208785,200.30993893419154,278.3251573684378,111.41030228980246,113.89024621676819,181.0061038657233,51.16130204094189,70.8717734967207,76.58420000608918,42.79061582332948,22.514774460899517,6.17610933764249,3.7872742715180285,1.3176261572944208,0.7561900926667382,25
1055,A8515B9CF6D3,Daniel,Rojas,M,1994-02-16,Ciudad de México,daniel.rojaserre@hotmail.com,None,Facebook,570825597040699.0,0.0,0.0,0.0,0.0,515B9CF6D3,436.7276188298017,594.6488600181392,82.45118175649003,73.31672896021347,61.808615146793166,39.50662690931025,0.7403161086120962,5.554207737056037,0.6966469772309412,13.110511398409614,16.10565221187485,4.922023713525206,2.3778378473387902,5.449385165622644,0.6887712054980053,0.17567704880165014,2.7930550210710474,0.5955073923739831,0.13466403842308225,0.196112513414129,27
1078,40CD7AF42F73,None,None,M,1997-12-31,None,zallyvargas1@gmail.com,None,Form,0.0,0.0,0.0,0.0,0.0,CD7AF42F73,225.95554790905717,875.1203138635207,45.990957497561446,27.146933132924012,2.8879910388916064,16.950715640367612,51.247180749783126,13.518876729409431,25.8883837594065,0.6286776514858056,20.365689643417067,9.681373913693626,11.901140111255243,1.6818947834930114,4.838122865139006,7.378700960477935,1.3069303933716345,0.19817860077975474,0.17156841088871427,0.14082234507692223,23
1088,20EE28D5637D,None,None,F,1996-01-24,None,carmelatf@gmail.com,None,Form,0.0,0.0,0.0,0.0,0.0,EE28D5637D,901.3982705152131,505.6696697958275,50.05477272330514,35.37965484560385,1.4239754651103398,4.426497065617772,50.11326594890309,18.13246311433117,10.154711370986268,17.816096753082192,17.917718498951725,10.111525394749366,15.268396560640484,4.908251485309184,1.8958973425279337,6.344153009061455,0.49606116174114273,0.3775238753795927,0.06453409007269248,0.04656098358668239,25
1095,F0EE10043E5E,None,None,F,2004-12-30,None,barriguad@gmail.com,None,Form,0.0,0.0,0.0,0.0,0.0,EE10043E5E,603.079568332757,2625.3087113670563,174.63126937228915,156.9832604390272,176.23264435639663,113.18431470718818,26.287025955731988,39.66503158647651,75.37391930247726,27.95866086948777,63.379123744771654,22.058140524834446,19.34444801646939,25.444988829846178,13.318535727095416,8.673645695433844,8.163609920473862,1.3336265936077667,0.7515228560457423,0.8279518025330865,16
1099,24FB65D33058,None,None,None,2002-10-10,None,francico@gmail.com,None,Form,0.0,0.0,0.0,0.0,0.0,FB65D33058,1551.3818710475575,1557.628046257324,259.2096327616851,75.65581475666295,118.68887658827221,46.32392463698794,47.76592069598727,85.92319605403775,49.75750868590461,15.038843801306616,13.649650696740716,13.246278731312822,0.3583828047031503,6.130422792950569,1.5728735845542587,2.3204570639995974,3.617153424252145,0.7028128965640175,0.5956226453018967,0.4327100738949109,18
1100,90633BAFFF53,Vero,Velazquez,F,1991-01-15,Ciudad de México,verovelazquez184@gmail.com,None,Facebook,1484643725042820.0,0.0,0.0,0.0,0.0,633BAFFF53,9541.070230973151,1330.4869272334652,410.6619951683602,61.23847874855982,105.81797696055148,332.0181074236871,1.8654498461980709,28.254874719716746,193.25996696488664,136.3956542121933,120.50861956938711,27.482994708512837,61.47800687390845,8.834008259568867,56.584124265927976,41.91158157121174,18.44805169656446,3.5424397389401965,1.6659195423281135,1.4745915228813398,30
1116,4C910C578730,Alvaro,Perez Rodriguez,M,1980-02-19,Ciudad de México,biem_alvaro@hotmail.com,None,Facebook,3025690764109087.0,0.0,0.0,0.0,0.0,910C578730,5893.368055116179,3689.9099351618574,84.74665280769143,240.33248124256883,120.97232136900347,130.1405614814719,128.91016654100164,136.17097389253917,202.57976753409378,152.3766198313422,102.34912596897364,54.704286007592245,18.195421821959503,29.168447727080526,0.6359808849348922,19.612030689392736,16.720311535747115,1.624391357741553,1.936313783533462,0.5461552452969798,41
1122,748D08A3848E,Julio,Garcia Juarez ,M,1996-10-11,None,garciajuarezjulio55@gmail.com,5569406767,Form,0.0,0.0,0.0,0.0,0.0,8D08A3848E,229.18626269679464,3169.1975481737704,24.107641070997648,171.6734752170833,132.40108119243467,57.35303604813658,60.46689596056502,75.39357650653454,90.15771070850919,22.19800553497406,58.51796494954424,10.779579203942625,21.867693995692647,12.415640190656683,15.566917012292286,16.138017866169925,5.0946507991483,0.44604619408966456,0.7760530026705446,0.2622036759923009,24
1153,306A85B4FBE8,None,None,F,2005-11-03,None,naomi.lightwood2@gmail.com,None,Form,0.0,0.0,0.0,0.0,0.0,6A85B4FBE8,824.5992480744494,4694.990440334962,43.35981524706089,125.09642922319215,286.55914383461993,194.5082922239176,144.37417686558302,101.1916076063458,68.07296579548249,105.79403430635136,47.06920288110834,45.381848816175214,50.97935823587585,13.480656035882127,18.45195208429899,0.8985873072985409,2.030338101884055,1.443132540235554,0.9833314280697425,0.735439057206939,15
1154,20F478DBB658,None,None,M,1990-07-26,None,hectormelendez@yahoo.com,None,Form,0.0,0.0,0.0,0.0,0.0,F478DBB658,3071.6087000896064,1573.9286816087695,121.30910911129787,32.65604838578993,67.9913153497191,82.51261390325243,63.078833985050004,11.122845988023762,115.97554709120773,63.691146837376195,4.761285921297428,36.46396882326331,6.139870140304734,1.7237768383185095,26.741886781776035,3.0766552739317206,0.27166854351508835,0.16589651481974976,0.6861723122770637,1.0939765004035482,30
1167,3412F9F5E2A4,Eduardo,Mgc,M,1990-06-23,None,julioarteaga92@gmail.com,None,Facebook,129407595047046.0,0.0,0.0,0.0,0.0,12F9F5E2A4,3718.295997360896,9016.630018176358,292.4455169070733,526.1326590862176,513.962714297541,363.3849973559586,262.4306193666097,75.77453333719956,41.6768495903193,170.18086353034275,172.79685339217755,10.932868505630788,73.71195345353235,61.17163165561817,2.3374032743251902,12.478131828684434,24.39284978046455,4.441554374719272,3.378275780315244,0.443708946017235,30
1168,E0338ECDC12D,Rich,Quiroz,M,1976-06-26,Ciudad López Mateos,rqc26@yahoo.com,None,Facebook,3707767255915702.0,0.0,0.0,0.0,0.0,338ECDC12D,505.06134926011026,5058.927359093165,414.7979184033026,56.56746961794398,72.32615865503477,64.40644552477809,184.62924564452294,136.33535896059487,32.309345879909166,61.77551849127609,47.32701578729684,26.885926955134046,5.476935553622652,31.29523354944229,25.935741018739307,20.374619757368386,12.828548473433873,1.2339760189778661,2.022387968508553,0.48344538683907745,44
1210,30074DBC3E71,Eduardo,Acosta Jaramillo,M,1980-08-01,Estado de México,lalo_trolla@hotmail.com,None,Facebook,2421847727889310.0,0.0,0.0,0.0,0.0,074DBC3E71,88.24255303917919,375.4608235605268,63.84167876712605,39.57463769492512,21.780682129391373,17.80396740877654,28.106176240464475,18.73710453441632,0.9586979809908114,17.086999041181798,11.756556095125413,8.49989772861036,1.1349073977326762,3.32840691050131,5.346645419732611,2.368961763483337,2.1742510094242267,0.3051192000367726,0.3501242498409066,0.14180982853401933,40
1211,B44BD2472F6B,None,None,F,1977-03-23,None,rosendocarmen@yahoo.com,None,Form,0.0,0.0,0.0,0.0,0.0,4BD2472F6B,1094.1539680709382,28.619318462316496,57.33892706618987,94.49898190700517,66.5840051617662,65.12350311292329,17.582243131483057,30.590449196848144,33.752148016494225,20.335857597420134,27.8908059550663,15.764809112938046,5.64685914542665,10.84513772006704,7.168826096582236,6.170903764398033,3.7861196999570286,0.4227698664505409,0.3834850024295949,0.34088191329918843,44
1217,D81C797E18BA,None,None,None,1988-08-18,None,elsasosahuerta@gmail.com,None,Form,0.0,0.0,0.0,0.0,0.0,1C797E18BA,1347.0067935132552,1013.4573880277312,126.02011133586798,12.105219157942162,100.56555677561798,67.2075049624024,50.765902926680305,1.8529331149456199,9.276943024910583,25.664113776379544,33.29586067669528,17.45018105502346,20.7242335965197,10.644256447389143,15.683233861378175,14.239727516416936,4.429919171027017,0.12434929145654083,0.19048401589654831,0.29528775246511585,32
1218,D02B20600691,None,None,None,1980-01-01,None,uno@doscreativos.com,None,Form,0.0,0.0,0.0,0.0,0.0,2B20600691,1815.272846558924,3873.4739348716334,380.22351804140396,184.7086843424303,38.333226566320505,38.176406921106164,170.13174845789578,119.06509826712838,143.9401450007811,12.45941735206206,23.853770970066677,23.149363398027674,4.513241995655932,15.815737660234602,11.563392371074585,28.405473532588704,12.248071356006085,1.6585101220696923,0.7042752217691729,1.3031369928214769,41
1221,48C7969BAC63,None,None,M,1985-04-05,None,guerreroaguila11@gmail.com,None,Form,0.0,0.0,0.0,0.0,0.0,C7969BAC63,955.0521638199659,223.01643971846272,50.6982941241835,97.88821876377718,71.35918038622923,29.8516163193115,28.584625903507405,7.09595297962579,4.6356505054552155,15.558968796772724,3.434770185462962,10.189655260989632,7.843701899032108,10.12975898913901,4.067212096352323,4.079115144972132,1.6112440851140584,0.03455148281445603,0.49179114622594816,0.37708839260686033,36
1224,FCA6216298C8,Luis,Garcia Garcia,M,1998-03-17,None,deivid619@hotmail.es,None,Facebook,2209693715786065.0,0.0,0.0,0.0,0.0,A6216298C8,1740.0375366956011,1030.27730898684,71.05379901071721,27.739372401590032,9.081513854201944,28.836655440054265,43.53025649242376,6.879172674492619,58.04631192520585,45.190596508733854,44.92658392561101,5.328887662866624,21.36786007045504,13.278577512255914,8.086521432190004,8.59822542945003,1.1746885752644523,0.9105130157754648,1.033773298741275,0.6218450875298768,23
1231,D077149F8A05,Arnulfo,Rosas,M,1966-01-08,Ciudad de México,arnulfo.rosash@gmail.com,None,Facebook,1401408786692169.0,0.0,0.0,0.0,0.0,77149F8A05,893.408362275224,672.3954345263063,72.09484978987335,116.08964625732156,102.7629240828658,53.52309650271412,22.583171966058813,38.35544058393351,30.819701794699682,34.89562382493631,19.67437729495451,10.938456206268587,0.2835244280220881,2.5355726992402285,3.2975181476114064,2.4249851433272336,0.6750301875011893,0.1543171165313289,0.6416815976258626,0.4462855749840329,55
1235,D85DE2BA160D,None,None,M,1977-03-15,None,gtzronald@gmail.com,None,Form,0.0,0.0,0.0,0.0,0.0,5DE2BA160D,6127.470588517229,463.59634297364147,172.2922950573598,290.9379995131972,368.3405878022042,13.553893418353676,110.66006955558456,67.40373893739051,81.62933399517902,11.03641390201516,14.133709715157412,9.273388312362146,39.652608334763656,25.398568905066394,40.198149360839835,0.22877268900976358,16.88051938421674,1.2975618151443058,1.9517505498886731,1.0637072613965701,44
1247,3880DF538557,Karen,Avelar,F,1999-05-31,Ciudad de México,cherriesdestination@gmail.com,None,Facebook,3921447084596598.0,0.0,0.0,0.0,0.0,80DF538557,2038.7511283210533,1829.9294093336105,291.5485335231342,30.443371504846354,21.017262792408246,104.67976636876318,2.4499564508510687,30.89069568542031,21.839201124834833,78.17133900652227,32.21994490903021,36.28755886191541,5.803551051046476,6.05070397671462,19.43794648319317,18.300875930432927,9.59997919293301,1.2509409323463012,1.0612613564880276,0.2665731944564717,21
1260,90735A4B05CD,Michell,Martinez,F,1999-03-14,"Mexico City, Mexico",jenmmr03@gmail.com,None,Facebook,926972307694715.0,0.0,0.0,0.0,0.0,735A4B05CD,6133.22690841382,814.0118373754541,151.25753029447134,113.05894764049701,90.59730694895215,48.94059580428904,133.5973923477628,38.06404060001157,35.993085556259636,59.77043553021402,76.60751659651145,3.070432704007112,45.82052569674339,28.494011006409973,21.332175463112645,15.494193300440125,7.131935861554966,0.04646838593721714,0.7150157254938208,0.769644748057645,22
1307,3C2EFFD47518,Yongru,Wu,F,1982-01-15,None,wuyongru123@gmail.com,None,Facebook,596282890907293.0,0.0,0.0,0.0,0.0,2EFFD47518,135.10348358021824,1188.4699395482692,116.10199463048853,113.37842099684782,64.53262905735987,76.97793053244624,64.45194955832335,25.315940021003684,44.26122808022428,29.25144454346979,12.376184914223852,16.5094263503955,9.217515447563692,3.6536814448763657,3.6390446496939615,0.7132744453294002,5.452464003940842,0.04101039616903113,0.4786590865329433,0.07377871262313392,39
1322,48C7969AFD39,None,None,M,2006-01-25,None,sanlop42tonny@gmail.com,None,Form,0.0,0.0,0.0,0.0,0.0,C7969AFD39,593.7760249467121,804.4845529387171,133.94603762268798,49.724069399789215,33.71051571625868,52.398878828009266,30.541088111704408,38.60414688639928,28.052670600928106,29.35836583682234,2.0315219635964703,1.8489037415127318,1.8426398479430588,7.305403690145705,9.753010884466052,3.369180739628874,0.8936009228546871,0.17451236676193796,0.11427776457889598,0.07059719048345219,15
1330,C08C71FBB4D6,Dweencx,CG,F,1999-02-04,Estado de México,wen-rosa@hotmail.com,None,Facebook,2547066292217666.0,0.0,0.0,0.0,0.0,8C71FBB4D6,54.159417189070275,618.776970627816,45.66447295137706,58.34357605758703,16.439981293979464,35.876920810685974,33.78375263242681,4.20304781552128,22.34822849955247,15.33549070796087,12.684439727078944,7.454340780859299,1.929964194895218,6.648980385544766,3.521440020478062,3.2864897768628842,0.13233062708186835,0.07792888620301522,0.16141042552564425,0.17081658949327616,22
1341,20DA228B8D09,Adriana,Castellanos,F,1978-03-05,"Mexico City, Mexico",rosuco23@msn.com,None,Facebook,1.0219106732562992e+16,0.0,0.0,0.0,0.0,DA228B8D09,153.65156002419084,259.87917672335493,32.598701391768685,35.147789397923944,16.45769366462113,28.097687351201145,14.621017026131735,21.084075624765656,19.127064890771923,15.392165858294803,15.214547904360153,3.8156050996454614,4.853839290215487,3.484131792825312,2.3832865360792503,4.535375588705301,0.9483384493446001,0.23862518999008692,0.30764553713722964,0.16167265867231845,43
